<?xml version="1.0" encoding="UTF-8" standalone="no"?>
<svg
   xmlns:dc="http://purl.org/dc/elements/1.1/"
   xmlns:cc="http://creativecommons.org/ns#"
   xmlns:rdf="http://www.w3.org/1999/02/22-rdf-syntax-ns#"
   xmlns:svg="http://www.w3.org/2000/svg"
   xmlns="http://www.w3.org/2000/svg"
   xmlns:xlink="http://www.w3.org/1999/xlink"
   xmlns:sodipodi="http://sodipodi.sourceforge.net/DTD/sodipodi-0.dtd"
   xmlns:inkscape="http://www.inkscape.org/namespaces/inkscape"
   sodipodi:docname="E34P02.svg"
   height="3503"
   width="2481"
   inkscape:version="1.0.2 (1.0.2+r75+1)"
   version="1.1"
   id="svg2">
  <metadata
     id="metadata8">
    <rdf:RDF>
      <cc:Work
         rdf:about="">
        <dc:format>image/svg+xml</dc:format>
        <dc:type
           rdf:resource="http://purl.org/dc/dcmitype/StillImage" />
        <dc:title />
      </cc:Work>
    </rdf:RDF>
  </metadata>
  <defs
     id="defs6">
    <inkscape:path-effect
       id="path-effect1045"
       effect="bend_path" />
    <inkscape:path-effect
       id="path-effect1076"
       effect="bend_path" />
    <filter
       inkscape:label="soundFX1"
       id="filter4375-4-1-1-1-9-5-8-8-5-5"
       style="color-interpolation-filters:sRGB">
      <feFlood
         result="flood"
         flood-color="rgb(52,52,52)"
         flood-opacity="1"
         id="feFlood4377-7-9-0-8-1-7-3-1-2-7" />
      <feComposite
         baseFrequency="0.053999999999999999 0.053999999999999999"
         result="composite1"
         operator="in"
         in="flood"
         in2="SourceGraphic"
         id="feComposite4379-3-8-8-2-77-4-1-0-6-4" />
      <feMorphology
         result="result3"
         radius="6.2000000000000002"
         operator="dilate"
         id="feMorphology4393-1-0-49-8-9-3-0-1-9-9" />
      <feComposite
         result="fbSourceGraphic"
         operator="over"
         in="SourceGraphic"
         in2="result3"
         id="feComposite4385-9-5-7-0-8-8-7-5-4-9" />
      <feColorMatrix
         id="feColorMatrix4544-9-4-4"
         values="0 0 0 -1 0 0 0 0 -1 0 0 0 0 -1 0 0 0 0 1 0"
         in="fbSourceGraphic"
         result="fbSourceGraphicAlpha" />
      <feTurbulence
         result="turbulence"
         baseFrequency="0.053999999999999999 0.054054054054054057"
         seed="174"
         numOctaves="5"
         type="fractalNoise"
         id="feTurbulence4546-3-6-5" />
      <feDisplacementMap
         result="fbSourceGraphic"
         xChannelSelector="R"
         yChannelSelector="G"
         scale="6.6"
         in="fbSourceGraphic"
         in2="turbulence"
         id="feDisplacementMap4548-8-0-9" />
      <feColorMatrix
         id="feColorMatrix4670-7-7-3"
         values="0 0 0 -1 0 0 0 0 -1 0 0 0 0 -1 0 0 0 0 1 0"
         in="fbSourceGraphic"
         result="fbSourceGraphicAlpha" />
      <feFlood
         in="fbSourceGraphic"
         result="flood"
         flood-color="rgb(28,28,28)"
         flood-opacity="1"
         id="feFlood4672-4-4-5" />
      <feComposite
         result="composite1"
         operator="in"
         in="flood"
         in2="fbSourceGraphic"
         id="feComposite4674-8-3-7" />
      <feGaussianBlur
         result="blur"
         stdDeviation="0"
         in="composite1"
         id="feGaussianBlur4676-3-7-08" />
      <feOffset
         result="offset"
         dy="6"
         dx="-1.7978952891791096"
         id="feOffset4678-6-9-1" />
      <feComposite
         result="composite2"
         operator="over"
         in="fbSourceGraphic"
         in2="offset"
         id="feComposite4680-4-0-9" />
    </filter>
    <filter
       inkscape:label="soundFX1"
       id="filter4375-4-1-1-1-9-5-8-8-5-5-3"
       style="color-interpolation-filters:sRGB">
      <feFlood
         result="flood"
         flood-color="rgb(52,52,52)"
         flood-opacity="1"
         id="feFlood4377-7-9-0-8-1-7-3-1-2-7-6" />
      <feComposite
         baseFrequency="0.053999999999999999 0.053999999999999999"
         result="composite1"
         operator="in"
         in="flood"
         in2="SourceGraphic"
         id="feComposite4379-3-8-8-2-77-4-1-0-6-4-7" />
      <feMorphology
         result="result3"
         radius="6.2000000000000002"
         operator="dilate"
         id="feMorphology4393-1-0-49-8-9-3-0-1-9-9-5" />
      <feComposite
         result="fbSourceGraphic"
         operator="over"
         in="SourceGraphic"
         in2="result3"
         id="feComposite4385-9-5-7-0-8-8-7-5-4-9-3" />
      <feColorMatrix
         id="feColorMatrix4544-9-4-4-5"
         values="0 0 0 -1 0 0 0 0 -1 0 0 0 0 -1 0 0 0 0 1 0"
         in="fbSourceGraphic"
         result="fbSourceGraphicAlpha" />
      <feTurbulence
         result="turbulence"
         baseFrequency="0.053999999999999999 0.054054054054054057"
         seed="174"
         numOctaves="5"
         type="fractalNoise"
         id="feTurbulence4546-3-6-5-6" />
      <feDisplacementMap
         result="fbSourceGraphic"
         xChannelSelector="R"
         yChannelSelector="G"
         scale="6.6"
         in="fbSourceGraphic"
         in2="turbulence"
         id="feDisplacementMap4548-8-0-9-2" />
      <feColorMatrix
         id="feColorMatrix4670-7-7-3-9"
         values="0 0 0 -1 0 0 0 0 -1 0 0 0 0 -1 0 0 0 0 1 0"
         in="fbSourceGraphic"
         result="fbSourceGraphicAlpha" />
      <feFlood
         in="fbSourceGraphic"
         result="flood"
         flood-color="rgb(28,28,28)"
         flood-opacity="1"
         id="feFlood4672-4-4-5-1" />
      <feComposite
         result="composite1"
         operator="in"
         in="flood"
         in2="fbSourceGraphic"
         id="feComposite4674-8-3-7-2" />
      <feGaussianBlur
         result="blur"
         stdDeviation="0"
         in="composite1"
         id="feGaussianBlur4676-3-7-08-7" />
      <feOffset
         result="offset"
         dy="6"
         dx="6"
         id="feOffset4678-6-9-1-0" />
      <feComposite
         result="composite2"
         operator="over"
         in="fbSourceGraphic"
         in2="offset"
         id="feComposite4680-4-0-9-9" />
    </filter>
    <filter
       inkscape:label="soundFX1"
       id="filter4375-4-1-1-1-9-5-8-8-5-5-3-3"
       style="color-interpolation-filters:sRGB">
      <feFlood
         result="flood"
         flood-color="rgb(52,52,52)"
         flood-opacity="1"
         id="feFlood4377-7-9-0-8-1-7-3-1-2-7-6-6" />
      <feComposite
         baseFrequency="0.053999999999999999 0.053999999999999999"
         result="composite1"
         operator="in"
         in="flood"
         in2="SourceGraphic"
         id="feComposite4379-3-8-8-2-77-4-1-0-6-4-7-7" />
      <feMorphology
         result="result3"
         radius="4.0330969769021738"
         operator="dilate"
         id="feMorphology4393-1-0-49-8-9-3-0-1-9-9-5-5" />
      <feComposite
         result="fbSourceGraphic"
         operator="over"
         in="SourceGraphic"
         in2="result3"
         id="feComposite4385-9-5-7-0-8-8-7-5-4-9-3-3" />
      <feColorMatrix
         id="feColorMatrix4544-9-4-4-5-5"
         values="0 0 0 -1 0 0 0 0 -1 0 0 0 0 -1 0 0 0 0 1 0"
         in="fbSourceGraphic"
         result="fbSourceGraphicAlpha" />
      <feTurbulence
         result="turbulence"
         baseFrequency="0.053999999999999999 0.054054054054054057"
         seed="147"
         numOctaves="4"
         type="fractalNoise"
         id="feTurbulence4546-3-6-5-6-6" />
      <feDisplacementMap
         result="fbSourceGraphic"
         xChannelSelector="R"
         yChannelSelector="G"
         scale="10.561763084739264"
         in="fbSourceGraphic"
         in2="turbulence"
         id="feDisplacementMap4548-8-0-9-2-2" />
      <feColorMatrix
         id="feColorMatrix4670-7-7-3-9-9"
         values="0 0 0 -1 0 0 0 0 -1 0 0 0 0 -1 0 0 0 0 1 0"
         in="fbSourceGraphic"
         result="fbSourceGraphicAlpha" />
      <feFlood
         in="fbSourceGraphic"
         result="flood"
         flood-color="rgb(28,28,28)"
         flood-opacity="1"
         id="feFlood4672-4-4-5-1-1" />
      <feComposite
         result="composite1"
         operator="in"
         in="flood"
         in2="fbSourceGraphic"
         id="feComposite4674-8-3-7-2-2" />
      <feGaussianBlur
         result="blur"
         stdDeviation="0"
         in="composite1"
         id="feGaussianBlur4676-3-7-08-7-7" />
      <feOffset
         result="offset"
         dy="0.39217365321829334"
         dx="-10.48377497279229"
         id="feOffset4678-6-9-1-0-0" />
      <feComposite
         result="composite2"
         operator="over"
         in="fbSourceGraphic"
         in2="offset"
         id="feComposite4680-4-0-9-9-9" />
    </filter>
    <filter
       inkscape:label="soundFX1"
       id="filter4375-4-1-1-1-9-5-8-8-5-5-3-8"
       style="color-interpolation-filters:sRGB">
      <feFlood
         result="flood"
         flood-color="rgb(52,52,52)"
         flood-opacity="1"
         id="feFlood4377-7-9-0-8-1-7-3-1-2-7-6-7" />
      <feComposite
         baseFrequency="0.053999999999999999 0.053999999999999999"
         result="composite1"
         operator="in"
         in="flood"
         in2="SourceGraphic"
         id="feComposite4379-3-8-8-2-77-4-1-0-6-4-7-9" />
      <feMorphology
         result="result3"
         radius="2.9756367599225957"
         operator="dilate"
         id="feMorphology4393-1-0-49-8-9-3-0-1-9-9-5-2" />
      <feComposite
         result="fbSourceGraphic"
         operator="over"
         in="SourceGraphic"
         in2="result3"
         id="feComposite4385-9-5-7-0-8-8-7-5-4-9-3-0" />
      <feColorMatrix
         id="feColorMatrix4544-9-4-4-5-2"
         values="0 0 0 -1 0 0 0 0 -1 0 0 0 0 -1 0 0 0 0 1 0"
         in="fbSourceGraphic"
         result="fbSourceGraphicAlpha" />
      <feTurbulence
         result="turbulence"
         baseFrequency="0.053999999999999999 0.054054054054054057"
         seed="174"
         numOctaves="5"
         type="fractalNoise"
         id="feTurbulence4546-3-6-5-6-3" />
      <feDisplacementMap
         result="fbSourceGraphic"
         xChannelSelector="R"
         yChannelSelector="G"
         scale="6.6"
         in="fbSourceGraphic"
         in2="turbulence"
         id="feDisplacementMap4548-8-0-9-2-7" />
      <feColorMatrix
         id="feColorMatrix4670-7-7-3-9-5"
         values="0 0 0 -1 0 0 0 0 -1 0 0 0 0 -1 0 0 0 0 1 0"
         in="fbSourceGraphic"
         result="fbSourceGraphicAlpha" />
      <feFlood
         in="fbSourceGraphic"
         result="flood"
         flood-color="rgb(28,28,28)"
         flood-opacity="1"
         id="feFlood4672-4-4-5-1-9" />
      <feComposite
         result="composite1"
         operator="in"
         in="flood"
         in2="fbSourceGraphic"
         id="feComposite4674-8-3-7-2-22" />
      <feGaussianBlur
         result="blur"
         stdDeviation="0"
         in="composite1"
         id="feGaussianBlur4676-3-7-08-7-8" />
      <feOffset
         result="offset"
         dy="6"
         dx="-6.3258232761971414"
         id="feOffset4678-6-9-1-0-9" />
      <feComposite
         result="composite2"
         operator="over"
         in="fbSourceGraphic"
         in2="offset"
         id="feComposite4680-4-0-9-9-7" />
    </filter>
  </defs>
  <sodipodi:namedview
     borderlayer="true"
     inkscape:showpageshadow="true"
     inkscape:pagecheckerboard="false"
     showborder="true"
     inkscape:snap-global="false"
     inkscape:document-rotation="0"
     inkscape:current-layer="layer3"
     inkscape:window-maximized="1"
     inkscape:window-y="24"
     inkscape:window-x="0"
     inkscape:cy="2525.6331"
     inkscape:cx="1046.72"
     inkscape:zoom="0.75236727"
     showgrid="false"
     id="namedview4"
     inkscape:window-height="1390"
     inkscape:window-width="2560"
     inkscape:pageshadow="2"
     inkscape:pageopacity="0"
     guidetolerance="10"
     gridtolerance="10"
     objecttolerance="10"
     borderopacity="1"
     bordercolor="#666666"
     pagecolor="#ffffff" />
  <g
     sodipodi:insensitive="true"
     inkscape:label="artwork"
     id="layer2"
     inkscape:groupmode="layer">
    <image
       sodipodi:absref="/home/deevad/peppercarrot/webcomics/new-ep34_The-Knighting-of-Shichimi/lang/gfx_Pepper-and-Carrot_by-David-Revoy_E34P02.png"
       xlink:href="../gfx_Pepper-and-Carrot_by-David-Revoy_E34P02.png"
       width="2481"
       height="3503"
       id="image10"
       x="0"
       y="0" />
  </g>
  <g
     style="display:inline"
     inkscape:label="speechbubbles"
     id="layer3"
     inkscape:groupmode="layer">
    <path
       sodipodi:nodetypes="ccccccccccccccccccccccccc"
       id="path1058"
       d="m 1482.0439,306.7533 c 15.2576,-15.04711 26.8259,-29.19711 13.0758,-37.1906 l -5.2974,-8.40389 -45.2735,-62.88457 c 48.7292,12.76081 101.0537,29.57046 67.3029,-50.55874 46.7004,38.71485 84.4346,57.57007 87.5087,-0.34654 19.4386,24.89212 38.783,64.64481 58.5556,36.83384 9.8069,12.83259 18.4023,7.23292 25.7286,-17.67563 13.299,29.64248 31.3621,10.27048 50.7719,-22.95537 20.6431,32.11576 42.2612,58.56825 76.535,11.49838 -1.865,33.99984 18.6695,31.48631 49.3286,12.46895 -3.0917,14.88083 3.0694,19.47521 40.3474,5.88545 -8.5071,14.66676 -25.1635,16.72607 15.4536,17.78401 -3.0258,14.06928 -27.7636,26.47526 22.8411,44.65302 -50.0516,-3.17569 -11.9672,20.03853 -9.4065,32.61615 -32.7372,-6.03547 -47.0284,-2.03894 -11.0181,29.31469 -16.5689,0.27005 -64.6846,-33.62337 -38.8523,12.56481 -28.6172,-25.22463 -52.9293,7.98587 -38.3679,8.50576 l -58.7984,12.29011 -94.9687,-4.47541 -66.8003,3.17244 -55.3287,8.40796 c 6.5597,-20.96749 -11.8731,-12.90354 -26.5718,-9.17702 -5.2318,-5.84441 4.377,-20.93114 -27.3178,-10.2952 -0.097,-14.96833 -15.8088,-12.33232 -29.4478,-12.0326 z"
       style="fill:#ffffff;fill-rule:evenodd;stroke:none;stroke-width:1.12209px;stroke-linecap:butt;stroke-linejoin:miter;stroke-opacity:1" />
    <path
       sodipodi:nodetypes="cccccccccccc"
       id="path957"
       d="m 1530.7758,262.92735 c -35.9072,10.10196 -75.8305,16.24992 -118.7864,19.41205 l 21.3884,19.60641 c -21.2547,3.62778 -30.9065,7.87998 -78.7794,11.98957 l 8.0313,9.59761 -119.5365,7.98838 148.067,7.74645 -10.6519,-15.27464 91.053,-11.04829 -19.2666,-17.88249 c 34.3908,-13.46395 81.0551,-12.27309 121.6588,-18.31863 z"
       style="fill:#ffffff;fill-rule:evenodd;stroke:none;stroke-width:0.954737px;stroke-linecap:butt;stroke-linejoin:miter;stroke-opacity:1" />
    <path
       sodipodi:nodetypes="cccccccccccccc"
       id="path959"
       d="m 1560.31,323.97706 c 16.5959,12.75119 20.7333,25.89347 -1.5264,39.8644 29.2655,-12.91703 27.4394,1.17371 22.0311,18.37606 31.8367,-11.38363 38.5928,-6.90373 27.1837,7.21408 18.7571,-1.22126 60.7276,-11.85348 59.5566,-1.758 l 243.7597,-24.68435 1.9117,-22.42574 c -9.6902,-3.20819 -26.576,1.46176 -20.8616,-18.61232 -18.5514,3.94968 -33.4348,-2.13698 -7.4043,-24.07066 -36.0913,14.47681 -11.8197,-6.36397 -8.3439,-18.68894 -35.8095,13.13592 -30.5296,-3.57842 -22.0206,-16.30999 -12.7944,13.376 -75.8022,-2.75419 -79.9646,6.85183 l -178.8992,18.49782 c -6.3233,13.60051 19.1715,36.97853 -35.4222,35.74581 z"
       style="fill:#ffffff;fill-rule:evenodd;stroke:none;stroke-width:1.11871px;stroke-linecap:butt;stroke-linejoin:miter;stroke-opacity:1" />
    <path
       sodipodi:nodetypes="cccccccccccccccccccccccc"
       id="path961"
       d="m 1609.902,395.35824 c 41.3938,0.64155 35.9095,12.50383 21.0026,26.62153 11.4677,-0.94958 38.2882,-14.02714 22.3848,6.64533 34.7251,-7.51042 13.3319,7.6856 10.5102,15.32662 13.9977,-1.60841 22.5666,5.3125 5.5421,31.05447 17.1913,-6.05805 43.4615,-28.80223 41.5037,0.33428 13.9174,-3.61655 32.2031,-17.55119 34.5238,6.2234 18.3973,-11.73692 36.675,-21.75031 53.1126,-5.23357 17.0968,-23.90651 31.9847,-28.36225 43.6776,-4.68236 16.2817,-15.71267 35.4818,0.48906 55.9494,30.55032 -5.9753,-23.81264 3.0956,-38.58578 70.0548,-18.58082 -0.4857,-20.96468 13.4865,-30.34306 69.325,-6.16992 -11.8677,-13.95314 -40.5603,-36.16791 26.2328,-11.49559 -35.128,-29.70342 2.9858,-47.99984 32.2354,-67.6768 -35.6161,13.72187 -39.3887,8.36477 -25.9696,-7.29249 -56.6358,18.33465 -50.6958,-9.50786 -35.6255,-44.08798 -41.4718,18.30037 -35.5226,7.65077 -25.5801,-2.08244 -73.7097,19.2312 -42.9677,-11.20691 -36.1615,-23.072 -53.3951,53.30694 -37.6963,20.38997 -31.8022,-0.29133 -30.3131,31.77485 -53.2659,53.19757 -47.4816,21.94921 l -50.6513,-5.43596 -192.145,21.52238 -27.5413,22.9431 c 63.5754,-2.76838 24.9187,9.71183 -13.0967,12.93062 z"
       style="fill:#ffffff;fill-rule:evenodd;stroke:none;stroke-width:1.0363px;stroke-linecap:butt;stroke-linejoin:miter;stroke-opacity:1" />
    <path
       inkscape:transform-center-y="10.079755"
       inkscape:transform-center-x="6.2803954"
       sodipodi:nodetypes="csscccccc"
       inkscape:connector-curvature="0"
       id="path895"
       d="m 459.16681,2358.0657 c 22.36564,51.5132 28.26382,65.1671 32.70811,75.7246 4.44431,10.5576 6.95122,24.2595 0.64038,26.9082 -15.54782,6.5255 -33.53774,22.8752 27.24564,95.9666 -21.63483,-46.9619 -28.34094,-72.815 -15.566,-78.5231 8.57301,-6.7097 22.80991,-8.6107 5.94489,-60.3706 -16.86495,-51.7599 -49.30756,-108.1476 -49.30756,-108.1476 l -11.57148,18.7287 z"
       style="fill:#ffffff;fill-rule:evenodd;stroke:none;stroke-width:0.743887px;stroke-linecap:butt;stroke-linejoin:miter;stroke-opacity:1" />
    <path
       sodipodi:nodetypes="ccsccc"
       inkscape:connector-curvature="0"
       id="path3365-7-3"
       d="M 470.63281 2186.2773 C 441.60629 2186.7888 412.68855 2189.6008 383.79565 2192.217 C 352.34719 2195.9655 321.52618 2204.9281 292.92057 2218.5077 C 278.14426 2225.7969 263.76081 2235.1652 254.10477 2248.798 C 247.01803 2259.0397 243.77614 2271.9838 245.86713 2284.3218 C 248.01904 2298.8742 255.96928 2311.679 264.37001 2323.4375 C 272.83909 2335.2085 283.50173 2345.7344 296.61322 2352.2057 C 315.43586 2362.0884 336.03096 2368.0709 356.74179 2372.501 C 391.29482 2379.5698 426.62255 2381.5134 461.78424 2382.8886 C 514.27275 2384.5919 566.89588 2383.3868 619.18004 2378.3213 C 648.72857 2375.2779 678.23474 2371.0264 707.06863 2363.7841 C 736.63084 2354.1212 762.38987 2332.1279 774.95024 2303.4836 C 781.84502 2287.0116 780.50403 2267.1298 770.60679 2252.1378 C 761.6992 2237.691 747.46326 2227.3811 732.32316 2220.211 C 709.3888 2208.8395 684.42783 2202.3872 659.52522 2196.9715 C 632.00072 2191.8467 603.91477 2191.6003 576.06926 2189.5706 C 551.94388 2188.073 527.769 2187.8418 503.61146 2187.2486 C 492.61257 2187.0924 481.63583 2186.1274 470.63281 2186.2773 z "
       style="color:#000000;display:inline;overflow:visible;visibility:visible;fill:#ffffff;fill-opacity:1;fill-rule:nonzero;stroke:none;stroke-width:1.33231px;marker:none;enable-background:accumulate" />
    <path
       sodipodi:nodetypes="ccsccc"
       inkscape:connector-curvature="0"
       id="path3365-7"
       d="m 280.12976,2089.6482 c 98.92768,9.3898 114.61339,35.4561 115.59938,66.5876 -1.70934,32.0815 -21.54345,55.4882 -36.13934,60.1834 -14.59588,4.6946 -36.53508,11.2111 -77.03391,12.2062 -46.78778,0.042 -74.36917,-1.9275 -103.99597,-27.4996 -61.34178,-67.5176 9.5487,-111.3998 101.56984,-111.4776 z"
       style="color:#000000;display:inline;overflow:visible;visibility:visible;fill:#ffffff;fill-opacity:1;fill-rule:nonzero;stroke:none;stroke-width:0.743357px;marker:none;enable-background:accumulate" />
    <path
       sodipodi:nodetypes="cssssc"
       inkscape:connector-curvature="0"
       id="path4546-1"
       d="M 1420.6367 2074.4023 C 1388.6303 2075.4877 1356.2651 2082.2221 1328.1006 2097.9194 C 1305.9708 2110.8267 1292.7476 2138.1633 1297.844 2163.486 C 1301.6924 2181.7522 1314.4363 2197.1406 1329.9519 2207.005 C 1347.2748 2218.206 1367.9517 2222.7314 1388.2638 2224.4074 C 1430.2234 2229.2168 1472.7309 2227.1995 1514.4682 2221.2847 C 1531.3286 2218.519 1548.517 2213.2897 1561.627 2201.8691 C 1583.478 2182.3954 1589.1208 2147.8195 1575.7816 2121.982 C 1568.6055 2107.6317 1555.5813 2096.684 1540.7204 2090.9129 C 1519.3739 2082.0693 1496.2797 2078.7067 1473.4442 2076.3323 C 1455.8988 2074.6426 1438.2547 2074.2167 1420.6367 2074.4023 z "
       style="color:#000000;display:inline;overflow:visible;visibility:visible;fill:#ffffff;fill-opacity:1;fill-rule:nonzero;stroke:none;stroke-width:0.621982px;marker:none;enable-background:accumulate" />
    <path
       sodipodi:nodetypes="cccc"
       inkscape:connector-curvature="0"
       id="path3063-8"
       d="m 1403.9856,2372.7936 c -39.0821,-62.787 -19.4125,-123.7423 -4.7627,-176.2444 l -28.056,-13.3069 c -14.9515,56.8343 -28.5621,131.5641 32.8187,189.5513 z"
       style="fill:#ffffff;stroke:none;stroke-width:0.574142" />
    <path
       sodipodi:nodetypes="cscc"
       inkscape:connector-curvature="0"
       id="path5002-7"
       d="m 1931.2232,2702.3484 c -95.1863,-31.0795 -76.8848,-101.5738 -63.4064,-124.9254 27.1219,-46.9895 38.2213,16.3603 38.2213,16.3603 -7.6201,-6.5434 -61.0011,60.3809 25.1851,108.5651 z"
       style="color:#000000;display:inline;overflow:visible;visibility:visible;fill:#ffffff;fill-opacity:1;fill-rule:nonzero;stroke:none;stroke-width:0.922761px;marker:none;enable-background:accumulate" />
    <path
       sodipodi:nodetypes="zssssz"
       inkscape:connector-curvature="0"
       id="path4040-4-5-3-4"
       d="M 2044.9824 2358.7949 C 1988.3075 2359.4011 1931.3421 2365.4982 1876.8042 2381.4195 C 1861.0837 2385.6071 1847.8401 2395.7294 1835.9174 2406.4128 C 1825.915 2415.5432 1816.3889 2425.463 1809.3525 2437.106 C 1799.9679 2453.472 1796.1302 2472.3541 1794.7621 2490.993 C 1792.3525 2513.4989 1797.9829 2536.3323 1808.4081 2556.2467 C 1817.5027 2574.4435 1831.8189 2590.6254 1850.4795 2599.2875 C 1868.9428 2608.0509 1889.4874 2610.379 1909.4278 2613.633 C 1940.9476 2618.7089 1972.8175 2621.5278 2004.7327 2622.2482 C 2036.1316 2623.13 2067.5903 2623.0406 2098.9403 2620.9256 C 2132.9817 2618.3746 2167.228 2612.2478 2198.4974 2598.0892 C 2213.3211 2591.3492 2227.4437 2582.1751 2237.537 2569.1915 C 2249.9295 2553.8602 2256.4039 2534.4219 2258.0285 2514.9296 C 2261.1327 2484.2978 2254.2838 2452.5154 2237.6352 2426.4978 C 2220.079 2398.8137 2191.8844 2377.7819 2159.9109 2370.0655 C 2130.532 2362.3422 2100.0661 2360.0707 2069.8114 2359.0055 C 2061.5372 2358.7833 2053.2592 2358.7472 2044.9824 2358.7949 z "
       style="color:#000000;display:inline;overflow:visible;visibility:visible;fill:#ffffff;fill-opacity:1;fill-rule:nonzero;stroke:none;stroke-width:1.18839px;marker:none;enable-background:accumulate" />
    <path
       sodipodi:nodetypes="zssssz"
       inkscape:connector-curvature="0"
       id="path4040-40"
       d="M 2086.2305 2145.123 C 2016.2007 2147.0657 1945.9433 2157.4408 1879.75 2180.9238 C 1862.5526 2186.8373 1844.7159 2192.4245 1830.1426 2203.7141 C 1810.6556 2218.5072 1797.9162 2241.5141 1794.9459 2265.7302 C 1791.8166 2285.7457 1790.2271 2306.2577 1793.1909 2326.3931 C 1796.4743 2346.9456 1806.4421 2366.7592 1822.5165 2380.2391 C 1838.1628 2393.5975 1857.9535 2400.9972 1877.861 2405.2244 C 1894.5707 2408.8018 1911.5538 2410.8844 1928.5 2412.9727 C 1994.5242 2420.3114 2061.4497 2418.5066 2127.1671 2409.0778 C 2161.6935 2404.0694 2195.9558 2396.9518 2229.407 2387.0066 C 2243.261 2382.3104 2256.8214 2374.7285 2265.3787 2362.5268 C 2275.4214 2348.705 2282.047 2332.7282 2287.1636 2316.5205 C 2292.979 2295.7571 2292.5213 2272.9683 2284.1737 2252.9442 C 2274.7669 2228.9273 2257.3153 2208.781 2236.9829 2193.2493 C 2207.6452 2170.577 2172.3751 2156.3513 2136.1072 2149.4111 C 2119.672 2146.3658 2102.9418 2144.9738 2086.2305 2145.123 z "
       style="color:#000000;display:inline;overflow:visible;visibility:visible;fill:#ffffff;fill-opacity:1;fill-rule:nonzero;stroke:none;stroke-width:1.0712px;marker:none;enable-background:accumulate" />
    <path
       sodipodi:nodetypes="csssc"
       inkscape:connector-curvature="0"
       id="path3280-10"
       d="m 2018.8247,2068.7073 c -47.4894,0.7851 -95.029,8.6948 -139.8513,24.9607 -18.6653,7.7007 -33.3754,25.8237 -35.5573,46.5636 -2.0426,16.3543 2.839,34.2683 15.2102,45.3281 11.4442,10.1158 26.5959,13.7124 40.9641,17.0483 47.7883,11.003 97.0353,13.1867 145.8594,12.1109 44.0863,-0.3243 88.834,-0.7018 131.6973,-12.5628 15.0226,-4.1687 30.4251,-10.0534 41.3418,-21.912 7.9795,-8.8652 11.4631,-21.4095 10.0695,-33.3037 -1.8709,-22.7299 -16.5584,-43.3475 -36.3026,-53.4775 -16.1237,-8.6897 -33.9332,-13.4575 -51.7108,-17.0692 -40.0792,-7.7612 -81.0916,-7.6661 -121.7203,-7.6864 z"
       style="fill:#ffffff;stroke:none;stroke-width:0.797187" />
  </g>
  <g
     inkscape:label="txt"
     id="layer1"
     inkscape:groupmode="layer">
    <text
       transform="matrix(0.85173785,-0.2120138,-0.27862433,0.92213476,-61.467437,-1084.276)"
       id="text4580-6-0-0-0-9"
       y="1584.5073"
       x="787.65729"
       style="font-style:normal;font-variant:normal;font-weight:normal;font-stretch:normal;font-size:105.817px;line-height:1.25;font-family:Lavi;-inkscape-font-specification:Lavi;letter-spacing:0px;word-spacing:0px;fill:#ffffff;fill-opacity:1;stroke:#ffffff;stroke-width:0.651649;stroke-miterlimit:4;stroke-dasharray:none;stroke-opacity:1;filter:url(#filter4375-4-1-1-1-9-5-8-8-5-5);"
       xml:space="preserve"><tspan
         y="1584.5073"
         x="787.65729"
         id="tspan876"
         sodipodi:role="line"
         style="font-size:105.817px;fill:#ffffff;fill-opacity:1;stroke:#ffffff;stroke-width:0.651649;stroke-miterlimit:4;stroke-dasharray:none;stroke-opacity:1;"><tspan
   id="tspan884"
   style="font-size:68.9103px;fill:#ffffff;fill-opacity:1;">Zio</tspan>oOOOOO</tspan></text>
    <text
       transform="matrix(0.94373699,-0.22067211,-0.3715186,1.0168112,628.1392,-1137.5397)"
       id="text4580-6-0-0-0-9-3"
       y="1584.5073"
       x="787.65729"
       style="font-style:normal;font-variant:normal;font-weight:normal;font-stretch:normal;font-size:105.817px;line-height:1.25;font-family:Lavi;-inkscape-font-specification:Lavi;letter-spacing:0px;word-spacing:0px;fill:#ffffff;fill-opacity:1;stroke:#ffffff;stroke-width:0.716208;stroke-miterlimit:4;stroke-dasharray:none;stroke-opacity:1;filter:url(#filter4375-4-1-1-1-9-5-8-8-5-5-3)"
       xml:space="preserve"><tspan
         y="1584.5073"
         x="787.65729"
         id="tspan876-6"
         sodipodi:role="line"
         style="font-size:105.817px;fill:#ffffff;fill-opacity:1;stroke:#ffffff;stroke-width:0.716208;stroke-miterlimit:4;stroke-dasharray:none;stroke-opacity:1"><tspan
           id="tspan884-0"
           style="font-size:78.6226px;fill:#ffffff;fill-opacity:1;stroke-width:0.716208"><tspan
   id="tspan976"
   style="font-size:93.191px;stroke-width:0.716208">Zioo</tspan>O<tspan
   id="tspan972"
   style="font-size:107.759px;stroke-width:0.716208">O</tspan></tspan><tspan
           style="font-size:166.033px;stroke-width:0.716208"
           id="tspan974">O</tspan><tspan
           id="tspan958"
           style="font-size:195.17px;stroke-width:0.716208">OO</tspan></tspan></text>
    <text
       id="text4246-3-2-2"
       y="263.32526"
       x="1700.6494"
       style="font-style:normal;font-variant:normal;font-weight:normal;font-stretch:normal;font-size:56.2847px;line-height:1.25;font-family:Lavi;-inkscape-font-specification:Lavi;text-align:center;letter-spacing:0px;word-spacing:0px;text-anchor:middle;fill:#000000;fill-opacity:1;stroke:none;stroke-width:1.25077"
       xml:space="preserve"><tspan
         y="263.32526"
         x="1700.6494"
         id="tspan1097"
         sodipodi:role="line"
         style="font-size:56.2847px;stroke-width:1.25077">Chaud devant !</tspan></text>
    <text
       id="text4246-3-2-2-6"
       y="348.91861"
       x="1736.9022"
       style="font-style:normal;font-variant:normal;font-weight:normal;font-stretch:normal;font-size:45px;line-height:1.25;font-family:Lavi;-inkscape-font-specification:Lavi;text-align:center;letter-spacing:0px;word-spacing:0px;text-anchor:middle;fill:#000000;fill-opacity:1;stroke:none"
       xml:space="preserve"><tspan
         y="348.91861"
         x="1736.9022"
         id="tspan1097-2"
         sodipodi:role="line"
         style="font-size:45px">Attention !</tspan></text>
    <text
       id="text4246-3-2-2-6-6"
       y="425.71005"
       x="1855.6654"
       style="font-style:normal;font-variant:normal;font-weight:normal;font-stretch:normal;font-size:45px;line-height:1.25;font-family:Lavi;-inkscape-font-specification:Lavi;text-align:center;letter-spacing:0px;word-spacing:0px;text-anchor:middle;fill:#000000;fill-opacity:1;stroke:none"
       xml:space="preserve"><tspan
         y="425.71005"
         x="1855.6654"
         id="tspan1097-2-1"
         sodipodi:role="line"
         style="font-style:normal;font-variant:normal;font-weight:normal;font-stretch:normal;font-size:45px;font-family:Lavi;-inkscape-font-specification:Lavi;stroke:#000000;stroke-opacity:1">ATTENTION !!!</tspan></text>
    <text
       transform="matrix(0.87975325,-0.28432023,0,1.2307016,213.79529,79.674623)"
       id="text4580-6-0-0-0-9-3-3"
       style="font-style:normal;font-variant:normal;font-weight:normal;font-stretch:normal;font-size:140px;line-height:1.25;font-family:Lavi;-inkscape-font-specification:Lavi;letter-spacing:0px;word-spacing:0px;fill:#ffffff;fill-opacity:1;stroke:#ffffff;stroke-width:0.716208;stroke-miterlimit:4;stroke-dasharray:none;stroke-opacity:1;filter:url(#filter4375-4-1-1-1-9-5-8-8-5-5-3-3)"
       xml:space="preserve"><textPath
         id="textPath2837"
         xlink:href="#path974"><tspan
           rotate="335 335 335 335 335 0 335 0"
           id="tspan876-6-6"
           style="font-size:140px;fill:#ffffff;fill-opacity:1;stroke:#ffffff;stroke-width:0.716208;stroke-miterlimit:4;stroke-dasharray:none;stroke-opacity:1"><tspan
   id="tspan2855"
   style="font-size:150.644px">CR</tspan>A<tspan
   id="tspan2845"
   style="font-size:129.356px">S</tspan><tspan
   style="font-size:113.39px"
   id="tspan2853">H !</tspan></tspan></textPath></text>
    <path
       sodipodi:nodetypes="cc"
       id="path974"
       d="m 614.46906,1135.6082 c 207.04629,193.6764 366.91889,371.9512 546.13244,556.5406"
       style="fill:none;fill-rule:evenodd;stroke:none;stroke-width:1px;stroke-linecap:butt;stroke-linejoin:miter;stroke-opacity:1" />
    <text
       id="text4246-3-2-2-6-3"
       y="2169.6099"
       x="274.67145"
       style="font-style:normal;font-variant:normal;font-weight:normal;font-stretch:normal;font-size:45px;line-height:1.25;font-family:Lavi;-inkscape-font-specification:Lavi;text-align:center;letter-spacing:0px;word-spacing:0px;text-anchor:middle;fill:#000000;fill-opacity:1;stroke:none"
       xml:space="preserve"><tspan
         y="2169.6099"
         x="274.67145"
         id="tspan1097-2-6"
         sodipodi:role="line"
         style="font-size:45px">Oups !</tspan></text>
    <text
       id="text4246-3-2-2-6-3-7"
       y="2275.2371"
       x="518.25226"
       style="font-style:normal;font-variant:normal;font-weight:normal;font-stretch:normal;font-size:45px;line-height:1.25;font-family:Lavi;-inkscape-font-specification:Lavi;text-align:center;letter-spacing:0px;word-spacing:0px;text-anchor:middle;fill:#000000;fill-opacity:1;stroke:none"
       xml:space="preserve"><tspan
         id="tspan135"
         y="2275.2371"
         x="518.25226"
         sodipodi:role="line"
         style="font-size:45px">Tout le monde va bien ? </tspan><tspan
         id="tspan133"
         y="2331.4871"
         x="518.25226"
         sodipodi:role="line"
         style="font-size:45px">Rien de cassé ?</tspan></text>
    <text
       id="text4246-3-2-2-6-3-7-5"
       y="2168.6335"
       x="1443.8728"
       style="font-style:normal;font-variant:normal;font-weight:normal;font-stretch:normal;font-size:55.5556px;line-height:1.25;font-family:Lavi;-inkscape-font-specification:Lavi;text-align:center;letter-spacing:0px;word-spacing:0px;text-anchor:middle;fill:#000000;fill-opacity:1;stroke:none;stroke-width:1.23457"
       xml:space="preserve"><tspan
         id="tspan982-2"
         y="2168.6335"
         x="1443.8728"
         sodipodi:role="line"
         style="font-size:55.5556px;stroke-width:1.23457">Pepper !</tspan></text>
    <text
       id="text4246-3-2-2-6-3-7-9"
       y="2155.8035"
       x="2034.6389"
       style="font-style:normal;font-variant:normal;font-weight:normal;font-stretch:normal;font-size:45px;line-height:1.25;font-family:Lavi;-inkscape-font-specification:Lavi;text-align:center;letter-spacing:0px;word-spacing:0px;text-anchor:middle;fill:#000000;fill-opacity:1;stroke:none"
       xml:space="preserve"><tspan
         id="tspan952"
         y="2155.8035"
         x="2034.6389"
         sodipodi:role="line"
         style="font-size:45px">Salut, Shichimi !</tspan></text>
    <text
       id="text4246-3-2-2-6-3-7-9-3"
       y="2258.95"
       x="2053.8784"
       style="font-style:normal;font-variant:normal;font-weight:normal;font-stretch:normal;font-size:45px;line-height:1.25;font-family:Lavi;-inkscape-font-specification:Lavi;text-align:center;letter-spacing:0px;word-spacing:0px;text-anchor:middle;fill:#000000;fill-opacity:1;stroke:none"
       xml:space="preserve"><tspan
         id="tspan979"
         y="2258.95"
         x="2053.8784"
         sodipodi:role="line"
         style="font-size:45px">Désolée pour l'entrée </tspan><tspan
         id="tspan144"
         y="2315.2"
         x="2053.8784"
         sodipodi:role="line"
         style="font-size:45px">fracassante, et pour </tspan><tspan
         id="tspan146"
         y="2371.45"
         x="2053.8784"
         sodipodi:role="line"
         style="font-size:45px">le retard !</tspan></text>
    <text
       id="text4246-3-2-2-6-3-7-9-3-3"
       y="2456.7451"
       x="2029.5768"
       style="font-style:normal;font-variant:normal;font-weight:normal;font-stretch:normal;font-size:45px;line-height:1.25;font-family:Lavi;-inkscape-font-specification:Lavi;text-align:center;letter-spacing:0px;word-spacing:0px;text-anchor:middle;fill:#000000;fill-opacity:1;stroke:none"
       xml:space="preserve"><tspan
         id="tspan983"
         y="2456.7451"
         x="2029.5768"
         sodipodi:role="line"
         style="font-size:45px"> J'ai couru toute la </tspan><tspan
         id="tspan157"
         y="2512.9951"
         x="2029.5768"
         sodipodi:role="line"
         style="font-size:45px">journée, mais c'est </tspan><tspan
         id="tspan159"
         y="2569.2451"
         x="2029.5768"
         sodipodi:role="line"
         style="font-size:45px">une longue histoire.</tspan></text>
  </g>
  <g
     sodipodi:insensitive="true"
     inkscape:label="mask"
     id="layer4"
     inkscape:groupmode="layer">
    <path
       sodipodi:nodetypes="ccccccccc"
       d="M 91.951172,-31.222656 V 102.93359 l 520.126238,1.04131 -1.08166,40.10974 21.2893,243.88191 12.80888,-285.03303 H 2287.9512 V -31.222656 Z"
       style="color:#000000;overflow:visible;fill:#ffffff;stroke-width:3.8337;stop-color:#000000"
       id="rect879" />
  </g>
  <g
     style="opacity:0.60045649"
     inkscape:label="notes"
     id="layer5"
     inkscape:groupmode="layer">
    <path
       sodipodi:nodetypes="ccccc"
       inkscape:connector-curvature="0"
       id="path158"
       d="m 574.78169,-141.74548 v 95.563112 H 1932.6084 v -95.563112 z"
       style="color:#000000;clip-rule:nonzero;display:inline;overflow:visible;visibility:visible;isolation:auto;mix-blend-mode:normal;color-interpolation:sRGB;color-interpolation-filters:linearRGB;solid-color:#000000;solid-opacity:1;fill:#87cefa;fill-opacity:1;fill-rule:nonzero;stroke:#4682b4;stroke-width:1.8164;stroke-linecap:butt;stroke-linejoin:miter;stroke-miterlimit:4;stroke-dasharray:none;stroke-dashoffset:0;stroke-opacity:1;marker:none;color-rendering:auto;image-rendering:auto;shape-rendering:auto;text-rendering:auto;enable-background:accumulate" />
    <flowRoot
       transform="matrix(0.89724289,0,0,0.89724289,854.27309,-1075.7516)"
       style="font-style:normal;font-variant:normal;font-weight:normal;font-stretch:normal;font-size:26.7486px;line-height:0.01%;font-family:Lavi;-inkscape-font-specification:'Lavi, Normal';font-variant-ligatures:normal;font-variant-caps:normal;font-variant-numeric:normal;font-feature-settings:normal;text-align:start;letter-spacing:0px;word-spacing:0px;writing-mode:lr-tb;text-anchor:start;display:inline;opacity:0.86;fill:#000000;fill-opacity:1;stroke:none;stroke-width:0.903147px;stroke-linecap:butt;stroke-linejoin:miter;stroke-opacity:1"
       id="flowRoot180"
       xml:space="preserve"><flowRegion
         style="font-style:normal;font-variant:normal;font-weight:normal;font-stretch:normal;font-family:Lavi;-inkscape-font-specification:'Lavi, Normal';font-variant-ligatures:normal;font-variant-caps:normal;font-variant-numeric:normal;font-feature-settings:normal;text-align:start;writing-mode:lr-tb;text-anchor:start;stroke-width:0.903147px"
         id="flowRegion174"><rect
           style="font-style:normal;font-variant:normal;font-weight:normal;font-stretch:normal;font-family:Lavi;-inkscape-font-specification:'Lavi, Normal';font-variant-ligatures:normal;font-variant-caps:normal;font-variant-numeric:normal;font-feature-settings:normal;text-align:start;writing-mode:lr-tb;text-anchor:start;stroke-width:0.903147px"
           y="1061.6674"
           x="-275.14545"
           height="126.9518"
           width="1464.0667"
           id="rect172" /></flowRegion><flowPara
         id="flowPara176"
         style="font-style:normal;font-variant:normal;font-weight:normal;font-stretch:normal;font-size:26.7486px;line-height:1.25;font-family:monospace;-inkscape-font-specification:monospace;font-variant-ligatures:normal;font-variant-caps:normal;font-variant-numeric:normal;font-feature-settings:normal;text-align:start;writing-mode:lr-tb;text-anchor:start;stroke-width:0.903147px">Dear translator: if editing the soundFX is difficult, I made a special documentation here:</flowPara><flowPara
         id="flowPara181"
         style="font-style:normal;font-variant:normal;font-weight:bold;font-stretch:normal;font-size:26.7486px;line-height:1.25;font-family:monospace;-inkscape-font-specification:'monospace Bold';font-variant-ligatures:normal;font-variant-caps:normal;font-variant-numeric:normal;font-feature-settings:normal;text-align:start;writing-mode:lr-tb;text-anchor:start;fill:#0000cd;stroke-width:0.903147px">https://www.peppercarrot.com/en/static14/documentation&amp;page=055_Sound-Effect_translation</flowPara><flowPara
         id="flowPara179"
         style="font-style:normal;font-variant:normal;font-weight:normal;font-stretch:normal;font-size:26.7486px;line-height:1.25;font-family:monospace;-inkscape-font-specification:monospace;font-variant-ligatures:normal;font-variant-caps:normal;font-variant-numeric:normal;font-feature-settings:normal;text-align:start;writing-mode:lr-tb;text-anchor:start;stroke-width:0.903147px" /></flowRoot>
  </g>
</svg>
