<?xml version="1.0" encoding="UTF-8" standalone="no"?>
<!-- Created with Inkscape (http://www.inkscape.org/) -->

<svg
   xmlns:dc="http://purl.org/dc/elements/1.1/"
   xmlns:cc="http://creativecommons.org/ns#"
   xmlns:rdf="http://www.w3.org/1999/02/22-rdf-syntax-ns#"
   xmlns:svg="http://www.w3.org/2000/svg"
   xmlns="http://www.w3.org/2000/svg"
   xmlns:xlink="http://www.w3.org/1999/xlink"
   xmlns:sodipodi="http://sodipodi.sourceforge.net/DTD/sodipodi-0.dtd"
   xmlns:inkscape="http://www.inkscape.org/namespaces/inkscape"
   id="svg2"
   version="1.1"
   inkscape:version="0.92.2 (5c3e80d, 2017-08-06)"
   width="2481"
   height="3503"
   sodipodi:docname="Pepper-and-Carrot_by-David-Revoy_E16P05.svg"
   inkscape:export-filename="E:\Users\jamesmichael\Downloads\Compressed\eps\peppercarrot_ep16_translation-master\peppercarrot_ep16_translation-master\ph\Pepper-and-Carrot_by-David-Revoy_E16P05.png"
   inkscape:export-xdpi="98.181801"
   inkscape:export-ydpi="98.181801">
  <metadata
     id="metadata8">
    <rdf:RDF>
      <cc:Work
         rdf:about="">
        <dc:format>image/svg+xml</dc:format>
        <dc:type
           rdf:resource="http://purl.org/dc/dcmitype/StillImage" />
        <dc:title />
      </cc:Work>
    </rdf:RDF>
  </metadata>
  <defs
     id="defs6">
    <filter
       style="color-interpolation-filters:sRGB"
       id="filter4375-4-1-1-1-9"
       inkscape:label="deevad outline effect">
      <feFlood
         id="feFlood4377-7-9-0-8-1"
         flood-opacity="1"
         flood-color="rgb(0,0,0)"
         result="flood" />
      <feComposite
         id="feComposite4379-3-8-8-2-77"
         in2="SourceGraphic"
         in="flood"
         operator="in"
         result="composite1" />
      <feMorphology
         id="feMorphology4393-1-0-49-8-9"
         operator="dilate"
         radius="1.3999999999999999"
         result="result3" />
      <feComposite
         id="feComposite4385-9-5-7-0-8"
         in2="result3"
         in="SourceGraphic"
         operator="over"
         result="composite2" />
    </filter>
    <filter
       style="color-interpolation-filters:sRGB"
       id="filter4375-4-1-1-1-9-9"
       inkscape:label="deevad outline effect">
      <feFlood
         id="feFlood4377-7-9-0-8-1-3"
         flood-opacity="1"
         flood-color="rgb(0,0,0)"
         result="flood" />
      <feComposite
         id="feComposite4379-3-8-8-2-77-0"
         in2="SourceGraphic"
         in="flood"
         operator="in"
         result="composite1" />
      <feMorphology
         id="feMorphology4393-1-0-49-8-9-9"
         operator="dilate"
         radius="1.3999999999999999"
         result="result3" />
      <feComposite
         id="feComposite4385-9-5-7-0-8-0"
         in2="result3"
         in="SourceGraphic"
         operator="over"
         result="composite2" />
    </filter>
  </defs>
  <sodipodi:namedview
     pagecolor="#ffffff"
     bordercolor="#666666"
     borderopacity="1"
     objecttolerance="10"
     gridtolerance="10"
     guidetolerance="10"
     inkscape:pageopacity="0"
     inkscape:pageshadow="2"
     inkscape:window-width="1366"
     inkscape:window-height="705"
     id="namedview4"
     showgrid="false"
     inkscape:zoom="0.30245748"
     inkscape:cx="1444.4157"
     inkscape:cy="589.86546"
     inkscape:window-x="-8"
     inkscape:window-y="-8"
     inkscape:window-maximized="1"
     inkscape:current-layer="layer1" />
  <g
     inkscape:groupmode="layer"
     id="layer2"
     inkscape:label="artwork"
     sodipodi:insensitive="true">
    <image
       sodipodi:absref="E:\Users\jamesmichael\Downloads\Compressed\eps\peppercarrot_ep16_translation-master\peppercarrot_ep16_translation-master\ph\../gfx_Pepper-and-Carrot_by-David-Revoy_E16P05.png"
       xlink:href="../gfx_Pepper-and-Carrot_by-David-Revoy_E16P05.png"
       y="0"
       x="0"
       id="image10"
       height="3503"
       width="2481" />
  </g>
  <g
     inkscape:groupmode="layer"
     id="layer3"
     inkscape:label="speechbubbles"
     style="display:inline">
    <path
       style="color:#000000;display:inline;overflow:visible;visibility:visible;fill:#ffffff;fill-opacity:1;fill-rule:nonzero;stroke:none;stroke-width:1.62074661px;marker:none;enable-background:accumulate"
       d="m 210.52984,484.989 c -2.26856,-27.20288 -9.00219,-161.20956 5.08185,-202.65148 14.084,-41.44186 42.95786,-66.76018 89.46347,-60.80952 46.50557,5.95063 76.61517,14.57896 92.30612,35.61868 15.69089,21.03967 28.14768,78.79996 29.28192,89.00107 2.2686,20.40217 14.38995,204.27671 -69.78006,208.09303 -73.19902,3.31889 -123.66764,8.95645 -146.3533,-69.25178 z"
       id="path3525"
       inkscape:connector-curvature="0"
       sodipodi:nodetypes="cssscsc" />
    <path
       style="color:#000000;display:inline;overflow:visible;visibility:visible;fill:#ffffff;fill-opacity:1;fill-rule:nonzero;stroke:none;stroke-width:1.23476017px;marker:none;enable-background:accumulate"
       d="m 1495.476,355.05798 c 25.5193,-56.66344 144.8033,-39.99931 160.3583,6.74403 15.555,46.74336 35.7333,151.53139 12.4802,184.90452 -23.2532,33.37304 -163.0018,30.96894 -176.9985,-24.26968 -13.9967,-55.23873 -21.3594,-110.71556 4.16,-167.37887 z"
       id="path4008-8"
       inkscape:connector-curvature="0"
       sodipodi:nodetypes="zsssz" />
    <path
       style="color:#000000;display:inline;overflow:visible;visibility:visible;fill:#ffffff;fill-opacity:1;fill-rule:nonzero;stroke:none;stroke-width:1px;marker:none;enable-background:accumulate"
       d="m 1574.9826,472.92706 c -17.2236,21.55653 -27.0013,47.84376 -30.7097,54.7077 9.0582,0.57554 24.0252,6.05945 30.1356,7.68732 -7.9164,12.17468 -41.5695,61.31913 -55.7032,69.99973 35.6374,-19.992 75.7084,-62.50212 87.2261,-83.40695 -7.5963,-3.69432 -21.952,-5.88957 -25.8988,-7.94337 5.2655,-10.70917 31.3874,-37.31145 31.3874,-37.31145 z"
       id="path5066-7"
       inkscape:connector-curvature="0"
       sodipodi:nodetypes="cccccccc" />
    <path
       style="color:#000000;display:inline;overflow:visible;visibility:visible;fill:#ffffff;fill-opacity:1;fill-rule:nonzero;stroke:none;stroke-width:1.18190372px;marker:none;enable-background:accumulate"
       d="m 1767.0888,572.26964 c -2.9439,-38.43577 28.0106,-248.80841 150.446,-243.78692 122.4353,5.02153 149.9955,148.27671 150.2597,200.15042 0.2643,51.87343 -27.7302,137.13499 -45.3857,153.13401 -17.6552,15.99901 -63.8222,55.04518 -94.0265,49.82705 -30.2043,-5.21863 -123.3193,-41.21347 -142.4268,-84.67292 -19.1075,-43.45917 -16.6173,-64.6526 -18.8667,-74.65164 z"
       id="path3365"
       inkscape:connector-curvature="0" />
    <path
       style="fill:#ffffff;fill-rule:evenodd;stroke:none;stroke-width:1px;stroke-linecap:butt;stroke-linejoin:miter;stroke-opacity:1"
       d="m 1809.5731,797.38109 c -42.1519,-45.39439 -40.773,-120.33594 7.5658,-129.69827 20.5355,-23.77802 73.5214,-107.585 -23.6983,-32.34693 -18.5773,14.37686 -68.2811,101.3158 16.1325,162.0452 z"
       id="path4278"
       inkscape:connector-curvature="0"
       sodipodi:nodetypes="ccsc" />
    <path
       style="fill:#ffffff;fill-rule:evenodd;stroke:none;stroke-width:1px;stroke-linecap:butt;stroke-linejoin:miter;stroke-opacity:1"
       d="m 516.06668,1322.7543 c 32.15805,12.9951 33.92673,24.1591 4.00778,33.4136 31.34309,3.909 31.58453,29.5808 -3.06028,34.1808 73.88126,30.3422 58.08726,64.7746 41.57598,86.8037 40.39759,-19.8815 44.92294,5.6402 57.30425,21.2187 5.63677,-35.7431 12.57537,-14.4435 19.87727,22.7729 4.79948,-45.7928 11.01057,-50.3223 18.50896,-17.2236 6.0454,-29.4319 16.56254,-41.9863 32.21963,-35.1412 25.03205,-30.3949 39.22871,3.8394 56.92754,17.1843 3.76793,-30.388 16.36352,-33.211 31.77354,-27.2457 5.82621,-13.5024 9.48916,-32.4105 30.26428,-8.5596 2.14373,-24.9405 12.92056,-9.1714 21.04447,-5.9125 -10.6168,-12.3202 5.42517,-18.7274 52.13154,-18.3328 -18.43278,-4.4651 -17.84952,-14.1814 5.17733,-30.0957 -27.88771,-8.6525 -28.88795,-23.6883 -15.76316,-42.0776 -32.65843,-19.431 3.97909,-60.8314 17.3683,-86.679 -29.77435,16.4874 -51.47956,16.2098 -59.52097,-13.8337 -44.87405,34.999 -47.14785,16.9306 -43.68774,2.9981 -41.53923,40.8417 -53.04896,23.9973 -48.97173,12.0631 -74.67014,38.8768 -67.96184,11.7833 -86.35003,-8.2086 -2.7134,49.168 -21.08374,33.3042 -39.51875,17.1715 3.8919,40.5787 -7.27758,30.3877 -18.1322,21.258 0.12488,17.7563 -9.39227,24.466 -31.90991,16.2814 16.56656,11.9104 7.24573,15.9187 -41.2661,7.9639 z"
       id="path4289"
       inkscape:connector-curvature="0"
       sodipodi:nodetypes="cccccccccccccccccccccccc" />
    <path
       style="fill:#ffffff;stroke:none"
       d="m 697.13252,3178.274 c -80.05798,-9.6516 -98.33119,-29.8794 -115.90541,-70.464 -10.64824,-24.5903 -13.86482,-40.3391 -13.86482,-40.3391 l -19.96131,19.8685 10.19515,28.2975 c 0,0 16.57734,75.9557 139.53639,62.6371 z"
       id="path3063"
       inkscape:connector-curvature="0"
       sodipodi:nodetypes="cscccc" />
    <path
       style="fill:#ffffff;fill-rule:evenodd;stroke:none;stroke-width:1.19032884px;stroke-linecap:butt;stroke-linejoin:miter;stroke-opacity:1"
       d="m 1783.6051,3425.781 c 130.1901,-45.9128 121.7835,-71.6126 -122.1199,-67.8939 178.5476,-20.6244 218.591,-35.0301 130.8331,-43.6978 88.1042,-11.079 58.5724,-39.7395 0.663,-58.4572 69.9332,-5.0174 41.8601,-15.9759 38.4966,-25.4363 15.844,-3.0971 54.9989,7.644 3.159,-35.6323 20.9565,-2.7761 39.0191,-6.5273 -7.086,-31.8938 85.0055,-6.4639 -4.3942,-27.6058 -99.9875,-49.2691 117.6724,13.5615 134.3775,8.0108 89.4786,-9.2007 48.4324,7.9001 85.9399,12.6347 3.9201,-17.2672 89.4443,10.3053 60.3473,-5.3849 -53.251,-53.4932 93.1027,32.8385 207.8278,72.8234 194.9695,35.0508 27.9712,5.2967 52.181,24.1059 97.1826,-31.778 18.9028,10.4631 -9.2547,42.3113 71.5831,15.808 9.4547,-3.5522 15.0685,8.3817 40.1182,-14.355 -1.8391,13.4362 4.0931,21.6841 40.8572,9.3455 -2.2584,24.5274 36.3562,15.3922 85.6798,-2.5618 -63.4088,35.4521 -40.532,37.4324 -15.3327,38.512 -130.5618,58.8411 -39.6976,51.247 -9.1837,53.1333 -62.579,32.9973 -71.9711,55.1724 52.5296,65.1593 -108.0909,17.9161 -133.9878,24.1564 -64.0443,65.0295 -75.5606,-21.1703 -27.6087,8.8808 3.3624,31.8899 -94.5505,-12.6866 -32.7658,19.3116 58.904,59.852 -104.3104,-22.7614 -66.8299,3 6.9807,41.1939 -102.5636,-14.5139 -131.6697,-3.9037 -136.3012,52.1402 -36.7509,-26.8677 -104.0463,-29.7776 -188.2499,-2.0151 25.0578,-31.374 2.2203,-40.7661 -89.1617,-18.6995 75.1871,-34.1674 -33.482,-18.7157 -133.9996,-5.4635 z"
       id="path4508"
       inkscape:connector-curvature="0"
       sodipodi:nodetypes="cccccccccccccccccccccccccccc" />
    <path
       style="color:#000000;display:inline;overflow:visible;visibility:visible;fill:#ffffff;fill-opacity:1;fill-rule:nonzero;stroke:none;stroke-width:1px;marker:none;enable-background:accumulate"
       d="m 1638.2464,3206.3732 c 54.3411,-2.252 78.9432,-21.3974 91.1531,-28.5238 -3.5763,-9.5 -8.9675,-20.9727 -16.552,-26.785 20.8008,7.2521 55.8636,23.6082 121.7894,43.5991 32.6654,-12.3283 7.4804,-48.4084 -7.6424,-88.7038 l -15.9649,32.0974 -44.6533,5.3405 c 0,0 -68.7398,-11.0844 -83.8186,-15.3403 11.3058,16.2359 22.1359,39.4549 23.6147,45.4861 -11.5248,13.7548 -40.7764,18.4153 -67.926,32.8298 z"
       id="path5162"
       inkscape:connector-curvature="0"
       sodipodi:nodetypes="cccccccccc" />
    <path
       style="fill:#ffffff;fill-rule:evenodd;stroke:none;stroke-width:0.98791671px;stroke-linecap:butt;stroke-linejoin:miter;stroke-opacity:1"
       d="m 288.39347,2923.7571 c 33.51746,6.191 82.59804,-23.09 55.50056,-116.2986 52.59639,66.0402 95.72007,54.5113 181.27617,-49.1851 -7.10972,144.4831 31.1295,130.9843 65.6029,103.245 -33.0848,48.6197 26.30377,76.4803 58.24956,79.2114 -67.57818,105.1606 -32.09212,138.6052 -5.46403,178.2133 -66.41332,-29.3044 -50.35107,30.0715 -58.2835,63.6475 -56.97262,-76.0746 -98.4051,-58.0194 -131.13792,12.7298 -17.11968,-38.4755 -22.49336,-117.997 -85.60391,4.2429 23.20732,-105.5282 -7.21226,-94.4517 -56.46214,-42.4316 7.71858,-35.9443 53.59327,-90.6028 -23.67769,-84.8636 48.26494,-34.1708 58.3863,-80.4589 0,-148.511 z"
       id="path4584"
       inkscape:connector-curvature="0"
       sodipodi:nodetypes="cccccccccccc" />
    <path
       style="fill:#ffffff;fill-rule:evenodd;stroke:none;stroke-width:1.2874397px;stroke-linecap:butt;stroke-linejoin:miter;stroke-opacity:1"
       d="m 1806.4686,2706.9008 c 42.9482,18.2452 81.7703,29.5888 68.5715,-46.0863 76.0209,102.7401 65.1158,32.377 77.1429,7.6811 45.1971,72.5752 84.0856,62.2327 117.8571,-15.362 19.0914,111.9265 59.0422,57.6974 94.2855,40.9656 -0.087,31.4755 -9.7087,67.5677 94.2858,48.6465 -29.7347,28.4277 -40.826,54.2349 25.7142,69.1295 -46.2217,22.8568 -71.606,47.1783 -21.4285,76.8107 -26.6564,43.1671 -8.8276,68.8212 27.8571,87.0517 -85.8941,2.5247 -65.2088,26.2733 -51.4285,48.6467 -73.1298,-45.9996 -83.3615,-27.5832 -77.1428,7.6812 -34.0376,-20.2295 -59.1959,-68.0431 -120,-5.1207 -18.0838,-20.8828 -34.7531,-47.2583 -74.9999,17.9224 -2.8391,-56.8555 -32.2646,-54.7166 -75,-23.0431 -11.2718,-53.32 -53.5973,-26.2477 -98.5714,7.681 36.7091,-52.0411 39.3692,-95.5176 -32.1429,-120.3365 69.3012,-29.7714 56.6821,-53.7852 30,-76.8104 26.361,-21.6518 43.5487,-45.2377 -25.7142,-87.052 40.4963,6.5006 83.6155,14.8815 40.7141,-38.4054 z"
       id="path4582"
       inkscape:connector-curvature="0"
       sodipodi:nodetypes="ccccccccccccccccccc" />
  </g>
  <g
     inkscape:groupmode="layer"
     id="layer1"
     inkscape:label="txt">
    <path
       style="color:#000000;display:inline;overflow:visible;visibility:visible;fill:#ffffff;fill-opacity:1;fill-rule:nonzero;stroke:none;stroke-width:1px;marker:none;enable-background:accumulate"
       d="m 2161.1513,2018.3364 c 4.1786,-4.0098 -51.4117,-57.9648 -51.4117,-57.9648 0,0 -1.134,-22.9912 -2.2528,-27.937 -12.2737,-9.2903 -31.5157,-17.9125 -31.5157,-17.9125 l 16.4004,-57.8785 4.2148,41.1034 35.6867,4.8795 8.9531,39.5666 39.3388,41.9422 z"
       id="path4448"
       inkscape:connector-curvature="0"
       sodipodi:nodetypes="cccccccccc" />
    <path
       style="color:#000000;display:inline;overflow:visible;visibility:visible;fill:#ffffff;fill-opacity:1;fill-rule:nonzero;stroke:none;stroke-width:1px;marker:none;enable-background:accumulate"
       d="m 2057.3098,1929.0076 c -6.5254,20.6285 -43.3294,22.3583 -56.878,18.1652 27.3108,23.0767 26.3587,37.4147 -10.7217,39.6409 62.1845,41.5904 11.3681,35.2968 1.345,45.843 48.8263,14.3329 26.9809,32.1707 18.2881,49.9278 56.1211,0.6099 37.7552,29.0741 40.1206,51.7439 4.7577,-10.6377 27.3603,-43.0236 28.7203,-6.9641 37.1208,-34.4027 81.8319,-56.6251 85.3821,3.5798 14.9565,-30.2875 29.8683,-43.0881 28.7203,-6.9641 37.0577,-46.9839 70.3592,-30.0719 103.8582,-16.7925 8.7983,-14.1808 9.8234,-35.9667 38.288,-30.8613 -3.991,-14.0558 5.6198,-23.7176 27.3243,-29.4553 -28.8418,-8.4906 -34.1572,-17.2486 19.3955,-26.6735 -40.7506,-0.9116 -78.7506,-2.7794 -30.9414,-34.921 -14.9991,-0.7778 -50.586,26.0421 -33.994,-52.4468 -25.7918,25.127 -53.3092,38.9954 -87.8187,-13.6394 -16.3315,26.2953 -44.6584,39.3073 -56.9819,6.4624 -4.4294,14.0023 -22.7957,19.2684 -38.3875,19.907 -6.0293,-5.562 -12.2479,-13.1166 -18.7373,-23.0143 -10.6063,20.7826 -26.4721,34.8183 -56.9819,6.4623 z"
       id="path3549-3-7"
       inkscape:connector-curvature="0"
       sodipodi:nodetypes="cccccccccccccccccccc" />
    <text
       xml:space="preserve"
       style="font-style:normal;font-variant:normal;font-weight:normal;font-stretch:normal;line-height:0%;font-family:Lavi;-inkscape-font-specification:Lavi;text-align:center;letter-spacing:0px;word-spacing:0px;text-anchor:middle;fill:#000000;fill-opacity:1;stroke:none"
       x="1572.8054"
       y="459.81094"
       id="text4246-6"><tspan
         sodipodi:role="line"
         style="font-size:45px;line-height:1.25"
         x="1572.8054"
         y="459.81094"
         id="tspan4173">Oo!</tspan></text>
    <text
       xml:space="preserve"
       style="font-style:normal;font-variant:normal;font-weight:normal;font-stretch:normal;line-height:0%;font-family:Lavi;-inkscape-font-specification:Lavi;text-align:center;letter-spacing:0px;word-spacing:0px;text-anchor:middle;fill:#000000;fill-opacity:1;stroke:none"
       x="1912.0612"
       y="503.32947"
       id="text4246-6-6"><tspan
         sodipodi:role="line"
         style="font-size:45px;line-height:1.25"
         x="1912.0612"
         y="503.32947"
         id="tspan4472">Magaling!</tspan><tspan
         sodipodi:role="line"
         style="font-size:45px;line-height:1.25"
         x="1919.9713"
         y="559.57947"
         id="tspan4476">gusto </tspan><tspan
         sodipodi:role="line"
         style="font-size:45px;line-height:1.25"
         x="1912.0612"
         y="615.82947"
         id="tspan864">ko yan!</tspan></text>
    <path
       style="color:#000000;display:inline;overflow:visible;visibility:visible;fill:#ffffff;fill-opacity:1;fill-rule:nonzero;stroke:none;stroke-width:1.37542951px;marker:none;enable-background:accumulate"
       d="m 333.88563,367.75046 c 26.49551,11.41433 60.32252,33.79356 68.84529,41.03548 1.16934,19.63952 4.38918,40.28162 6.74969,56.19796 15.05203,10.12582 82.28187,46.68085 92.60203,36.65572 -23.61819,29.35858 -81.29649,11.51295 -107.24262,-10.08947 -5.05266,-23.38313 -7.78776,-38.36204 -10.58332,-50.80043 -13.32255,-12.35606 -40.80403,-27.72603 -40.80403,-27.72603 z"
       id="path5066"
       inkscape:connector-curvature="0"
       sodipodi:nodetypes="cccccccc" />
    <text
       xml:space="preserve"
       style="font-style:normal;font-variant:normal;font-weight:normal;font-stretch:normal;line-height:0%;font-family:Lavi;-inkscape-font-specification:Lavi;text-align:center;letter-spacing:0px;word-spacing:0px;text-anchor:middle;fill:#000000;fill-opacity:1;stroke:none"
       x="326.86688"
       y="419.67456"
       id="text4246"><tspan
         sodipodi:role="line"
         style="font-size:45px;line-height:1.25"
         x="326.86688"
         y="419.67456"
         id="tspan4167">Ready?</tspan></text>
    <text
       xml:space="preserve"
       style="font-style:normal;font-variant:normal;font-weight:normal;font-stretch:normal;font-size:16.49929619px;line-height:0%;font-family:Lavi;-inkscape-font-specification:Lavi;text-align:center;letter-spacing:0px;word-spacing:0px;text-anchor:middle;fill:#aa0000;fill-opacity:1;stroke:#aa0000;stroke-width:4.8130827;stroke-miterlimit:4;stroke-dasharray:none;stroke-opacity:1;"
       x="3190.4014"
       y="2344.5676"
       id="text4246-6-6-6-2"
       transform="matrix(0.70887121,0,-0.08512663,1.4106935,0,0)"><tspan
         sodipodi:role="line"
         style="font-size:75.37678528px;line-height:1.25;stroke:#aa0000;stroke-width:4.8130827;stroke-miterlimit:4;stroke-dasharray:none;stroke-opacity:1;fill:#aa0000;"
         x="3190.4014"
         y="2344.5676"
         id="tspan4204-9-4"><tspan
           style="font-size:100.502388px;stroke-width:4.8130827;stroke-miterlimit:4;stroke-dasharray:none;fill:#aa0000;stroke:#aa0000;"
           id="tspan4401-4">ATTACK !!!</tspan></tspan></text>
    <text
       xml:space="preserve"
       style="font-style:normal;font-variant:normal;font-weight:normal;font-stretch:normal;line-height:0%;font-family:Lavi;-inkscape-font-specification:Lavi;text-align:center;letter-spacing:0px;word-spacing:0px;text-anchor:middle;fill:#000000;fill-opacity:1;stroke:#000000;stroke-width:2.26460218;stroke-miterlimit:4;stroke-dasharray:none;stroke-opacity:1"
       x="1342.9221"
       y="2647.5913"
       id="text4246-6-6-6-3"
       transform="matrix(0.89466356,0,-0.27376521,1.1177386,0,0)"><tspan
         sodipodi:role="line"
         style="font-size:56.6150589px;line-height:1.25;stroke:#000000;stroke-width:2.26460218;stroke-miterlimit:4;stroke-dasharray:none;stroke-opacity:1"
         x="1342.9221"
         y="2647.5913"
         id="tspan4204-9-1">Ma...</tspan><tspan
         sodipodi:role="line"
         style="font-size:56.6150589px;line-height:1.25;stroke:#000000;stroke-width:2.26460218;stroke-miterlimit:4;stroke-dasharray:none;stroke-opacity:1"
         x="1356.1913"
         y="2735.6399"
         id="tspan4182-3"> MAMAW<tspan
   style="font-size:75.48674774px;stroke-width:2.26460218"
   id="tspan4401-7">! </tspan></tspan></text>
    <text
       xml:space="preserve"
       style="font-style:normal;font-variant:normal;font-weight:normal;font-stretch:normal;line-height:0%;font-family:Lavi;-inkscape-font-specification:Lavi;text-align:center;letter-spacing:0px;word-spacing:0px;text-anchor:middle;fill:#333333;fill-opacity:1;stroke:#000000;stroke-width:1.90164542;stroke-miterlimit:4;stroke-dasharray:none;stroke-opacity:1"
       x="3112.8816"
       y="2527.0647"
       id="text4246-6-6-6-3-3"
       transform="matrix(0.88066605,0,-0.269482,1.1355042,0,0)"><tspan
         sodipodi:role="line"
         style="font-size:47.5411377px;line-height:1.25;fill:#333333;stroke:#000000;stroke-width:1.90164542;stroke-miterlimit:4;stroke-dasharray:none;stroke-opacity:1"
         x="3124.0239"
         y="2527.0647"
         id="tspan4182-3-0"><tspan
           style="font-size:63.38818359px;fill:#333333;stroke-width:1.90164542"
           id="tspan4401-7-3">Isang    </tspan></tspan><tspan
         sodipodi:role="line"
         style="font-size:47.5411377px;line-height:1.25;fill:#333333;stroke:#000000;stroke-width:1.90164542;stroke-miterlimit:4;stroke-dasharray:none;stroke-opacity:1"
         x="3112.8816"
         y="2606.3"
         id="tspan870"><tspan
           style="font-size:63.38818359px;fill:#333333;stroke-width:1.90164542"
           id="tspan872">PatiBoom!</tspan></tspan></text>
    <text
       xml:space="preserve"
       style="font-style:normal;font-variant:normal;font-weight:normal;font-stretch:normal;line-height:0%;font-family:Lavi;-inkscape-font-specification:Lavi;text-align:center;letter-spacing:0px;word-spacing:0px;text-anchor:middle;fill:#333333;fill-opacity:1;stroke:#000000;stroke-width:1.81785417;stroke-miterlimit:4;stroke-dasharray:none;stroke-opacity:1"
       x="3026.9146"
       y="2498.4546"
       id="text4246-6-6-6-3-3-2"
       transform="matrix(0.89327675,0,-0.27334085,1.1194739,0,0)"><tspan
         sodipodi:role="line"
         style="font-size:45.44635391px;line-height:1.25;fill:#333333;stroke:#000000;stroke-width:1.81785417;stroke-miterlimit:4;stroke-dasharray:none;stroke-opacity:1"
         x="3026.9146"
         y="2498.4546"
         id="tspan4182-3-0-0"><tspan
           style="font-size:60.59513855px;fill:#333333;stroke-width:1.81785417"
           id="tspan4401-7-3-2">Sabi na eh!!</tspan></tspan></text>
    <text
       xml:space="preserve"
       style="font-style:normal;font-variant:normal;font-weight:normal;font-stretch:normal;line-height:0%;font-family:Lavi;-inkscape-font-specification:Lavi;text-align:center;letter-spacing:0px;word-spacing:0px;text-anchor:middle;fill:#000000;fill-opacity:1;stroke:#000000;stroke-width:2.26460218;stroke-miterlimit:4;stroke-dasharray:none;stroke-opacity:1"
       x="2980.5588"
       y="1829.2655"
       id="text4246-6-6-6-3-9"
       transform="matrix(0.89466356,0,-0.27376521,1.1177386,0,0)"><tspan
         sodipodi:role="line"
         style="font-size:75.48674774px;line-height:1.25;stroke:#000000;stroke-width:2.26460218;stroke-miterlimit:4;stroke-dasharray:none;stroke-opacity:1"
         x="2980.5588"
         y="1829.2655"
         id="tspan866">Hindi !</tspan></text>
    <text
       xml:space="preserve"
       style="font-style:normal;font-variant:normal;font-weight:normal;font-stretch:normal;line-height:0%;font-family:Lavi;-inkscape-font-specification:Lavi;text-align:center;letter-spacing:0px;word-spacing:0px;text-anchor:middle;fill:#000000;fill-opacity:1;stroke:#000000;stroke-opacity:1"
       x="1062.8296"
       y="1297.6631"
       id="text4246-6-6-6"
       transform="matrix(0.92749476,0,-0.21361026,1.0781732,0,0)"><tspan
         sodipodi:role="line"
         style="font-size:75.93101501px;line-height:1.25;stroke:#000000;stroke-opacity:1"
         x="1062.8296"
         y="1297.6631"
         id="tspan4476-1">GO !</tspan></text>
  </g>
</svg>
