<?xml version="1.0" encoding="UTF-8" standalone="no"?>
<!-- Created with Inkscape (http://www.inkscape.org/) -->

<svg
   xmlns:dc="http://purl.org/dc/elements/1.1/"
   xmlns:cc="http://creativecommons.org/ns#"
   xmlns:rdf="http://www.w3.org/1999/02/22-rdf-syntax-ns#"
   xmlns:svg="http://www.w3.org/2000/svg"
   xmlns="http://www.w3.org/2000/svg"
   xmlns:xlink="http://www.w3.org/1999/xlink"
   xmlns:sodipodi="http://sodipodi.sourceforge.net/DTD/sodipodi-0.dtd"
   xmlns:inkscape="http://www.inkscape.org/namespaces/inkscape"
   id="svg2"
   version="1.1"
   inkscape:version="0.91 r13725"
   width="2481"
   height="3503"
   sodipodi:docname="E04P01.svg">
  <metadata
     id="metadata8">
    <rdf:RDF>
      <cc:Work
         rdf:about="">
        <dc:format>image/svg+xml</dc:format>
        <dc:type
           rdf:resource="http://purl.org/dc/dcmitype/StillImage" />
        <dc:title />
      </cc:Work>
    </rdf:RDF>
  </metadata>
  <defs
     id="defs6" />
  <sodipodi:namedview
     pagecolor="#ffffff"
     bordercolor="#666666"
     borderopacity="1"
     objecttolerance="10"
     gridtolerance="10"
     guidetolerance="10"
     inkscape:pageopacity="0"
     inkscape:pageshadow="2"
     inkscape:window-width="1920"
     inkscape:window-height="1017"
     id="namedview4"
     showgrid="false"
     inkscape:zoom="0.47669614"
     inkscape:cx="1398.4348"
     inkscape:cy="688.24173"
     inkscape:window-x="0"
     inkscape:window-y="30"
     inkscape:window-maximized="1"
     inkscape:current-layer="layer1" />
  <g
     inkscape:groupmode="layer"
     id="layer2"
     inkscape:label="artwork"
     sodipodi:insensitive="true">
    <image
       sodipodi:absref="/home/nightlock/peppercarrot/webcomics/ep04_Stroke-of-genius/lang/kr/../gfx_Pepper-and-Carrot_by-David-Revoy_E04P01.png"
       xlink:href="../gfx_Pepper-and-Carrot_by-David-Revoy_E04P01.png"
       width="2481"
       height="3503"
       id="image10"
       x="0"
       y="0" />
  </g>
  <g
     inkscape:groupmode="layer"
     id="layer3"
     inkscape:label="speechbubbles">
    <path
       style="fill:#ffffff;stroke:none;stroke-width:1px;stroke-linecap:butt;stroke-linejoin:miter;stroke-opacity:1"
       d="m 485.27853,2395.1205 c -4.86201,-41.4974 -9.72402,-126.1689 0,-144.6122 6.18802,0 16.35405,-0.4192 16.35405,-0.4192 l -9.72403,-22.6349 17.68005,5.4492 8.84003,-7.545 -5.74602,-12.5749 15.91205,5.8683 7.95602,-12.1559 13.26004,8.8026 6.63002,-12.575 14.58604,10.06 26.96207,-5.4492 c 66.16203,-2.2211 131.58425,-5.6115 201.11058,-2.515 l 21.21607,-7.9641 6.18801,11.7365 11.05003,0.4192 10.60803,-5.03 10.60804,5.4492 35.36009,-3.7725 11.49204,10.8984 13.70204,-9.2217 4.42001,12.1558 13.70205,-7.5449 2.21,7.9641 32.70809,-9.2217 -4.86201,18.8624 c 0,0 24.31007,8.3834 41.54808,2.0958 1.768,4.1918 -0.884,11.7367 -0.884,11.7367 l 8.84,4.1917 0,10.8983 c 0,0 17.6801,14.2516 19.4481,18.0242 1.768,3.7724 5.7459,106.8872 -0.442,123.2346 4.862,0 7.9561,2.515 7.514,5.03 -0.4419,2.515 -3.978,9.6408 -3.978,9.6408 0,0 4.8621,6.7066 3.5361,8.8024 -1.3261,2.096 -3.9781,5.0301 -3.9781,5.0301 0,0 4.42,5.4491 3.0939,7.1258 -1.3259,1.6766 -8.8399,4.6108 -11.9339,6.2874 3.536,3.3534 6.63,10.4792 3.978,12.1559 -2.652,1.6766 -8.84,2.9341 -8.84,2.9341 l -2.21,4.1917 c 0,0 -0.884,8.3833 -3.0939,8.8025 -2.2102,0.4192 -11.4922,-4.1917 -12.8182,-3.3534 -1.326,0.8383 -4.862,7.545 -7.0719,7.545 -2.21005,0 -9.28212,-7.9642 -9.28212,-7.9642 -0.9446,1.7916 -117.67112,4.7982 -127.29636,2.9343 -9.68361,-1.8753 -47.73614,2.515 -53.04016,2.515 -5.304,0 -27.40408,-1.2575 -30.49808,-2.0959 -3.09402,-0.8383 -15.47004,-3.7725 -19.89006,-3.3534 -4.42001,0.4192 -12.81803,4.6109 -17.68005,4.6109 -4.86201,0 -32.70808,-2.515 -38.01211,-2.0958 -5.30401,0.4192 -29.61408,2.0958 -33.59209,2.0958 -3.97801,0 -48.62014,-4.6109 -53.48216,-5.03 -4.86201,-0.4192 -26.07807,4.1917 -30.05608,3.7725 -3.97801,-0.4191 -26.52008,-4.1917 -33.5921,-3.7725 -7.07201,0.4191 -33.59209,-5.4492 -35.3601,-5.03 -1.76801,0.4192 -4.43789,0.8374 -20.77406,0 8.39803,-6.2875 5.74602,-11.7366 5.74602,-11.7366 l -6.18801,-3.3534 0.88399,-3.7725 -12.81804,-6.2874 1.76801,-4.6108 0.884,-7.5451 -12.81804,-5.8683 20.33206,-16.7666 z"
       id="path3894"
       inkscape:connector-curvature="0"
       sodipodi:nodetypes="cccccccccccccccccccccccccccccccscscccccsccssscssssssssssscccccccccc" />
    <path
       style="fill:#ffffff;stroke:none;stroke-width:1px;stroke-linecap:butt;stroke-linejoin:miter;stroke-opacity:1;color:#000000;fill-opacity:1;fill-rule:nonzero;marker:none;visibility:visible;display:inline;overflow:visible;enable-background:accumulate"
       d="m 818.04625,2447.3394 c 1.81385,78.9025 3.6277,268.4498 28.11468,311.9822 24.48697,43.5324 33.55622,70.7401 98.85481,79.8094 -68.92629,-32.6493 -89.78557,-105.2033 -96.13404,-230.3589 -6.34847,-125.1557 43.5324,-212.2205 43.5324,-212.2205 l -68.01937,-3.6277 z"
       id="path3896"
       inkscape:connector-curvature="0" />
    <path
       style="color:#000000;display:inline;overflow:visible;visibility:visible;fill:#ffffff;fill-opacity:1;fill-rule:nonzero;stroke:none;stroke-width:1px;marker:none;enable-background:accumulate"
       d="m 688.30578,2523.7925 c 11.7008,-3.6193 11.7008,-10.8579 6.82547,-20.1072 3.41274,-0.4022 15.11353,2.0107 13.16339,-4.4236 2.92521,-0.8043 6.82547,-0.8043 4.3878,-6.0323 3.41274,-0.4021 13.1634,1.6086 10.72574,-3.6193 6.33793,-1.2064 65.81698,-2.815 87.26844,-0.8043 21.45145,2.0108 78.98037,0.4022 84.83077,0 5.85039,-0.4021 50.70345,0 54.60372,0 3.90026,0 19.50131,4.4236 24.37665,6.8365 7.313,-3.2172 16.57613,-2.0107 16.57613,-2.0107 0,0 0,13.673 1.4626,14.8794 1.4626,1.2064 8.77561,-2.0107 10.23821,0 1.4626,2.0107 -10.23821,14.0751 -8.77561,14.4773 1.4626,0.4021 13.16341,4.8257 13.16341,6.4343 0,1.6085 -9.26314,9.2493 -8.77561,9.6514 0.48753,0.4021 7.80051,5.6301 6.82551,10.0537 8.7756,1.6086 13.1634,5.63 15.601,8.445 -3.9002,5.228 -13.1634,10.0537 -15.1135,12.8687 2.4377,4.8257 8.7756,11.2601 7.3129,13.2708 -1.4626,2.0108 -8.288,1.6086 -13.16331,-0.8042 1.95011,6.0321 1.46261,54.2895 -7.313,71.984 2.43767,4.0214 6.82546,6.8364 7.80051,10.8579 0.9751,4.0215 -1.95011,10.4558 -1.46258,12.4665 0.48753,2.0107 4.38778,8.8472 3.90028,12.0644 -0.4876,3.2171 -2.4377,6.4343 -5.36288,8.445 -0.48754,3.2172 1.95013,5.6301 -0.48754,6.4344 -2.43766,0.8043 -12.18833,-3.6194 -14.62599,-2.8151 -2.43767,0.8043 -0.48753,11.6623 -2.9252,13.673 -2.43767,2.0107 -55.09125,7.2386 -66.79205,2.815 -12.18832,-0.8043 -102.38196,16.488 -139.92202,9.6515 -4.38779,-0.8042 -3.41272,-3.6193 -6.82545,-4.4236 -3.41274,-0.8043 -5.36288,2.0108 -12.67587,1.2065 -6.33793,-4.0215 -14.62599,-4.4237 -27.78939,-23.7267 -4.38779,0 -11.70079,2.0107 -12.67587,-1.2064 -0.97506,-3.2172 0.48754,-5.63 0.48754,-5.63 0,0 -4.87534,1.2064 -5.36287,-1.2065 -0.48753,-2.4128 6.33794,-8.8471 5.85041,-10.0535 -0.48754,-1.2066 -14.13847,2.4128 -14.626,-0.4023 -0.48753,-2.815 5.36286,-9.6514 4.87533,-11.6622 -0.48754,-2.0107 -24.37666,-32.9759 -16.57613,-127.0779 3.90027,-1.2065 7.80053,-2.4129 7.313,-4.0215 -0.48753,-1.6086 -6.33794,-4.8258 -6.33794,-4.8258 z"
       id="path3915"
       inkscape:connector-curvature="0" />
    <path
       style="color:#000000;fill:#ffffff;fill-opacity:1;fill-rule:nonzero;stroke:none;stroke-width:1px;marker:none;visibility:visible;display:inline;overflow:visible;enable-background:accumulate"
       d="m 2161.9635,2759.6873 c 75.5442,-65.8317 129.3057,-115.4309 140.8923,-189.8298 11.5865,-74.3988 -1.8538,-91.5331 -5.5615,-100.5511 -12.977,1.8036 -33.8327,13.978 -38.0039,19.3888 1.8539,-19.8397 -11.5865,-82.5151 -31.9788,-107.3147 -20.3923,-24.7996 -39.3943,-7.6653 -39.3943,-7.6653 0,0 61.177,94.6894 55.1519,157.8157 12.0501,-12.6253 34.7597,-36.974 40.3212,-32.465 5.5615,4.5091 8.3423,64.9299 -3.7077,92.4349 -12.05,27.5051 -38.9308,101.9039 -117.7192,168.1865 z"
       id="path3923"
       inkscape:connector-curvature="0" />
    <path
       style="fill:#ffffff;stroke:none;stroke-width:1px;stroke-linecap:butt;stroke-linejoin:miter;stroke-opacity:1;color:#000000;fill-opacity:1;fill-rule:nonzero;marker:none;visibility:visible;display:inline;overflow:visible;enable-background:accumulate"
       d="m 1846.2,2353.2992 c 0,0 37.5681,7.7521 43.5312,11.9264 5.9632,4.1742 29.8159,-2.9816 -3.5779,44.7238 33.9901,-15.5043 60.8244,-32.2012 73.3471,-30.4122 -5.3668,11.9263 -11.33,27.4306 -11.33,27.4306 0,0 31.0085,-12.5227 36.9717,-11.9263 -1.789,5.3668 2.3853,16.1005 2.3853,16.1005 l 16.1005,-2.3852 4.7706,14.3116 c 0,0 64.4023,-25.0454 72.1544,-22.0638 7.7522,2.9816 -3.5779,34.5865 -3.5779,34.5865 l 17.2933,-12.5227 8.3484,0.5963 20.2748,-20.2748 6.5595,11.33 4.7705,-4.1742 9.5411,4.7706 22.6601,-17.2933 7.7521,1.789 19.6785,27.4306 10.7338,-12.5227 5.3668,-0.5963 35.1828,1.1927 2.3852,-2.9816 5.9632,-1.1927 8.3485,-5.9631 4.7705,-13.7154 10.1374,0 20.2748,12.5227 9.5411,8.3485 7.1558,-20.2748 4.1742,-2.3853 1.1927,-12.5227 23.2564,9.5411 7.1558,5.9632 1.7889,-10.7337 7.7522,-0.5964 14.3116,4.1743 15.5043,11.33 23.2564,12.5227 -35.1828,-45.9165 -8.3484,-8.3484 30.4122,-8.3485 0,-95.4108 -11.9264,-131.19 -519.3928,6.5595 -13.119,86.4661 0.5963,76.925 -2.9816,25.6417 26.238,8.9448 -25.6417,13.7153 16.1006,9.541 z"
       id="path3931"
       inkscape:connector-curvature="0" />
  </g>
  <g
     inkscape:groupmode="layer"
     id="layer1"
     inkscape:label="txt">
    <flowRoot
       xml:space="preserve"
       id="flowRoot2987"
       style="font-style:normal;font-variant:normal;font-weight:normal;font-stretch:normal;font-size:12px;line-height:100%;font-family:Lavi;-inkscape-font-specification:Lavi;letter-spacing:0px;word-spacing:0px;fill:#000000;fill-opacity:1;stroke:none"
       transform="matrix(1.7003403,0,0,1.7003403,-31.875868,-310.68657)"><flowRegion
         id="flowRegion2989"><rect
           id="rect2991"
           width="973.52362"
           height="213.03587"
           x="120.55251"
           y="265.53046"
           style="font-style:normal;font-variant:normal;font-weight:normal;font-stretch:normal;line-height:100%;font-family:Lavi;-inkscape-font-specification:Lavi" /></flowRegion><flowPara
         id="flowPara2993"
         style="font-style:normal;font-variant:normal;font-weight:normal;font-stretch:normal;font-size:48px;line-height:100%;font-family:'Nanum Pen Script OTF';-inkscape-font-specification:'Nanum Pen Script OTF'">포션 대회 전날 밤</flowPara><flowPara
         id="flowPara2995"
         style="font-style:normal;font-variant:normal;font-weight:normal;font-stretch:normal;font-size:48px;line-height:100%;font-family:'Nanum Pen Script OTF';-inkscape-font-specification:'Nanum Pen Script OTF'">         오전 2월</flowPara></flowRoot>    <flowRoot
       xml:space="preserve"
       id="flowRoot2987-4"
       style="font-style:normal;font-variant:normal;font-weight:normal;font-stretch:normal;font-size:12px;line-height:125%;font-family:Lavi;-inkscape-font-specification:Lavi;text-align:center;letter-spacing:0px;word-spacing:0px;text-anchor:middle;fill:#000000;fill-opacity:1;stroke:none"
       transform="matrix(1.3847919,0,0,1.4023602,172.3364,1867.4584)"><flowRegion
         id="flowRegion2989-5"><rect
           id="rect2991-7"
           width="602.40173"
           height="310.73996"
           x="120.55251"
           y="265.53046"
           style="font-style:normal;font-variant:normal;font-weight:normal;font-stretch:normal;font-family:Lavi;-inkscape-font-specification:Lavi;text-align:center;text-anchor:middle" /></flowRegion><flowPara
         style="font-style:normal;font-variant:normal;font-weight:normal;font-stretch:normal;font-size:48px;line-height:100%;font-family:'Nanum Pen Script OTF';-inkscape-font-specification:'Nanum Pen Script OTF';text-align:center;text-anchor:middle"
         id="flowPara3033">드디어 ...</flowPara><flowPara
         style="font-style:normal;font-variant:normal;font-weight:normal;font-stretch:normal;font-size:48px;line-height:100%;font-family:'Nanum Pen Script OTF';-inkscape-font-specification:'Nanum Pen Script OTF';text-align:center;text-anchor:middle"
         id="flowPara3798"> 이 포션이면, 사프란도, 아니</flowPara><flowPara
         style="font-style:normal;font-variant:normal;font-weight:normal;font-stretch:normal;font-size:48px;line-height:100%;font-family:'Nanum Pen Script OTF';-inkscape-font-specification:'Nanum Pen Script OTF';text-align:center;text-anchor:middle"
         id="flowPara3363">아무도 나를 이길 수 없어!</flowPara></flowRoot>    <flowRoot
       xml:space="preserve"
       id="flowRoot2987-4-8"
       style="font-style:normal;font-variant:normal;font-weight:normal;font-stretch:normal;font-size:12px;line-height:125%;font-family:Lavi;-inkscape-font-specification:Lavi;text-align:center;letter-spacing:0px;word-spacing:0px;text-anchor:middle;fill:#000000;fill-opacity:1;stroke:none"
       transform="matrix(1.3122827,0,0,1.290073,296.45508,2180.898)"><flowRegion
         id="flowRegion2989-5-9"><rect
           id="rect2991-7-4"
           width="602.40173"
           height="310.73996"
           x="120.55251"
           y="265.53046"
           style="font-style:normal;font-variant:normal;font-weight:normal;font-stretch:normal;font-family:Lavi;-inkscape-font-specification:Lavi;text-align:center;text-anchor:middle" /></flowRegion><flowPara
         style="font-style:normal;font-variant:normal;font-weight:normal;font-stretch:normal;font-size:48px;line-height:100%;font-family:'Nanum Pen Script OTF';-inkscape-font-specification:'Nanum Pen Script OTF';text-align:center;text-anchor:middle"
         id="flowPara3391">이제 누구한테</flowPara><flowPara
         style="font-style:normal;font-variant:normal;font-weight:normal;font-stretch:normal;font-size:48px;line-height:100%;font-family:'Nanum Pen Script OTF';-inkscape-font-specification:'Nanum Pen Script OTF';text-align:center;text-anchor:middle"
         id="flowPara3374">실험을 해봐야</flowPara><flowPara
         style="font-style:normal;font-variant:normal;font-weight:normal;font-stretch:normal;font-size:48px;line-height:100%;font-family:'Nanum Pen Script OTF';-inkscape-font-specification:'Nanum Pen Script OTF';text-align:center;text-anchor:middle"
         id="flowPara3376">하는데 ...</flowPara></flowRoot>    <flowRoot
       xml:space="preserve"
       id="flowRoot2987-4-8-2"
       style="font-style:normal;font-variant:normal;font-weight:normal;font-stretch:normal;font-size:12px;line-height:125%;font-family:Lavi;-inkscape-font-specification:Lavi;text-align:center;letter-spacing:0px;word-spacing:0px;text-anchor:middle;fill:#000000;fill-opacity:1;stroke:none"
       transform="matrix(1.7438997,0,0,1.7405645,1390.0724,1732.7189)"><flowRegion
         id="flowRegion2989-5-9-2"><rect
           id="rect2991-7-4-2"
           width="602.40173"
           height="310.73996"
           x="120.55251"
           y="265.53046"
           style="font-style:normal;font-variant:normal;font-weight:normal;font-stretch:normal;font-family:Lavi;-inkscape-font-specification:Lavi;text-align:center;text-anchor:middle" /></flowRegion><flowPara
         style="font-style:normal;font-variant:normal;font-weight:normal;font-stretch:normal;font-size:48px;line-height:100%;font-family:'Nanum Pen Script OTF';-inkscape-font-specification:'Nanum Pen Script OTF';text-align:center;text-anchor:middle"
         id="flowPara3380">다아아앙~</flowPara><flowPara
         style="font-style:normal;font-variant:normal;font-weight:normal;font-stretch:normal;font-size:48px;line-height:100%;font-family:'Nanum Pen Script OTF';-inkscape-font-specification:'Nanum Pen Script OTF';text-align:center;text-anchor:middle"
         id="flowPara3365">~그으으은아아아아!!!</flowPara></flowRoot>  </g>
</svg>
