<?xml version="1.0" encoding="UTF-8" standalone="no"?>
<svg
   xmlns:dc="http://purl.org/dc/elements/1.1/"
   xmlns:cc="http://creativecommons.org/ns#"
   xmlns:rdf="http://www.w3.org/1999/02/22-rdf-syntax-ns#"
   xmlns:svg="http://www.w3.org/2000/svg"
   xmlns="http://www.w3.org/2000/svg"
   xmlns:xlink="http://www.w3.org/1999/xlink"
   xmlns:sodipodi="http://sodipodi.sourceforge.net/DTD/sodipodi-0.dtd"
   xmlns:inkscape="http://www.inkscape.org/namespaces/inkscape"
   id="svg2"
   version="1.1"
   inkscape:version="1.0.2-2 (e86c870879, 2021-01-15)"
   width="2481"
   height="3503"
   sodipodi:docname="E35P11.svg">
  <metadata
     id="metadata8">
    <rdf:RDF>
      <cc:Work
         rdf:about="">
        <dc:format>image/svg+xml</dc:format>
        <dc:type
           rdf:resource="http://purl.org/dc/dcmitype/StillImage" />
        <dc:title />
      </cc:Work>
    </rdf:RDF>
  </metadata>
  <defs
     id="defs6">
    <filter
       style="color-interpolation-filters:sRGB"
       id="filter4375-4-1-1-1-9-3-2-3-8-7-6-4-9"
       inkscape:label="deevad outline effect"
       x="-0.002101149"
       y="-0.0071745174"
       width="1.0042023"
       height="1.014349">
      <feFlood
         id="feFlood4377-7-9-0-8-1-6-9-6-7-5-32-7-4"
         flood-opacity="1"
         flood-color="rgb(95,141,211)"
         result="flood" />
      <feComposite
         id="feComposite4379-3-8-8-2-77-7-1-0-9-9-0-6-8"
         in2="SourceGraphic"
         in="flood"
         operator="in"
         result="composite1" />
      <feMorphology
         id="feMorphology4393-1-0-49-8-9-5-2-6-2-2-6-5-1"
         operator="dilate"
         radius="4"
         result="result3" />
      <feComposite
         id="feComposite4385-9-5-7-0-8-3-7-2-0-2-1-6-2"
         in2="result3"
         in="SourceGraphic"
         operator="over"
         result="composite2" />
    </filter>
  </defs>
  <sodipodi:namedview
     pagecolor="#ffffff"
     bordercolor="#666666"
     borderopacity="1"
     objecttolerance="10"
     gridtolerance="10"
     guidetolerance="10"
     inkscape:pageopacity="0"
     inkscape:pageshadow="2"
     inkscape:window-width="1366"
     inkscape:window-height="745"
     id="namedview4"
     showgrid="false"
     inkscape:zoom="0.46261216"
     inkscape:cx="1253.6146"
     inkscape:cy="1707.5098"
     inkscape:window-x="-8"
     inkscape:window-y="-8"
     inkscape:window-maximized="1"
     inkscape:current-layer="layer1"
     inkscape:document-rotation="0"
     inkscape:snap-global="false"
     inkscape:pagecheckerboard="0" />
  <g
     inkscape:groupmode="layer"
     id="layer2"
     inkscape:label="artwork"
     sodipodi:insensitive="true">
    <image
       sodipodi:absref="C:\Users\quentinlipeck\gfx_Pepper-and-Carrot_by-David-Revoy_E35P11.png"
       xlink:href="../gfx_Pepper-and-Carrot_by-David-Revoy_E35P11.png"
       y="0"
       x="0"
       id="image10"
       height="3503"
       width="2481" />
  </g>
  <g
     inkscape:groupmode="layer"
     id="layer3"
     inkscape:label="speechbubbles">
    <path
       style="color:#000000;display:inline;overflow:visible;visibility:visible;fill:#ffffff;fill-opacity:1;fill-rule:nonzero;stroke:none;stroke-width:1.05826px;marker:none;enable-background:accumulate"
       d="m 692.7246,1526.6704 c 28.1693,-24.9106 272.04455,-35.5556 336.641,7.541 53.9173,35.9724 32.8807,122.5341 -15.0706,141.6334 -47.95088,19.099 -207.46599,13.6696 -277.37785,3.2265 -66.56578,-9.9423 -77.74329,-36.2614 -81.01761,-88.8787 -1.33637,-21.4761 8.65558,-38.612 36.82506,-63.5222 z"
       id="path4040-4-9-2"
       inkscape:connector-curvature="0"
       sodipodi:nodetypes="zssssz" />
    <path
       style="color:#000000;display:inline;overflow:visible;visibility:visible;fill:#ffffff;fill-opacity:1;fill-rule:nonzero;stroke:none;stroke-width:1.36564px;marker:none;enable-background:accumulate"
       d="m 672.87343,351.47617 c 33.46845,54.26318 16.77932,109.75225 -42.25383,148.97796 101.91057,-50.70471 112.5118,-145.0271 95.84592,-167.01491 -16.31806,-21.52888 -53.59209,18.03695 -53.59209,18.03695 z"
       id="path5010-4"
       inkscape:connector-curvature="0"
       sodipodi:nodetypes="ccsc" />
    <path
       style="display:inline;fill:#ffffff;stroke:none;stroke-width:0.593809"
       d="m 1189.7651,57.299 c -37.6383,0.291165 -75.9441,5.226017 -110.6114,20.596138 -18.9707,9.035479 -34.6736,26.398282 -38.8001,47.340992 -3.9744,20.62219 -2.5171,42.19634 3.4954,62.27217 7.1845,18.83833 23.1758,33.143 41.1121,41.62797 26.4023,13.35548 56.0864,18.26676 85.3259,20.41751 39.6467,3.26547 79.5432,6.45676 119.3042,3.28382 30.4333,-2.53403 60.9347,-10.51405 86.9358,-26.93945 14.8833,-9.57802 28.8059,-21.8084 36.8096,-37.87408 6.7527,-13.08567 8.326,-28.38022 6.1478,-42.81545 -2.6598,-17.3016 -11.6926,-33.4704 -24.9835,-44.85659 -15.9119,-14.191543 -36.2871,-21.85208 -56.4207,-27.88553 -27.3936,-7.963814 -55.8576,-11.472072 -84.239,-13.544453 -21.3271,-1.406949 -42.709,-1.66886 -64.0761,-1.623047 z"
       id="path3280-8-1"
       inkscape:connector-curvature="0"
       sodipodi:nodetypes="csssc" />
    <path
       style="color:#000000;display:inline;overflow:visible;visibility:visible;fill:#ffffff;fill-opacity:1;fill-rule:nonzero;stroke:none;stroke-width:0.835189px;marker:none;enable-background:accumulate"
       d="m 1960.671,80.042241 c -37.8267,0.406432 -76.7083,6.568789 -107.8814,22.208449 -25.9827,13.16571 -47.7404,31.61855 -56.5049,53.53875 -4.8723,13.03951 -6.4836,26.75881 -4.2773,40.16175 3.7551,21.10953 18.8488,40.74776 39.6511,56.00596 17.3432,12.70148 39.5947,22.1213 63.9257,26.47524 59.061,12.34459 120.6119,17.93543 182.0513,19.84518 58.3951,1.52074 117.6465,-1.50162 173.7952,-13.43241 36.8326,-8.85512 71.5953,-24.40452 93.7687,-47.26665 18.0717,-19.38443 23.3401,-43.2101 22.2548,-65.9967 -0.7119,-21.44646 -9.0972,-43.71351 -29.787,-60.02958 -19.5884,-15.127089 -48.4245,-22.876397 -76.9813,-24.641498 -70.5242,-7.607729 -142.0746,-5.079663 -213.1343,-6.383948 -28.9588,-0.270672 -57.9185,-0.607176 -86.8806,-0.484543 z"
       id="path4546-6-7"
       inkscape:connector-curvature="0"
       sodipodi:nodetypes="cscssssc" />
    <path
       style="color:#000000;display:inline;overflow:visible;visibility:visible;fill:#ffffff;fill-opacity:1;fill-rule:nonzero;stroke:none;stroke-width:0.911135px;marker:none;enable-background:accumulate"
       d="m 585.56528,1388.2962 c 27.28199,-25.3329 263.47568,-39.6345 326.03719,2.4936 52.21916,35.164 31.845,122.0411 -14.59574,141.8593 -46.44051,19.818 -200.93116,16.7802 -268.64091,7.3854 -64.46903,-8.9443 -75.29448,-35.0958 -78.46567,-87.6639 -1.29427,-21.4561 8.38294,-38.7418 35.66513,-64.0744 z"
       id="path4040-4-9"
       inkscape:connector-curvature="0"
       sodipodi:nodetypes="zssssz" />
    <path
       style="fill:#ffffff;fill-rule:evenodd;stroke:none;stroke-width:0.835067px;stroke-linecap:butt;stroke-linejoin:miter;stroke-opacity:1"
       d="m 1098.1269,1635.3672 c -31.0258,0.5292 -62.0235,1.9033 -92.9951,3.5033 -19.27815,1.2102 -38.79673,2.6242 -57.27148,7.7673 -23.79818,7.3117 -42.74754,24.0221 -52.53108,43.6906 -4.50493,9.1726 -7.65963,18.8015 -10.00189,28.5288 -2.13799,9.807 -1.83597,20.2335 2.76848,29.5244 5.30939,11.4002 14.23385,21.2601 23.76576,30.328 18.01746,16.3527 42.37596,27.9097 68.60289,30.9442 22.62892,3.1735 45.49672,4.8832 68.33642,6.5189 38.0596,2.161 76.2454,2.6084 114.3703,1.6943 32.0683,-0.8436 64.1324,-2.6968 95.9366,-6.3511 16.9042,-2.3063 34.1442,-5.957 48.3331,-14.4745 13.7891,-8.4789 23.1358,-21.6278 26.7009,-35.7024 3.5924,-10.7215 6.6541,-22.1468 3.687,-33.2548 -3.697,-13.3033 -11.9154,-25.2162 -19.6181,-37.0645 -8.023,-11.5813 -18.4446,-22.4945 -32.5517,-28.9713 -17.0734,-8.2989 -36.3941,-12.1337 -55.1391,-16.6768 -29.6432,-6.5835 -60.3582,-8.6408 -90.8913,-9.2747 -13.8276,-0.4409 -27.6623,-0.8326 -41.5017,-0.7297 z"
       id="path1079"
       inkscape:connector-curvature="0" />
    <path
       style="color:#000000;display:inline;overflow:visible;visibility:visible;fill:#ffffff;fill-opacity:1;fill-rule:nonzero;stroke:none;stroke-width:0.939237px;marker:none;enable-background:accumulate"
       d="m 1404.4998,1793.8153 c -45.9909,-29.4273 -78.0349,-27.5278 -104.8526,-18.0354 -25.7868,9.1275 -19.8278,10.3608 -19.8278,10.3608 l 10.5667,-48.0852 c -3.1179,-4.3789 71.5596,-1.8389 114.1137,55.7598 z"
       id="path3072-12"
       inkscape:connector-curvature="0"
       sodipodi:nodetypes="csccc" />
    <path
       style="display:inline;fill:#ffffff;stroke:none;stroke-width:0.937443"
       d="m 1354.0075,197.26 c -58.3138,0.61244 -117.3347,5.65217 -171.7094,19.95729 -44.5751,13.40841 -80.7022,39.48888 -93.1966,70.65607 -8.1272,21.54205 -7.3544,43.90721 -6.9013,65.92291 2.0562,25.03277 21.5897,48.3764 48.5284,65.83596 15.9193,10.52902 35.5233,18.38722 56.2508,24.24419 46.7177,13.62188 97.9836,19.68794 148.9505,20.68695 38.3013,0.56679 76.6045,-0.32408 114.8954,-0.81659 47.535,-1.01494 95.4037,-2.61858 141.9017,-9.58163 25.8456,-4.05371 51.9438,-9.95568 72.4808,-21.3243 26.9659,-14.93312 44.3651,-36.12379 53.2825,-58.2081 9.1463,-23.19766 6.9085,-47.76543 -2.0439,-70.83197 -7.7181,-22.04827 -22.3985,-43.79628 -47.8116,-59.63815 -26.2891,-16.59468 -60.5766,-26.71402 -95.5833,-32.83865 -53.8755,-9.84847 -110.0583,-12.37174 -165.7314,-13.72497 -17.7658,-0.34036 -35.5407,-0.36706 -53.3126,-0.33901 z"
       id="path3280-8-1-3"
       inkscape:connector-curvature="0"
       sodipodi:nodetypes="csssc" />
    <path
       style="display:inline;fill:#ffffff;stroke:none;stroke-width:0.920901"
       d="m 2014.2649,226.1866 c -50.7795,0.51905 -102.4597,9.31627 -149.2309,36.71618 -25.5941,16.1073 -46.7796,47.05952 -52.3468,84.39353 -5.3621,36.76262 -3.396,75.2223 4.7157,111.01093 9.693,33.5826 31.2676,59.08314 55.4661,74.20908 35.6206,23.80845 75.6688,32.56366 115.1172,36.39776 53.4892,5.82125 107.3153,11.51027 160.9586,5.85396 41.0591,-4.51735 82.2099,-18.74311 117.2892,-48.02423 20.0797,-17.07448 38.8633,-38.87726 49.6614,-67.51711 9.1105,-23.32748 11.2331,-50.59266 8.2944,-76.32597 -3.5885,-30.84309 -15.7751,-59.6668 -33.7065,-79.96465 -21.4674,-25.29889 -48.9565,-38.9551 -76.1197,-49.71079 -36.958,-14.19688 -75.3601,-20.45096 -113.6507,-24.14535 -28.7734,-2.50813 -57.6207,-2.97503 -86.448,-2.89334 z"
       id="path3280-8-1-1"
       inkscape:connector-curvature="0"
       sodipodi:nodetypes="csssc" />
    <path
       style="display:inline;fill:#ffffff;stroke:none;stroke-width:0.792734"
       d="m 2051.2803,512.42969 c -46.1535,0.18487 -92.8257,6.32564 -135.5869,22.10775 -11.649,4.24066 -22.8551,9.55499 -32.5881,16.67052 -24.1717,17.13429 -41.2227,42.40621 -44.7888,69.72533 -4.4574,26.74245 1.2793,55.62763 20.0269,77.48593 19.7513,23.18242 49.0493,38.7689 79.916,47.84477 33.3266,10.56549 68.882,13.79117 104.047,15.21843 53.1864,3.83831 106.7207,2.99293 159.8494,-1.13563 24.8451,-1.92176 49.9474,-4.64216 73.3909,-12.54448 24.7525,-8.23697 46.949,-22.40607 63.6518,-40.48289 14.1769,-15.45553 24.2417,-34.29083 26.0476,-54.26521 3.6976,-34.84717 -13.2991,-71.45215 -45.5081,-92.37888 -27.7108,-18.65957 -61.5629,-28.21538 -95.0737,-35.26583 -56.75,-11.61817 -115.3722,-13.15605 -173.384,-12.97981 z"
       id="path3280-8-1-1-8"
       inkscape:connector-curvature="0"
       sodipodi:nodetypes="csssc" />
    <path
       style="fill:#ffffff;fill-rule:evenodd;stroke:none;stroke-width:1px;stroke-linecap:butt;stroke-linejoin:miter;stroke-opacity:1"
       d="m 1917.1509,703.14914 c -35.1448,34.55495 -40.918,43.76621 -48.2945,59.20991 -7.3765,15.44359 -1.4166,45.82505 15.3336,59.77726 16.7502,13.95231 20.6476,39.75145 6.4656,51.09426 -14.1819,11.34295 -70.6572,56.04997 -12.3413,98.68519 -52.1304,-50.93005 4.6214,-80.3316 15.046,-87.77901 10.4245,-7.44749 30.9525,-25.50425 13.4446,-59.50485 -17.5082,-34.00062 -21.7713,-50.818 31.7495,-83.72489 53.5207,-32.90685 -21.4035,-37.75787 -21.4035,-37.75787 z"
       id="path1081"
       inkscape:connector-curvature="0"
       sodipodi:nodetypes="ccccccssc" />
    <path
       style="color:#000000;display:inline;overflow:visible;visibility:visible;fill:#ffffff;fill-opacity:1;fill-rule:nonzero;stroke:none;stroke-width:1.4638px;marker:none;enable-background:accumulate"
       d="m 1446.9857,442.25247 c 38.5518,83.9689 2.5856,139.06018 -54.1917,168.09629 98.918,-30.2652 116.1188,-134.92733 86.7076,-167.77583 -23.1309,-25.83416 -32.5159,-0.32046 -32.5159,-0.32046 z"
       id="path5010-4-3"
       inkscape:connector-curvature="0"
       sodipodi:nodetypes="ccsc" />
    <path
       style="color:#000000;display:inline;overflow:visible;visibility:visible;fill:#ffffff;fill-opacity:1;fill-rule:nonzero;stroke:none;stroke-width:0.861506px;marker:none;enable-background:accumulate"
       d="m 1708.9341,2344.6889 c 0.1396,-105.6475 -1.9817,-81.2211 156.3841,-79.1966 68.739,0.8787 150.308,10.6222 143.7753,157.3952 -5.1637,116.0161 -130.901,110.3132 -154.2725,113.5955 -23.2236,3.2615 -117.9728,-16.6744 -138.5725,-62.3724 -12.895,-28.6062 -8.0693,-101.383 -7.3144,-129.4217 z"
       id="path4546-6-59"
       inkscape:connector-curvature="0"
       sodipodi:nodetypes="cssssc" />
    <path
       style="fill:#ffffff;stroke:none;stroke-width:1.40498"
       d="m 720.93646,74.334276 c -50.55152,3.08778 -100.03953,15.416754 -149.93195,23.909777 -31.45318,6.242517 -62.81602,17.304637 -88.87367,37.942527 -16.49827,13.20659 -29.33925,31.97773 -35.29672,53.34425 -9.54535,30.12085 -9.93681,62.865 -5.11563,94.04195 3.84814,22.99347 12.27848,45.81666 27.54972,62.71498 15.19086,17.11859 34.15817,30.07813 54.65516,38.33478 17.69799,7.8496 36.26553,13.26302 55.14052,16.50527 42.14937,7.86858 85.03779,9.8885 127.74302,9.45199 43.67122,-0.77799 87.28472,-6.16766 129.93481,-16.42186 21.26672,-4.78213 42.71551,-11.63012 60.62503,-25.42823 19.75792,-15.0267 35.44362,-36.34047 44.53157,-60.59277 3.97062,-10.73934 5.91123,-22.25046 6.27639,-33.7908 0.74213,-14.8313 0.81776,-29.69103 1.10115,-44.53743 0.10717,-44.82775 -3.44038,-89.73925 -11.72081,-133.685824 -3.09725,-3.45486 -7.93984,-1.880213 -11.78697,-3.251442 C 857.91557,82.354172 789.57167,74.056384 720.93646,74.334276 Z"
       id="path3100-2"
       inkscape:connector-curvature="0"
       sodipodi:nodetypes="cccccccccccccc" />
    <path
       style="display:inline;fill:#ffffff;fill-rule:evenodd;stroke:none;stroke-width:1.14884px;stroke-linecap:butt;stroke-linejoin:miter;stroke-opacity:1"
       d="m 1876.2442,2473.0319 c 29.6781,34.3855 -48.3918,61.0872 -32.7914,98.1006 6.1219,14.5249 50.1858,21.814 59.4409,88.3499 -23.107,-54.5774 -70.7535,-56.808 -83.5614,-79.4341 -24.3256,-42.971 15.5983,-74.4437 22.7675,-83.4264 9.5884,-12.0136 34.1444,-23.59 34.1444,-23.59 z"
       id="path4186-80"
       inkscape:connector-curvature="0"
       sodipodi:nodetypes="cscssc" />
    <path
       style="color:#000000;display:inline;overflow:visible;visibility:visible;fill:#ffffff;fill-opacity:1;fill-rule:nonzero;stroke:none;stroke-width:0.472467px;marker:none;enable-background:accumulate"
       d="m 266.97992,2086.542 c 13.37453,-13.964 129.16447,-22.406 159.83419,0.5429 25.59955,19.1552 15.61147,66.8586 -7.1553,77.8463 -22.76671,10.9877 -98.5031,9.7123 -131.69666,4.7305 -31.60485,-4.7428 -36.91183,-19.0595 -38.46644,-47.8849 -0.63452,-11.7653 4.10957,-21.2709 17.48421,-35.2348 z"
       id="path4040-4-9-3"
       inkscape:connector-curvature="0"
       sodipodi:nodetypes="zssssz" />
    <path
       style="color:#000000;display:inline;overflow:visible;visibility:visible;fill:#ffffff;fill-opacity:1;fill-rule:nonzero;stroke:none;stroke-width:0.816531px;marker:none;enable-background:accumulate"
       d="m 354.58902,2078.2586 c 35.58146,-4.2267 52.48817,-58.2989 28.13393,-95.1145 44.43236,49.6051 29.57055,64.2564 4.74971,120.5184 -6.58837,14.934 -32.88364,-25.4039 -32.88364,-25.4039 z"
       id="path5010-4-5"
       inkscape:connector-curvature="0"
       sodipodi:nodetypes="ccsc" />
  </g>
  <g
     inkscape:groupmode="layer"
     id="layer1"
     inkscape:label="txt">
    <text
       xml:space="preserve"
       style="font-style:normal;font-variant:normal;font-weight:normal;font-stretch:normal;font-size:45px;line-height:1.25;font-family:Lavi;-inkscape-font-specification:Lavi;text-align:center;letter-spacing:0px;word-spacing:0px;text-anchor:middle;fill:#000000;fill-opacity:1;stroke:none"
       x="690.90973"
       y="179.30602"
       id="text4246-3-2-2"><tspan
         style="font-size:45px"
         sodipodi:role="line"
         x="690.90973"
         y="179.30602"
         id="tspan908">soweli Kawa li kama </tspan><tspan
         style="font-size:45px"
         sodipodi:role="line"
         x="690.90973"
         y="235.55602"
         id="tspan125">e len sin tawa mi. </tspan><tspan
         style="font-size:45px"
         sodipodi:role="line"
         x="690.90973"
         y="291.80603"
         id="tspan127">sina ken e ni la, </tspan><tspan
         style="font-size:45px"
         sodipodi:role="line"
         x="690.90973"
         y="348.05603"
         id="tspan129">sina pona.</tspan></text>
    <text
       xml:space="preserve"
       style="font-style:normal;font-variant:normal;font-weight:normal;font-stretch:normal;font-size:45px;line-height:1.25;font-family:Lavi;-inkscape-font-specification:Lavi;text-align:center;letter-spacing:0px;word-spacing:0px;text-anchor:middle;fill:#000000;fill-opacity:1;stroke:none"
       x="1235.6431"
       y="179.79465"
       id="text4246-3-2-2-3-3-3"><tspan
         style="font-size:45px"
         sodipodi:role="line"
         x="1235.6431"
         y="179.79465"
         id="tspan876-3">sina pona kin.</tspan></text>
    <text
       xml:space="preserve"
       style="font-style:normal;font-variant:normal;font-weight:normal;font-stretch:normal;font-size:45px;line-height:1.25;font-family:Lavi;-inkscape-font-specification:Lavi;text-align:center;letter-spacing:0px;word-spacing:0px;text-anchor:middle;fill:#000000;fill-opacity:1;stroke:none"
       x="1403.865"
       y="288.4176"
       id="text4246-3-2-2-3-3"><tspan
         style="font-size:45px"
         sodipodi:role="line"
         x="1403.865"
         y="288.4176"
         id="tspan941">pali mi li kama pali lili </tspan><tspan
         style="font-size:45px"
         sodipodi:role="line"
         x="1403.865"
         y="344.6676"
         id="tspan107">tan pona sina la, mi wile </tspan><tspan
         style="font-size:45px"
         sodipodi:role="line"
         x="1403.865"
         y="400.9176"
         id="tspan109">pana e pona tawa sina kin.</tspan></text>
    <text
       xml:space="preserve"
       style="font-style:normal;font-variant:normal;font-weight:normal;font-stretch:normal;font-size:45px;line-height:1.25;font-family:Lavi;-inkscape-font-specification:Lavi;text-align:center;letter-spacing:0px;word-spacing:0px;text-anchor:middle;fill:#000000;fill-opacity:1;stroke:none"
       x="2084.6965"
       y="162.92047"
       id="text4246-3-2-2-3-3-67"><tspan
         style="font-size:45px"
         sodipodi:role="line"
         x="2084.6965"
         y="162.92047"
         id="tspan110">taso jan Wasapi li pilin </tspan><tspan
         style="font-size:45px"
         sodipodi:role="line"
         x="2084.6965"
         y="219.17047"
         id="tspan114">ike tan sina. sina o sona.</tspan></text>
    <text
       xml:space="preserve"
       style="font-style:normal;font-variant:normal;font-weight:normal;font-stretch:normal;font-size:45px;line-height:1.25;font-family:Lavi;-inkscape-font-specification:Lavi;text-align:center;letter-spacing:0px;word-spacing:0px;text-anchor:middle;fill:#000000;fill-opacity:1;stroke:none"
       x="2069.8462"
       y="308.0451"
       id="text4246-3-2-2-3-3-67-2"><tspan
         style="font-size:45px"
         sodipodi:role="line"
         x="2069.8462"
         y="308.0451"
         id="tspan145">ona li wile e pona </tspan><tspan
         style="font-size:45px"
         sodipodi:role="line"
         x="2069.8462"
         y="364.2951"
         id="tspan149">nanpa wan. jaki sina </tspan><tspan
         style="font-size:45px"
         sodipodi:role="line"
         x="2069.8462"
         y="420.5451"
         id="tspan157">en len sina en kama </tspan><tspan
         style="font-size:45px"
         sodipodi:role="line"
         x="2069.8462"
         y="476.7951"
         id="tspan161">ike sina la, sina </tspan><tspan
         style="font-size:45px"
         sodipodi:role="line"
         x="2069.8462"
         y="533.0451"
         id="tspan163">nasa e ni.</tspan></text>
    <text
       xml:space="preserve"
       style="font-style:normal;font-variant:normal;font-weight:normal;font-stretch:normal;font-size:45px;line-height:1.25;font-family:Lavi;-inkscape-font-specification:Lavi;text-align:center;letter-spacing:0px;word-spacing:0px;text-anchor:middle;fill:#000000;fill-opacity:1;stroke:none"
       x="2104.2942"
       y="602.01355"
       id="text4246-3-2-2-3-3-67-2-3"><tspan
         style="font-size:45px"
         sodipodi:role="line"
         x="2104.2942"
         y="602.01355"
         id="tspan1132">sin la, sina utala e </tspan><tspan
         style="font-size:45px"
         sodipodi:role="line"
         x="2104.2942"
         y="658.26355"
         id="tspan113">ona! ona li wile ala pali </tspan><tspan
         style="font-size:45px"
         sodipodi:role="line"
         x="2104.2942"
         y="714.51355"
         id="tspan117">e lili taso tawa sina.</tspan></text>
    <text
       xml:space="preserve"
       style="font-style:normal;font-variant:normal;font-weight:normal;font-stretch:normal;font-size:45px;line-height:1.25;font-family:Lavi;-inkscape-font-specification:Lavi;text-align:center;letter-spacing:0px;word-spacing:0px;text-anchor:middle;fill:#000000;fill-opacity:1;stroke:none"
       x="349.56961"
       y="2138.6455"
       id="text4246-3-2-2-3-3-6-67"><tspan
         style="font-size:45px"
         sodipodi:role="line"
         x="349.56961"
         y="2138.6455"
         id="tspan1191-3">mi sona.</tspan></text>
    <text
       xml:space="preserve"
       style="font-style:normal;font-variant:normal;font-weight:normal;font-stretch:normal;font-size:45px;line-height:1.25;font-family:Lavi;-inkscape-font-specification:Lavi;text-align:center;letter-spacing:0px;word-spacing:0px;text-anchor:middle;fill:#000000;fill-opacity:1;stroke:none"
       x="745.62054"
       y="1438.3682"
       id="text4246-3-2-2-3-3-6"><tspan
         style="font-size:45px"
         sodipodi:role="line"
         x="745.62054"
         y="1438.3682"
         id="tspan909">tenpo ni la, </tspan><tspan
         style="font-size:45px"
         sodipodi:role="line"
         x="745.62054"
         y="1494.6182"
         id="tspan171">mi wile lape lili.</tspan></text>
    <text
       xml:space="preserve"
       style="font-style:normal;font-variant:normal;font-weight:normal;font-stretch:normal;font-size:45px;line-height:1.25;font-family:Lavi;-inkscape-font-specification:Lavi;text-align:center;letter-spacing:0px;word-spacing:0px;text-anchor:middle;fill:#000000;fill-opacity:1;stroke:none"
       x="869.08191"
       y="1583.2286"
       id="text4246-3-2-2-3-3-6-6"><tspan
         style="font-size:45px"
         sodipodi:role="line"
         x="869.08191"
         y="1583.2286"
         id="tspan949">mi pini e lape la, </tspan><tspan
         style="font-size:45px"
         sodipodi:role="line"
         x="869.08191"
         y="1639.4786"
         id="tspan175">mi ale li tawa.</tspan></text>
    <text
       xml:space="preserve"
       style="font-style:normal;font-variant:normal;font-weight:normal;font-stretch:normal;font-size:45px;line-height:1.25;font-family:Lavi;-inkscape-font-specification:Lavi;text-align:center;letter-spacing:0px;word-spacing:0px;text-anchor:middle;fill:#000000;fill-opacity:1;stroke:none"
       x="1120.4032"
       y="1715.861"
       id="text4246-3-2-2-3-3-6-2"><tspan
         style="font-size:45px"
         sodipodi:role="line"
         x="1120.4032"
         y="1715.861"
         id="tspan958">sina ken pali e ale. </tspan><tspan
         style="font-size:45px"
         sodipodi:role="line"
         x="1120.4032"
         y="1772.111"
         id="tspan182">taso o weka ala...</tspan></text>
    <text
       xml:space="preserve"
       style="font-style:normal;font-variant:normal;font-weight:normal;font-stretch:normal;line-height:0%;font-family:Lavi;-inkscape-font-specification:Lavi;letter-spacing:0px;word-spacing:0px;display:inline;fill:#ffffff;fill-opacity:1;stroke:#5f8dd3;stroke-width:0.992362;stroke-miterlimit:4;stroke-dasharray:none;stroke-opacity:1;filter:url(#filter4375-4-1-1-1-9-3-2-3-8-7-6-4-9)"
       x="787.65729"
       y="1584.5073"
       id="text4580-5-0-6-2-8-5-9-9"
       transform="matrix(0.71138619,-0.38856964,0.42362052,1.0933045,-1095.3818,1936.127)"><tspan
         sodipodi:role="line"
         id="tspan4582-6-9-1-3-9-5-3-3"
         x="787.65729"
         y="1584.5073"
         style="font-size:70px;line-height:1.25;fill:#ffffff;stroke:#5f8dd3">Tttello</tspan></text>
    <text
       xml:space="preserve"
       style="font-style:normal;font-variant:normal;font-weight:normal;font-stretch:normal;font-size:45px;line-height:1.25;font-family:Lavi;-inkscape-font-specification:Lavi;text-align:center;letter-spacing:0px;word-spacing:0px;text-anchor:middle;fill:#000000;fill-opacity:1;stroke:none"
       x="1861.7039"
       y="2364.5269"
       id="text4246-3-2-2-3-3-6-2-9"><tspan
         style="font-size:45px"
         sodipodi:role="line"
         x="1861.7039"
         y="2364.5269"
         id="tspan1080">jan ni pi</tspan><tspan
         style="font-size:45px"
         sodipodi:role="line"
         x="1861.7039"
         y="2420.7769"
         id="tspan104">wawa nasa </tspan><tspan
         style="font-size:45px"
         sodipodi:role="line"
         x="1861.7039"
         y="2477.0269"
         id="tspan106">li nasa.</tspan></text>
  </g>
</svg>
