<?xml version="1.0" encoding="UTF-8" standalone="no"?>
<svg
   xmlns:dc="http://purl.org/dc/elements/1.1/"
   xmlns:cc="http://creativecommons.org/ns#"
   xmlns:rdf="http://www.w3.org/1999/02/22-rdf-syntax-ns#"
   xmlns:svg="http://www.w3.org/2000/svg"
   xmlns="http://www.w3.org/2000/svg"
   xmlns:xlink="http://www.w3.org/1999/xlink"
   xmlns:sodipodi="http://sodipodi.sourceforge.net/DTD/sodipodi-0.dtd"
   xmlns:inkscape="http://www.inkscape.org/namespaces/inkscape"
   id="svg2"
   version="1.1"
   inkscape:version="1.0.2-2 (e86c870879, 2021-01-15)"
   width="2481"
   height="3503"
   sodipodi:docname="E34P08.svg">
  <metadata
     id="metadata8">
    <rdf:RDF>
      <cc:Work
         rdf:about="">
        <dc:format>image/svg+xml</dc:format>
        <dc:type
           rdf:resource="http://purl.org/dc/dcmitype/StillImage" />
        <dc:title />
      </cc:Work>
    </rdf:RDF>
  </metadata>
  <defs
     id="defs6" />
  <sodipodi:namedview
     pagecolor="#ffffff"
     bordercolor="#666666"
     borderopacity="1"
     objecttolerance="10"
     gridtolerance="10"
     guidetolerance="10"
     inkscape:pageopacity="0"
     inkscape:pageshadow="2"
     inkscape:window-width="1366"
     inkscape:window-height="745"
     id="namedview4"
     showgrid="false"
     inkscape:zoom="0.3478261"
     inkscape:cx="1464.891"
     inkscape:cy="2806.5472"
     inkscape:window-x="-8"
     inkscape:window-y="-8"
     inkscape:window-maximized="1"
     inkscape:current-layer="layer1"
     inkscape:document-rotation="0"
     inkscape:snap-global="false"
     borderlayer="true" />
  <g
     inkscape:groupmode="layer"
     id="layer2"
     inkscape:label="artwork"
     sodipodi:insensitive="true">
    <image
       sodipodi:absref="C:\Users\quentinlipeck\Downloads\webcomics-master-ec7d62e6553c2c63bb1cf2e799ee31f9cb9ce5e2\webcomics-master-ec7d62e6553c2c63bb1cf2e799ee31f9cb9ce5e2\ep34_The-Knighting-of-Shichimi\lang\gfx_Pepper-and-Carrot_by-David-Revoy_E34P08.png"
       xlink:href="../gfx_Pepper-and-Carrot_by-David-Revoy_E34P08.png"
       y="0"
       x="0"
       id="image10"
       height="3503"
       width="2481" />
  </g>
  <g
     inkscape:groupmode="layer"
     id="layer3"
     inkscape:label="speechbubbles"
     style="display:inline">
    <path
       style="color:#000000;display:inline;overflow:visible;visibility:visible;fill:#ffffff;fill-opacity:1;fill-rule:nonzero;stroke:none;stroke-width:0.770224px;marker:none;enable-background:accumulate"
       d="m 1858.8745,2602.7661 c 24.645,-31.5484 88.5186,-58.8546 134.0691,-29.1667 47.5832,1.2392 31.3766,-27.3129 31.3766,-27.3129 -2.2798,-13.3723 -128.0086,-31.4485 -165.4457,56.4796 z"
       id="path3984-7"
       inkscape:connector-curvature="0"
       sodipodi:nodetypes="cccc" />
    <path
       style="display:inline;fill:#ffffff;stroke:none;stroke-width:1.29874"
       d="m 2139.5807,2621.512 c -39.732,1.3215 -80.0519,11.8101 -112.5385,34.9217 -52.0268,38.4518 -77.6571,108.1916 -62.1474,170.3351 7.5004,33.8134 29.3504,64.8661 60.4817,81.645 30.274,16.6778 64.9382,23.4485 99.0946,27.236 50.4803,5.1036 102.0181,-0.9111 150.1128,-16.6787 27.1188,-9.4717 49.3649,-30.9912 59.8113,-57.2723 10.3673,-25.1757 12.2721,-52.7325 12.3085,-79.6078 -0.8573,-41.2041 -15.4633,-82.07 -41.0767,-114.7315 -12.0666,-15.388 -29.4552,-26.6063 -48.6879,-31.2174 -22.5825,-5.3865 -45.6993,-8.1083 -68.6603,-11.4217 -16.1452,-2.0286 -32.4067,-3.442 -48.6981,-3.2084 z"
       id="path3280-8-3"
       inkscape:connector-curvature="0"
       sodipodi:nodetypes="csssc" />
    <path
       style="color:#000000;display:inline;overflow:visible;visibility:visible;fill:#ffffff;fill-opacity:1;fill-rule:nonzero;stroke:none;stroke-width:0.748695px;marker:none;enable-background:accumulate"
       d="m 2162.2471,2472.571 c -44.1038,-0.9701 -88.8009,3.662 -130.1723,17.4105 -15.5416,5.29 -30.8673,12.7608 -41.0219,24.7234 -12.7073,15.1252 -18.9077,34.0355 -19.444,52.7878 -0.1105,18.5638 7.5743,37.6624 23.1016,50.5903 12.3955,10.1785 28.4711,15.6751 44.0995,20.7364 28.6479,9.1294 58.6768,14.2904 88.8097,17.5432 20.0434,2.1752 40.1685,3.74 60.3116,4.8757 17.8343,0.6093 35.6117,-1.6169 52.9295,-5.1354 25.0891,-4.5131 50.4334,-10.3879 72.3146,-22.4672 15.5639,-8.7345 28.7179,-21.7633 33.8379,-37.6643 6.9455,-20.4107 1.6753,-43.6413 -13.3223,-60.4231 -12.5088,-15.4162 -27.3725,-29.9854 -46.4002,-39.2111 -16.0513,-7.5829 -33.9015,-11.3046 -51.4373,-15.0934 -24.1708,-4.9277 -48.8502,-7.7894 -73.6064,-8.6728 z"
       id="path3970-3"
       inkscape:connector-curvature="0"
       sodipodi:nodetypes="cccscsc" />
    <path
       style="display:inline;fill:#ffffff;fill-rule:evenodd;stroke:none;stroke-width:1.1426px;stroke-linecap:butt;stroke-linejoin:miter;stroke-opacity:1"
       d="m 149.97784,2727.8221 c 39.86193,25.3881 32.52231,36.4715 -23.67073,32.7493 89.58912,38.9849 52.60569,44.8199 -4.1167,45.4852 38.07751,14.2393 80.20982,28.1736 -7.20414,51.8532 50.65722,3.8392 94.79578,9.2601 8.23329,46.395 44.91072,-1.5252 74.04332,-17.0708 19.8773,33.4765 73.51489,-22.7036 140.64956,-15.5544 102.59359,41.1192 36.95129,-16.6904 97.70046,-58.9891 76.15825,-12.7358 16.9296,-14.7717 38.47559,-20.3623 77.18751,8.1873 -7.54878,-20.5898 -30.29283,-53.2216 38.07913,-13.6455 -20.6692,-30.9668 -0.84903,-62.2391 68.1897,-16.3138 -10.28467,-23.3492 -78.5565,-32.2038 5.91036,-55.553 -58.18262,-2.3287 -40.13526,-18.1337 -3.08744,-37.2978 -69.28068,-10.5914 -35.0024,-23.4153 6.17499,-36.3882 -42.91247,-4.9448 -76.01888,-13.2721 -8.2334,-56.4017 -74.61274,17.9051 -53.02033,-12.3779 -49.40008,-33.6591 -34.43236,16.8984 -73.37075,43.4222 -76.15836,-7.2776 -46.18982,62.902 -63.67863,14.8123 -89.5375,-0.9097 -26.8957,74.8477 -87.8655,5.8661 -104.97483,0.9097 34.89138,30.635 40.98338,44.5059 -36.02094,10.0068 z"
       id="path1096"
       inkscape:connector-curvature="0"
       sodipodi:nodetypes="cccccccccccccccccccc" />
    <path
       style="fill:#ffffff;fill-rule:evenodd;stroke:none;stroke-width:1px;stroke-linecap:butt;stroke-linejoin:miter;stroke-opacity:1"
       d="m 276.69249,2637.35 c 22.24357,147.5922 76.16994,294.7462 66.72409,442.7767 39.32721,-7.5351 57.02691,-43.538 110.60404,61.3044 36.13567,-50.5432 43.46402,-9.9468 54.08883,20.3938 25.92501,-21.2619 53.62712,-17.4156 81.20022,-15.3921 -24.07084,-2.6294 -42.56765,-23.176 -74.42406,-0.7793 -0.99204,-50.5675 -24.7242,-64.2967 -53.19608,-40.6932 -22.25284,-65.4923 -46.37098,-77.5206 -92.38131,-54.9383 1.82968,-175.1557 -47.49605,-279.4592 -67.44658,-422.2765 z"
       id="path1313"
       sodipodi:nodetypes="cccccccccc" />
    <path
       style="color:#000000;display:inline;overflow:visible;visibility:visible;fill:#ffffff;fill-opacity:1;fill-rule:nonzero;stroke:none;stroke-width:1.12295px;marker:none;enable-background:accumulate"
       d="m 137.94543,2993.4763 c 2.57481,-31.0073 8.37968,-55.6059 40.31649,-69.2461 31.93682,-13.64 90.00534,-16.3214 163.67617,-10.9557 39.46208,2.8741 95.53388,7.0592 126.98199,20.0161 31.4482,12.9564 38.27248,34.6841 34.95875,80.1047 -3.31371,45.4205 -14.9026,69.6159 -51.27921,80.8771 -36.37663,11.2613 -97.54109,9.5882 -110.85534,10.7341 -34.81312,-3.6077 -101.93998,1.509 -144.61363,-8.0393 -42.67375,-9.5484 -60.89408,-33.7618 -59.18522,-103.4909 z"
       id="path4546-6-0"
       inkscape:connector-curvature="0"
       sodipodi:nodetypes="cssssscsc" />
    <path
       style="fill:#ffffff;fill-rule:evenodd;stroke:none;stroke-width:1.44139px;stroke-linecap:butt;stroke-linejoin:miter;stroke-opacity:1"
       d="m 217.08242,2632.6315 c 36.90709,-46.3863 39.2881,-4.7461 58.31878,33.518 18.49928,-28.2702 5.37016,-34.2456 47.77595,2.1323 8.80076,-55.9816 28.70148,-39.7268 52.77387,-10.1131 -8.33465,-39.3659 -8.81213,-57.7935 28.15389,-23.9412 9.37569,-44.7216 28.08772,-12.1703 54.29681,9.5769 -6.36522,-50.5212 -9.43727,-50.3738 44.24189,-41.4974 -37.30857,-44.5139 12.34553,-24.4659 50.27471,-19.154 -56.92936,-34.5327 -36.38571,-28.4301 20.1101,-25.5372 -70.09485,-28.5853 -74.25014,-24.6282 -8.04407,-59.0552 -98.70585,10.321 -89.4022,9.0846 -24.13193,-51.0745 -39.18092,5.0956 -140.98295,76.6025 -78.42873,12.7693 -53.48141,16.8561 -77.40978,36.2555 -49.37466,-19.3728 l -19.66776,-0.9452 c -20.37926,20.2254 -44.11621,52.1598 -47.59527,10.7409 -29.76644,30.9566 -28.07601,36.1285 -42.23077,-3.1922 -19.66696,53.4411 -22.71029,12.0663 -34.18713,-22.345 -25.83448,32.106 -26.07555,68.8445 -42.23077,17.5565 -11.24706,52.1934 -34.0037,15.1554 -66.36284,-9.5758 10.09255,56.8064 12.97253,56.2267 -36.19797,20.7488 18.43992,51.8649 -0.12592,40.9762 -52.285671,38.3053 62.451481,45.812 42.560661,44.4277 -20.110112,76.613 35.01382,5.0988 97.345683,-26.5919 64.351853,15.9603 77.3397,-26.0306 15.08709,41.6628 -4.02196,76.6117 69.10198,-53.3508 97.75391,-96.5259 104.57179,-28.7294 z"
       id="path1309"
       inkscape:connector-curvature="0"
       sodipodi:nodetypes="ccccccccccccccccccccccccc" />
    <path
       style="display:inline;fill:#ffffff;stroke:none;stroke-width:0.887071"
       d="m 2005.3142,1896.8372 c -35.2643,2.3343 -70.0803,9.697 -100.9462,21.6512 -20.7561,8.0706 -39.7509,18.3094 -54.8376,30.7294 -39.3207,31.457 -59.7513,72.1928 -58.3543,112.04 -0.2214,33.1305 13.1146,66.5441 42.4284,93.2163 28.0819,26.1332 67.7718,47.5852 115.017,57.2553 27.6276,5.7808 56.1571,9.7696 84.875,12.8386 39.8159,2.8058 80.062,-2.8078 118.544,-10.2456 34.3331,-6.6184 68.6229,-16.1673 95.1871,-32.5853 29.3604,-18.1388 48.1348,-42.1459 62.4034,-66.3757 14.4748,-24.2752 22.2724,-50.6792 16.8009,-76.302 -4.7815,-26.1803 -14.3089,-52.557 -35.829,-74.8276 -21.0344,-21.6039 -52.5045,-38.3236 -88.2115,-48.7531 -46.818,-14.1461 -99.166,-19.2977 -150.9915,-19.816 -15.356,-0.034 -30.7428,0.2391 -46.0857,1.1745 z"
       id="path3280-5"
       inkscape:connector-curvature="0"
       sodipodi:nodetypes="csssc" />
    <path
       style="color:#000000;display:inline;overflow:visible;visibility:visible;fill:#ffffff;fill-opacity:1;fill-rule:nonzero;stroke:none;stroke-width:0.869755px;marker:none;enable-background:accumulate"
       d="m 631.52816,1840.5303 c 47.24511,-27.3875 115.83444,-55.1086 154.24551,3.9472 23.5574,-4.8627 69.71482,-40.1263 115.42935,17.7336 -47.53609,-35.9834 -78.50267,-15.4767 -118.07887,4.9225 -18.59072,-41.5285 -83.01307,-49.4207 -140.96132,7.1368 -57.94866,56.5566 -38.62415,45.003 -38.62415,45.003 l 10.52452,-62.5977 z"
       id="path5074-8"
       inkscape:connector-curvature="0"
       sodipodi:nodetypes="ccccsccc" />
    <path
       style="display:inline;fill:#ffffff;stroke:none;stroke-width:1.13451"
       d="m 446.68429,1809.6055 c -37.6608,0.6202 -76.1427,2.8871 -111.48813,14.1083 -46.54404,15.3776 -81.87753,50.1228 -91.86399,89.4906 -7.16487,26.0118 -6.4996,53.7456 4.47794,79.025 10.52269,23.3857 33.18283,42.7535 60.95543,53.7349 13.96883,5.7353 29.21286,9.0777 44.57081,11.4444 25.44022,4.2459 51.14335,7.586 77.00412,9.6772 57.79163,4.2645 117.84884,0.3106 171.3357,-18.7444 18.10996,-6.5084 35.79871,-14.7612 49.13408,-26.7076 18.34406,-17.5909 26.4495,-40.2604 31.32823,-62.4104 5.94153,-28.9396 2.06478,-60.0042 -16.35705,-85.7743 -18.97211,-26.0108 -52.17417,-44.2053 -88.19852,-52.0684 -36.18211,-8.5105 -74.08565,-10.583 -111.58246,-11.8245 -6.43852,-0.084 -12.87842,-0.064 -19.31616,0.049 z"
       id="path3280-5-9"
       inkscape:connector-curvature="0"
       sodipodi:nodetypes="csssc" />
    <path
       style="color:#000000;display:inline;overflow:visible;visibility:visible;fill:#ffffff;fill-opacity:1;fill-rule:nonzero;stroke:none;stroke-width:1.23214px;marker:none;enable-background:accumulate"
       d="m 1555.6124,284.94746 c 6.0676,-105.76337 71.0968,-182.47388 294.973,-163.46234 119.9204,10.18345 256.0449,16.63628 248.5465,171.56664 -7.4986,154.93009 -203.1001,151.7186 -243.4414,155.49977 -40.3409,3.78143 -230.475,-12.62073 -267.7163,-65.16602 -23.3124,-32.89174 -32.7301,-65.68853 -32.3618,-98.43805 z"
       id="path4546-7"
       inkscape:connector-curvature="0"
       sodipodi:nodetypes="cssssc" />
    <path
       style="fill:#ffffff;fill-rule:evenodd;stroke:none;stroke-width:1px;stroke-linecap:butt;stroke-linejoin:miter;stroke-opacity:1"
       d="m 1583.1971,228.38894 -0.065,25.78758 C 1064.4433,130.64867 897.1794,416.85146 793.5913,670.33743 810.89342,604.71047 848.83107,539.01086 867.11504,495.25305 921.33848,365.48369 1120.9039,126.81475 1583.1971,228.38894 Z"
       id="path1237"
       sodipodi:nodetypes="cccsc" />
    <path
       style="fill:#ffffff;fill-rule:evenodd;stroke:none;stroke-width:1.07745px;stroke-linecap:butt;stroke-linejoin:miter;stroke-opacity:1"
       d="m 792.00008,200.22561 c 33.7121,12.97476 64.18552,21.04152 53.82517,-32.7734 59.67262,73.06177 51.11263,23.02436 60.55332,5.4622 35.47754,51.61057 66.00304,44.25569 92.51203,-10.9244 14.9859,79.59467 46.3453,41.03052 74.0097,29.1319 -0.067,22.38327 -36.304,58.75533 63.962,16.82898 -23.3402,20.21595 -61.89,54.06155 8.0172,33.79483 -11.3289,5.35959 9.1441,9.60416 0.9908,12.75937 -36.4893,14.12075 -43.292,45.94822 12.0303,57.21953 -39.0932,12.56052 -47.9639,43.98583 -1.9312,80.13352 -58.4566,-24.94281 -49.6253,8.03409 -38.8085,23.94457 -57.4032,-32.71188 -65.4347,-19.61526 -60.5532,5.4622 -18.3198,-22.87975 -39.2236,-32.45983 -79.58358,6.55438 9.02795,-23.43417 -34.88368,-22.77173 -75.40616,14.31454 21.33941,-35.68177 -8.79121,-40.48012 -42.33642,-17.95604 -8.84776,-37.9175 -42.07125,-18.66554 -77.37369,5.46231 28.81487,-37.0083 30.90291,-67.92573 -25.23053,-85.57523 54.398,-21.17144 44.4926,-38.24845 23.54851,-54.62242 20.69208,-15.39734 34.18357,-32.16999 -20.18444,-61.90552 31.78763,4.6228 65.63406,10.58278 31.95869,-27.31132 z"
       id="path4582"
       inkscape:connector-curvature="0"
       sodipodi:nodetypes="cccccccscccccccccccc" />
    <path
       style="fill:#ffffff;fill-rule:evenodd;stroke:none;stroke-width:1.14149px;stroke-linecap:butt;stroke-linejoin:miter;stroke-opacity:1"
       d="m 186.64099,269.10219 c 14.16793,-17.9695 21.6656,-57.67395 -26.96962,-49.84375 39.28832,-24.22773 26.02054,-46.39487 -3.9116,-60.30611 73.97307,21.84758 73.30597,-3.1264 61.65626,-34.98976 47.54155,45.23929 40.41961,-2.73478 35.84699,-20.87523 10.75548,16.73933 13.0223,42.92164 49.60085,2.10678 -0.32028,30.13252 -6.17118,65.92523 62.1714,25.78584 -22.50387,36.76194 -23.29348,63.59943 42.00483,60.23151 -28.38205,11.84018 -67.58994,23.8538 -13.96314,34.38016 -34.61657,-0.92979 -57.61576,1.55757 -42.76886,15.17701 -14.37392,-2.5435 -33.83306,-9.95842 -3.30801,30.50934 -20.80242,-14.97453 -46.52652,-38.26005 -39.11492,-5.59088 -18.23798,-14.68676 -19.40407,6.8976 -15.2404,39.80566 -12.94537,-38.21825 -26.75878,-42.54053 -41.59034,-7.10557 6.55708,-27.98121 3.27152,-63.65454 -44.38626,-25.35425 -12.90735,-2.90399 -11.03497,-2.74842 -20.02718,-3.93075 z"
       id="path1213"
       sodipodi:nodetypes="cccccccccccccccc" />
    <path
       style="fill:#ffffff;fill-rule:evenodd;stroke:none;stroke-width:1.28731px;stroke-linecap:butt;stroke-linejoin:miter;stroke-opacity:1"
       d="M 223.92681,451.40352 C 191.03014,380.78428 162.95416,309.9462 234.75229,234.57441 l -10.34265,-15.32374 c -90.31546,91.35161 -49.21656,162.34365 -0.48283,232.15285 z"
       id="path1217"
       sodipodi:nodetypes="cccc" />
    <path
       style="fill:#ffffff;fill-rule:evenodd;stroke:none;stroke-width:1.08499px;stroke-linecap:butt;stroke-linejoin:miter;stroke-opacity:1"
       d="m 1643.7985,1929.1739 c 96.8015,-46.6867 120.9988,-40.2821 80.5755,28.3512 65.4725,-1.176 123.2483,3.9962 149.8904,34.8462 l 15.5883,-26.0596 c -31.2138,-18.9598 -72.3678,-35.221 -134.1445,-30.1606 20.9177,-34.9284 13.3859,-99.1339 -111.9097,-6.9772 z"
       id="path1284"
       sodipodi:nodetypes="cccccc" />
  </g>
  <g
     inkscape:groupmode="layer"
     id="layer1"
     inkscape:label="txt">
    <text
       xml:space="preserve"
       style="font-style:normal;font-variant:normal;font-weight:normal;font-stretch:normal;font-size:81.3623px;line-height:1.25;font-family:Lavi;-inkscape-font-specification:Lavi;text-align:center;letter-spacing:0px;word-spacing:0px;text-anchor:middle;fill:#000000;fill-opacity:1;stroke:none;stroke-width:1.408;stroke-miterlimit:4;stroke-dasharray:none"
       x="316.34204"
       y="221.56798"
       id="text4246-3-2-2-6-3-7-9-3-3-56-9-3-20"
       transform="matrix(0.93887237,0,-0.13753791,1.0651075,0,0)"><tspan
         style="font-style:normal;font-variant:normal;font-weight:normal;font-stretch:normal;font-size:81.3623px;font-family:Lavi;-inkscape-font-specification:Lavi;stroke:#000000;stroke-width:1.408;stroke-miterlimit:4;stroke-dasharray:none;stroke-opacity:1"
         sodipodi:role="line"
         x="316.34204"
         y="221.56798"
         id="tspan334">?!!</tspan></text>
    <text
       xml:space="preserve"
       style="font-style:normal;font-variant:normal;font-weight:normal;font-stretch:normal;font-size:55.0875px;line-height:1.25;font-family:Lavi;-inkscape-font-specification:Lavi;text-align:center;letter-spacing:0px;word-spacing:0px;text-anchor:middle;fill:#000000;fill-opacity:1;stroke:none;stroke-width:1.22417"
       x="980.52393"
       y="283.81088"
       id="text4246-3-2-2-6-3-7-9-3-3-56-9-3-20-3"
       transform="scale(0.97385246,1.0268496)"><tspan
         style="font-size:55.0875px;stroke-width:1.22417"
         sodipodi:role="line"
         x="980.52393"
         y="283.81088"
         id="tspan888">mi wile pini </tspan><tspan
         style="font-size:55.0875px;stroke-width:1.22417"
         sodipodi:role="line"
         x="980.52393"
         y="352.67026"
         id="tspan69">e pali <tspan
   style="font-weight:bold"
   id="tspan71">ona!</tspan></tspan></text>
    <text
       xml:space="preserve"
       style="font-style:normal;font-variant:normal;font-weight:normal;font-stretch:normal;font-size:48.8015px;line-height:1.25;font-family:Lavi;-inkscape-font-specification:Lavi;text-align:center;letter-spacing:0px;word-spacing:0px;text-anchor:middle;fill:#000000;fill-opacity:1;stroke:none;stroke-width:1.08448"
       x="1829.2006"
       y="208.50026"
       id="text4246-3-2-2-6-3-7-9-3-3-56-9-3-20-3-7"><tspan
         style="font-size:48.8015px;stroke-width:1.08448"
         sodipodi:role="line"
         x="1829.2006"
         y="208.50026"
         id="tspan914">mi pini e wawa pi </tspan><tspan
         style="font-size:48.8015px;stroke-width:1.08448"
         sodipodi:role="line"
         x="1829.2006"
         y="269.50214"
         id="tspan86">pona lukin la, </tspan><tspan
         style="font-size:48.8015px;stroke-width:1.08448"
         sodipodi:role="line"
         x="1829.2006"
         y="330.504"
         id="tspan90">tenpo ona li </tspan><tspan
         style="font-size:48.8015px;stroke-width:1.08448"
         sodipodi:role="line"
         x="1829.2006"
         y="391.50589"
         id="tspan92">weka ala.</tspan></text>
    <text
       xml:space="preserve"
       style="font-style:normal;font-variant:normal;font-weight:normal;font-stretch:normal;font-size:45px;line-height:1.25;font-family:Lavi;-inkscape-font-specification:Lavi;text-align:center;letter-spacing:0px;word-spacing:0px;text-anchor:middle;fill:#000000;fill-opacity:1;stroke:none"
       x="463.57349"
       y="1899.157"
       id="text4246-3-2-2-6-3-7-9-3-3-56-9-3-20-5"><tspan
         style="font-size:45px"
         sodipodi:role="line"
         x="463.57349"
         y="1899.157"
         id="tspan99">mi kama lon ni </tspan><tspan
         style="font-size:45px"
         sodipodi:role="line"
         x="463.57349"
         y="1955.407"
         id="tspan103">la, mi kama sona e </tspan><tspan
         style="font-size:45px"
         sodipodi:role="line"
         x="463.57349"
         y="2011.657"
         id="tspan107">ni lon tenpo sama.</tspan></text>
    <text
       xml:space="preserve"
       style="font-style:normal;font-variant:normal;font-weight:normal;font-stretch:normal;font-size:45px;line-height:1.25;font-family:Lavi;-inkscape-font-specification:Lavi;text-align:center;letter-spacing:0px;word-spacing:0px;text-anchor:middle;fill:#000000;fill-opacity:1;stroke:none"
       x="2062.0312"
       y="1998.6521"
       id="text4246-3-2-2-6-3-7-9-3-3-56-9-3-20-5-9"><tspan
         style="font-size:45px"
         sodipodi:role="line"
         x="2062.0312"
         y="1998.6521"
         id="tspan120">sina kama e utala pi </tspan><tspan
         style="font-size:45px"
         sodipodi:role="line"
         x="2062.0312"
         y="2054.9021"
         id="tspan124">jan Sisimi tawa mi la, </tspan><tspan
         style="font-size:45px"
         sodipodi:role="line"
         x="2062.0312"
         y="2111.1521"
         id="tspan126">mi pana e wawa lili </tspan><tspan
         style="font-size:45px"
         sodipodi:role="line"
         x="2062.0312"
         y="2167.4021"
         id="tspan128">tawa ike sina!</tspan></text>
    <text
       xml:space="preserve"
       style="font-style:normal;font-variant:normal;font-weight:normal;font-stretch:normal;font-size:60px;line-height:1.25;font-family:Lavi;-inkscape-font-specification:Lavi;text-align:center;letter-spacing:2px;word-spacing:0px;text-anchor:middle;fill:#000000;fill-opacity:1;stroke:none;stroke-width:1.32287"
       x="371.23419"
       y="2206.6519"
       id="text4246-3-2-2-6-3-7-9-3-3-56-9-3-20-5-9-0"
       transform="scale(0.860916,1.1615535)"><tspan
         style="font-style:normal;font-variant:normal;font-weight:bold;font-stretch:normal;font-size:60px;font-family:Lavi;-inkscape-font-specification:'Lavi Bold';stroke-width:1.32287"
         sodipodi:role="line"
         x="372.23419"
         y="2206.6519"
         id="tspan992-6">IKE JAKI A!</tspan></text>
    <text
       xml:space="preserve"
       style="font-style:normal;font-variant:normal;font-weight:normal;font-stretch:normal;font-size:58px;line-height:1.25;font-family:Lavi;-inkscape-font-specification:Lavi;text-align:center;letter-spacing:0px;word-spacing:0px;text-anchor:middle;fill:#000000;fill-opacity:1;stroke:none;stroke-width:1.30553"
       x="330.97919"
       y="2815.8735"
       id="text4246-3-2-2-6-3-7-9-3-3-56-9-3-20-5-2"><tspan
         style="font-size:58px;stroke-width:1.30553"
         sodipodi:role="line"
         x="330.97919"
         y="2815.8735"
         id="tspan1085">sina <tspan
   style="font-style:normal;font-variant:normal;font-weight:bold;font-stretch:normal;font-family:Lavi;-inkscape-font-specification:'Lavi Bold'"
   id="tspan950" /></tspan><tspan
         style="font-size:58px;stroke-width:1.30553"
         sodipodi:role="line"
         x="340.04169"
         y="2888.3735"
         id="tspan181"><tspan
   style="font-style:normal;font-variant:normal;font-weight:bold;font-stretch:normal;font-family:Lavi;-inkscape-font-specification:'Lavi Bold'"
   id="tspan183">ken ala</tspan> </tspan></text>
    <text
       xml:space="preserve"
       style="font-style:normal;font-variant:normal;font-weight:normal;font-stretch:normal;font-size:50px;line-height:1.25;font-family:Lavi;-inkscape-font-specification:Lavi;text-align:center;letter-spacing:0px;word-spacing:0px;text-anchor:middle;fill:#000000;fill-opacity:1;stroke:none;stroke-width:1.30553"
       x="322.56845"
       y="3004.1201"
       id="text4246-3-2-2-6-3-7-9-3-3-56-9-3-20-5-2-7"><tspan
         style="font-size:50px;stroke-width:1.30553"
         sodipodi:role="line"
         x="322.56845"
         y="3004.1201"
         id="tspan959">kulupu mi ale </tspan><tspan
         style="font-size:50px;stroke-width:1.30553"
         sodipodi:role="line"
         x="322.56845"
         y="3066.6201"
         id="tspan190">li lukin a!</tspan></text>
    <text
       xml:space="preserve"
       style="font-style:normal;font-variant:normal;font-weight:normal;font-stretch:normal;font-size:45px;line-height:1.25;font-family:Lavi;-inkscape-font-specification:Lavi;text-align:center;letter-spacing:0px;word-spacing:0px;text-anchor:middle;fill:#000000;fill-opacity:1;stroke:none"
       x="2163.2981"
       y="2546.0259"
       id="text4246-3-2-2-6-3-7-9-3-3-56-9-3-20-5-9-02"><tspan
         style="font-size:45px"
         sodipodi:role="line"
         x="2163.2981"
         y="2546.0259"
         id="tspan171">pona a li </tspan><tspan
         style="font-size:45px"
         sodipodi:role="line"
         x="2163.2981"
         y="2602.2759"
         id="tspan175">kama tawa sina!</tspan></text>
    <text
       xml:space="preserve"
       style="font-style:normal;font-variant:normal;font-weight:normal;font-stretch:normal;font-size:45px;line-height:1.25;font-family:Lavi;-inkscape-font-specification:Lavi;text-align:center;letter-spacing:0px;word-spacing:0px;text-anchor:middle;fill:#000000;fill-opacity:1;stroke:none"
       x="2160.4646"
       y="2717.9202"
       id="text4246-3-2-2-6-3-7-9-3-3-56-9-3-20-5-9-02-2"><tspan
         style="font-size:45px"
         sodipodi:role="line"
         x="2160.4646"
         y="2717.9202"
         id="tspan143">wawa Lonaa </tspan><tspan
         style="font-size:45px"
         sodipodi:role="line"
         x="2160.4646"
         y="2774.1702"
         id="tspan147">mi li lili ala lon </tspan><tspan
         style="font-size:45px"
         sodipodi:role="line"
         x="2160.4646"
         y="2830.4202"
         id="tspan151">tenpo ni la, mi </tspan><tspan
         style="font-size:45px"
         sodipodi:role="line"
         x="2160.4646"
         y="2886.6702"
         id="tspan155">awen e pali mi.</tspan></text>
  </g>
</svg>
