<?xml version="1.0" encoding="UTF-8" standalone="no"?>
<svg
   xmlns:dc="http://purl.org/dc/elements/1.1/"
   xmlns:cc="http://creativecommons.org/ns#"
   xmlns:rdf="http://www.w3.org/1999/02/22-rdf-syntax-ns#"
   xmlns:svg="http://www.w3.org/2000/svg"
   xmlns="http://www.w3.org/2000/svg"
   xmlns:xlink="http://www.w3.org/1999/xlink"
   xmlns:sodipodi="http://sodipodi.sourceforge.net/DTD/sodipodi-0.dtd"
   xmlns:inkscape="http://www.inkscape.org/namespaces/inkscape"
   id="svg2"
   version="1.1"
   inkscape:version="1.0.2 (1.0.2+r75+1)"
   width="2481"
   height="3503"
   sodipodi:docname="E34P09.svg">
  <metadata
     id="metadata8">
    <rdf:RDF>
      <cc:Work
         rdf:about="">
        <dc:format>image/svg+xml</dc:format>
        <dc:type
           rdf:resource="http://purl.org/dc/dcmitype/StillImage" />
        <dc:title />
      </cc:Work>
    </rdf:RDF>
  </metadata>
  <defs
     id="defs6">
    <filter
       style="color-interpolation-filters:sRGB"
       id="filter4375-4-1-1-1-9-5-8-8-5-5-3-3-3-0"
       inkscape:label="soundFX1">
      <feFlood
         id="feFlood4377-7-9-0-8-1-7-3-1-2-7-6-6-5-96"
         flood-opacity="1"
         flood-color="rgb(52,52,52)"
         result="flood" />
      <feComposite
         id="feComposite4379-3-8-8-2-77-4-1-0-6-4-7-7-6-3"
         in2="SourceGraphic"
         in="flood"
         operator="in"
         result="composite1"
         baseFrequency="0.053999999999999999 0.053999999999999999" />
      <feMorphology
         id="feMorphology4393-1-0-49-8-9-3-0-1-9-9-5-5-2-8"
         operator="dilate"
         radius="2.5856550817276021"
         result="result3" />
      <feComposite
         id="feComposite4385-9-5-7-0-8-8-7-5-4-9-3-3-9-5"
         in2="result3"
         in="SourceGraphic"
         operator="over"
         result="fbSourceGraphic" />
      <feColorMatrix
         result="fbSourceGraphicAlpha"
         in="fbSourceGraphic"
         values="0 0 0 -1 0 0 0 0 -1 0 0 0 0 -1 0 0 0 0 1 0"
         id="feColorMatrix4544-9-4-4-5-5-1-6" />
      <feTurbulence
         id="feTurbulence4546-3-6-5-6-6-2-1"
         type="fractalNoise"
         numOctaves="4"
         seed="147"
         baseFrequency="0.046080819231719368"
         result="turbulence" />
      <feDisplacementMap
         id="feDisplacementMap4548-8-0-9-2-2-7-1"
         in2="turbulence"
         in="fbSourceGraphic"
         scale="13.20326"
         yChannelSelector="G"
         xChannelSelector="R"
         result="fbSourceGraphic" />
      <feColorMatrix
         result="fbSourceGraphicAlpha"
         in="fbSourceGraphic"
         values="0 0 0 -1 0 0 0 0 -1 0 0 0 0 -1 0 0 0 0 1 0"
         id="feColorMatrix4670-7-7-3-9-9-0-5" />
      <feFlood
         id="feFlood4672-4-4-5-1-1-9-9"
         flood-opacity="1"
         flood-color="rgb(28,28,28)"
         result="flood"
         in="fbSourceGraphic" />
      <feComposite
         id="feComposite4674-8-3-7-2-2-3-8"
         in2="fbSourceGraphic"
         in="flood"
         operator="in"
         result="composite1" />
      <feGaussianBlur
         id="feGaussianBlur4676-3-7-08-7-7-6-4"
         in="composite1"
         stdDeviation="0"
         result="blur" />
      <feOffset
         id="feOffset4678-6-9-1-0-0-0-8"
         dx="-8.3919392296330813"
         dy="1.5526614972014983"
         result="offset" />
      <feComposite
         id="feComposite4680-4-0-9-9-9-6-1"
         in2="offset"
         in="fbSourceGraphic"
         operator="over"
         result="composite2" />
    </filter>
    <filter
       style="color-interpolation-filters:sRGB"
       id="filter4375-4-1-1-1-9-5-8-8-5-5-3-3-3-0-6"
       inkscape:label="soundFX1">
      <feFlood
         id="feFlood4377-7-9-0-8-1-7-3-1-2-7-6-6-5-96-3"
         flood-opacity="1"
         flood-color="rgb(52,52,52)"
         result="flood" />
      <feComposite
         id="feComposite4379-3-8-8-2-77-4-1-0-6-4-7-7-6-3-2"
         in2="SourceGraphic"
         in="flood"
         operator="in"
         result="composite1"
         baseFrequency="0.053999999999999999 0.053999999999999999" />
      <feMorphology
         id="feMorphology4393-1-0-49-8-9-3-0-1-9-9-5-5-2-8-0"
         operator="dilate"
         radius="2.5856550817276021"
         result="result3" />
      <feComposite
         id="feComposite4385-9-5-7-0-8-8-7-5-4-9-3-3-9-5-6"
         in2="result3"
         in="SourceGraphic"
         operator="over"
         result="fbSourceGraphic" />
      <feColorMatrix
         result="fbSourceGraphicAlpha"
         in="fbSourceGraphic"
         values="0 0 0 -1 0 0 0 0 -1 0 0 0 0 -1 0 0 0 0 1 0"
         id="feColorMatrix4544-9-4-4-5-5-1-6-1" />
      <feTurbulence
         id="feTurbulence4546-3-6-5-6-6-2-1-5"
         type="fractalNoise"
         numOctaves="4"
         seed="147"
         baseFrequency="0.046080819231719368"
         result="turbulence" />
      <feDisplacementMap
         id="feDisplacementMap4548-8-0-9-2-2-7-1-5"
         in2="turbulence"
         in="fbSourceGraphic"
         scale="13.20326"
         yChannelSelector="G"
         xChannelSelector="R"
         result="fbSourceGraphic" />
      <feColorMatrix
         result="fbSourceGraphicAlpha"
         in="fbSourceGraphic"
         values="0 0 0 -1 0 0 0 0 -1 0 0 0 0 -1 0 0 0 0 1 0"
         id="feColorMatrix4670-7-7-3-9-9-0-5-4" />
      <feFlood
         id="feFlood4672-4-4-5-1-1-9-9-7"
         flood-opacity="1"
         flood-color="rgb(28,28,28)"
         result="flood"
         in="fbSourceGraphic" />
      <feComposite
         id="feComposite4674-8-3-7-2-2-3-8-6"
         in2="fbSourceGraphic"
         in="flood"
         operator="in"
         result="composite1" />
      <feGaussianBlur
         id="feGaussianBlur4676-3-7-08-7-7-6-4-5"
         in="composite1"
         stdDeviation="0"
         result="blur" />
      <feOffset
         id="feOffset4678-6-9-1-0-0-0-8-6"
         dx="-8.3919392296330813"
         dy="1.5526614972014983"
         result="offset" />
      <feComposite
         id="feComposite4680-4-0-9-9-9-6-1-9"
         in2="offset"
         in="fbSourceGraphic"
         operator="over"
         result="composite2" />
    </filter>
  </defs>
  <sodipodi:namedview
     pagecolor="#ffffff"
     bordercolor="#666666"
     borderopacity="1"
     objecttolerance="10"
     gridtolerance="10"
     guidetolerance="10"
     inkscape:pageopacity="0"
     inkscape:pageshadow="2"
     inkscape:window-width="2560"
     inkscape:window-height="1390"
     id="namedview4"
     showgrid="false"
     inkscape:zoom="0.40227145"
     inkscape:cx="1250.7708"
     inkscape:cy="1893.8311"
     inkscape:window-x="0"
     inkscape:window-y="24"
     inkscape:window-maximized="1"
     inkscape:current-layer="layer1"
     inkscape:document-rotation="0"
     inkscape:snap-global="false"
     borderlayer="true" />
  <g
     inkscape:groupmode="layer"
     id="layer2"
     inkscape:label="artwork"
     sodipodi:insensitive="true">
    <image
       sodipodi:absref="/home/deevad/peppercarrot/webcomics/new-ep34_The-Knighting-of-Shichimi/lang/gfx_Pepper-and-Carrot_by-David-Revoy_E34P09.png"
       xlink:href="../gfx_Pepper-and-Carrot_by-David-Revoy_E34P09.png"
       y="0"
       x="0"
       id="image10"
       height="3503"
       width="2481" />
  </g>
  <g
     inkscape:groupmode="layer"
     id="layer3"
     inkscape:label="speechbubbles"
     style="display:inline">
    <path
       style="color:#000000;display:inline;overflow:visible;visibility:visible;fill:#ffffff;fill-opacity:1;fill-rule:nonzero;stroke:none;stroke-width:1.18931px;marker:none;enable-background:accumulate"
       d="m 1480.7595,2288.6897 c -25.979,-5.3737 -100.8882,-47.9371 -9.0155,-45.7139 -67.6159,-17.9093 -58.6275,-53.5519 -3.0623,-74.369 -72.8822,4.2548 -124.4026,0.6207 -86.8483,-36.1664 -97.9845,3.5955 -151.8957,10.2673 -135.811,-28.5578 -49.6615,42.6369 -97.2959,34.6793 -109.5668,-15.1981 -8.5684,35.2294 -101.0543,33.1271 -207.7976,12.6992 10.27099,14.5849 109.439,54.7735 -37.7883,45.7152 58.19478,26.0011 60.78139,39.3386 -38.24885,50.3382 50.46942,11.6971 82.65454,27.5422 3.99624,52.7159 50.96684,7.9508 131.59851,5.6199 33.68365,53.7673 64.55424,-22.7557 172.23806,-6.3139 125.82476,30.3911 126.4994,-41.2428 150.8293,-30.2458 169.9303,-0.6941 47.0348,-43.2711 115.0086,-38.37 154.5454,-13.2168 -19.2203,-38.3461 82.0709,-31.727 140.1583,-31.7108 z"
       id="path3549-3-78-5"
       inkscape:connector-curvature="0"
       sodipodi:nodetypes="ccccccccccccccc" />
    <path
       style="color:#000000;display:inline;overflow:visible;visibility:visible;fill:#ffffff;fill-opacity:1;fill-rule:nonzero;stroke:none;stroke-width:1.79204px;marker:none;enable-background:accumulate"
       d="m 1105.201,2415.5957 c -47.0147,-0.1986 -95.1249,7.5341 -134.9063,26.5677 -43.07583,20.8546 -72.39829,54.7659 -86.02701,90.992 -13.30428,35.4038 -10.77024,74.2782 9.41844,108.0147 9.28295,15.1175 24.57862,27.7161 40.70506,39.0839 10.27934,7.6225 22.43689,13.7668 35.61636,18.346 19.62298,6.8324 40.59465,11.292 61.59815,15.1598 35.7322,6.1862 72.9123,7.9244 109.373,4.642 25.179,-2.077 50.5176,-5.5156 73.8329,-13.0541 29.0792,-9.8408 54.4158,-24.9311 76.2155,-42.0352 14.2898,-11.4326 25.5341,-24.9656 32.0497,-39.7781 14.9926,-32.7738 11.563,-69.1116 -4.4672,-101.3125 -13.6808,-27.8254 -37.3667,-53.129 -69.0793,-71.437 -31.2694,-18.3714 -69.5348,-30.0737 -109.218,-33.66 -11.6364,-1.1141 -23.3793,-1.586 -35.1113,-1.5292 z"
       id="path3365-3"
       inkscape:connector-curvature="0"
       sodipodi:nodetypes="cssccsc" />
    <path
       style="display:inline;fill:#ffffff;fill-rule:evenodd;stroke:none;stroke-width:1.29144px;stroke-linecap:butt;stroke-linejoin:miter;stroke-opacity:1"
       d="m 93.694781,2156.3909 c 32.630549,30.8574 36.626689,52.4714 8.352329,40.773 27.5154,20.03 21.8231,24.7182 1.60977,34.2585 54.15923,48.7307 40.39763,86.9499 25.03855,124.922 55.91772,-24.8493 59.02885,6.288 73.70444,25.1653 11.54846,-43.7712 18.34461,-17.8269 23.81494,27.5699 11.57881,-56.0443 20.34256,-61.6651 26.54225,-21.306 11.37374,-36.0601 26.7699,-51.5487 46.78884,-43.3928 36.70301,-37.4945 51.67019,4.1634 73.66259,20.2383 -2.22675,-41.7013 13.28211,-55.1354 51.06488,-19.5232 -1.00244,-25.2632 25.30204,-28.7945 53.67214,3.0246 -39.71416,-65.085 19.76367,-10.3132 28.62453,-7.5121 -19.30433,-33.6727 -4.02255,-60.9073 71.32788,-23.1157 -23.97628,-5.2088 -40.36335,-45.2043 -7.96946,-64.97 -36.05928,-10.2007 -35.67936,-28.5678 -16.15645,-51.2256 -41.1715,-23.3119 0.12825,-57.9056 20.84975,-89.6838 -41.83867,19.9252 -75.23717,24.5915 -82.67972,-17.6687 -63.58146,43.3908 -54.07013,23.4236 -47.89124,6.345 -39.51044,46.6734 -46.5638,10.5331 -47.16742,-0.9467 -54.75349,52.6637 -104.07981,14.6369 -126.23272,-9.5538 -9.1908,60.1432 -31.78893,40.9975 -54.44263,21.525 16.88378,40.4049 -3.58952,40.2999 -26.50011,26.233 9.64027,27.4354 -5.02823,54.8493 -44.23474,20.3338 14.11635,17.9567 -5.75585,30.9595 -51.778399,-1.49 z"
       id="path4289-9"
       inkscape:connector-curvature="0"
       sodipodi:nodetypes="cccccccccccccccccccccccc" />
    <path
       style="fill:#ffffff;fill-rule:evenodd;stroke:none;stroke-width:1.98082px;stroke-linecap:butt;stroke-linejoin:miter;stroke-opacity:1"
       d="m 812.12889,1282.5905 c 53.81647,99.4908 74.23011,91.8249 82.59612,45.5102 14.70499,16.7287 17.83532,65.7919 59.91182,6.055 25.98058,43.3853 46.93237,37.8471 63.76387,-7.7766 45.132,82.2262 72.6515,34.731 96.8697,16.3788 61.1133,45.9914 229.1957,52.9818 302.7715,-6.3273 15.5837,21.1437 32.1893,37.7765 63.4324,-2.0991 -3.0567,48.2871 37.7123,8.1311 72.3301,-53.3394 -4.4341,36.1556 -27.1989,97.7803 20.0771,62.0868 5.4737,25.8367 1.1492,60.0215 102.2697,4.363 -29.4112,73.6231 55.6849,-1.3161 138.1425,-72.8314 -51.9659,62.3583 -122.9638,139.0722 -34.2161,114.0034 -49.8945,52.2418 -45.4247,71.4113 96.222,68.8344 -134.0664,26.903 -166.9724,62.1384 -86.8335,133.5658 -57.985,-33.6375 -141.2483,-38.2024 -69.6729,8.18 -72.1254,-37.1449 -82.5162,-19.1565 -56.8482,11.2782 -78.7462,-53.4717 -41.715,-10.6043 -37.3483,31.6017 -56.6879,-26.5881 -94.6387,-57.1242 -86.2934,10.9306 -58.9969,-52.2223 -69.0578,-33.4965 -75.9934,-10.2397 -104.7493,-78.9186 -91.1983,-31.7588 -111.3283,-20.4944 -30.2876,-29.1964 -29.521,-5.2355 -23.9375,26.9699 -28.987,-34.1221 -55.2476,-47.2744 -74.5219,-6.6781 -18.1599,-18.7715 -35.9809,-45.3685 -56.6649,-5.9163 -25.0134,-21.5201 -51.3962,-30.0747 -83.6981,17.4227 -13.7389,-28.6952 -34.011,-49.3529 -101.9668,-11.3478 -12.81023,-61.5693 -70.99231,-51.6206 -143.94646,-18.3871 2.23941,-36.1771 -3.52287,-59.9438 -79.1311,24.6153 15.7081,-36.9539 33.59875,-75.9085 -12.18754,-56.5023 28.73071,-70.702 -11.48471,-51.7636 -96.65195,-37.3147 87.00249,-41.1495 132.16763,-82.6352 48.15406,-81.9669 57.7376,-41.0834 53.20934,-62.6096 27.18392,-60.8175 3.94327,-12.6946 50.95977,-35.7517 -14.90367,-34.878 34.783,-17.2908 86.09321,-12.3213 72.41923,-94.8792 z"
       id="path4656"
       inkscape:connector-curvature="0"
       sodipodi:nodetypes="ccccccccccccccccccccccccccccccccc" />
    <path
       style="fill:#ffffff;fill-rule:evenodd;stroke:none;stroke-width:0.88858px;stroke-linecap:butt;stroke-linejoin:miter;stroke-opacity:1"
       d="m 759.19541,1241.283 c 23.87574,13.5269 85.11353,21.0234 2.433,61.3674 43.76687,0.9671 67.97938,1.7537 26.76279,19.124 56.00944,0.3154 1.18805,9.9013 -26.49922,19.2955 30.48234,-0.2589 75.65043,-7.2784 6.94877,24.6341 56.826,-9.2869 41.66355,2.0347 -15.59633,24.1629 55.50022,-18.0895 78.42746,-15.5403 54.89431,-1.2529 23.281,-4.4671 26.17156,9.3935 -19.85959,23.1786 62.63973,-18.6636 61.31095,-11.588 64.67747,34.6472 14.88908,-81.4311 17.42218,-18.0057 20.98895,21.1079 23.73457,-121.4005 55.82258,-31.7441 62.8579,-18.6724 -5.90437,-94.3594 37.35097,-55.4681 48.65972,-19.5954 -2.91536,-23.0122 10.95317,-69.487 52.34632,-13.1188 -9.8695,-20.7496 -3.1526,-42.2962 34.0246,9.0732 -11.2745,-34.3451 9.6112,-44.1683 74.6823,-11.8006 -0.5021,-17.0771 -6.8483,-35.014 61.5652,-4.833 -1.2835,-15.6767 -15.2326,-37.2075 77.8554,-9.2545 0.6074,-27.3754 15.6022,-29.1099 41.7269,-16.5125 -4.463,-23.4934 24.0681,-12.9018 60.23,2.7953 -23.0317,-32.042 8.3719,-28.6243 53.7544,-18.8217 -4.4068,-15.5655 -10.707,-31.5384 15.8144,-40.4365 -51.2782,-45.8169 -5.9183,-49.5374 9.7319,-54.4273 -25.6854,-1.4095 -44.886,-17.4541 -11.8084,-30.1681 -38.5133,7.4451 -24.3709,-15.1614 -22.2534,-27.4943 l -62.0411,-18.905 -60.8247,-8.3897 -72.9896,-8.3137 -68.1237,-1.3291 -69.3402,0.4324 -60.8246,3.8873 -52.30925,-8.4427 -53.5257,9.1027 -75.42258,-1.2836 -36.49479,30.0425 c 12.28937,28.7919 -26.54669,28.5474 -62.04117,30.2008 z"
       id="path4323"
       inkscape:connector-curvature="0"
       sodipodi:nodetypes="ccccccccccccccccccccccccccccccccccc" />
    <path
       style="color:#000000;display:inline;overflow:visible;visibility:visible;fill:#ffffff;fill-opacity:1;fill-rule:nonzero;stroke:none;stroke-width:1.29506px;marker:none;enable-background:accumulate"
       d="m 1926.575,2196.9193 c -39.1755,1.6625 -78.4763,1.7932 -117.4866,6.2878 -20.1258,2.6696 -40.2637,9.0988 -56.6433,21.9885 -22.4768,16.8362 -37.2517,43.9344 -40.6367,72.5415 -4.9376,30.1077 -8.1894,61.3223 -1.9679,91.5017 6.2612,24.0415 26.3622,42.3572 48.9773,48.7845 47.3776,15.7157 97.3106,20.5974 146.7884,21.6138 31.4418,0.6629 62.894,0.2292 94.3371,-0.023 44.2046,-1.1053 88.2559,-5.5872 132.1886,-10.5872 18.7295,-2.5703 37.7415,-5.7442 55.0874,-13.9192 18.2826,-8.9603 33.6929,-24.6461 41.6187,-44.1947 12.2838,-28.3165 12.1121,-61.2633 3.597,-90.6872 -8.6459,-29.0892 -27.6601,-54.751 -52.8268,-70.1975 -25.7934,-16.6745 -56.1784,-23.9269 -86.212,-25.4174 -53.9612,-4.6915 -108.0894,-7.6161 -162.2405,-7.8805 -1.5269,0.063 -3.0538,0.1256 -4.5807,0.1885 z"
       id="path4546-6-5-5"
       inkscape:connector-curvature="0"
       sodipodi:nodetypes="cssssc" />
    <path
       style="color:#000000;display:inline;overflow:visible;visibility:visible;fill:#ffffff;fill-opacity:1;fill-rule:nonzero;stroke:none;stroke-width:0.710908px;marker:none;enable-background:accumulate"
       d="m 427.36079,1539.322 c -18.49435,2.3317 -20.41009,4.4325 -21.96654,15.8617 -1.55611,11.4299 -0.85275,28.3587 -14.56075,40.6485 -13.70771,12.2903 -23.6764,10.0093 -30.31719,9.0645 4.26773,13.7681 1.4232,41.4005 9.47615,45.7822 8.05295,4.3816 -16.23573,2.0167 -16.23573,2.0167 0,0 -18.78665,-30.5045 -14.52874,-48.8854 4.25786,-18.3808 31.63742,-15.9961 42.0788,-22.7096 10.44133,-6.7135 10.50842,-30.2213 17.90427,-37.5835 7.39563,-7.363 19.29539,-5.4547 28.14973,-4.1951 z"
       id="path4538-7"
       inkscape:connector-curvature="0"
       sodipodi:nodetypes="ccscccsscc" />
    <path
       style="color:#000000;display:inline;overflow:visible;visibility:visible;fill:#ffffff;fill-opacity:1;fill-rule:nonzero;stroke:none;stroke-width:0.576009px;marker:none;enable-background:accumulate"
       d="m 269.38616,1653.529 c 23.98622,-18.7388 72.99975,-31.6297 113.83578,1.6461 32.33893,26.3516 21.53309,64.4595 4.25504,76.2832 -17.27802,11.8238 -72.26174,14.2552 -97.55286,8.4261 -19.52455,-4.5006 -40.92884,-15.7046 -42.10867,-45.5966 -0.48149,-12.2006 -2.41553,-22.02 21.57071,-40.7588 z"
       id="path4040-2-9"
       inkscape:connector-curvature="0"
       sodipodi:nodetypes="zssssz" />
    <path
       style="color:#000000;display:inline;overflow:visible;visibility:visible;fill:#ffffff;fill-opacity:1;fill-rule:nonzero;stroke:none;stroke-width:0.590855px;marker:none;enable-background:accumulate"
       d="m 248.38875,1580.4882 c 25.2386,-18.1575 76.81125,-29.8607 119.77943,4.4047 34.02742,27.1353 22.65738,64.9814 4.47719,76.3864 -18.18014,11.405 -76.0347,12.504 -102.64632,6.062 -20.54397,-4.9737 -43.06584,-16.6964 -44.30727,-46.617 -0.50663,-12.2123 -2.54165,-22.0785 22.69697,-40.2361 z"
       id="path4040-2"
       inkscape:connector-curvature="0"
       sodipodi:nodetypes="zssssz" />
    <path
       style="display:inline;fill:#ffffff;stroke:none;stroke-width:0.931723"
       d="m 1997.4497,1062.6294 c -1.6375,-25.9962 27.7227,-91.07497 170.9405,-86.1798 143.2177,4.89516 188.0427,33.4892 192.2396,79.6976 6.6392,73.1 -68.7075,92.6343 -176.8985,98.0493 -111.5333,5.5813 -188.0125,-44.5966 -186.2816,-91.5671 z"
       id="path3280-8-3-6"
       inkscape:connector-curvature="0"
       sodipodi:nodetypes="csssc" />
    <path
       style="display:inline;fill:#ffffff;stroke:none;stroke-width:1.58443"
       d="m 2050.3475,171.73242 c -54.9878,1.22741 -110.514,0.65377 -164.6376,11.64271 -36.0487,7.26866 -71.9232,18.24311 -103.2403,37.64919 -23.8524,15.61757 -40.8848,40.37176 -48.0452,67.52394 -9.2861,34.18818 -3.6113,72.58536 17.4449,101.60212 13.0888,18.28386 32.1325,31.94767 53.1062,40.32323 25.9994,11.11943 53.6657,17.69836 81.0727,24.49612 79.0324,18.23843 161.5839,23.55943 242.0292,11.66052 32.4247,-4.66315 64.6783,-11.36172 95.6346,-22.04822 29.2358,-10.79845 57.3594,-26.26921 78.8528,-48.85575 18.5158,-21.28933 26.6401,-49.8403 26.1455,-77.51336 -0.01,-24.0505 -6.033,-48.94976 -21.3532,-68.15825 -15.237,-18.42402 -36.5304,-30.59177 -57.7013,-41.34071 -31.8728,-15.26532 -66.9257,-22.13652 -101.5318,-28.50582 -32.2022,-5.93596 -65.0069,-8.90582 -97.7765,-8.47572 z"
       id="path3280-8-3"
       inkscape:connector-curvature="0"
       sodipodi:nodetypes="csssc" />
    <path
       style="color:#000000;display:inline;overflow:visible;visibility:visible;fill:#ffffff;fill-opacity:1;fill-rule:nonzero;stroke:none;stroke-width:0.674249px;marker:none;enable-background:accumulate"
       d="m 1790.5241,118.06982 c -22.1203,0.18933 -44.2415,0.22455 -66.3619,0.0344 -14.4828,-0.14349 -29.0392,0.0747 -43.3316,1.9339 -26.621,3.33547 -52.6074,10.36344 -74.7981,21.58126 -6.1839,3.15184 -12.1132,6.71023 -16.2066,11.37103 -15.3338,16.257 -15.8437,39.54684 0.601,55.49229 10.9794,10.35064 27.8321,16.12839 44.2361,20.81189 40.697,11.68115 84.8928,15.30029 128.4194,15.4305 37.5977,0.016 75.6167,3.38414 112.8605,-1.81956 32.6225,-4.66092 64.5865,-14.43113 89.1238,-30.91977 14.9476,-10.71873 22.3648,-27.36074 15.9913,-42.12219 -6.0507,-15.01303 -22.3689,-26.96879 -41.3717,-33.98225 -29.7416,-11.69586 -63.8344,-16.28689 -97.4005,-17.27415 -17.2411,-0.58807 -34.5056,-0.61588 -51.7617,-0.53739 z"
       id="path3525-8"
       inkscape:connector-curvature="0"
       sodipodi:nodetypes="cscsc" />
    <path
       style="fill:#ffffff;fill-rule:evenodd;stroke:none;stroke-width:1.06468px;stroke-linecap:butt;stroke-linejoin:miter;stroke-opacity:1"
       d="m 786.34361,430.16165 c 0,0 22.37691,25.375 30.38987,41.353 9.55841,41.6769 -15.08254,52.26548 -11.80509,72.946 4.69971,21.617 12.77263,34.196 42.40829,52.053 -36.46109,-14.098 -60.72938,-25.376 -65.42892,-46.992 -4.6996,-21.617 12.02504,-48.872 9.37974,-58.27 -2.64548,-9.399 -11.01511,-33.835 -33.19349,-51.692 -22.17826,-17.857 28.2496,-9.398 28.2496,-9.398 z"
       id="path1303"
       inkscape:connector-curvature="0"
       sodipodi:nodetypes="cccccccc" />
    <path
       style="color:#000000;display:inline;overflow:visible;visibility:visible;fill:#ffffff;fill-opacity:1;fill-rule:nonzero;stroke:none;stroke-width:1.08581px;marker:none;enable-background:accumulate"
       d="m 1287.2947,917.83003 c -56.3657,0.64035 -113.3236,6.5698 -165.4938,21.84197 -26.266,7.24292 -47.8405,21.46639 -61.3142,38.53855 -19.0488,22.02735 -26.4001,48.07455 -25.8056,73.52535 -0.3675,23.1206 2.1463,46.8443 15.0241,68.4362 10.7808,17.3748 25.3947,34.3981 47.7497,45.7869 17.0261,8.4111 38.0706,11.5011 58.5566,12.7798 49.8528,3.4046 100.2655,-3.5147 149.8648,2.6107 36.5272,3.9465 73.1652,9.8476 110.3759,8.1967 22.4105,-1.3956 43.8184,-6.5911 65.9386,-9.1661 14.5361,-1.74 29.8558,-2.888 42.677,-8.3585 3.655,-1.2358 5.8256,-3.6672 6.9988,-6.2827 2.9804,-6.6741 1.4539,-13.7699 0.839,-20.6047 -1.8711,-13.5389 -4.5453,-27.3626 -0.2431,-40.8187 4.7855,-28.72 14.0746,-57.4913 9.9592,-86.5416 -3.5378,-20.74533 -13.163,-41.58512 -32.3527,-58.00816 -17.3309,-13.36037 -41.694,-20.95132 -65.8836,-26.52074 -37.0755,-8.15933 -75.9138,-11.33738 -114.4587,-14.13618 -14.1093,-0.83605 -28.2683,-1.33223 -42.432,-1.27879 z"
       id="path4040-40"
       inkscape:connector-curvature="0"
       sodipodi:nodetypes="zsssszccccccccz" />
    <path
       style="display:inline;fill:#ffffff;stroke:none;stroke-width:0.971145"
       d="m 762.85789,60.048587 c -61.47394,2.815131 -129.93978,-2.670024 -162.97361,1.046542 -4.6999,92.592401 -22.12636,164.112331 -16.19937,208.091091 5.15768,36.42142 10.94884,72.83353 19.82925,108.75682 5.86437,20.32247 16.94168,40.28263 35.77886,54.31667 20.96327,16.11889 48.09656,24.80692 74.99596,31.18534 64.94608,15.44354 135.2811,16.74707 200.05347,-0.0487 17.52028,-4.40524 34.17049,-11.1248 49.29793,-19.78754 28.48943,-16.09122 52.49592,-37.85658 69.47402,-62.9998 16.7658,-26.47238 21.8066,-56.7041 25.3722,-86.17763 4.2638,-35.94202 2.5863,-73.14497 -12.2026,-107.36704 -11.3806,-25.84178 -28.76,-50.15205 -52.62738,-69.12941 C 964.16268,95.485304 926.49348,82.568341 888.63639,73.833784 847.71195,64.436295 805.27156,59.733434 762.85789,60.048587 Z"
       id="path3280-5"
       inkscape:connector-curvature="0"
       sodipodi:nodetypes="ccsscccccccccc" />
    <path
       style="fill:#ffffff;fill-rule:evenodd;stroke:none;stroke-width:1.36569px;stroke-linecap:butt;stroke-linejoin:miter;stroke-opacity:1"
       d="m 1309.5687,929.23352 c 8.7674,-29.78389 -2.55,-70.85724 -21.3421,-92.51878 19.294,12.00335 47.6581,40.90723 49.4868,77.53639 2.8542,57.16677 -26.6522,18.09019 -26.6522,18.09019 z"
       id="path4248"
       inkscape:connector-curvature="0"
       sodipodi:nodetypes="ccscc" />
    <path
       style="color:#000000;display:inline;overflow:visible;visibility:visible;fill:#ffffff;fill-opacity:1;fill-rule:nonzero;stroke:none;stroke-width:1.27845px;marker:none;enable-background:accumulate"
       d="m 2159.8838,550.71889 c 47.5494,-40.109 11.4958,-121.92186 -22.0631,-138.04748 -43.9644,-41.61081 21.7355,-52.5057 21.7355,-52.5057 l 27.3389,46.67174 c -4.9414,6.99806 59.5251,106.49368 -27.0113,143.88144 z"
       id="path3072-56"
       inkscape:connector-curvature="0"
       sodipodi:nodetypes="ccccc" />
    <path
       style="fill:#ffffff;fill-rule:evenodd;stroke:none;stroke-width:1px;stroke-linecap:butt;stroke-linejoin:miter;stroke-opacity:1"
       d="m 2145.9447,911.76156 c 17.8164,6.86787 32.8659,22.27667 36.9127,41.22902 2.4357,13.03639 -1.9004,26.29118 -8.401,37.50329 -6.139,11.51773 -13.902,22.87523 -15.1546,36.21623 -0.038,3.7486 4.352,7.1591 7.7995,4.9374 5.4591,-2.2621 9.1063,-7.2123 13.9986,-10.3572 13.619,-10.9723 25.9848,-24.85172 30.732,-42.05359 4.3293,-16.93725 -3.8025,-35.55082 -17.8163,-45.50969 -14.6218,-11.8782 -32.4276,-19.47815 -50.851,-23.07104 0.9267,0.36853 1.8534,0.73706 2.7801,1.10558 z"
       id="path914"
       inkscape:connector-curvature="0"
       sodipodi:nodetypes="cscc" />
    <path
       style="fill:#ffffff;fill-rule:evenodd;stroke:none;stroke-width:1px;stroke-linecap:butt;stroke-linejoin:miter;stroke-opacity:1"
       d="m 1877.824,1592.9226 -101.7503,-92.9388 -6.0669,33.3207 -71.4256,-61.6811 -11.1854,27.4382 91.4542,66.5103 8.19,-37.7549 z"
       id="path4667"
       inkscape:connector-curvature="0" />
    <path
       style="color:#000000;display:inline;overflow:visible;visibility:visible;fill:#ffffff;fill-opacity:1;fill-rule:nonzero;stroke:none;stroke-width:1.14715px;marker:none;enable-background:accumulate"
       d="m 284.24765,2318.4867 c -40.4116,58.36 -53.3089,167.707 24.2468,263.215 -108.4132,-99.32 -82.2954,-214.062 -72.6196,-244.978 2.0322,-33.697 48.3728,-18.237 48.3728,-18.237 z"
       id="path4008-0"
       inkscape:connector-curvature="0"
       sodipodi:nodetypes="cccc" />
    <path
       style="color:#000000;display:inline;overflow:visible;visibility:visible;fill:#ffffff;fill-opacity:1;fill-rule:nonzero;stroke:none;stroke-width:1px;marker:none;enable-background:accumulate"
       d="m 2007.8186,2508.6854 c -16.2035,68.7147 -23.8042,123.8365 19.1198,161.3448 -35.9827,-18.9303 -60.1167,-37.3437 -55.228,-133.0047 3.2811,-29.3033 15.4575,-25.6682 36.1082,-28.3401 z"
       id="path4064-5"
       inkscape:connector-curvature="0"
       sodipodi:nodetypes="cccc" />
    <path
       style="fill:#ffffff;fill-rule:evenodd;stroke:none;stroke-width:1.0599px;stroke-linecap:butt;stroke-linejoin:miter;stroke-opacity:1"
       d="m 1312.6704,2517.7831 c 23.7195,-14.0861 43.1327,-10.969 67.1439,-1.3968 -21.0663,-24.318 -50.0172,-29.1023 -87.4659,-14.9118 -44.493,16.8599 17.6099,16.5876 17.6099,16.5876 z"
       id="path4248-5"
       inkscape:connector-curvature="0"
       sodipodi:nodetypes="ccscc" />
    <path
       style="fill:#ffffff;fill-opacity:1;stroke:none;stroke-width:0.679267"
       d="m 2202.6764,2529.7013 c -21.6996,-4.5023 -30.0455,-8.6829 -26.1506,-11.2559 -36.3379,-21.5129 -5.4285,-41.3861 -1.1128,-43.737 -0.012,-1.592 -11.6845,0.6431 -13.3535,-0.643 -1.6692,-1.2869 11.4562,-12.0255 9.2307,-12.6686 -2.2258,-0.6437 -49.8479,3.9856 -57.0811,1.0911 -7.2332,-2.8945 -3.3384,-10.2913 -5.5639,-10.6129 -2.2256,-0.3215 -22.8125,1.6078 -25.5945,1.2862 -2.7817,-0.3215 -7.7893,-9.9691 -10.5714,-10.2907 -2.782,-0.3215 -15.5793,4.1808 -17.8048,3.8592 -2.2256,-0.3216 -1.1127,-8.3614 -3.8948,-8.6829 -2.7821,-0.3216 -15.0227,6.753 -16.6919,6.4315 -1.6693,-0.3216 -7.7897,-16.4013 -10.5717,-17.3659 -2.782,-0.9647 -20.5866,17.6874 -22.2558,18.0089 -1.6693,0.3222 -12.2408,-21.8681 -14.4665,-22.1897 -2.2256,-0.3215 -13.3535,15.1152 -15.0226,14.7936 -1.6693,-0.3216 -12.241,-9.3267 -14.4663,-9.9698 -2.2256,-0.643 -16.6921,19.9389 -18.9177,19.9389 -2.2257,0 -21.1431,-8.6829 -22.8124,-10.2907 -1.6692,-1.6083 -3.3383,8.3615 -5.5639,8.3615 -2.2256,0 -27.8199,-5.7891 -28.3764,-5.4676 -0.5564,0.3216 3.8949,6.4322 2.2256,6.4322 -1.6691,0 -27.8198,-8.0398 -28.9327,-6.4322 -1.1128,1.6084 -56.7526,-8.0398 -60.6475,-6.7536 -3.8948,1.2868 25.038,26.371 22.256,28.3009 -2.7819,1.9292 -12.7972,-0.3215 -13.3537,0.6431 -0.5562,0.9646 6.1205,5.1453 4.4514,6.4315 -1.6694,1.2868 -20.5868,6.4321 -22.256,8.0399 -1.6693,1.6083 8.3459,5.789 6.1205,6.7536 -2.2257,0.9653 -35.0535,7.0753 -35.6097,8.6836 -0.5564,1.6078 16.692,9.326 14.4663,11.5768 -2.2256,2.2515 -8.346,3.2161 -7.7895,4.8245 0.5563,1.6077 11.1281,3.5376 10.5716,5.1453 -0.5564,1.6077 -6.1203,9.6483 -7.7896,10.9344 -1.6692,1.2862 11.6844,0.6431 11.6844,1.9293 0,1.2868 -0.9828,20.6031 -20.7501,32.291 34.5745,-7.7421 49.1264,-3.9901 67.4876,-1.4178 18.3612,2.573 11.1279,18.6528 13.9099,19.6174 2.7819,0.9652 23.3688,-5.4669 26.1508,-3.2161 2.782,2.2515 3.8947,6.4321 6.1204,6.4321 2.2255,0 15.0227,-9.0045 17.8047,-8.6829 2.782,0.3215 28.9327,14.472 32.8277,14.7935 3.8947,0.3216 18.9174,-5.4675 22.2559,-5.789 3.3385,-0.3216 6.1202,7.7183 8.9023,7.0752 2.782,-0.6431 20.5868,-6.4321 23.3685,-5.789 2.7822,0.6437 5.0077,3.216 7.2334,2.573 2.2255,-0.6432 12.2408,-3.2161 12.2408,-3.2161 0,0 7.2331,1.9299 10.5715,1.9299 3.3384,0 26.1506,-10.6129 28.9328,-11.256 2.7819,-0.6431 31.343,10.9614 29.6737,12.8907 3.5449,-8.4443 20.6744,-13.7539 24.2969,-14.1768 3.8947,-0.9653 15.5792,1.9292 16.692,0.9646 1.1128,-0.9646 4.4511,-6.1106 7.7895,-6.4322 3.3385,-0.3215 11.128,-1.6077 11.128,-1.6077 l -1.1127,-1.9298 c 0,0 23.3686,5.1459 26.1508,7.0751 2.7819,1.93 -1.6693,-8.3614 -3.3386,-10.9343 10.0152,2.5729 39.5043,8.0398 41.7298,9.6482 2.2257,1.6077 -3.8946,-5.789 -7.233,-8.0399 4.4512,0.9646 8.346,1.2862 8.346,1.2862 l -12.7972,-7.7183 3.8949,-0.6431 c 0,0 -8.346,-3.5376 -8.346,-5.1453 0,-1.6084 21.6994,-3.5376 21.6994,-3.5376 0,0 -8.9023,-2.8945 -6.6768,-4.5023 2.2257,-1.6083 7.7897,-2.573 7.7897,-2.573 l 1.1127,-4.1807 z"
       id="path5888-3"
       inkscape:connector-curvature="0"
       sodipodi:nodetypes="cccccsscccccccsccscscsccsccccccsccscscssccsccscscccccccsccccccsccccc" />
  </g>
  <g
     inkscape:groupmode="layer"
     id="layer1"
     inkscape:label="txt">
    <text
       xml:space="preserve"
       style="font-style:normal;font-variant:normal;font-weight:normal;font-stretch:normal;font-size:80px;line-height:1.25;font-family:Lavi;-inkscape-font-specification:Lavi;letter-spacing:0px;word-spacing:0px;fill:#ffffff;fill-opacity:1;stroke:#ffffff;stroke-width:0.668774;stroke-miterlimit:4;stroke-dasharray:none;stroke-opacity:1;filter:url(#filter4375-4-1-1-1-9-5-8-8-5-5-3-3-3-0)"
       id="text4580-6-0-0-0-9-3-3-2-0"
       transform="matrix(1.1484433,-0.31259721,-0.62973044,2.2133476,1615.3614,-1809.1372)"
       x="-607.91235"
       y="1245.0809"><tspan
         id="tspan1534-6"
         style="font-size:61.3371px"><tspan
   id="tspan882"
   style="font-size:71.8115px">DR</tspan><tspan
   style="font-size:66.5743px"
   id="tspan1814">Z</tspan>OW!!</tspan></text>
    <text
       xml:space="preserve"
       style="font-style:normal;font-variant:normal;font-weight:normal;font-stretch:normal;font-size:45px;line-height:1.25;font-family:Lavi;-inkscape-font-specification:Lavi;text-align:center;letter-spacing:0px;word-spacing:0px;text-anchor:middle;fill:#000000;fill-opacity:1;stroke:none"
       x="823.04907"
       y="186.81442"
       id="text4246-3-2-2-6-3-7-9-3-3-56-9-3-20"><tspan
         style="font-size:45px"
         sodipodi:role="line"
         x="823.04907"
         y="186.81442"
         id="tspan970">My a gonvedh. Ty</tspan><tspan
         style="font-size:45px"
         sodipodi:role="line"
         x="823.04907"
         y="243.06442"
         id="tspan138">re dhrehedhas nivel</tspan><tspan
         style="font-size:45px"
         sodipodi:role="line"
         x="823.04907"
         y="299.31442"
         id="tspan150">dha ragresegydhesow</tspan><tspan
         style="font-size:45px"
         sodipodi:role="line"
         x="823.04907"
         y="355.56442"
         id="tspan144">fest skaffa</tspan><tspan
         style="font-size:45px"
         sodipodi:role="line"
         x="823.04907"
         y="411.81442"
         id="tspan146">dell dharganis...</tspan></text>
    <text
       xml:space="preserve"
       style="font-style:normal;font-variant:normal;font-weight:normal;font-stretch:normal;font-size:45px;line-height:1.25;font-family:Lavi;-inkscape-font-specification:Lavi;text-align:center;letter-spacing:0px;word-spacing:0px;text-anchor:middle;fill:#000000;fill-opacity:1;stroke:none"
       x="1288.303"
       y="1014.1287"
       id="text4246-3-2-2-6-3-7-9-3-3-56-9-3-20-3"><tspan
         style="font-size:45px"
         sodipodi:role="line"
         x="1288.303"
         y="1014.1287"
         id="tspan985">Hemma a uskisha ow</tspan><tspan
         style="font-size:45px"
         sodipodi:role="line"
         x="1288.303"
         y="1070.3787"
         id="tspan157">thowlennow, mes henn</tspan><tspan
         style="font-size:45px"
         sodipodi:role="line"
         x="1288.303"
         y="1126.6287"
         id="tspan159">yw nowodhow da.</tspan></text>
    <text
       xml:space="preserve"
       style="font-style:normal;font-variant:normal;font-weight:normal;font-stretch:normal;font-size:45px;line-height:1.25;font-family:Lavi;-inkscape-font-specification:Lavi;text-align:center;letter-spacing:0px;word-spacing:0px;text-anchor:middle;fill:#000000;fill-opacity:1;stroke:none"
       x="1773.1007"
       y="193.33838"
       id="text4246-3-2-2-6-3-7-9-3-3-56-9-3-20-3-2"><tspan
         style="font-size:45px"
         sodipodi:role="line"
         x="1773.1007"
         y="193.33838"
         id="tspan994-7">Dha dowlennow?</tspan></text>
    <text
       xml:space="preserve"
       style="font-style:normal;font-variant:normal;font-weight:normal;font-stretch:normal;font-size:45px;line-height:1.25;font-family:Lavi;-inkscape-font-specification:Lavi;text-align:center;letter-spacing:0px;word-spacing:0px;text-anchor:middle;fill:#000000;fill-opacity:1;stroke:none"
       x="2028.2909"
       y="260.40436"
       id="text4246-3-2-2-6-3-7-9-3-3-56-9-3-20-3-2-0"><tspan
         style="font-size:45px"
         sodipodi:role="line"
         x="2028.2909"
         y="260.40436"
         id="tspan8482">Ytho yth eses orth</tspan><tspan
         style="font-size:45px"
         sodipodi:role="line"
         x="2028.2909"
         y="316.65436"
         id="tspan170">ow frevi hepken, ha nyns o</tspan><tspan
         style="font-size:45px"
         sodipodi:role="line"
         x="2028.2909"
         y="372.90436"
         id="tspan172">hemma awos ow bos</tspan><tspan
         style="font-size:45px"
         sodipodi:role="line"
         x="2028.2909"
         y="429.15436"
         id="tspan178">diwedhes?</tspan></text>
    <text
       xml:space="preserve"
       style="font-style:normal;font-variant:normal;font-weight:normal;font-stretch:normal;font-size:45px;line-height:1.25;font-family:Lavi;-inkscape-font-specification:Lavi;text-align:center;letter-spacing:0px;word-spacing:0px;text-anchor:middle;fill:#000000;fill-opacity:1;stroke:none"
       x="2179.271"
       y="1053.5718"
       id="text4246-3-2-2-6-3-7-9-3-3-56-9-3-20-3-2-0-3"><tspan
         style="font-size:45px"
         sodipodi:role="line"
         x="2179.271"
         y="1053.5718"
         id="tspan1147">Ass os ta</tspan><tspan
         style="font-size:45px"
         sodipodi:role="line"
         x="2179.271"
         y="1109.8218"
         id="tspan182">fell!</tspan></text>
    <text
       xml:space="preserve"
       style="font-style:normal;font-variant:normal;font-weight:normal;font-stretch:normal;font-size:45px;line-height:1.25;font-family:Lavi;-inkscape-font-specification:Lavi;text-align:center;letter-spacing:0px;word-spacing:0px;text-anchor:middle;fill:#000000;fill-opacity:1;stroke:none"
       x="314.83337"
       y="1631.6757"
       id="text4246-3-2-2-6-3-7-9-3-3-56-9-3-20-3-2-0-3-1"><tspan
         style="font-size:45px"
         sodipodi:role="line"
         x="314.83337"
         y="1631.6757"
         id="tspan1224">ti...</tspan></text>
    <text
       xml:space="preserve"
       style="font-style:normal;font-variant:normal;font-weight:normal;font-stretch:normal;font-size:45px;line-height:1.25;font-family:Lavi;-inkscape-font-specification:Lavi;text-align:center;letter-spacing:0px;word-spacing:0px;text-anchor:middle;fill:#000000;fill-opacity:1;stroke:none"
       x="327.27063"
       y="1708.0287"
       id="text4246-3-2-2-6-3-7-9-3-3-56-9-3-20-3-2-0-3-1-2"><tspan
         style="font-size:45px"
         sodipodi:role="line"
         x="327.27063"
         y="1708.0287"
         id="tspan1224-2">hi.</tspan></text>
    <text
       xml:space="preserve"
       style="font-style:normal;font-variant:normal;font-weight:normal;font-stretch:normal;font-size:51.7551px;line-height:1.25;font-family:Lavi;-inkscape-font-specification:Lavi;text-align:center;letter-spacing:0px;word-spacing:0px;text-anchor:middle;fill:#000000;fill-opacity:1;stroke:none;stroke-width:1.15011"
       x="1273.3981"
       y="1290.0323"
       id="text4246-3-2-2-6-3-7-9-3-3-56-9-3-20-3-3"
       transform="skewX(-7.1285627)"><tspan
         style="font-style:normal;font-variant:normal;font-weight:bold;font-stretch:normal;font-size:51.7551px;font-family:Lavi;-inkscape-font-specification:'Lavi Bold';stroke-width:1.15011"
         sodipodi:role="line"
         x="1273.3981"
         y="1290.0323"
         id="tspan1341">PANDR'ESOWGH</tspan><tspan
         style="font-style:normal;font-variant:normal;font-weight:bold;font-stretch:normal;font-size:51.7551px;font-family:Lavi;-inkscape-font-specification:'Lavi Bold';stroke-width:1.15011"
         sodipodi:role="line"
         x="1273.3981"
         y="1354.7262"
         id="tspan186">OW LAGATTA ORTO?!</tspan></text>
    <text
       xml:space="preserve"
       style="font-style:normal;font-variant:normal;font-weight:normal;font-stretch:normal;font-size:47.4643px;line-height:1.25;font-family:Lavi;-inkscape-font-specification:Lavi;text-align:center;letter-spacing:0px;word-spacing:0px;text-anchor:middle;fill:#000000;fill-opacity:1;stroke:none;stroke-width:1.05476"
       x="1452.0516"
       y="1431.9385"
       id="text4246-3-2-2-6-3-7-9-3-3-56-9-3-20-3-3-2"
       transform="skewX(-7.1285625)"><tspan
         style="font-style:normal;font-variant:normal;font-weight:bold;font-stretch:normal;font-size:47.4643px;font-family:Lavi;-inkscape-font-specification:'Lavi Bold';stroke-width:1.05476"
         sodipodi:role="line"
         x="1452.0516"
         y="1431.9385"
         id="tspan1016">YTH ESA OMSETTYANS WARNAV</tspan><tspan
         style="font-style:normal;font-variant:normal;font-weight:bold;font-stretch:normal;font-size:47.4643px;font-family:Lavi;-inkscape-font-specification:'Lavi Bold';stroke-width:1.05476"
         sodipodi:role="line"
         x="1452.0516"
         y="1491.2688"
         id="tspan193">NAMNYGEN, HA NY WREWGH TRA VYTH</tspan><tspan
         style="font-style:normal;font-variant:normal;font-weight:bold;font-stretch:normal;font-size:47.4643px;font-family:Lavi;-inkscape-font-specification:'Lavi Bold';stroke-width:1.05476"
         sodipodi:role="line"
         x="1452.0516"
         y="1550.5992"
         id="tspan195">MARNAS SEVEL ENA?! SYNSEWGH HI!!!</tspan></text>
    <text
       xml:space="preserve"
       style="font-style:normal;font-variant:normal;font-weight:normal;font-stretch:normal;font-size:55.0712px;line-height:1.25;font-family:Lavi;-inkscape-font-specification:Lavi;text-align:center;letter-spacing:0px;word-spacing:0px;text-anchor:middle;fill:#000000;fill-opacity:1;stroke:none;stroke-width:1.22379"
       x="614.35553"
       y="2221.3306"
       id="text4246-3-2-2-6-3-7-9-3-3-56-9-3-20-3-3-2-7"
       transform="matrix(0.99725425,0,-0.12471947,1.0027533,0,0)"><tspan
         style="font-style:normal;font-variant:normal;font-weight:bold;font-stretch:normal;font-size:55.0712px;font-family:Lavi;-inkscape-font-specification:'Lavi Bold';stroke-width:1.22379"
         sodipodi:role="line"
         x="614.35553"
         y="2221.3306"
         id="tspan1414">MY A'S MYNN</tspan><tspan
         style="font-style:normal;font-variant:normal;font-weight:bold;font-stretch:normal;font-size:55.0712px;font-family:Lavi;-inkscape-font-specification:'Lavi Bold';stroke-width:1.22379"
         sodipodi:role="line"
         x="614.35553"
         y="2290.1697"
         id="tspan203">YN FEW!</tspan></text>
    <text
       xml:space="preserve"
       style="font-style:normal;font-variant:normal;font-weight:normal;font-stretch:normal;font-size:70.9781px;line-height:1.25;font-family:Lavi;-inkscape-font-specification:Lavi;text-align:center;letter-spacing:0px;word-spacing:0px;text-anchor:middle;fill:#000000;fill-opacity:1;stroke:none;stroke-width:1.57727"
       x="1546.9048"
       y="2006.6577"
       id="text4246-3-2-2-6-3-7-9-3-3-56-9-3-20-3-3-2-7-2"
       transform="matrix(0.89307378,0,-0.11169036,1.1197283,0,0)"><tspan
         style="font-style:normal;font-variant:normal;font-weight:bold;font-stretch:normal;font-size:70.9781px;font-family:Lavi;-inkscape-font-specification:'Lavi Bold';stroke-width:1.57727"
         sodipodi:role="line"
         x="1546.9048"
         y="2006.6577"
         id="tspan1414-3">KEVEWGH HI!!!</tspan></text>
    <text
       xml:space="preserve"
       style="font-style:normal;font-variant:normal;font-weight:normal;font-stretch:normal;font-size:45px;line-height:1.25;font-family:Lavi;-inkscape-font-specification:Lavi;text-align:center;letter-spacing:0px;word-spacing:0px;text-anchor:middle;fill:#000000;fill-opacity:1;stroke:none"
       x="1105.3292"
       y="2502.3032"
       id="text4246-3-2-2-6-3-7-9-3-3-56-9-3-20-3-2-0-3-19"><tspan
         style="font-size:45px"
         sodipodi:role="line"
         x="1105.3292"
         y="2502.3032"
         id="tspan1031">Shichimi,</tspan><tspan
         style="font-size:45px"
         sodipodi:role="line"
         x="1105.3292"
         y="2558.5532"
         id="tspan214">res yw dhyn kewsel</tspan><tspan
         style="font-size:45px"
         sodipodi:role="line"
         x="1105.3292"
         y="2614.8032"
         id="tspan216">a-dro dhe hemma</tspan><tspan
         style="font-size:45px"
         sodipodi:role="line"
         x="1105.3292"
         y="2671.0532"
         id="tspan218">diwettha!</tspan></text>
    <text
       xml:space="preserve"
       style="font-style:normal;font-variant:normal;font-weight:normal;font-stretch:normal;font-size:45px;line-height:1.25;font-family:Lavi;-inkscape-font-specification:Lavi;text-align:center;letter-spacing:0px;word-spacing:0px;text-anchor:middle;fill:#000000;fill-opacity:1;stroke:none"
       x="1978.2208"
       y="2255.5603"
       id="text4246-3-2-2-6-3-7-9-3-3-56-9-3-20-3-2-0-3-19-8-3"><tspan
         style="font-size:45px"
         sodipodi:role="line"
         x="1978.2208"
         y="2255.5603"
         id="tspan8507">Drog yw genev,</tspan><tspan
         style="font-size:45px"
         sodipodi:role="line"
         x="1978.2208"
         y="2311.8103"
         id="tspan229">Carrot, mes res yw</tspan><tspan
         style="font-size:45px"
         sodipodi:role="line"
         x="1978.2208"
         y="2368.0603"
         id="tspan235">dhyn yskynna orth</tspan><tspan
         style="font-size:45px"
         sodipodi:role="line"
         x="1978.2208"
         y="2424.3103"
         id="tspan237">gordoth arta.</tspan></text>
    <text
       xml:space="preserve"
       style="font-style:normal;font-variant:normal;font-weight:normal;font-stretch:normal;font-size:45px;line-height:1.25;font-family:Lavi;-inkscape-font-specification:Lavi;text-align:center;letter-spacing:0px;word-spacing:0px;text-anchor:middle;fill:#000000;fill-opacity:1;stroke:none"
       x="1974.8418"
       y="2527.3699"
       id="text4246-3-2-2-6-3-7-9-3-3-56-9-3-20-3-2-0-3-19-8"><tspan
         style="font-size:45px"
         sodipodi:role="line"
         x="1974.8418"
         y="2527.3699"
         id="tspan1046">Syns yn strooth!</tspan></text>
    <text
       xml:space="preserve"
       style="font-style:normal;font-variant:normal;font-weight:normal;font-stretch:normal;font-size:6.99764px;line-height:0%;font-family:Lavi;-inkscape-font-specification:Lavi;letter-spacing:0px;word-spacing:0px;fill:#000000;fill-opacity:1;stroke:#000000;stroke-width:6.65341;stroke-miterlimit:4;stroke-dasharray:none;stroke-opacity:1;paint-order:stroke fill markers"
       x="1234.3364"
       y="2988.7241"
       id="text4580-25"
       transform="matrix(0.70061135,-0.52267462,0.27429036,1.222697,0,0)"><tspan
         sodipodi:role="line"
         id="tspan4582-4"
         x="1234.3364"
         y="2988.7241"
         style="font-size:40.8195px;line-height:100%;letter-spacing:2.84772px;fill:#ffffff;stroke:#000000;stroke-width:6.65341;stroke-miterlimit:4;stroke-dasharray:none;stroke-opacity:1;paint-order:stroke fill markers"><tspan
           style="font-size:46.8842px;line-height:100%;letter-spacing:2.84772px;stroke:#000000;stroke-width:6.65341;stroke-miterlimit:4;stroke-dasharray:none;stroke-opacity:1;paint-order:stroke fill markers"
           id="tspan4617-9">Tapp!</tspan></tspan></text>
    <text
       xml:space="preserve"
       style="font-style:normal;font-variant:normal;font-weight:normal;font-stretch:normal;font-size:6.12727px;line-height:0%;font-family:Lavi;-inkscape-font-specification:Lavi;letter-spacing:0px;word-spacing:0px;fill:#000000;fill-opacity:1;stroke:#000000;stroke-width:5.82585;stroke-miterlimit:4;stroke-dasharray:none;stroke-opacity:1;paint-order:stroke fill markers"
       x="1244.6915"
       y="2939.7729"
       id="text4580-25-6"
       transform="matrix(0.70061135,-0.52267462,0.27429036,1.222697,0,0)"><tspan
         sodipodi:role="line"
         id="tspan4582-4-1"
         x="1244.6915"
         y="2939.7729"
         style="font-size:35.7423px;line-height:100%;letter-spacing:2.49352px;fill:#ffffff;stroke:#000000;stroke-width:5.82585;stroke-miterlimit:4;stroke-dasharray:none;stroke-opacity:1;paint-order:stroke fill markers"><tspan
           style="font-size:41.0527px;line-height:100%;letter-spacing:2.49352px;stroke:#000000;stroke-width:5.82585;stroke-miterlimit:4;stroke-dasharray:none;stroke-opacity:1;paint-order:stroke fill markers"
           id="tspan4617-9-0">Tapp!</tspan></tspan></text>
    <text
       xml:space="preserve"
       style="font-style:normal;font-variant:normal;font-weight:normal;font-stretch:normal;font-size:80px;line-height:1.25;font-family:Lavi;-inkscape-font-specification:Lavi;letter-spacing:0px;word-spacing:0px;fill:#ffffff;fill-opacity:1;stroke:#ffffff;stroke-width:0.668774;stroke-miterlimit:4;stroke-dasharray:none;stroke-opacity:1;filter:url(#filter4375-4-1-1-1-9-5-8-8-5-5-3-3-3-0-6)"
       id="text4580-6-0-0-0-9-3-3-2-0-3"
       transform="matrix(1.2199315,-0.31719701,-0.66892978,2.2459164,3443.4589,177.24169)"
       x="-607.91235"
       y="1245.0809"><tspan
         id="tspan1534-6-7"
         style="font-size:61.3371px"><tspan
   style="font-size:66.5743px"
   id="tspan1814-4">ZiiouUU</tspan>!!</tspan></text>
  </g>
</svg>
