<?xml version="1.0" encoding="UTF-8" standalone="no"?>
<!-- Created with Inkscape (http://www.inkscape.org/) -->

<svg
   xmlns:dc="http://purl.org/dc/elements/1.1/"
   xmlns:cc="http://creativecommons.org/ns#"
   xmlns:rdf="http://www.w3.org/1999/02/22-rdf-syntax-ns#"
   xmlns:svg="http://www.w3.org/2000/svg"
   xmlns="http://www.w3.org/2000/svg"
   xmlns:xlink="http://www.w3.org/1999/xlink"
   xmlns:sodipodi="http://sodipodi.sourceforge.net/DTD/sodipodi-0.dtd"
   xmlns:inkscape="http://www.inkscape.org/namespaces/inkscape"
   id="svg2"
   version="1.1"
   inkscape:version="0.92.4 (5da689c313, 2019-01-14)"
   width="2481"
   height="3503"
   sodipodi:docname="E28P05.svg">
  <metadata
     id="metadata8">
    <rdf:RDF>
      <cc:Work
         rdf:about="">
        <dc:format>image/svg+xml</dc:format>
        <dc:type
           rdf:resource="http://purl.org/dc/dcmitype/StillImage" />
        <dc:title />
      </cc:Work>
    </rdf:RDF>
  </metadata>
  <defs
     id="defs6" />
  <sodipodi:namedview
     pagecolor="#ffffff"
     bordercolor="#666666"
     borderopacity="1"
     objecttolerance="10"
     gridtolerance="10"
     guidetolerance="10"
     inkscape:pageopacity="0"
     inkscape:pageshadow="2"
     inkscape:window-width="1366"
     inkscape:window-height="715"
     id="namedview4"
     showgrid="false"
     inkscape:zoom="0.36415091"
     inkscape:cx="1215.2616"
     inkscape:cy="879.04419"
     inkscape:window-x="1592"
     inkscape:window-y="-8"
     inkscape:window-maximized="1"
     inkscape:current-layer="layer1" />
  <g
     inkscape:groupmode="layer"
     id="layer2"
     inkscape:label="artwork"
     sodipodi:insensitive="true">
    <image
       sodipodi:absref="E:\Aslan's Works &amp; Design Projects\2. Personal Projects\2. Translation Projects\1. Pepper &amp; Carrot Translation Project\Episode 28\lang\fa\../gfx_Pepper-and-Carrot_by-David-Revoy_E28P05.png"
       xlink:href="../gfx_Pepper-and-Carrot_by-David-Revoy_E28P05.png"
       y="0"
       x="0"
       id="image10"
       height="3503"
       width="2481" />
  </g>
  <g
     inkscape:groupmode="layer"
     id="layer3"
     inkscape:label="speechbubbles">
    <path
       style="fill:#ffffff;fill-rule:evenodd;stroke:none;stroke-width:0.86100149px;stroke-linecap:butt;stroke-linejoin:miter;stroke-opacity:1"
       d="m 157.52442,188.7189 c 24.20553,-19.44386 60.20542,-29.36418 95.32605,-35.67883 32.86157,-6.016 67.10176,-6.15964 100.81265,-4.85364 42.74906,1.72274 86.04868,3.84381 127.27554,12.36569 12.60467,2.49182 24.47312,7.04067 32.3106,14.46651 33.18909,25.14536 57.22843,57.88697 56.41726,92.5464 -3.33899,50.93501 -5.00934,101.93427 -9.7572,152.82143 -1.44125,16.75629 -7.06886,34.42691 -24.78355,46.74345 -20.34309,14.8022 -47.31577,24.79168 -76.05847,29.2265 -45.73102,7.49329 -93.01103,10.13786 -139.93635,9.56694 -18.34055,-1.37304 -36.67219,-3.20439 -54.95913,-5.02902 -39.18493,-4.66097 -81.26783,-11.82801 -109.36924,-32.74586 -22.312,-16.67808 -34.66728,-39.18315 -36.96184,-61.66722 0.17359,-47.28304 4.76462,-94.49824 7.79528,-141.72144 1.08057,-12.74737 0.23352,-25.77379 6.80423,-37.95521 5.9832,-13.33758 13.75107,-26.46522 25.08417,-38.0857 z"
       id="path1006"
       inkscape:connector-curvature="0" />
    <path
       style="fill:#ffffff;fill-rule:evenodd;stroke:none;stroke-width:1px;stroke-linecap:butt;stroke-linejoin:miter;stroke-opacity:1"
       d="M 333.27358,346.17986 C 395.90659,299.25879 684.65819,123.37673 1012.4941,266.75583 759.55842,143.42811 491.69794,181.66189 330.00219,300.24071 Z"
       id="path1008"
       inkscape:connector-curvature="0"
       sodipodi:nodetypes="cccc" />
    <path
       style="fill:#ffffff;fill-rule:evenodd;stroke:none;stroke-width:1px;stroke-linecap:butt;stroke-linejoin:miter;stroke-opacity:1"
       d="m 1819.6761,521.16397 c 116.7092,-13.15033 182.4608,-4.93138 226.8431,52.60129 44.3824,57.53267 34.5196,90.40848 23.0131,80.54574 -11.5065,-9.86274 -23.0131,-151.22873 -249.8562,-133.14703 z"
       id="path1011"
       inkscape:connector-curvature="0" />
    <path
       style="fill:#ffffff;fill-rule:evenodd;stroke:none;stroke-width:1px;stroke-linecap:butt;stroke-linejoin:miter;stroke-opacity:1"
       d="m 2110.627,552.39599 c 87.1209,1.64379 133.1471,13.15032 151.2288,29.58823 18.0817,16.4379 42.7385,60.82025 34.5196,87.12089 -8.219,26.30065 -39.451,69.03921 -129.8595,65.75163 -90.4085,-3.28759 -156.1601,-19.72549 -177.5294,-52.6013 -21.3692,-32.87581 8.219,-101.91501 42.7386,-113.42155 34.5196,-11.50653 39.451,-14.79411 78.9019,-16.4379 z"
       id="path1013"
       inkscape:connector-curvature="0" />
    <path
       style="fill:#ffffff;fill-rule:evenodd;stroke:none;stroke-width:1px;stroke-linecap:butt;stroke-linejoin:miter;stroke-opacity:1"
       d="m 1978.9985,734.25711 c 62.0121,-49.31372 137.3224,-46.02614 157.4764,-42.73856 20.1538,3.28759 70.6898,8.29912 108.4275,11.50654 17.4497,1.48309 81.4257,32.97559 86.0144,87.12089 2.7793,32.79479 0,65.75163 -43.4084,78.90195 -43.4084,13.15032 -107.2512,13.15032 -161.5118,11.50653 -54.2605,-1.64379 -115.9921,0 -148.5484,-29.58823 -32.5563,-29.58823 -41.8581,-70.68299 1.5503,-116.70912 z"
       id="path1015"
       inkscape:connector-curvature="0"
       sodipodi:nodetypes="cssssssc" />
    <path
       style="fill:#ffffff;fill-rule:evenodd;stroke:none;stroke-width:1px;stroke-linecap:butt;stroke-linejoin:miter;stroke-opacity:1"
       d="m 308.74674,1071.6194 c 90.05114,1.4294 161.52029,1.4294 181.53165,15.7232 20.01137,14.2939 58.60471,47.1697 60.03409,78.6161 1.42939,31.4464 -1.42938,77.1867 -28.58766,98.6274 -27.15828,21.4408 -75.7573,38.5934 -124.35633,45.7403 -48.59902,7.1469 -145.79707,7.1469 -178.67288,0 -32.87581,-7.1469 -90.05113,-31.4464 -97.19805,-55.7459 -7.14691,-24.2996 -10.00568,-84.3336 -1.42938,-108.6332 8.5763,-24.2995 50.02841,-54.3165 91.48051,-62.8928 41.45211,-8.5763 97.19805,-11.4351 97.19805,-11.4351 z"
       id="path1017"
       inkscape:connector-curvature="0" />
    <path
       style="fill:#ffffff;fill-rule:evenodd;stroke:none;stroke-width:1px;stroke-linecap:butt;stroke-linejoin:miter;stroke-opacity:1"
       d="m 464.5495,1496.1462 c 57.17532,-75.7573 57.17532,-148.6559 4.28815,-244.4245 -52.88717,-95.7687 -80.04545,-97.1981 -80.04545,-97.1981 l -4.28815,52.8872 c 0,0 168.6672,128.6445 80.04545,288.7354 z"
       id="path1019"
       inkscape:connector-curvature="0" />
    <path
       style="fill:#ffffff;fill-rule:evenodd;stroke:none;stroke-width:0.92582715px;stroke-linecap:butt;stroke-linejoin:miter;stroke-opacity:1"
       d="m 1971.3006,1181.6164 c -2.8806,-54.1268 72.0356,-99.5753 170.4414,-99.9637 98.4055,-0.3882 183.9758,22.2488 183.4356,78.152 -0.54,55.9032 -17.3629,103.0846 -143.8965,103.3563 -126.5337,0.2718 -204.6695,-14.7742 -209.9805,-81.5446 z"
       id="path1021"
       inkscape:connector-curvature="0" />
    <path
       style="fill:#ffffff;fill-rule:evenodd;stroke:none;stroke-width:1px;stroke-linecap:butt;stroke-linejoin:miter;stroke-opacity:1"
       d="m 2223.4008,1243.0202 c 9.6724,22.1135 -3.7615,81.471 -16.6581,91.9459 -8.9785,11.3235 4.9225,16.0942 9.6724,15.1304 4.2989,-2.9097 37.6151,-18.04 42.9887,-9.3111 5.3736,8.7291 -48.8996,51.2105 -42.9887,57.0298 5.911,5.8194 27.9427,-8.1471 30.6294,-3.4916 2.6868,4.6554 -4.2988,17.4581 -16.6581,25.6052 20.957,-6.9833 30.0921,-18.6219 25.7932,-26.769 -4.2988,-8.1471 -12.3592,-6.9833 -17.7328,-5.8194 10.2098,-8.7291 49.9875,-38.2659 39.7777,-53.9782 -10.2098,-15.7122 -36.0426,-12.0787 -41.9536,-9.169 14.5087,-12.8026 28.0737,-53.8649 21.6254,-85.8713 -6.4483,-32.0065 -34.4955,4.6983 -34.4955,4.6983 z"
       id="path1023"
       inkscape:connector-curvature="0"
       sodipodi:nodetypes="ccccsccccccsc" />
    <path
       style="fill:#ffffff;fill-rule:evenodd;stroke:none;stroke-width:1px;stroke-linecap:butt;stroke-linejoin:miter;stroke-opacity:1"
       d="m 826.50706,2344.762 c 9.78488,-40.2573 52.11355,-55.2416 84.72982,-52.849 32.61627,2.3928 81.25075,23.5682 76.17711,56.2586 -5.07364,32.6904 -43.85076,50.2768 -71.17595,51.6227 -27.32519,1.3458 -89.15114,-3.9181 -89.73098,-55.0323 z"
       id="path1025"
       inkscape:connector-curvature="0" />
    <path
       style="fill:#ffffff;fill-rule:evenodd;stroke:none;stroke-width:1px;stroke-linecap:butt;stroke-linejoin:miter;stroke-opacity:1"
       d="m 891.05439,2384.5928 c 8.97846,20.1058 2.08504,29.2013 -7.53169,42.2988 -9.61674,13.0974 -3.91478,26.6928 6.89341,31.8628 10.80819,5.1701 22.50997,25.1418 21.87169,42.5477 -2.42546,-50.8389 -20.08451,-46.2816 -21.10575,-59.2259 -1.02125,-12.9442 20.21215,-24.3759 22.42485,-32.7054 2.2127,-8.3295 0.51063,-29.1055 -5.14877,-40.9009 -5.65941,-11.7954 -17.40374,16.1229 -17.40374,16.1229 z"
       id="path1027"
       inkscape:connector-curvature="0"
       sodipodi:nodetypes="cccccssc" />
  </g>
  <g
     inkscape:groupmode="layer"
     id="layer1"
     inkscape:label="txt">
    <text
       xml:space="preserve"
       style="font-style:normal;font-variant:normal;font-weight:normal;font-stretch:normal;line-height:0%;font-family:Midan;-inkscape-font-specification:Midan;text-align:center;letter-spacing:0px;word-spacing:0px;text-anchor:middle;fill:#000000;fill-opacity:1;stroke:none"
       x="343.16214"
       y="270.93243"
       id="text4246"><tspan
         sodipodi:role="line"
         style="font-style:normal;font-variant:normal;font-weight:normal;font-stretch:normal;font-size:64px;line-height:1;font-family:Midan;-inkscape-font-specification:Midan;direction:rtl"
         x="343.16214"
         y="270.93243"
         id="tspan833">همه دوستای من</tspan><tspan
         sodipodi:role="line"
         style="font-style:normal;font-variant:normal;font-weight:normal;font-stretch:normal;font-size:64px;line-height:1;font-family:Midan;-inkscape-font-specification:Midan;direction:rtl"
         x="343.16214"
         y="334.93243"
         id="tspan63">موفقن. کاش منم فقط</tspan><tspan
         sodipodi:role="line"
         style="font-style:normal;font-variant:normal;font-weight:normal;font-stretch:normal;font-size:64px;line-height:1;font-family:Midan;-inkscape-font-specification:Midan;direction:rtl"
         x="343.16214"
         y="398.93243"
         id="tspan67">نصف اونا موفق بودم.</tspan></text>
    <text
       xml:space="preserve"
       style="font-style:normal;font-variant:normal;font-weight:normal;font-stretch:normal;line-height:0%;font-family:Midan;-inkscape-font-specification:Midan;text-align:center;letter-spacing:0px;word-spacing:0px;text-anchor:middle;fill:#000000;fill-opacity:1;stroke:none"
       x="2138.4768"
       y="617.61292"
       id="text4246-3"><tspan
         sodipodi:role="line"
         style="font-style:normal;font-variant:normal;font-weight:normal;font-stretch:normal;font-size:64px;line-height:1;font-family:Midan;-inkscape-font-specification:Midan;direction:rtl"
         x="2138.4768"
         y="617.61292"
         id="tspan81">گشنیز که</tspan><tspan
         sodipodi:role="line"
         style="font-style:normal;font-variant:normal;font-weight:normal;font-stretch:normal;font-size:64px;line-height:1;font-family:Midan;-inkscape-font-specification:Midan;direction:rtl"
         x="2138.4768"
         y="681.61292"
         id="tspan85">یه ملکه<tspan
   style="font-size:64px;line-height:1;letter-spacing:-8px;direction:rtl"
   id="tspan87"> </tspan>ست.</tspan></text>
    <text
       xml:space="preserve"
       style="font-style:normal;font-variant:normal;font-weight:normal;font-stretch:normal;line-height:0%;font-family:Midan;-inkscape-font-specification:Midan;text-align:center;letter-spacing:0px;word-spacing:0px;text-anchor:middle;fill:#000000;fill-opacity:1;stroke:none"
       x="2143.5732"
       y="767.37732"
       id="text4246-3-9"><tspan
         sodipodi:role="line"
         style="font-style:normal;font-variant:normal;font-weight:normal;font-stretch:normal;font-size:64px;line-height:1;font-family:Midan;-inkscape-font-specification:Midan;direction:rtl"
         x="2143.5732"
         y="767.37732"
         id="tspan923">زعفران هم یه </tspan><tspan
         sodipodi:role="line"
         style="font-style:normal;font-variant:normal;font-weight:normal;font-stretch:normal;font-size:64px;line-height:1;font-family:Midan;-inkscape-font-specification:Midan;direction:rtl"
         x="2143.5732"
         y="831.37732"
         id="tspan93">سوپراستار پولدار.</tspan></text>
    <text
       xml:space="preserve"
       style="font-style:normal;font-variant:normal;font-weight:normal;font-stretch:normal;line-height:0%;font-family:Midan;-inkscape-font-specification:Midan;text-align:center;letter-spacing:0px;word-spacing:0px;text-anchor:middle;fill:#000000;fill-opacity:1;stroke:none"
       x="327.58185"
       y="1175.4244"
       id="text4246-3-9-7"><tspan
         sodipodi:role="line"
         style="font-style:normal;font-variant:normal;font-weight:normal;font-stretch:normal;font-size:53.33333206px;line-height:1;font-family:Midan;-inkscape-font-specification:Midan;direction:rtl"
         x="327.58185"
         y="1175.4244"
         id="tspan950">حتی شیچیمی با مدرسه<tspan
   style="letter-spacing:-8px"
   id="tspan126"> </tspan>اش</tspan><tspan
         sodipodi:role="line"
         style="font-style:normal;font-variant:normal;font-weight:normal;font-stretch:normal;font-size:53.33333206px;line-height:1;font-family:Midan;-inkscape-font-specification:Midan;direction:rtl"
         x="327.58185"
         y="1228.7578"
         id="tspan124">بی<tspan
   style="letter-spacing:-8px"
   id="tspan132"> </tspan>نظیر به<tspan
   style="letter-spacing:-8px"
   id="tspan130"> </tspan>نظر می<tspan
   style="letter-spacing:-8px"
   id="tspan128"> </tspan>رسه!</tspan></text>
    <text
       xml:space="preserve"
       style="font-style:normal;font-variant:normal;font-weight:normal;font-stretch:normal;line-height:0%;font-family:Midan;-inkscape-font-specification:Midan;text-align:center;letter-spacing:0px;word-spacing:0px;text-anchor:middle;fill:#000000;fill-opacity:1;stroke:none"
       x="2151.5112"
       y="1149.9301"
       id="text4246-3-9-7-3"><tspan
         sodipodi:role="line"
         style="font-style:normal;font-variant:normal;font-weight:normal;font-stretch:normal;font-size:64px;line-height:1;font-family:Midan;-inkscape-font-specification:Midan;direction:rtl"
         x="2151.5112"
         y="1149.9301"
         id="tspan981">و اینم من!</tspan><tspan
         sodipodi:role="line"
         style="font-style:normal;font-variant:normal;font-weight:normal;font-stretch:normal;font-size:64px;line-height:1;font-family:Midan;-inkscape-font-specification:Midan;direction:rtl"
         x="2151.5112"
         y="1213.9301"
         id="tspan136">من چی دارم؟</tspan></text>
    <text
       xml:space="preserve"
       style="font-style:normal;font-variant:normal;font-weight:normal;font-stretch:normal;line-height:0%;font-family:Midan;-inkscape-font-specification:Midan;text-align:center;letter-spacing:0px;word-spacing:0px;text-anchor:middle;fill:#000000;fill-opacity:1;stroke:none"
       x="904.12128"
       y="2357.7173"
       id="text4246-3-9-7-3-2"><tspan
         sodipodi:role="line"
         style="font-style:normal;font-variant:normal;font-weight:normal;font-stretch:normal;font-size:64px;line-height:1.20000005;font-family:Midan;-inkscape-font-specification:Midan;direction:rtl"
         x="904.12128"
         y="2357.7173"
         id="tspan981-1">اینو.</tspan></text>
  </g>
</svg>
