<?xml version="1.0" encoding="UTF-8" standalone="no"?>
<svg
   xmlns:dc="http://purl.org/dc/elements/1.1/"
   xmlns:cc="http://creativecommons.org/ns#"
   xmlns:rdf="http://www.w3.org/1999/02/22-rdf-syntax-ns#"
   xmlns:svg="http://www.w3.org/2000/svg"
   xmlns="http://www.w3.org/2000/svg"
   xmlns:xlink="http://www.w3.org/1999/xlink"
   xmlns:sodipodi="http://sodipodi.sourceforge.net/DTD/sodipodi-0.dtd"
   xmlns:inkscape="http://www.inkscape.org/namespaces/inkscape"
   id="svg2"
   version="1.1"
   inkscape:version="1.0.2 (e86c870879, 2021-01-15)"
   width="2481"
   height="3503"
   sodipodi:docname="E06P03.svg">
  <metadata
     id="metadata8">
    <rdf:RDF>
      <cc:Work
         rdf:about="">
        <dc:format>image/svg+xml</dc:format>
        <dc:type
           rdf:resource="http://purl.org/dc/dcmitype/StillImage" />
        <dc:title />
      </cc:Work>
    </rdf:RDF>
  </metadata>
  <defs
     id="defs6">
    <filter
       inkscape:collect="always"
       id="filter3815">
      <feGaussianBlur
         inkscape:collect="always"
         stdDeviation="0.76455738"
         id="feGaussianBlur3817" />
    </filter>
  </defs>
  <sodipodi:namedview
     pagecolor="#ffffff"
     bordercolor="#666666"
     borderopacity="1"
     objecttolerance="10"
     gridtolerance="10"
     guidetolerance="10"
     inkscape:pageopacity="0"
     inkscape:pageshadow="2"
     inkscape:window-width="1920"
     inkscape:window-height="1022"
     id="namedview4"
     showgrid="false"
     inkscape:zoom="0.36976185"
     inkscape:cx="1279.5593"
     inkscape:cy="2104.4572"
     inkscape:window-x="0"
     inkscape:window-y="28"
     inkscape:window-maximized="1"
     inkscape:current-layer="layer3"
     inkscape:document-rotation="0" />
  <g
     inkscape:groupmode="layer"
     id="layer2"
     inkscape:label="artwork"
     sodipodi:insensitive="true"
     style="display:inline">
    <image
       sodipodi:absref="/home/cherry/Workspace/peppercarrot/webcomics/ep06_The-Potion-Contest/lang/gfx_Pepper-and-Carrot_by-David-Revoy_E06P03.png"
       xlink:href="../gfx_Pepper-and-Carrot_by-David-Revoy_E06P03.png"
       width="2481"
       height="3503"
       id="image10"
       x="0"
       y="0" />
  </g>
  <g
     inkscape:groupmode="layer"
     id="layer3"
     inkscape:label="speechbubbles"
     style="display:inline">
    <path
       style="fill:#ffffff;stroke:none;stroke-width:0.988179"
       d="m 661.30994,2814.3001 c -3.26316,-31.6761 -6.52638,-96.3085 0,-110.3869 4.15316,0 10.97623,-0.3199 10.97623,-0.3199 l -6.52638,-17.2779 11.86616,4.1595 5.9331,-5.7594 -3.85648,-9.5987 10.67954,4.4794 5.33978,-9.2789 8.89962,6.7193 4.44988,-9.5989 9.78958,7.6791 18.09595,-4.1595 c 44.40549,-1.6956 88.3144,-4.2835 134.97786,-1.9198 l 14.23945,-6.0793 4.15319,8.9589 7.41632,0.3199 7.11971,-3.8395 7.11976,4.1595 23.73235,-2.8796 7.71302,8.319 9.19634,-7.0391 2.96649,9.2788 9.19632,-5.7593 1.48324,6.0792 21.9525,-7.0392 -3.26318,14.3982 c 0,0 16.31601,6.3994 27.88541,1.5999 1.1867,3.1997 -0.5931,8.9591 -0.5931,8.9591 l 5.933,3.1995 v 8.319 c 0,0 11.8662,10.8787 13.0527,13.7584 1.1867,2.8796 3.8565,81.5903 -0.2965,94.0688 3.2631,0 5.3397,1.9197 5.0431,3.8396 -0.2966,1.9197 -2.6699,7.359 -2.6699,7.359 0,0 3.2631,5.1195 2.3733,6.7193 -0.8901,1.5998 -2.6701,3.8394 -2.6701,3.8394 0,0 2.9667,4.1596 2.0766,5.4395 -0.8899,1.2798 -5.9329,3.5196 -8.0096,4.7994 2.3732,2.5596 4.4498,7.9991 2.6699,9.2789 -1.7798,1.2798 -5.9331,2.2397 -5.9331,2.2397 l -1.4832,3.1996 c 0,0 -0.5933,6.3993 -2.0766,6.7193 -1.4834,0.3199 -7.713,-3.1997 -8.603,-2.5599 -0.8899,0.64 -3.2631,5.7595 -4.7464,5.7595 -1.4833,0 -6.2299,-6.0794 -6.2299,-6.0794 -0.6339,1.3676 -78.97643,3.6626 -85.43654,2.2398 -6.49923,-1.4315 -32.03871,1.9198 -35.59856,1.9198 -3.55985,0 -18.39257,-0.9599 -20.46913,-1.5998 -2.07662,-0.64 -10.38292,-2.8797 -13.3495,-2.5598 -2.96652,0.3199 -8.60299,3.5197 -11.86614,3.5197 -3.26322,0 -21.9525,-1.9198 -25.51235,-1.5999 -3.55984,0.32 -19.87585,1.5999 -22.54575,1.5999 -2.66988,0 -32.63197,-3.5197 -35.89519,-3.8396 -3.26322,-0.3201 -17.50263,3.1997 -20.17252,2.8797 -2.66996,-0.32 -17.79931,-3.1998 -22.54583,-2.8797 -4.74643,0.3199 -22.54575,-4.1595 -23.73234,-3.8396 -1.1866,0.32 -2.97854,0.6393 -13.94276,0 5.63645,-4.7993 3.85648,-8.9589 3.85648,-8.9589 l -4.15312,-2.5597 0.59327,-2.8796 -8.60298,-4.7994 1.18664,-3.5196 0.59326,-5.7593 -8.60292,-4.4795 13.64608,-12.7984 z"
       id="path3894"
       inkscape:connector-curvature="0"
       sodipodi:nodetypes="cccccccccccccccccccccccccccccccscscccccsccssscssssssssssscccccccccc" />
    <path
       style="color:#000000;display:inline;overflow:visible;visibility:visible;fill:#ffffff;fill-opacity:1;fill-rule:nonzero;stroke:none;stroke-width:1px;marker:none;enable-background:accumulate"
       d="m 545.68385,2106.5543 c 0.92924,31.6909 15.53852,52.2214 23.60836,57.7317 8.06969,5.51 27.8159,19.9977 35.99606,27.9012 6.72231,6.5597 18.9915,14.5098 11.58161,18.2799 -7.40991,3.7703 -64.31872,11.3007 -65.81902,32.4013 -1.50054,21.1007 11.5192,27.961 33.86857,35.7108 22.34948,7.7502 51.41871,18.1603 52.37837,34.1408 0.95967,15.9804 -17.4603,25.021 -28.62018,26.9411 -11.15987,1.92 -81.38866,5.9308 -97.19855,13.2011 -15.8097,7.2704 -56.57965,35.8615 -42.75027,55.352 15.84012,-22.9807 24.99248,-33.4609 40.95221,-37.3811 15.95994,-3.9202 44.06732,-13.061 64.49678,-9.9711 20.42968,3.09 60.65877,11.58 73.49859,3.4995 12.83999,-8.0803 35.67019,-33.2912 30.75053,-50.3518 -4.91949,-17.0604 -21.35891,-34.7809 -56.00807,-44.2309 -22.3493,-7.7501 -32.60899,-13.0302 -32.33902,-17.9203 0.27015,-4.8901 18.69012,-13.9306 41.15957,-14.4208 22.46963,-0.4902 39.26943,-7.4905 37.82979,-17.8109 -1.43987,-10.3202 -25.01304,-34.7164 -28.85289,-44.0368 -3.83969,-9.3202 -32.82382,-61.3059 -32.82382,-61.3059 z"
       id="path5058"
       inkscape:connector-curvature="0"
       sodipodi:nodetypes="cscsssssscssssccscccc" />
    <path
       style="color:#000000;display:inline;overflow:visible;visibility:visible;fill:#ffffff;fill-opacity:1;fill-rule:nonzero;stroke:none;stroke-width:1px;marker:none;enable-background:accumulate"
       d="m 1103.0578,1030.655 16.9779,0.842 -6.696,-18.0755 c 26.2438,-2.772 40.8654,2.0582 60.0611,3.8964 l -32.9992,-21.59771 3.9164,-6.8802 c -5.3579,-3.50798 -12.9639,-5.63456 -15.5183,-10.86495 12.8297,-4.23033 22.4164,-4.87351 33.2498,-6.89553 -11.0446,-3.73058 -20.4569,-8.27381 -27.4866,-14.00356 l 33.7406,-12.85784 -33.7635,-6.98857 c 22.076,-16.7159 51.2492,-28.28501 77.9589,-41.64062 l -100.2746,12.04401 13.9183,-12.84671 c -11.0287,-5.45619 -9.6772,-2.47892 -14.43,-3.66012 -2.8725,-4.26753 31.3023,-25.11611 28.2325,-23.07347 -3.8259,0.91927 -36.7918,5.78525 -36.7918,5.78525 0,0 26.6658,-20.32144 22.7409,-20.0572 -3.9249,0.26421 -35.6126,7.02912 -35.6126,7.02912 l 8.1216,-18.41133 -40.7084,12.66535 14.3398,-23.17815 c -10.7819,2.03263 -17.7965,2.96105 -15.049,-4.9477 1.0502,-15.32342 27.0958,-48.54932 48.638,-82.00611 -39.5994,31.80022 -65.7096,56.21264 -80.4752,58.72952 -60.0196,35.34478 -46.58358,12.71445 -34.65689,-12.88473 l -35.78542,25.56688 -9.24375,-15.25729 -26.46791,21.63137 -3.0678,-20.30464 c -18.05343,2.65078 -25.54934,15.17994 -34.70532,26.15584 l -14.42323,-75.78025 -54.08149,68.48247 -16.81354,-25.99569 -6.0518,25.55009 -6.11043,-20.7614 -23.21894,30.01405 -24.46538,-24.15719 -16.06198,24.90062 c -21.85107,-24.57669 -50.79274,-43.35846 -83.29025,-59.23424 8.13665,26.16178 15.4726,51.60723 16.77319,71.65216 -10.80682,2.82547 -22.555,-0.57976 -34.54935,-5.61386 l 8.55936,17.28831 -42.99294,-9.0153 22.79979,26.25436 c -62.77487,5.11651 -50.85936,-0.45475 -65.75075,-2.19003 l 14.44679,16.89196 -45.25234,-10.84815 c 14.0055,13.84056 31.89484,28.66624 41.95478,41.50598 l -45.63128,-0.2362 c 19.46631,10.58257 43.01013,17.83272 57.69944,32.31933 l -39.3028,4.15611 40.25562,17.13939 -27.75438,13.11656 23.94522,1.03423 -35.68647,26.22178 52.30209,-1.5361 -56.3661,46.8018 71.22525,-14.0582 -1.23594,31.1808 36.86544,-24.9781 -28.55264,79.997 c 28.32687,-29.8339 50.02665,-53.6586 91.09099,-76.5478 l 15.34133,6.8076 15.08549,-5.0759 -0.58876,22.3442 53.83496,-30.7518 -4.00715,12.8412 15.88084,-12.9789 -1.45069,16.6388 27.44907,-21.6973 -0.21381,17.3091 12.87929,-12.207 6.11346,10.4552 16.06733,-7.9786 c 9.43312,28.0363 4.8811,57.0143 3.05278,85.8089 15.16597,-33.8432 36.21993,-64.9503 66.41647,-91.809 l 12.67313,11.7136 11.71982,-12.4094 15.84066,13.9542 17.78255,-19.1462 c 18.23062,12.4467 28.91039,20.1056 37.30399,33.2147 -5.0477,-12.4757 -8.6117,-20.8448 -6.1558,-35.123 62.9803,17.3672 61.4798,19.3952 85.6352,29.7723 3.8195,-15.6853 9.1569,-21.1814 10.8504,-33.1514 z"
       id="path4024"
       inkscape:connector-curvature="0"
       sodipodi:nodetypes="cccccccccccccccccscccccccccccccccccccccccccccccccccccccccccccccccccccccccccccccccccccc" />
    <path
       style="color:#000000;display:inline;overflow:visible;visibility:visible;fill:#ffffff;fill-opacity:1;fill-rule:nonzero;stroke:none;stroke-width:1px;marker:none;enable-background:accumulate"
       d="m 1218.5434,1215.8472 c -17.1936,-41.8333 -41.081,-81.504 -50.4971,-125.8497 l -12.6066,38.3698 c -11.8734,-13.9727 -14.0263,-33.3359 -19.4799,-50.8688 l -11.8198,22.4071 c -27.61,-33.3215 -37.27,-72.0345 -55.6059,-108.14156 l -17.4063,40.70596 c 22.9228,34.3264 51.2492,64.5082 68.0938,103.4964 l 13.8358,-20.7022 c 7.7408,12.6408 14.9797,25.6123 19.9766,40.0614 l 14.9982,-27.5356 z"
       id="path4032"
       inkscape:connector-curvature="0"
       sodipodi:nodetypes="cccccccccccc" />
    <path
       style="fill:#ffffff;stroke:none"
       d="m 372.83069,2033.8791 c 13.60927,-78.5065 38.12623,-92.6056 100.44943,-118.4298 52.77552,-21.868 267.30842,-13.4364 328.60741,-8.395 78.78835,6.4797 144.04733,40.8593 172.38974,83.621 28.34253,42.7616 -20.80662,157.2293 -92.68597,181.5129 -71.87911,24.2838 -220.87668,31.6636 -324.87849,23.3462 -62.92613,-5.0324 -200.73795,-50.7431 -183.88212,-161.6553 z"
       id="path3021"
       inkscape:connector-curvature="0"
       sodipodi:nodetypes="csssssc" />
    <path
       style="color:#000000;display:inline;overflow:visible;visibility:visible;fill:#ffffff;fill-opacity:1;fill-rule:nonzero;stroke:none;stroke-width:1.01651px;marker:none;enable-background:accumulate"
       d="m 219.58108,2442.5374 c 8.58732,-68.0058 54.74389,-125.8155 106.26758,-138.0848 51.52359,-12.2696 476.59356,-2.7887 508.79591,13.0674 32.20223,15.8564 81.5791,27.1613 67.62486,143.7248 -13.95445,116.5638 -75.13871,142.8958 -136.32309,147.0874 -61.18426,4.1912 -425.06998,29.2651 -476.59368,-33.1904 -51.52347,-62.4555 -71.91829,-56.4455 -69.77158,-132.6044 z"
       id="path4010"
       inkscape:connector-curvature="0" />
    <path
       style="color:#000000;display:inline;overflow:visible;visibility:visible;fill:#ffffff;fill-opacity:1;fill-rule:nonzero;stroke:none;stroke-width:1px;marker:none;enable-background:accumulate"
       d="m 818.38834,2583.9679 c 67.39048,-7.2879 57.08568,151.5067 86.26978,173.1099 9.7929,7.2493 31.4834,20.8279 44.6537,19.302 22.2217,-2.5742 36.1996,-31.978 105.26508,76.2516 14.5484,25.3304 64.6014,14.081 89.3863,-17.682 11.6551,-10.1772 41.1802,-16.077 77.8516,61.4689 13.8568,19.6534 45.1883,26.7156 63.2855,13.7581 9.1413,-7.2854 37.1244,-12.8074 54.186,9.6305 -28.6245,-35.0226 -70.9102,-17.2346 -84.2354,-19.4809 -16.2432,-3.961 -39.3841,-48.3247 -56.7917,-73.6014 -17.4077,-25.2767 -61.1235,-10.7157 -74.7267,-4.7692 -13.6034,5.9465 -27.7891,23.6628 -43.1211,15.4175 -15.3327,-8.246 -44.7469,-68.4598 -71.2965,-86.4517 -26.54898,-17.9912 -54.17928,2.8818 -77.86948,-15.1637 -23.6905,-18.0456 -25.59,-113.7737 -41.9733,-143.1837 -15.9411,-32.6468 -53.5462,-54.4535 -53.5462,-54.4535 z"
       id="path3153"
       inkscape:connector-curvature="0"
       sodipodi:nodetypes="cssccccccsscssccc" />
    <flowRoot
       xml:space="preserve"
       id="flowRoot101"
       style="font-style:normal;font-variant:normal;font-weight:normal;font-stretch:normal;line-height:1.25;font-family:'Xiaolai SC';-inkscape-font-specification:'Xiaolai SC';text-align:center;letter-spacing:0px;word-spacing:0px;text-anchor:middle;fill:#000000;fill-opacity:1;stroke:none"
       transform="matrix(1.0941513,0,0,1.1714361,379.33472,2387.9955)"><flowRegion
         id="flowRegion97"
         style="font-style:normal;font-variant:normal;font-weight:normal;font-stretch:normal;font-family:'Xiaolai SC';-inkscape-font-specification:'Xiaolai SC'"><rect
           id="rect95"
           width="617.78296"
           height="319.6524"
           x="120.55251"
           y="265.53046"
           style="font-style:normal;font-variant:normal;font-weight:normal;font-stretch:normal;font-family:'Xiaolai SC';-inkscape-font-specification:'Xiaolai SC';text-align:center;text-anchor:middle;" /></flowRegion><flowPara
         style="font-style:normal;font-variant:normal;font-weight:normal;font-stretch:normal;font-size:48px;font-family:'Xiaolai SC';-inkscape-font-specification:'Xiaolai SC';text-align:center;text-anchor:middle"
         id="flowPara99"><flowSpan
   style="stroke:#000000;stroke-opacity:1;stroke-width:1.48083878"
   id="flowSpan946">큰</flowSpan>拍手</flowPara><flowPara
         style="font-style:normal;font-variant:normal;font-weight:normal;font-stretch:normal;font-size:48px;font-family:'Xiaolai SC';-inkscape-font-specification:'Xiaolai SC';text-align:center;text-anchor:middle"
         id="flowPara121">付託드립니다!</flowPara></flowRoot>
    <flowRoot
       xml:space="preserve"
       id="flowRoot57"
       style="font-style:normal;font-variant:normal;font-weight:normal;font-stretch:normal;line-height:1.25;font-family:'Xiaolai SC';-inkscape-font-specification:'Xiaolai SC';text-align:center;letter-spacing:0px;word-spacing:0px;text-anchor:middle;fill:#000000;fill-opacity:1;stroke:#000000;stroke-width:1.04545;stroke-miterlimit:4;stroke-dasharray:none;stroke-opacity:1"
       transform="matrix(2.046609,0,-0.21675227,2.3926994,36.943291,232.40247)"
       inkscape:transform-center-x="-13.994075"
       inkscape:transform-center-y="-30.179772"><flowRegion
         id="flowRegion53"
         style="font-style:normal;font-variant:normal;font-weight:normal;font-stretch:normal;font-family:'Xiaolai SC';-inkscape-font-specification:'Xiaolai SC'"><rect
           id="rect51"
           width="602.40173"
           height="310.73996"
           x="120.55251"
           y="265.53046"
           style="font-style:normal;font-variant:normal;font-weight:normal;font-stretch:normal;font-family:'Xiaolai SC';-inkscape-font-specification:'Xiaolai SC';text-align:center;text-anchor:middle;stroke:#000000;stroke-width:1.04545081;stroke-miterlimit:4;stroke-dasharray:none;stroke-opacity:1;" /></flowRegion><flowPara
         style="font-style:normal;font-variant:normal;font-weight:normal;font-stretch:normal;font-size:48px;font-family:'Xiaolai SC';-inkscape-font-specification:'Xiaolai SC';text-align:center;text-anchor:middle;stroke:#000000;stroke-width:1.04545;stroke-miterlimit:4;stroke-dasharray:none;stroke-opacity:1"
         id="flowPara55">이게 뭐야 ?!!</flowPara></flowRoot>
    <flowRoot
       xml:space="preserve"
       id="flowRoot69"
       style="font-style:normal;font-variant:normal;font-weight:normal;font-stretch:normal;line-height:1.25;font-family:'Xiaolai SC';-inkscape-font-specification:'Xiaolai SC';text-align:center;letter-spacing:0px;word-spacing:0px;text-anchor:middle;fill:#000000;fill-opacity:1;stroke:none"
       transform="matrix(1.0838181,0,0,1.0838181,229.40399,1662.3914)"><flowRegion
         id="flowRegion61"
         style="font-style:normal;font-variant:normal;font-weight:normal;font-stretch:normal;font-family:'Xiaolai SC';-inkscape-font-specification:'Xiaolai SC'"><rect
           id="rect59"
           width="566.03296"
           height="290.90244"
           x="120.55251"
           y="265.53046"
           style="font-style:normal;font-variant:normal;font-weight:normal;font-stretch:normal;font-family:'Xiaolai SC';-inkscape-font-specification:'Xiaolai SC';text-align:center;text-anchor:middle;" /></flowRegion><flowPara
         style="font-style:normal;font-variant:normal;font-weight:normal;font-stretch:normal;font-size:48px;font-family:'Xiaolai SC';-inkscape-font-specification:'Xiaolai SC';text-align:center;text-anchor:middle"
         id="flowPara63">코모나市長으로서,</flowPara><flowPara
         style="font-style:normal;font-variant:normal;font-weight:normal;font-stretch:normal;font-size:48px;font-family:'Xiaolai SC';-inkscape-font-specification:'Xiaolai SC';text-align:center;text-anchor:middle"
         id="flowPara65">물藥大會의開催를...</flowPara><flowPara
         style="font-style:normal;font-variant:normal;font-weight:normal;font-stretch:normal;font-size:48px;font-family:'Xiaolai SC';-inkscape-font-specification:'Xiaolai SC';text-align:center;text-anchor:middle"
         id="flowPara67">宣言합니다!</flowPara></flowRoot>
    <flowRoot
       transform="matrix(1.0537474,0,0,1.0537474,56.750873,2079.2402)"
       style="font-style:normal;font-variant:normal;font-weight:normal;font-stretch:normal;line-height:1.25;font-family:'Xiaolai SC';-inkscape-font-specification:'Xiaolai SC';text-align:center;letter-spacing:0px;word-spacing:0px;text-anchor:middle;fill:#000000;fill-opacity:1;stroke:none"
       id="flowRoot83"
       xml:space="preserve"><flowRegion
         id="flowRegion73"
         style="font-style:normal;font-variant:normal;font-weight:normal;font-stretch:normal;font-family:'Xiaolai SC';-inkscape-font-specification:'Xiaolai SC'"><rect
           style="font-style:normal;font-variant:normal;font-weight:normal;font-stretch:normal;font-family:'Xiaolai SC';-inkscape-font-specification:'Xiaolai SC';text-align:center;text-anchor:middle;"
           y="265.53046"
           x="120.55251"
           height="285.1524"
           width="727.03296"
           id="rect71" /></flowRegion><flowPara
         style="font-style:normal;font-variant:normal;font-weight:normal;font-stretch:normal;font-size:48px;font-family:'Xiaolai SC';-inkscape-font-specification:'Xiaolai SC';text-align:center;text-anchor:middle"
         id="flowPara77"> 첫째 물藥大會의參加者로</flowPara><flowPara
         style="font-style:normal;font-variant:normal;font-weight:normal;font-stretch:normal;font-size:48px;font-family:'Xiaolai SC';-inkscape-font-specification:'Xiaolai SC';text-align:center;text-anchor:middle"
         id="flowPara79">4名의魔女를招待한 것을</flowPara><flowPara
         style="font-style:normal;font-variant:normal;font-weight:normal;font-stretch:normal;font-size:48px;font-family:'Xiaolai SC';-inkscape-font-specification:'Xiaolai SC';text-align:center;text-anchor:middle"
         id="flowPara81">榮光스럽게 생각합니다</flowPara></flowRoot>
    <flowRoot
       xml:space="preserve"
       id="flowRoot119"
       style="font-style:normal;font-variant:normal;font-weight:normal;font-stretch:normal;line-height:0.01%;font-family:'Xiaolai SC';-inkscape-font-specification:'Xiaolai SC';text-align:center;letter-spacing:0px;word-spacing:0px;text-anchor:middle;opacity:0.613953;fill:#000000;fill-opacity:1;stroke:#000000;stroke-width:1.9672;stroke-miterlimit:4;stroke-dasharray:none;stroke-opacity:1;filter:url(#filter3815)"
       transform="matrix(1.6438538,-0.16230411,-0.07905999,2.1031294,971.85823,1965.061)"
       inkscape:transform-center-x="-10.411153"
       inkscape:transform-center-y="-18.069213"><flowRegion
         id="flowRegion115"
         style="font-style:normal;font-variant:normal;font-weight:normal;font-stretch:normal;font-family:'Xiaolai SC';-inkscape-font-specification:'Xiaolai SC'"><rect
           id="rect113"
           width="826.12402"
           height="65.224297"
           x="120.55251"
           y="265.53046"
           style="font-style:normal;font-variant:normal;font-weight:normal;font-stretch:normal;font-family:'Xiaolai SC';-inkscape-font-specification:'Xiaolai SC';text-align:center;text-anchor:middle;stroke:#000000;stroke-width:1.96720004;stroke-miterlimit:4;stroke-dasharray:none;stroke-opacity:1;" /></flowRegion><flowPara
         style="font-style:normal;font-variant:normal;font-weight:normal;font-stretch:normal;font-size:48px;line-height:1.25;font-family:'Xiaolai SC';-inkscape-font-specification:'Xiaolai SC';text-align:center;text-anchor:middle;fill:#ffffff;fill-opacity:1;stroke:#959595;stroke-width:1.9672;stroke-miterlimit:4;stroke-dasharray:none;stroke-opacity:1"
         id="flowPara117">코모나 물藥大會</flowPara></flowRoot>
  </g>
  <g
     inkscape:groupmode="layer"
     id="layer1"
     inkscape:label="txt"
     style="display:inline" />
</svg>
