<?xml version="1.0" encoding="UTF-8" standalone="no"?>
<!-- Created with Inkscape (http://www.inkscape.org/) -->

<svg
   xmlns:dc="http://purl.org/dc/elements/1.1/"
   xmlns:cc="http://creativecommons.org/ns#"
   xmlns:rdf="http://www.w3.org/1999/02/22-rdf-syntax-ns#"
   xmlns:svg="http://www.w3.org/2000/svg"
   xmlns="http://www.w3.org/2000/svg"
   xmlns:xlink="http://www.w3.org/1999/xlink"
   xmlns:sodipodi="http://sodipodi.sourceforge.net/DTD/sodipodi-0.dtd"
   xmlns:inkscape="http://www.inkscape.org/namespaces/inkscape"
   id="svg2"
   version="1.1"
   inkscape:version="0.92.3 (2405546, 2018-03-11)"
   width="2481"
   height="3503"
   sodipodi:docname="E04P02.svg">
  <sodipodi:namedview
     pagecolor="#ffffff"
     bordercolor="#666666"
     inkscape:pageopacity="0"
     inkscape:pageshadow="2"
     inkscape:window-width="1813"
     inkscape:window-height="955"
     id="namedview70"
     showgrid="false"
     inkscape:zoom="0.56568542"
     inkscape:cx="1421.215"
     inkscape:cy="1980.1033"
     inkscape:current-layer="layer3"
     inkscape:window-x="0"
     inkscape:window-y="0"
     inkscape:window-maximized="0" />
  <metadata
     id="metadata8">
    <rdf:RDF>
      <cc:Work
         rdf:about="">
        <dc:format>image/svg+xml</dc:format>
        <dc:type
           rdf:resource="http://purl.org/dc/dcmitype/StillImage" />
        <dc:title />
      </cc:Work>
    </rdf:RDF>
  </metadata>
  <defs
     id="defs6">
    <filter
       id="filter4375"
       style="color-interpolation-filters:sRGB;"
       inkscape:label="deevad outline effect">
      <feFlood
         id="feFlood4377"
         flood-opacity="1"
         flood-color="rgb(255,255,255)"
         result="flood" />
      <feComposite
         id="feComposite4379"
         in2="SourceGraphic"
         in="flood"
         operator="in"
         result="composite1" />
      <feMorphology
         id="feMorphology4393"
         operator="dilate"
         radius="4"
         result="result3" />
      <feComposite
         id="feComposite4385"
         in2="result3"
         in="SourceGraphic"
         operator="over"
         result="composite2" />
    </filter>
    <filter
       color-interpolation-filters="sRGB"
       id="filter4375-9"
       inkscape:label="deevad outline effect">
      <feFlood
         id="feFlood4377-1"
         flood-opacity="1"
         flood-color="rgb(255,255,255)"
         result="flood" />
      <feComposite
         id="feComposite4379-4"
         in2="SourceGraphic"
         in="flood"
         operator="in"
         result="composite1" />
      <feMorphology
         id="feMorphology4393-4"
         operator="dilate"
         radius="4"
         result="result3" />
      <feComposite
         id="feComposite4385-8"
         in2="result3"
         in="SourceGraphic"
         operator="over"
         result="composite2" />
    </filter>
    <filter
       color-interpolation-filters="sRGB"
       id="filter4375-5"
       inkscape:label="deevad outline effect">
      <feFlood
         id="feFlood4377-0"
         flood-opacity="1"
         flood-color="rgb(255,255,255)"
         result="flood" />
      <feComposite
         id="feComposite4379-6"
         in2="SourceGraphic"
         in="flood"
         operator="in"
         result="composite1" />
      <feMorphology
         id="feMorphology4393-0"
         operator="dilate"
         radius="4"
         result="result3" />
      <feComposite
         id="feComposite4385-7"
         in2="result3"
         in="SourceGraphic"
         operator="over"
         result="composite2" />
    </filter>
    <filter
       color-interpolation-filters="sRGB"
       id="filter4375-4"
       inkscape:label="deevad outline effect">
      <feFlood
         id="feFlood4377-7"
         flood-opacity="1"
         flood-color="rgb(255,255,255)"
         result="flood" />
      <feComposite
         id="feComposite4379-3"
         in2="SourceGraphic"
         in="flood"
         operator="in"
         result="composite1" />
      <feMorphology
         id="feMorphology4393-1"
         operator="dilate"
         radius="4"
         result="result3" />
      <feComposite
         id="feComposite4385-9"
         in2="result3"
         in="SourceGraphic"
         operator="over"
         result="composite2" />
    </filter>
    <filter
       color-interpolation-filters="sRGB"
       id="filter4375-51"
       inkscape:label="deevad outline effect">
      <feFlood
         id="feFlood4377-8"
         flood-opacity="1"
         flood-color="rgb(255,255,255)"
         result="flood" />
      <feComposite
         id="feComposite4379-67"
         in2="SourceGraphic"
         in="flood"
         operator="in"
         result="composite1" />
      <feMorphology
         id="feMorphology4393-47"
         operator="dilate"
         radius="4"
         result="result3" />
      <feComposite
         id="feComposite4385-80"
         in2="result3"
         in="SourceGraphic"
         operator="over"
         result="composite2" />
    </filter>
    <filter
       color-interpolation-filters="sRGB"
       id="filter4375-5-4"
       inkscape:label="deevad outline effect">
      <feFlood
         id="feFlood4377-0-3"
         flood-opacity="1"
         flood-color="rgb(255,255,255)"
         result="flood" />
      <feComposite
         id="feComposite4379-6-6"
         in2="SourceGraphic"
         in="flood"
         operator="in"
         result="composite1" />
      <feMorphology
         id="feMorphology4393-0-9"
         operator="dilate"
         radius="4"
         result="result3" />
      <feComposite
         id="feComposite4385-7-5"
         in2="result3"
         in="SourceGraphic"
         operator="over"
         result="composite2" />
    </filter>
    <filter
       color-interpolation-filters="sRGB"
       id="filter4375-5-4-8"
       inkscape:label="deevad outline effect">
      <feFlood
         id="feFlood4377-0-3-4"
         flood-opacity="1"
         flood-color="rgb(255,255,255)"
         result="flood" />
      <feComposite
         id="feComposite4379-6-6-3"
         in2="SourceGraphic"
         in="flood"
         operator="in"
         result="composite1" />
      <feMorphology
         id="feMorphology4393-0-9-3"
         operator="dilate"
         radius="4"
         result="result3" />
      <feComposite
         id="feComposite4385-7-5-5"
         in2="result3"
         in="SourceGraphic"
         operator="over"
         result="composite2" />
    </filter>
    <filter
       color-interpolation-filters="sRGB"
       id="filter4375-5-4-3"
       inkscape:label="deevad outline effect">
      <feFlood
         id="feFlood4377-0-3-1"
         flood-opacity="1"
         flood-color="rgb(255,255,255)"
         result="flood" />
      <feComposite
         id="feComposite4379-6-6-1"
         in2="SourceGraphic"
         in="flood"
         operator="in"
         result="composite1" />
      <feMorphology
         id="feMorphology4393-0-9-7"
         operator="dilate"
         radius="4"
         result="result3" />
      <feComposite
         id="feComposite4385-7-5-8"
         in2="result3"
         in="SourceGraphic"
         operator="over"
         result="composite2" />
    </filter>
    <filter
       color-interpolation-filters="sRGB"
       id="filter4375-5-4-81"
       inkscape:label="deevad outline effect">
      <feFlood
         id="feFlood4377-0-3-3"
         flood-opacity="1"
         flood-color="rgb(255,255,255)"
         result="flood" />
      <feComposite
         id="feComposite4379-6-6-36"
         in2="SourceGraphic"
         in="flood"
         operator="in"
         result="composite1" />
      <feMorphology
         id="feMorphology4393-0-9-1"
         operator="dilate"
         radius="4"
         result="result3" />
      <feComposite
         id="feComposite4385-7-5-4"
         in2="result3"
         in="SourceGraphic"
         operator="over"
         result="composite2" />
    </filter>
    <filter
       color-interpolation-filters="sRGB"
       id="filter4375-5-4-9"
       inkscape:label="deevad outline effect">
      <feFlood
         id="feFlood4377-0-3-0"
         flood-opacity="1"
         flood-color="rgb(255,255,255)"
         result="flood" />
      <feComposite
         id="feComposite4379-6-6-2"
         in2="SourceGraphic"
         in="flood"
         operator="in"
         result="composite1" />
      <feMorphology
         id="feMorphology4393-0-9-2"
         operator="dilate"
         radius="4"
         result="result3" />
      <feComposite
         id="feComposite4385-7-5-85"
         in2="result3"
         in="SourceGraphic"
         operator="over"
         result="composite2" />
    </filter>
    <filter
       color-interpolation-filters="sRGB"
       id="filter4375-5-4-2"
       inkscape:label="deevad outline effect">
      <feFlood
         id="feFlood4377-0-3-47"
         flood-opacity="1"
         flood-color="rgb(255,255,255)"
         result="flood" />
      <feComposite
         id="feComposite4379-6-6-35"
         in2="SourceGraphic"
         in="flood"
         operator="in"
         result="composite1" />
      <feMorphology
         id="feMorphology4393-0-9-76"
         operator="dilate"
         radius="6"
         result="result3" />
      <feComposite
         id="feComposite4385-7-5-9"
         in2="result3"
         in="SourceGraphic"
         operator="over"
         result="composite2" />
    </filter>
    <filter
       color-interpolation-filters="sRGB"
       id="filter4375-5-4-2-8"
       inkscape:label="deevad outline effect">
      <feFlood
         id="feFlood4377-0-3-47-4"
         flood-opacity="1"
         flood-color="rgb(255,255,255)"
         result="flood" />
      <feComposite
         id="feComposite4379-6-6-35-0"
         in2="SourceGraphic"
         in="flood"
         operator="in"
         result="composite1" />
      <feMorphology
         id="feMorphology4393-0-9-76-6"
         operator="dilate"
         radius="6"
         result="result3" />
      <feComposite
         id="feComposite4385-7-5-9-5"
         in2="result3"
         in="SourceGraphic"
         operator="over"
         result="composite2" />
    </filter>
    <filter
       color-interpolation-filters="sRGB"
       id="filter4375-5-4-2-8-9"
       inkscape:label="deevad outline effect">
      <feFlood
         id="feFlood4377-0-3-47-4-9"
         flood-opacity="1"
         flood-color="rgb(255,255,255)"
         result="flood" />
      <feComposite
         id="feComposite4379-6-6-35-0-8"
         in2="SourceGraphic"
         in="flood"
         operator="in"
         result="composite1" />
      <feMorphology
         id="feMorphology4393-0-9-76-6-6"
         operator="dilate"
         radius="6"
         result="result3" />
      <feComposite
         id="feComposite4385-7-5-9-5-0"
         in2="result3"
         in="SourceGraphic"
         operator="over"
         result="composite2" />
    </filter>
    <filter
       color-interpolation-filters="sRGB"
       id="filter4375-5-4-2-7"
       inkscape:label="deevad outline effect">
      <feFlood
         id="feFlood4377-0-3-47-3"
         flood-opacity="1"
         flood-color="rgb(255,255,255)"
         result="flood" />
      <feComposite
         id="feComposite4379-6-6-35-5"
         in2="SourceGraphic"
         in="flood"
         operator="in"
         result="composite1" />
      <feMorphology
         id="feMorphology4393-0-9-76-4"
         operator="dilate"
         radius="6"
         result="result3" />
      <feComposite
         id="feComposite4385-7-5-9-2"
         in2="result3"
         in="SourceGraphic"
         operator="over"
         result="composite2" />
    </filter>
    <filter
       color-interpolation-filters="sRGB"
       inkscape:collect="always"
       id="filter4968-5">
      <feGaussianBlur
         inkscape:collect="always"
         stdDeviation="1.0497573"
         id="feGaussianBlur4970-0" />
    </filter>
  </defs>
  <sodipodi:namedview
     pagecolor="#ffffff"
     bordercolor="#666666"
     borderopacity="1"
     objecttolerance="10"
     gridtolerance="10"
     guidetolerance="10"
     inkscape:pageopacity="0"
     inkscape:pageshadow="2"
     inkscape:window-width="1920"
     inkscape:window-height="1025"
     id="namedview4"
     showgrid="false"
     inkscape:zoom="0.2060889"
     inkscape:cx="1692.8936"
     inkscape:cy="1706.8383"
     inkscape:window-x="0"
     inkscape:window-y="26"
     inkscape:window-maximized="1"
     inkscape:current-layer="layer1" />
  <g
     inkscape:groupmode="layer"
     id="layer2"
     inkscape:label="artwork"
     sodipodi:insensitive="true">
    <image
       xlink:href="../gfx_Pepper-and-Carrot_by-David-Revoy_E04P02.png"
       y="0"
       x="0"
       id="image10"
       height="3503"
       width="2481" />
  </g>
  <g
     inkscape:groupmode="layer"
     id="layer3"
     inkscape:label="speechbubbles">
    <path
       style="fill:#ffffff;stroke:none"
       d="m 516.94719,947.28565 c 1.81385,-41.71854 13.36569,-63.10176 19.04542,-71.64707 5.79383,-8.71697 55.29793,-36.30149 65.29859,-38.09084 9.32056,-1.66766 39.9047,-14.5108 50.7878,-14.5108 10.8831,0 83.43709,-4.53462 87.06479,-6.34847 3.6277,-1.81385 56.20167,-2.56134 66.20552,-0.90693 9.06924,1.49985 65.60717,6.1594 73.46091,9.97617 3.3468,1.62648 81.58884,12.62815 87.06479,13.60388 4.55272,0.81123 43.53249,-6.34848 48.06709,-6.34848 4.5346,0 38.0908,9.97618 41.7185,20.85928 3.6277,10.8831 25.3939,39.90469 19.9524,72.55399 -5.4416,32.64929 -22.6731,65.29859 -50.7878,68.92629 -28.11474,3.62768 -193.17507,15.41773 -240.33517,17.23163 -47.16009,1.8138 -239.42817,-16.32471 -247.59049,-27.2078 -8.16233,-10.8831 -19.95235,-38.09085 -19.95235,-38.09085 z"
       id="path4972"
       inkscape:connector-curvature="0"
       sodipodi:nodetypes="csssssssssssssc" />
    <path
       style="color:#000000;display:inline;overflow:visible;visibility:visible;fill:#ffffff;fill-opacity:1;fill-rule:nonzero;stroke:none;stroke-width:1px;marker:none;enable-background:accumulate"
       d="m 91.16094,141.0589 c 0,-41.97929 83.95857,-59.970413 153.52425,-62.369229 69.56567,-2.398817 169.11655,3.598224 171.51536,33.583429 2.39882,29.9852 -15.5923,58.771 -33.58343,64.76804 -17.99112,5.99704 -113.94377,17.99112 -142.72957,19.19053 -28.78579,1.19941 -143.92898,21.58935 -148.72661,-55.17277 z"
       id="path4974"
       inkscape:connector-curvature="0" />
    <path
       style="color:#000000;fill:#ffffff;fill-opacity:1;fill-rule:nonzero;stroke:none;stroke-width:1px;marker:none;visibility:visible;display:inline;overflow:visible;enable-background:accumulate"
       d="m 334.65357,273.73019 c -67.89078,-18.51567 -87.09222,-32.23098 -97.3787,-90.52105 -10.28648,-58.29007 10.97225,-58.97583 10.97225,-58.97583 0,0 -8.22919,111.09401 86.40645,149.49688 z"
       id="path5002"
       inkscape:connector-curvature="0" />
    <path
       style="color:#000000;fill:#ffffff;fill-opacity:1;fill-rule:nonzero;stroke:none;stroke-width:1px;marker:none;visibility:visible;display:inline;overflow:visible;enable-background:accumulate"
       d="m 740.05071,833.92004 c 6.34848,-35.37007 4.53463,-68.01937 -28.11467,-81.62324 54.41549,10.8831 61.67089,77.99554 61.67089,98.85481 0,20.85927 -33.55622,-17.23157 -33.55622,-17.23157 z"
       id="path5010"
       inkscape:connector-curvature="0" />
    <path
       style="color:#000000;display:inline;overflow:visible;visibility:visible;fill:#ffffff;fill-opacity:1;fill-rule:nonzero;stroke:none;stroke-width:1.15503347px;marker:none;enable-background:accumulate"
       d="m 1061.5224,125.03897 c 0.9314,-48.997018 76.3735,-56.123856 142.5019,-53.451291 66.1283,2.672564 185.3456,-16.035386 174.1689,77.504371 -11.1766,93.53974 -222.601,50.77872 -229.1207,51.66957 -6.5197,0.89086 -100.5896,-16.92624 -87.5501,-75.72265 z"
       id="path5018"
       inkscape:connector-curvature="0" />
    <path
       style="color:#000000;display:inline;overflow:visible;visibility:visible;fill:#ffffff;fill-opacity:1;fill-rule:nonzero;stroke:none;stroke-width:1.06128335px;marker:none;enable-background:accumulate"
       d="m 1342.2647,403.68276 c 2.6647,-40.22015 21.318,-85.96071 161.6618,-72.554 140.3438,13.40672 134.1261,22.87028 133.2379,76.49715 -0.8882,53.62686 -63.9542,63.09042 -149.2264,49.68371 -85.2722,-13.40672 -143.0086,4.73178 -145.6733,-53.62686 z"
       id="path5026"
       inkscape:connector-curvature="0" />
    <path
       style="color:#000000;display:inline;overflow:visible;visibility:visible;fill:#ffffff;fill-opacity:1;fill-rule:nonzero;stroke:none;stroke-width:1.08193266px;marker:none;enable-background:accumulate"
       d="m 1072.5373,525.92046 c 2.7695,-46.52919 37.8492,-56.78139 74.7754,-59.14728 36.9261,-2.36589 51.6966,4.73179 61.8513,6.30905 10.1547,1.57726 105.2395,-4.73179 118.1636,-3.15453 12.9242,1.57727 73.8523,22.87028 71.0829,59.93591 -2.7695,37.06563 -44.3115,52.83823 -86.7765,55.20412 -42.4651,2.3659 -129.2414,0 -150.474,4.73179 -21.2325,4.73178 -82.1606,-3.15452 -88.6227,-63.87906 z"
       id="path5034"
       inkscape:connector-curvature="0" />
    <path
       style="color:#000000;display:inline;overflow:visible;visibility:visible;fill:#ffffff;fill-opacity:1;fill-rule:nonzero;stroke:none;stroke-width:1.06690204px;marker:none;enable-background:accumulate"
       d="m 1203.0316,890.26768 c 0,-33.91111 37.7026,-71.76536 77.2006,-74.13126 39.498,-2.36589 90.6659,3.15453 140.0385,9.46357 49.3725,6.30904 68.2238,-8.67493 95.1542,-3.15452 26.9304,5.52041 48.4748,22.87028 48.4748,44.95193 0,22.08165 -15.2605,22.87028 -16.1582,23.65891 -0.8976,0.78863 5.3862,16.56123 -4.4884,22.87028 -9.8745,6.30904 -62.8378,14.19534 -69.1216,15.7726 -6.2837,1.57726 -57.4516,6.30905 -74.5075,5.52042 -17.0561,-0.78863 -104.1312,0.78863 -111.3126,-1.57726 -7.1815,-2.3659 -61.0423,-1.57726 -85.2798,-43.37467 z"
       id="path5042"
       inkscape:connector-curvature="0" />
    <path
       style="color:#000000;fill:#ffffff;fill-opacity:1;fill-rule:nonzero;stroke:none;stroke-width:1px;marker:none;visibility:visible;display:inline;overflow:visible;enable-background:accumulate"
       d="m 1183.6909,183.29859 c 14.3116,13.11899 28.6233,30.41221 29.8159,34.58644 1.1926,4.17422 -10.1374,27.43062 -5.9632,32.20116 4.1742,4.77054 19.6785,5.36686 21.4675,8.94477 1.7889,3.5779 -3.5779,22.06376 0,25.64166 3.5779,3.57791 28.6232,13.119 29.8159,16.10058 1.1926,2.98159 7.7521,19.08218 19.6784,31.60485 -11.33,-31.60485 -7.7521,-38.16434 -11.9263,-42.93488 -4.1742,-4.77055 -20.8711,-8.94477 -23.2564,-14.31163 -2.3853,-5.36686 2.3853,-23.2564 -2.3853,-28.02694 -4.7705,-4.77054 -16.1006,-6.5595 -16.1006,-6.5595 4.1743,-4.77054 22.0638,-32.79748 2.3853,-60.82442 -19.6785,-28.02693 -43.5312,3.57791 -43.5312,3.57791 z"
       id="path5050"
       inkscape:connector-curvature="0" />
    <path
       style="color:#000000;fill:#ffffff;fill-opacity:1;fill-rule:nonzero;stroke:none;stroke-width:1px;marker:none;visibility:visible;display:inline;overflow:visible;enable-background:accumulate"
       d="m 1480.9424,434.81508 c 4.6668,19.70442 14.519,30.07516 19.1859,32.14931 4.6668,2.07415 16.2199,7.77924 21.2588,11.33459 4.1495,2.9624 11.1881,5.84802 8.0769,9.47778 -3.1112,3.62976 -29.8543,18.07793 -27.7801,31.5599 2.0741,13.48196 9.3337,15.55611 21.26,16.59319 11.9264,1.03707 27.4825,2.59268 30.0752,12.44489 2.5927,9.85221 -5.1854,18.66734 -10.3708,21.77857 -5.1854,3.11122 -38.8903,17.63026 -45.6313,24.88978 -6.7409,7.25953 -22.8156,32.14931 -13.4819,42.00152 4.6668,-17.11173 7.7353,-25.24497 14.9948,-30.43034 7.2596,-5.18538 19.7472,-15.71947 30.1179,-17.27508 10.3708,-1.55562 31.1123,-3.11123 36.2976,-10.37075 5.1854,-7.25952 12.9635,-26.96394 8.2966,-36.81614 -4.6668,-9.85221 -15.0376,-18.14881 -33.1864,-18.14881 -11.9263,-1.03707 -17.6302,-2.59268 -18.1488,-5.70391 -0.5185,-3.11122 7.2596,-11.92636 18.1488,-16.07465 10.8893,-4.1483 18.1488,-11.40782 16.0747,-17.63027 -2.0742,-6.22245 -16.8105,-17.48379 -19.9218,-22.66917 -3.1112,-5.18537 -24.1539,-32.81432 -24.1539,-32.81432 z"
       id="path5058"
       inkscape:connector-curvature="0"
       sodipodi:nodetypes="cscsssssscssssccscccc" />
    <path
       style="color:#000000;fill:#ffffff;fill-opacity:1;fill-rule:nonzero;stroke:none;stroke-width:1px;marker:none;visibility:visible;display:inline;overflow:visible;enable-background:accumulate"
       d="m 1169.82,569.11623 c 6.2225,27.48248 16.5932,59.11325 19.7045,66.37277 6.2224,-7.25952 12.9634,-12.44489 18.1488,-16.59319 4.6668,14.0005 22.8156,80.37327 20.7414,97.485 6.741,-42.00152 -3.6297,-93.3367 -12.9634,-115.63381 -7.778,4.1483 -11.9263,7.77806 -16.0746,9.85221 -5.1854,-10.88928 -14.5191,-49.77957 -14.5191,-49.77957 z"
       id="path5066"
       inkscape:connector-curvature="0" />
    <path
       style="color:#000000;fill:#ffffff;fill-opacity:1;fill-rule:nonzero;stroke:none;stroke-width:1px;marker:none;visibility:visible;display:inline;overflow:visible;enable-background:accumulate"
       d="m 1429.6072,851.71903 c 36.8161,-34.22345 74.1508,-91.78109 5.1854,-131.18992 -1.5556,-37.85322 -7.1179,-66.37345 -64.8172,-94.89232 38.3718,29.03809 56.002,49.26104 53.9279,105.26306 32.6678,24.88979 31.1122,70.52107 -21.26,104.22599 -52.3723,33.70492 -40.9645,20.74149 -40.9645,20.74149 l 52.8908,6.22245 z"
       id="path5074"
       inkscape:connector-curvature="0"
       sodipodi:nodetypes="ccccsccc" />
    <path
       style="color:#000000;display:inline;overflow:visible;visibility:visible;fill:#ffffff;fill-opacity:1;fill-rule:nonzero;stroke:none;stroke-width:0.89944047px;marker:none;enable-background:accumulate"
       d="m 1988.9156,752.60006 c 13.7432,-8.30947 35.7325,-5.53964 35.7325,-5.53964 0,0 4.9476,-11.87069 41.7796,-15.43189 36.832,-3.56121 51.6747,9.49655 51.6747,9.49655 0,0 8.7957,-7.91379 25.2876,-7.12241 16.4919,0.79138 27.4865,10.28792 27.4865,10.28792 0,0 7.1465,-7.5181 21.4396,-6.72672 14.293,0.79138 23.0887,6.72672 23.0887,6.72672 0,0 9.8951,-9.49654 23.6384,-8.70516 13.7433,0.79136 31.8844,13.84912 31.8844,13.84912 0,0 9.8952,-10.28792 29.6854,-9.49654 19.7904,0.79137 38.4812,10.68361 43.4288,13.45344 4.9476,2.76984 10.9946,9.10086 10.9946,9.10086 0,0 16.4919,0.79138 22.5389,5.93534 6.0472,5.14397 4.9477,19.78447 4.9477,19.78447 0,0 20.3401,7.12242 23.0886,17.80603 2.7487,10.68362 -10.4449,23.34569 -10.4449,23.34569 0,0 20.8899,12.26637 17.0418,24.53274 -3.8482,12.26638 -23.6385,13.84913 -23.6385,13.84913 0,0 21.9893,14.24482 17.0416,24.53275 -4.9475,10.28793 -26.9368,17.01465 -26.9368,17.01465 0,0 8.7957,9.49655 3.8482,11.87069 -4.9477,2.37413 -14.293,3.16552 -14.293,3.16552 0,0 -4.3979,9.49654 -14.8428,13.05775 -10.4449,3.56119 -38.4811,0.79138 -38.4811,0.79138 0,0 1.6491,7.5181 -10.4449,11.07931 -12.0941,3.56119 -31.3347,-2.76983 -31.3347,-2.76983 0,0 0,7.5181 -13.7433,11.475 -13.7432,3.9569 -26.9368,-7.9138 -26.9368,-7.9138 0,0 -4.3978,8.30949 -23.0887,8.70516 -18.6908,0.3957 -25.2876,-14.6405 -25.2876,-14.6405 0,0 -3.8481,13.45344 -18.1411,14.24483 -14.2931,0.79137 -25.8373,-13.45345 -25.8373,-13.45345 0,0 -6.5969,13.45345 -20.3401,12.26637 -13.7434,-1.18707 -20.3401,-12.66206 -20.3401,-12.66206 0,0 -16.4919,7.91379 -26.9368,4.35258 -10.4448,-3.56121 -10.9946,-8.30947 -10.9946,-8.30947 0,0 -42.3293,2.76982 -59.371,-11.475 -17.0417,-14.24482 -7.6962,-18.20172 -7.6962,-18.20172 0,0 -19.2406,0.79138 -26.3871,-9.89224 -7.1465,-10.68361 3.8482,-20.57586 3.8482,-20.57586 0,0 -24.1882,-8.30947 -25.2877,-18.2017 -1.0994,-9.89224 14.8427,-20.18017 14.8427,-20.18017 0,0 -17.5913,-6.72672 -15.9421,-14.64052 1.6492,-7.91377 12.094,-15.43189 12.094,-15.43189 0,0 -11.5443,-7.1224 -2.7486,-20.97153 8.7957,-13.84915 22.5389,-20.57586 22.5389,-20.57586 0,0 -7.1465,-4.74828 11.5444,-17.80604 z"
       id="path5082"
       inkscape:connector-curvature="0" />
    <path
       style="color:#000000;display:inline;overflow:visible;visibility:visible;fill:#ffffff;fill-opacity:1;fill-rule:nonzero;stroke:none;stroke-width:1px;marker:none;enable-background:accumulate"
       d="m 2236.4512,659.85975 c 6.7409,-17.11173 21.7785,-18.14881 21.7785,-18.14881 0,0 -0.5185,-12.96343 9.8522,-20.22295 10.3708,-7.25952 22.8157,0.51854 22.8157,0.51854 0,0 17.1117,-2.59269 25.4083,13.48196 8.2966,16.07466 14.0005,23.85272 6.2224,39.92737 5.704,8.81514 0,27.48248 -8.2965,31.11224 -8.2966,3.62976 -28.5196,9.85221 -39.9274,-8.81514 -9.3337,3.11123 -37.8532,5.18538 -37.8532,-37.85321 z"
       id="path5090"
       inkscape:connector-curvature="0" />
    <path
       style="color:#000000;display:inline;overflow:visible;visibility:visible;fill:#ffffff;fill-opacity:1;fill-rule:nonzero;stroke:none;stroke-width:1px;marker:none;enable-background:accumulate"
       d="m 2222.4507,551.78206 c -1.5557,-11.40782 8.2966,-17.11173 8.2966,-17.11173 0,0 -9.8523,-8.81514 1.5556,-17.63027 11.4078,-8.81513 21.7785,2.07415 21.7785,2.07415 0,0 14.5191,-17.11173 28.001,2.59269 13.482,19.70441 0,30.59369 0,30.59369 0,0 7.7781,20.74149 -12.9634,25.40833 -20.7415,4.66683 -26.4454,1.55561 -31.6308,-10.88928 -14.519,-4.1483 -15.0375,-15.03758 -15.0375,-15.03758 z"
       id="path5098"
       inkscape:connector-curvature="0" />
    <path
       style="color:#000000;fill:#ffffff;fill-opacity:1;fill-rule:nonzero;stroke:none;stroke-width:1px;marker:none;visibility:visible;display:inline;overflow:visible;enable-background:accumulate"
       d="m 2172.6711,455.03804 c -7.2595,-9.85221 -2.5927,-20.22296 3.6297,-22.2971 6.2225,-2.07415 19.1859,-0.51854 22.8157,9.8522 10.3707,-4.66683 17.1117,4.66684 17.6302,8.81514 0.5186,4.14829 -0.5185,12.44489 -0.5185,12.44489 0,0 8.2966,25.40833 -5.1854,32.66785 -13.4819,7.25952 -26.4454,-5.18538 -26.4454,-17.63027 -9.8522,5.18537 -19.7044,-1.03707 -18.6673,-8.2966 1.0371,-7.25952 6.741,-15.55611 6.741,-15.55611 z"
       id="path5106"
       inkscape:connector-curvature="0" />
    <path
       style="color:#000000;fill:#ffffff;fill-opacity:1;fill-rule:nonzero;stroke:none;stroke-width:1px;marker:none;visibility:visible;display:inline;overflow:visible;enable-background:accumulate"
       d="m 1106.5134,1407.2077 c -0.4509,-15.3307 -19.8397,-30.6613 -18.9379,-45.5411 0.9018,-14.8798 19.3888,-27.9559 31.1123,-6.7635 9.4689,-9.469 21.6433,-10.8217 29.3086,-2.7054 7.6653,8.1162 15.7816,14.8797 5.4108,28.8577 -10.3707,13.9779 -41.0321,15.7816 -46.8938,26.1523 z"
       id="path5114"
       inkscape:connector-curvature="0" />
    <path
       style="color:#000000;display:inline;overflow:visible;visibility:visible;fill:#ffffff;fill-opacity:1;fill-rule:nonzero;stroke:none;stroke-width:1px;marker:none;enable-background:accumulate"
       d="m 616.59723,1235.001 c 0,0 6.27342,-19.2124 24.70159,-17.644 18.42817,1.5683 36.46424,25.4857 -14.50728,71.7522 -8.62595,-9.018 -43.12975,-26.662 -44.69811,-41.1693 -1.56835,-14.5073 13.33102,-37.2484 34.5038,-12.9389 z"
       id="path5122"
       inkscape:connector-curvature="0" />
    <path
       style="color:#000000;display:inline;overflow:visible;visibility:visible;fill:#ffffff;fill-opacity:1;fill-rule:nonzero;stroke:none;stroke-width:1.06838465px;marker:none;enable-background:accumulate"
       d="m 853.57328,1259.0025 c 0,0 53.19352,-92.9394 125.38473,-82.684 72.19129,10.2553 109.55329,55.1226 98.15479,143.5752 -11.3987,88.4524 -123.48503,179.4689 -139.31644,194.2111 -15.83141,14.742 -20.89746,17.3058 -22.79722,28.2021 -50.02725,-10.2553 -191.24339,-39.0985 -240.00414,-130.115 -48.76072,-91.0163 -32.92932,-144.2161 15.19816,-178.1869 48.12748,-33.971 109.55334,-60.2504 163.38012,24.9975 z"
       id="path5130"
       inkscape:connector-curvature="0" />
    <path
       style="color:#000000;fill:#ffffff;fill-opacity:1;fill-rule:nonzero;stroke:none;stroke-width:1px;marker:none;visibility:visible;display:inline;overflow:visible;enable-background:accumulate"
       d="m 1075.4012,1487.9192 c -57.7155,3.6072 -92.43493,-15.7816 -115.88183,-32.465 -23.44691,-16.6834 -18.93789,-50.9519 -18.93789,-50.9519 l 52.75553,0.4509 c 0,0 13.52709,51.8537 28.40679,61.3227 14.8798,9.4689 36.5231,22.996 53.6574,21.6433 z"
       id="path5138"
       inkscape:connector-curvature="0" />
    <path
       style="color:#000000;fill:#ffffff;fill-opacity:1;fill-rule:nonzero;stroke:none;stroke-width:1px;marker:none;visibility:visible;display:inline;overflow:visible;enable-background:accumulate"
       d="m 795.7695,1586.5388 c 0,-9.8874 11.93314,-36.1403 9.88746,-43.3002 -2.04568,-7.1599 -10.2284,-22.8434 -21.47964,-19.7749 -11.25124,3.0685 -13.29692,8.5237 -12.95598,14.3198 -7.15988,-6.819 -27.95762,-12.2741 -33.41277,-2.7276 -5.45514,9.5465 -6.13704,21.8206 13.97881,31.0261 20.11586,9.2056 35.45846,8.5237 43.98212,20.4568 z"
       id="path5146"
       inkscape:connector-curvature="0" />
    <path
       style="color:#000000;fill:#ffffff;fill-opacity:1;fill-rule:nonzero;stroke:none;stroke-width:1px;marker:none;visibility:visible;display:inline;overflow:visible;enable-background:accumulate"
       d="m 926.0816,1956.7478 c -9.54108,-38.7606 6.5595,-56.6502 21.46745,-62.017 14.90794,-5.3669 21.46744,-8.9448 18.48585,-15.5043 -2.98159,-6.5595 -36.97171,-8.9447 -37.56802,-18.4858 -0.59632,-9.5411 14.90794,-38.7607 33.39379,-39.357 18.48586,-0.5963 28.02694,-10.7337 34.58644,-11.9264 6.55949,-1.1926 51.87969,0 59.03549,-4.1742 7.1558,-4.1742 73.9434,-29.2196 95.4108,-75.136 21.4675,-45.9165 -4.1742,-7.7522 -42.9349,10.7337 -38.7606,18.4858 -77.5213,13.7153 -90.6403,20.2748 -13.119,6.5595 -24.449,26.8343 -38.16431,29.2196 -13.71531,2.3852 -49.49438,-5.3669 -66.19128,6.5595 -16.6969,11.9263 -40.54961,36.9717 -34.58643,53.6686 5.96318,16.6969 36.9717,20.2748 41.74225,23.8527 -8.34845,12.5227 -20.87113,31.0085 -19.08218,42.9349 1.78896,11.9263 4.17423,28.6232 25.04535,39.3569 z"
       id="path5154"
       inkscape:connector-curvature="0" />
    <flowRoot
       xml:space="preserve"
       id="flowRoot2987-7-9-9-8"
       style="font-style:normal;font-variant:normal;font-weight:normal;font-stretch:normal;line-height:0.01%;font-family:Lavi;-inkscape-font-specification:Lavi;letter-spacing:0px;word-spacing:0px;fill:#ffffff;fill-opacity:1;stroke:#d85e10;stroke-opacity:1;filter:url(#filter4968-5)"
       transform="matrix(0.56421638,-0.28299338,0.40834508,0.9532616,1627.0886,1315.3263)"><flowRegion
         id="flowRegion2989-4-5-8-4"><rect
           id="rect2991-45-1-3-5"
           width="417.15793"
           height="141.89404"
           x="120.55251"
           y="265.53046"
           style="font-style:normal;font-variant:normal;font-weight:normal;font-stretch:normal;font-family:Lavi;-inkscape-font-specification:Lavi;fill:#ffffff;fill-opacity:1;stroke:#d85e10;stroke-opacity:1" /></flowRegion><flowPara
         id="flowPara2995-4-1-5-2"
         style="font-size:48px;line-height:1.25;fill:#ffffff;fill-opacity:1;stroke:#d85e10;stroke-width:3.93892884;stroke-miterlimit:4;stroke-dasharray:none;stroke-opacity:1">Biadh CAIT</flowPara></flowRoot>    <path
       style="color:#000000;fill:#ffffff;fill-opacity:1;fill-rule:nonzero;stroke:none;stroke-width:1px;marker:none;visibility:visible;display:inline;overflow:visible;enable-background:accumulate"
       d="m 1924.9438,1496.4501 c -4.8004,54.1755 -0.6858,78.863 4.8004,91.8926 19.1524,-4.4576 31.0358,-5.7603 34.2882,-13.7153 -8.2292,13.0295 -12.3437,32.9167 -19.8872,37.0313 -7.5434,4.1146 -71.3196,35.6598 -79.5488,40.4602 -8.2292,4.8003 6.8577,8.2292 6.8577,8.2292 l 50.0609,-6.8577 -37.7171,27.4306 26.0591,4.8004 130.2954,-41.1459 -2.7431,-10.2865 -17.1441,-2.0573 20.573,-4.8004 -5.4862,-10.2865 -64.4619,-4.8003 c 0,0 20.573,-41.8317 26.7448,-56.2328 -19.9985,-8.5809 -45.2605,6.8577 -51.4324,7.5434 -12.1474,-13.2081 -10.4793,-38.4181 -21.2587,-67.205 z"
       id="path5162"
       inkscape:connector-curvature="0"
       sodipodi:nodetypes="cccssccccccccccccc" />
    <path
       style="fill:#ffffff;stroke:none;stroke-width:1px;stroke-linecap:butt;stroke-linejoin:miter;stroke-opacity:1;color:#000000;fill-opacity:1;fill-rule:nonzero;stroke-miterlimit:4;stroke-dasharray:none;stroke-dashoffset:0;marker:none;visibility:visible;display:inline;overflow:visible;enable-background:accumulate"
       d="m 260.5909,2649.2219 c -37.03134,-20.5729 -124.12356,-17.1441 -120.69473,16.4584 3.42882,33.6025 52.11817,-15.0868 79.54879,-3.4288 27.43063,11.658 -3.42882,30.1737 -13.02954,43.889 -9.60072,13.7153 41.8317,5.4861 43.20323,18.5156 1.37153,13.0296 -4.80036,33.6026 -33.60251,39.0887 -28.80215,5.4861 -15.08684,30.1737 -15.08684,30.1737 0,0 2.05729,-15.7726 12.34378,-18.5157 10.28648,-2.7431 53.48971,-14.4011 55.547,-37.0313 2.0573,-22.6303 -16.45837,-38.4029 -36.34557,-37.0314 -1.37153,-0.6858 40.46016,-12.3438 28.11639,-52.1182 z"
       id="path5219"
       inkscape:connector-curvature="0" />
    <path
       style="color:#000000;fill:#ffffff;fill-opacity:1;fill-rule:nonzero;stroke:none;stroke-width:1px;marker:none;visibility:visible;display:inline;overflow:visible;enable-background:accumulate"
       d="m 1212.1248,2823.9893 c 20.5044,-10.2522 42.5861,-30.7566 41.7974,-42.5861 -0.7886,-11.8294 -5.5204,-38.6428 -32.3338,-36.277 -26.8134,2.3659 -67.0336,13.4068 -77.2858,18.9272 -10.2522,5.5204 -31.5452,19.7157 -46.5292,5.5204 -14.9839,-14.1954 -9.4635,-26.8134 -5.5204,-33.1225 3.9432,-6.309 17.3499,-27.6021 12.6181,-31.5452 -4.7318,-3.9432 -26.8134,11.8294 -32.3338,18.1385 -5.5204,6.309 -43.3747,34.6997 -52.0496,35.4884 -8.675,0.7886 -52.83827,7.8863 -67.82225,-1.5773 -14.98397,-9.4636 -40.22014,-24.4475 -22.08165,-54.4155 18.1385,-29.968 46.52919,-11.0408 51.26098,-3.9431 4.73178,7.0976 -0.78863,27.602 5.52041,29.9679 6.30904,2.3659 53.62691,-0.7886 60.72451,-16.5612 7.0977,-15.7726 60.7246,-43.3747 74.9199,-41.0088 14.1954,2.3659 32.3339,7.8863 29.968,32.3338 -2.3659,24.4476 -11.8295,20.5044 -7.8863,28.3907 13.4067,-8.6749 85.9607,-27.602 97.7901,-22.8703 11.8295,4.7318 41.0088,11.8295 46.5292,42.5861 5.5204,30.7566 -9.4636,48.8951 -27.6021,63.0904 -18.1385,14.1954 -40.7066,24.7826 -56.4792,27.9371 -15.7727,3.1545 -62.679,6.2874 -62.1606,0.1403 0.5602,-6.6423 50.029,-16.2479 68.9561,-18.6138 z"
       id="path5255"
       inkscape:connector-curvature="0"
       sodipodi:nodetypes="csssscsscssssssscsssssc" />
    <g
       id="g5381"
       transform="matrix(1.0032789,0,0,1,-3.973648,0)"
       style="fill:#ffffff">
      <path
         inkscape:connector-curvature="0"
         id="path5263"
         d="m 1225.2771,3157.962 c -4.7051,-6.6655 -4.7051,-15.2915 -4.7051,-16.8598 0,-1.5684 0.3921,-7.4497 0.3921,-7.4497 l -3.1367,-1.1763 2.7446,-5.0971 -3.1367,0.3921 c 0,0 7.4497,-9.0181 9.018,-11.7627 1.5684,-2.7446 4.313,-9.018 4.313,-9.018 0,0 14.5073,-1.9605 17.644,-3.1368 3.1367,-1.1762 12.5468,-11.3705 12.5468,-11.3705 0,0 11.3706,5.4892 15.6836,6.2734 4.3129,0.7842 24.3095,1.9604 27.8383,0 3.5288,-1.9605 7.0576,-4.7051 7.0576,-4.7051 0,0 9.018,-0.7841 11.3705,-1.9604 2.3526,-1.1763 6.6655,-3.9209 6.6655,-3.9209 0,0 7.4497,0.7842 10.5864,0.3921 3.1367,-0.3921 17.644,0 19.2124,0 1.5683,0 12.5468,6.6655 12.5468,6.6655 l 7.0576,6.6655 c 0,0 5.8813,-0.3921 8.626,-1.1763 2.7446,-0.7841 5.0971,3.1367 5.0971,3.1367 0,0 10.5864,23.9175 12.1548,28.6225 1.5683,4.7051 2.3525,14.1152 2.3525,14.1152 0,0 -4.313,7.4497 -6.6655,10.5864 -2.3525,3.1367 -9.018,10.5864 -12.5468,13.331 -3.5288,2.7446 -7.8418,7.0576 -12.1548,4.313 -4.313,-2.7446 -8.6259,-2.3525 -10.1943,-0.3921 -1.5684,1.9604 -12.9389,15.6836 -16.8598,14.1152 -3.9209,-1.5684 -17.2519,-3.9209 -21.1728,-7.4497 -3.9209,-3.5288 -10.1943,4.7051 -12.9389,2.3525 -2.7446,-2.3525 -6.6655,-6.6655 -9.4102,-6.6655 -2.7446,0 -35.68,9.8023 -39.6009,8.2339 -3.9209,-1.5684 -24.7016,-14.5073 -27.0541,-16.0756 -2.3526,-1.5684 -8.2339,-10.9785 -8.2339,-10.9785 z"
         style="color:#000000;fill:#ffffff;fill-opacity:1;fill-rule:nonzero;stroke:none;stroke-width:1px;marker:none;visibility:visible;display:inline;overflow:visible;enable-background:accumulate" />
      <path
         inkscape:connector-curvature="0"
         id="path5271"
         d="m 1236.8125,3095.4062 a 2.20022,2.20022 0 0 0 -0.1563,0.031 l -9.875,1.375 a 2.20022,2.20022 0 0 0 -1.4374,0.8125 l -12.9688,16.3438 a 2.2133161,2.2133161 0 1 0 3.4688,2.75 l 12.375,-15.6876 9.0312,-1.25 a 2.20022,2.20022 0 0 0 -0.4375,-4.375 z"
         style="font-size:medium;font-style:normal;font-variant:normal;font-weight:normal;font-stretch:normal;text-indent:0;text-align:start;text-decoration:none;line-height:normal;letter-spacing:normal;word-spacing:normal;text-transform:none;direction:ltr;block-progression:tb;writing-mode:lr-tb;text-anchor:start;baseline-shift:baseline;color:#000000;fill:#ffffff;fill-opacity:1;fill-rule:nonzero;stroke:none;stroke-width:1px;marker:none;visibility:visible;display:inline;overflow:visible;enable-background:accumulate;font-family:Sans;-inkscape-font-specification:Sans" />
      <path
         inkscape:connector-curvature="0"
         id="path5273"
         d="m 1252.1562,3077.3125 a 2.20022,2.20022 0 0 0 -1.625,0.9063 l -7.8124,10.5312 -11.3438,-5.0625 a 2.20022,2.20022 0 0 0 -2.3125,0.3125 l -14.6563,12.2812 a 2.20022,2.20022 0 1 0 2.8126,3.375 l 13.5937,-11.4062 11.7187,5.25 a 2.20022,2.20022 0 0 0 2.6563,-0.7188 l 8.875,-11.9374 a 2.20022,2.20022 0 0 0 -1.9063,-3.5313 z"
         style="font-size:medium;font-style:normal;font-variant:normal;font-weight:normal;font-stretch:normal;text-indent:0;text-align:start;text-decoration:none;line-height:normal;letter-spacing:normal;word-spacing:normal;text-transform:none;direction:ltr;block-progression:tb;writing-mode:lr-tb;text-anchor:start;baseline-shift:baseline;color:#000000;fill:#ffffff;fill-opacity:1;fill-rule:nonzero;stroke:none;stroke-width:1px;marker:none;visibility:visible;display:inline;overflow:visible;enable-background:accumulate;font-family:Sans;-inkscape-font-specification:Sans" />
      <path
         inkscape:connector-curvature="0"
         id="path5275"
         d="m 1267.9375,3079.7188 a 2.20022,2.20022 0 0 0 -1,0.2812 l -10.2187,5.4375 a 2.20022,2.20022 0 1 0 2.0624,3.875 l 8.8126,-4.6563 6.3437,6.3438 a 2.20022,2.20022 0 0 0 1.2187,0.625 l 2.4063,0.3125 a 2.20022,2.20022 0 1 0 0.625,-4.3437 l -1.6875,-0.25 -6.9688,-6.9688 a 2.20022,2.20022 0 0 0 -1.5937,-0.6562 z"
         style="font-size:medium;font-style:normal;font-variant:normal;font-weight:normal;font-stretch:normal;text-indent:0;text-align:start;text-decoration:none;line-height:normal;letter-spacing:normal;word-spacing:normal;text-transform:none;direction:ltr;block-progression:tb;writing-mode:lr-tb;text-anchor:start;baseline-shift:baseline;color:#000000;fill:#ffffff;fill-opacity:1;fill-rule:nonzero;stroke:none;stroke-width:1px;marker:none;visibility:visible;display:inline;overflow:visible;enable-background:accumulate;font-family:Sans;-inkscape-font-specification:Sans" />
      <path
         inkscape:connector-curvature="0"
         id="path5277"
         d="m 1265.2812,3072.9062 a 2.20022,2.20022 0 0 0 -0.25,4.3438 l 14.375,3.8438 4.6876,9.3124 a 2.2010735,2.2010735 0 0 0 3.9374,-1.9687 l -5.125,-10.2187 a 2.20022,2.20022 0 0 0 -1.4062,-1.1563 L 1266.1562,3073 a 2.20022,2.20022 0 0 0 -0.875,-0.094 z"
         style="font-size:medium;font-style:normal;font-variant:normal;font-weight:normal;font-stretch:normal;text-indent:0;text-align:start;text-decoration:none;line-height:normal;letter-spacing:normal;word-spacing:normal;text-transform:none;direction:ltr;block-progression:tb;writing-mode:lr-tb;text-anchor:start;baseline-shift:baseline;color:#000000;fill:#ffffff;fill-opacity:1;fill-rule:nonzero;stroke:none;stroke-width:1px;marker:none;visibility:visible;display:inline;overflow:visible;enable-background:accumulate;font-family:Sans;-inkscape-font-specification:Sans" />
      <path
         inkscape:connector-curvature="0"
         id="path5279"
         d="m 1343.875,3078.6875 a 2.20022,2.20022 0 0 0 -0.7812,0.2187 l -4.4376,2.0626 a 2.20022,2.20022 0 1 0 1.8438,3.9687 l 4.4375,-2.0313 a 2.20022,2.20022 0 0 0 -1.0625,-4.2187 z"
         style="font-size:medium;font-style:normal;font-variant:normal;font-weight:normal;font-stretch:normal;text-indent:0;text-align:start;text-decoration:none;line-height:normal;letter-spacing:normal;word-spacing:normal;text-transform:none;direction:ltr;block-progression:tb;writing-mode:lr-tb;text-anchor:start;baseline-shift:baseline;color:#000000;fill:#ffffff;fill-opacity:1;fill-rule:nonzero;stroke:none;stroke-width:1px;marker:none;visibility:visible;display:inline;overflow:visible;enable-background:accumulate;font-family:Sans;-inkscape-font-specification:Sans" />
      <path
         inkscape:connector-curvature="0"
         id="path5281"
         d="m 1353.5625,3079.375 a 2.2031,2.2031 0 1 0 0,4.4062 l 16.5313,0 8.9374,7.9688 a 2.2020313,2.2020313 0 1 0 2.9376,-3.2812 l -9.5626,-8.5313 a 2.20022,2.20022 0 0 0 -1.4687,-0.5625 l -17.375,0 z"
         style="font-size:medium;font-style:normal;font-variant:normal;font-weight:normal;font-stretch:normal;text-indent:0;text-align:start;text-decoration:none;line-height:normal;letter-spacing:normal;word-spacing:normal;text-transform:none;direction:ltr;block-progression:tb;writing-mode:lr-tb;text-anchor:start;baseline-shift:baseline;color:#000000;fill:#ffffff;fill-opacity:1;fill-rule:nonzero;stroke:none;stroke-width:1px;marker:none;visibility:visible;display:inline;overflow:visible;enable-background:accumulate;font-family:Sans;-inkscape-font-specification:Sans" />
      <path
         inkscape:connector-curvature="0"
         id="path5283"
         d="m 1365,3069.8438 a 2.2036013,2.2036013 0 1 0 0.094,4.4062 l 10,0.3125 4.8124,5.125 a 2.20022,2.20022 0 1 0 3.2188,-3 l -5.4688,-5.8125 a 2.20022,2.20022 0 0 0 -1.5312,-0.6875 l -10.9062,-0.3437 a 2.20022,2.20022 0 0 0 -0.2188,0 z"
         style="font-size:medium;font-style:normal;font-variant:normal;font-weight:normal;font-stretch:normal;text-indent:0;text-align:start;text-decoration:none;line-height:normal;letter-spacing:normal;word-spacing:normal;text-transform:none;direction:ltr;block-progression:tb;writing-mode:lr-tb;text-anchor:start;baseline-shift:baseline;color:#000000;fill:#ffffff;fill-opacity:1;fill-rule:nonzero;stroke:none;stroke-width:1px;marker:none;visibility:visible;display:inline;overflow:visible;enable-background:accumulate;font-family:Sans;-inkscape-font-specification:Sans" />
      <path
         inkscape:connector-curvature="0"
         id="path5285"
         d="m 1397.4375,3095.0625 a 2.20022,2.20022 0 0 0 -0.25,4.375 l 15.5,2.5 2.125,12.0937 a 2.2066945,2.2066945 0 0 0 4.3437,-0.7812 l -2.4062,-13.625 a 2.20022,2.20022 0 0 0 -1.8125,-1.7812 l -17.0625,-2.75 a 2.20022,2.20022 0 0 0 -0.4375,-0.031 z"
         style="font-size:medium;font-style:normal;font-variant:normal;font-weight:normal;font-stretch:normal;text-indent:0;text-align:start;text-decoration:none;line-height:normal;letter-spacing:normal;word-spacing:normal;text-transform:none;direction:ltr;block-progression:tb;writing-mode:lr-tb;text-anchor:start;baseline-shift:baseline;color:#000000;fill:#ffffff;fill-opacity:1;fill-rule:nonzero;stroke:none;stroke-width:1px;marker:none;visibility:visible;display:inline;overflow:visible;enable-background:accumulate;font-family:Sans;-inkscape-font-specification:Sans" />
      <path
         inkscape:connector-curvature="0"
         id="path5287"
         d="m 1397.875,3101.1875 a 2.20022,2.20022 0 0 0 -1.0312,4.1563 l 3.5937,1.9062 5.875,22.9688 a 2.2094076,2.2094076 0 1 0 4.2813,-1.0938 l -6.1563,-23.875 a 2.20022,2.20022 0 0 0 -1.0937,-1.375 l -4.4063,-2.4062 a 2.20022,2.20022 0 0 0 -1.0625,-0.2813 z"
         style="font-size:medium;font-style:normal;font-variant:normal;font-weight:normal;font-stretch:normal;text-indent:0;text-align:start;text-decoration:none;line-height:normal;letter-spacing:normal;word-spacing:normal;text-transform:none;direction:ltr;block-progression:tb;writing-mode:lr-tb;text-anchor:start;baseline-shift:baseline;color:#000000;fill:#ffffff;fill-opacity:1;fill-rule:nonzero;stroke:none;stroke-width:1px;marker:none;visibility:visible;display:inline;overflow:visible;enable-background:accumulate;font-family:Sans;-inkscape-font-specification:Sans" />
      <path
         inkscape:connector-curvature="0"
         id="path5289"
         d="m 1412.125,3144.4688 a 2.20022,2.20022 0 0 0 -2.0312,1.625 l -2.9688,10.1874 -3.875,5.5313 a 2.20022,2.20022 0 1 0 3.5938,2.5313 l 4.0937,-5.7813 a 2.20022,2.20022 0 0 0 0.3125,-0.6563 l 3.0625,-10.5937 a 2.20022,2.20022 0 0 0 -2.1875,-2.8437 z"
         style="font-size:medium;font-style:normal;font-variant:normal;font-weight:normal;font-stretch:normal;text-indent:0;text-align:start;text-decoration:none;line-height:normal;letter-spacing:normal;word-spacing:normal;text-transform:none;direction:ltr;block-progression:tb;writing-mode:lr-tb;text-anchor:start;baseline-shift:baseline;color:#000000;fill:#ffffff;fill-opacity:1;fill-rule:nonzero;stroke:none;stroke-width:1px;marker:none;visibility:visible;display:inline;overflow:visible;enable-background:accumulate;font-family:Sans;-inkscape-font-specification:Sans" />
      <path
         inkscape:connector-curvature="0"
         id="path5291"
         d="m 1417.4062,3142.0938 a 2.20022,2.20022 0 0 0 -1.9374,2 l -1,9.5624 -3.2813,7.9063 a 2.20022,2.20022 0 1 0 4.0625,1.6875 l 3.4062,-8.1875 a 2.20022,2.20022 0 0 0 0.1563,-0.625 l 1.0313,-9.875 a 2.20022,2.20022 0 0 0 -2.4376,-2.4687 z"
         style="font-size:medium;font-style:normal;font-variant:normal;font-weight:normal;font-stretch:normal;text-indent:0;text-align:start;text-decoration:none;line-height:normal;letter-spacing:normal;word-spacing:normal;text-transform:none;direction:ltr;block-progression:tb;writing-mode:lr-tb;text-anchor:start;baseline-shift:baseline;color:#000000;fill:#ffffff;fill-opacity:1;fill-rule:nonzero;stroke:none;stroke-width:1px;marker:none;visibility:visible;display:inline;overflow:visible;enable-background:accumulate;font-family:Sans;-inkscape-font-specification:Sans" />
      <path
         inkscape:connector-curvature="0"
         id="path5293"
         d="m 1390.3125,3173.8125 a 2.20022,2.20022 0 0 0 -1,0.2813 l -7.125,3.875 -7.3437,0.6562 a 2.20022,2.20022 0 1 0 0.375,4.375 l 7.8437,-0.6875 a 2.20022,2.20022 0 0 0 0.875,-0.25 l 7.5,-4.0937 a 2.20022,2.20022 0 0 0 -1.125,-4.1563 z"
         style="font-size:medium;font-style:normal;font-variant:normal;font-weight:normal;font-stretch:normal;text-indent:0;text-align:start;text-decoration:none;line-height:normal;letter-spacing:normal;word-spacing:normal;text-transform:none;direction:ltr;block-progression:tb;writing-mode:lr-tb;text-anchor:start;baseline-shift:baseline;color:#000000;fill:#ffffff;fill-opacity:1;fill-rule:nonzero;stroke:none;stroke-width:1px;marker:none;visibility:visible;display:inline;overflow:visible;enable-background:accumulate;font-family:Sans;-inkscape-font-specification:Sans" />
      <path
         inkscape:connector-curvature="0"
         id="path5295"
         d="m 1360.875,3185.4062 a 2.20022,2.20022 0 0 0 -1.4688,0.75 l -6.7812,7.6876 -12.2812,-1.1876 -8.0626,-5.5 a 2.205845,2.205845 0 1 0 -2.4687,3.6563 l 8.5313,5.7813 a 2.20022,2.20022 0 0 0 1.0312,0.375 l 13.9688,1.375 a 2.20022,2.20022 0 0 0 1.875,-0.75 l 7.5,-8.5313 a 2.20022,2.20022 0 0 0 -1.8438,-3.6563 z"
         style="font-size:medium;font-style:normal;font-variant:normal;font-weight:normal;font-stretch:normal;text-indent:0;text-align:start;text-decoration:none;line-height:normal;letter-spacing:normal;word-spacing:normal;text-transform:none;direction:ltr;block-progression:tb;writing-mode:lr-tb;text-anchor:start;baseline-shift:baseline;color:#000000;fill:#ffffff;fill-opacity:1;fill-rule:nonzero;stroke:none;stroke-width:1px;marker:none;visibility:visible;display:inline;overflow:visible;enable-background:accumulate;font-family:Sans;-inkscape-font-specification:Sans" />
      <path
         inkscape:connector-curvature="0"
         id="path5297"
         d="m 1299.0938,3181.6562 a 2.20022,2.20022 0 0 0 -1.125,3.9376 l 11.9374,9.5312 a 2.20022,2.20022 0 0 0 1.5,0.5 l 5.4688,-0.3438 a 2.20022,2.20022 0 0 0 1.5312,-0.75 l 2.375,-2.7187 a 2.2033255,2.2033255 0 1 0 -3.3124,-2.9063 l -1.7813,2.0313 -3.6875,0.2187 -11.2812,-9 a 2.20022,2.20022 0 0 0 -1.625,-0.5 z"
         style="font-size:medium;font-style:normal;font-variant:normal;font-weight:normal;font-stretch:normal;text-indent:0;text-align:start;text-decoration:none;line-height:normal;letter-spacing:normal;word-spacing:normal;text-transform:none;direction:ltr;block-progression:tb;writing-mode:lr-tb;text-anchor:start;baseline-shift:baseline;color:#000000;fill:#ffffff;fill-opacity:1;fill-rule:nonzero;stroke:none;stroke-width:1px;marker:none;visibility:visible;display:inline;overflow:visible;enable-background:accumulate;font-family:Sans;-inkscape-font-specification:Sans" />
      <path
         inkscape:connector-curvature="0"
         id="path5299"
         d="m 1243.5,3178.25 a 2.20022,2.20022 0 0 0 -0.75,4.1562 l 16.375,8.5313 a 2.20022,2.20022 0 0 0 0.2812,0.125 l 8.875,3.0625 a 2.20022,2.20022 0 0 0 1.5,0 l 8.5938,-3.3438 0.094,-0.031 7.0624,-1.6562 a 2.20022,2.20022 0 1 0 -1,-4.2813 l -7.1874,1.6875 a 2.20022,2.20022 0 0 0 -0.25,0.094 l -8.125,3.125 -7.8126,-2.6876 -0.094,-0.062 -16.2813,-8.4688 a 2.20022,2.20022 0 0 0 -1.2812,-0.25 z"
         style="font-size:medium;font-style:normal;font-variant:normal;font-weight:normal;font-stretch:normal;text-indent:0;text-align:start;text-decoration:none;line-height:normal;letter-spacing:normal;word-spacing:normal;text-transform:none;direction:ltr;block-progression:tb;writing-mode:lr-tb;text-anchor:start;baseline-shift:baseline;color:#000000;fill:#ffffff;fill-opacity:1;fill-rule:nonzero;stroke:none;stroke-width:1px;marker:none;visibility:visible;display:inline;overflow:visible;enable-background:accumulate;font-family:Sans;-inkscape-font-specification:Sans" />
      <path
         inkscape:connector-curvature="0"
         id="path5301"
         d="m 1229.0625,3164.9375 a 2.20022,2.20022 0 0 0 -1.3125,3.9375 l 3.4062,2.75 a 2.201074,2.201074 0 1 0 2.75,-3.4375 l -3.4062,-2.75 a 2.20022,2.20022 0 0 0 -1.4375,-0.5 z"
         style="font-size:medium;font-style:normal;font-variant:normal;font-weight:normal;font-stretch:normal;text-indent:0;text-align:start;text-decoration:none;line-height:normal;letter-spacing:normal;word-spacing:normal;text-transform:none;direction:ltr;block-progression:tb;writing-mode:lr-tb;text-anchor:start;baseline-shift:baseline;color:#000000;fill:#ffffff;fill-opacity:1;fill-rule:nonzero;stroke:none;stroke-width:1px;marker:none;visibility:visible;display:inline;overflow:visible;enable-background:accumulate;font-family:Sans;-inkscape-font-specification:Sans" />
    </g>
    <path
       style="fill:#ffffff;stroke:none;stroke-width:1px;stroke-linecap:butt;stroke-linejoin:miter;stroke-opacity:1;color:#000000;fill-opacity:1;fill-rule:nonzero;marker:none;visibility:visible;display:inline;overflow:visible;enable-background:accumulate"
       d="m 1225.3623,3138.528 c -1.3638,0.341 -96.4879,38.186 -125.1274,42.2774 64.7798,-1.0228 139.4472,-29.3214 139.4472,-29.3214 z"
       id="path5303"
       inkscape:connector-curvature="0" />
    <path
       style="fill:#ffffff;stroke:none;stroke-width:1px;stroke-linecap:butt;stroke-linejoin:miter;stroke-opacity:1;color:#000000;fill-opacity:1;fill-rule:nonzero;marker:none;visibility:visible;display:inline;overflow:visible;enable-background:accumulate"
       d="m 1170.7767,2814.8844 3.1367,-5.8813 -2.3525,0 c 0,0 4.7051,-14.5073 12.5468,-10.9785 7.8418,3.5288 -3.1367,14.8994 -13.331,16.8598 z"
       id="path5400"
       inkscape:connector-curvature="0" />
    <path
       style="fill:#ffffff;stroke:none;stroke-width:1px;stroke-linecap:butt;stroke-linejoin:miter;stroke-opacity:1;color:#000000;fill-opacity:1;fill-rule:nonzero;marker:none;visibility:visible;display:inline;overflow:visible;enable-background:accumulate"
       d="m 1170.7767,2862.3271 c 0,0 12.5469,-0.7841 11.3706,1.9605 -1.1763,2.7446 -5.4892,1.5683 -5.4892,1.5683 0,0 6.2734,7.0576 3.5288,7.0576 -2.7447,0 -7.8418,-2.7446 -9.4102,-10.5864 z"
       id="path5408"
       inkscape:connector-curvature="0" />
  </g>
  <g
     inkscape:groupmode="layer"
     id="layer1"
     inkscape:label="txt">
    <flowRoot
       xml:space="preserve"
       id="flowRoot2987"
       style="font-style:normal;font-variant:normal;font-weight:normal;font-stretch:normal;line-height:0.01%;font-family:Lavi;-inkscape-font-specification:Lavi;letter-spacing:0px;word-spacing:0px;fill:#000000;fill-opacity:1;stroke:none"
       transform="translate(0.606088,-155.08281)"><flowRegion
         id="flowRegion2989"><rect
           id="rect2991"
           width="417.15793"
           height="141.89404"
           x="120.55251"
           y="265.53046"
           style="font-style:normal;font-variant:normal;font-weight:normal;font-stretch:normal;font-family:Lavi;-inkscape-font-specification:Lavi" /></flowRegion><flowPara
         id="flowPara2995"
         style="font-size:48px;line-height:1.25">A Churrain ?</flowPara></flowRoot>    <flowRoot
       xml:space="preserve"
       id="flowRoot2987-8"
       style="font-style:normal;font-variant:normal;font-weight:normal;font-stretch:normal;line-height:0.01%;font-family:Lavi;-inkscape-font-specification:Lavi;letter-spacing:0px;word-spacing:0px;fill:#000000;fill-opacity:1;stroke:none"
       transform="translate(442.92828,592.66331)"><flowRegion
         id="flowRegion2989-3"><rect
           id="rect2991-4"
           width="459.11337"
           height="183.84949"
           x="120.55251"
           y="265.53046"
           style="font-style:normal;font-variant:normal;font-weight:normal;font-stretch:normal;font-family:Lavi;-inkscape-font-specification:Lavi" /></flowRegion><flowPara
         style="font-size:48px;line-height:1.25;text-align:center;text-anchor:middle"
         id="flowPara3812">Annasach! Chan eil e fiù ’s fon leabaidh !</flowPara></flowRoot>    <flowRoot
       xml:space="preserve"
       id="flowRoot2987-7"
       style="font-style:normal;font-variant:normal;font-weight:normal;font-stretch:normal;line-height:0.01%;font-family:Lavi;-inkscape-font-specification:Lavi;letter-spacing:0px;word-spacing:0px;fill:#000000;fill-opacity:1;stroke:none"
       transform="translate(1237.3959,102.20492)"><flowRegion
         id="flowRegion2989-4"><rect
           id="rect2991-45"
           width="417.15793"
           height="141.89404"
           x="120.55251"
           y="265.53046"
           style="font-style:normal;font-variant:normal;font-weight:normal;font-stretch:normal;font-family:Lavi;-inkscape-font-specification:Lavi" /></flowRegion><flowPara
         id="flowPara2995-4"
         style="font-size:48px;line-height:1.25">A Churrain ?</flowPara></flowRoot>    <flowRoot
       xml:space="preserve"
       id="flowRoot2987-1"
       style="font-style:normal;font-variant:normal;font-weight:normal;font-stretch:normal;line-height:0.01%;font-family:Lavi;-inkscape-font-specification:Lavi;letter-spacing:0px;word-spacing:0px;fill:#000000;fill-opacity:1;stroke:none"
       transform="translate(971.99737,235.48163)"><flowRegion
         id="flowRegion2989-1"><rect
           id="rect2991-1"
           width="417.15793"
           height="141.89404"
           x="120.55251"
           y="265.53046"
           style="font-style:normal;font-variant:normal;font-weight:normal;font-stretch:normal;font-family:Lavi;-inkscape-font-specification:Lavi" /></flowRegion><flowPara
         id="flowPara2995-3"
         style="font-size:48px;line-height:1.25">A Churrain ?!</flowPara></flowRoot>    <flowRoot
       xml:space="preserve"
       id="flowRoot2987-1-6"
       style="font-style:normal;font-variant:normal;font-weight:normal;font-stretch:normal;line-height:0.01%;font-family:Lavi;-inkscape-font-specification:Lavi;letter-spacing:0px;word-spacing:0px;fill:#000000;fill-opacity:1;stroke:none"
       transform="translate(1098.7689,580.57395)"><flowRegion
         id="flowRegion2989-1-0"><rect
           id="rect2991-1-2"
           width="417.15793"
           height="141.89404"
           x="120.55251"
           y="265.53046"
           style="font-style:normal;font-variant:normal;font-weight:normal;font-stretch:normal;font-family:Lavi;-inkscape-font-specification:Lavi" /></flowRegion><flowPara
         id="flowPara2995-3-2"
         style="font-size:48px;line-height:1.25">A Churrain ?!!!</flowPara></flowRoot>    <flowRoot
       xml:space="preserve"
       id="flowRoot2987-7-9"
       style="font-style:normal;font-variant:normal;font-weight:normal;font-stretch:normal;line-height:0.01%;font-family:Lavi;-inkscape-font-specification:Lavi;letter-spacing:0px;word-spacing:0px;fill:#000000;fill-opacity:1;stroke:none"
       transform="translate(979.1181,-148.4691)"><flowRegion
         id="flowRegion2989-4-5"><rect
           id="rect2991-45-1"
           width="417.15793"
           height="141.89404"
           x="120.55251"
           y="265.53046"
           style="font-style:normal;font-variant:normal;font-weight:normal;font-stretch:normal;font-family:Lavi;-inkscape-font-specification:Lavi" /></flowRegion><flowPara
         id="flowPara2995-4-1"
         style="font-size:48px;line-height:1.25">A Churrain !</flowPara></flowRoot>    <flowRoot
       xml:space="preserve"
       id="flowRoot2987-1-6-5"
       style="font-style:normal;font-variant:normal;font-weight:normal;font-stretch:normal;line-height:0.01%;font-family:Lavi;-inkscape-font-specification:'Lavi, Normal';letter-spacing:0px;word-spacing:0px;fill:#000000;fill-opacity:1;stroke:none;font-size:42.66666667px;text-anchor:middle;text-align:center;writing-mode:lr;font-variant-ligatures:normal;font-variant-caps:normal;font-variant-numeric:normal;font-feature-settings:normal;"
       transform="translate(1773.8534,496.08352)"><flowRegion
         id="flowRegion2989-1-0-4"
         style="-inkscape-font-specification:'Lavi, Normal';font-family:Lavi;font-weight:normal;font-style:normal;font-stretch:normal;font-variant:normal;font-size:42.66666667px;text-anchor:middle;text-align:center;writing-mode:lr;font-variant-ligatures:normal;font-variant-caps:normal;font-variant-numeric:normal;font-feature-settings:normal;"><rect
           id="rect2991-1-2-3"
           width="564.67615"
           height="370.30939"
           x="120.55251"
           y="265.53046"
           style="font-style:normal;font-variant:normal;font-weight:normal;font-stretch:normal;font-family:Lavi;-inkscape-font-specification:'Lavi, Normal';font-size:42.66666667px;text-anchor:middle;text-align:center;writing-mode:lr;font-variant-ligatures:normal;font-variant-caps:normal;font-variant-numeric:normal;font-feature-settings:normal;" /></flowRegion><flowPara
         style="font-size:42.66666667px;line-height:1.25;text-align:center;text-anchor:middle;-inkscape-font-specification:'Lavi, Normal';font-family:Lavi;font-weight:normal;font-style:normal;font-stretch:normal;font-variant:normal;writing-mode:lr;font-variant-ligatures:normal;font-variant-caps:normal;font-variant-numeric:normal;font-feature-settings:normal;"
         id="flowPara253">Cha shaoilinn gum</flowPara><flowPara
         style="font-size:42.66666667px;line-height:1.25;text-align:center;text-anchor:middle;-inkscape-font-specification:'Lavi, Normal';font-family:Lavi;font-weight:normal;font-style:normal;font-stretch:normal;font-variant:normal;writing-mode:lr;font-variant-ligatures:normal;font-variant-caps:normal;font-variant-numeric:normal;font-feature-settings:normal;"
         id="flowPara255">bithinn feumach air</flowPara><flowPara
         style="font-size:42.66666667px;line-height:1.25;text-align:center;text-anchor:middle;-inkscape-font-specification:'Lavi, Normal';font-family:Lavi;font-weight:normal;font-style:normal;font-stretch:normal;font-variant:normal;writing-mode:lr;font-variant-ligatures:normal;font-variant-caps:normal;font-variant-numeric:normal;font-feature-settings:normal;"
         id="flowPara257">a’ char seo ...</flowPara></flowRoot>    <flowRoot
       xml:space="preserve"
       id="flowRoot2987-7-9-9"
       style="font-style:normal;font-variant:normal;font-weight:normal;font-stretch:normal;line-height:0.01%;font-family:Lavi;-inkscape-font-specification:Lavi;letter-spacing:0px;word-spacing:0px;fill:#000000;fill-opacity:1;stroke:none"
       transform="matrix(1.5562254,0,0,1.72406,505.99647,792.59899)"><flowRegion
         id="flowRegion2989-4-5-8"><rect
           id="rect2991-45-1-3"
           width="417.15793"
           height="141.89404"
           x="120.55251"
           y="265.53046"
           style="font-style:normal;font-variant:normal;font-weight:normal;font-stretch:normal;font-family:Lavi;-inkscape-font-specification:Lavi" /></flowRegion><flowPara
         id="flowPara2995-4-1-5"
         style="font-size:48px;line-height:1.25">A Churrain</flowPara><flowPara
         style="font-size:48px;line-height:1.25"
         id="flowPara271">a sheòid !</flowPara></flowRoot>    <flowRoot
       xml:space="preserve"
       id="flowRoot2987-7-9-9-7"
       style="font-style:normal;font-variant:normal;font-weight:normal;font-stretch:normal;line-height:0.01%;font-family:Lavi;-inkscape-font-specification:Lavi;letter-spacing:0px;word-spacing:0px;fill:#000000;fill-opacity:1;stroke:#000000;stroke-width:0.99236238;stroke-miterlimit:4;stroke-dasharray:none;stroke-opacity:1;filter:url(#filter4375)"
       transform="matrix(0.87546097,-0.19155085,0,0.93952354,751.40484,1552.7456)"><flowRegion
         id="flowRegion2989-4-5-8-7"
         style="stroke-width:5.40286207"><rect
           id="rect2991-45-1-3-3"
           width="319.66232"
           height="56.089447"
           x="120.55251"
           y="265.53046"
           style="font-style:normal;font-variant:normal;font-weight:normal;font-stretch:normal;font-family:Lavi;-inkscape-font-specification:Lavi;fill:#000000;fill-opacity:1;stroke:#000000;stroke-width:0.99236238;stroke-miterlimit:4;stroke-dasharray:none;stroke-opacity:1" /></flowRegion><flowPara
         id="flowPara2995-4-1-5-0"
         style="font-weight:normal;font-size:48px;line-height:1.25;-inkscape-font-specification:Lavi;fill:#000000;fill-opacity:1;stroke:#000000;stroke-width:0.99236238;stroke-linejoin:miter;stroke-miterlimit:4;stroke-dasharray:none;stroke-opacity:1">Crrr</flowPara></flowRoot>    <flowRoot
       xml:space="preserve"
       id="flowRoot2987-7-9-9-7-1"
       style="font-style:normal;font-variant:normal;font-weight:normal;font-stretch:normal;line-height:0.01%;font-family:Lavi;-inkscape-font-specification:Lavi;letter-spacing:0px;word-spacing:0px;fill:#000000;fill-opacity:1;stroke:#000000;stroke-width:0.99236238;stroke-miterlimit:4;stroke-dasharray:none;stroke-opacity:1;filter:url(#filter4375-9)"
       transform="matrix(0.87546097,-0.19155085,0,0.93952354,859.6372,1520.2311)"><flowRegion
         id="flowRegion2989-4-5-8-7-4"
         style="stroke-width:5.40286207"><rect
           id="rect2991-45-1-3-3-6"
           width="319.66232"
           height="56.089447"
           x="120.55251"
           y="265.53046"
           style="font-style:normal;font-variant:normal;font-weight:normal;font-stretch:normal;font-family:Lavi;-inkscape-font-specification:Lavi;fill:#000000;fill-opacity:1;stroke:#000000;stroke-width:0.99236238;stroke-miterlimit:4;stroke-dasharray:none;stroke-opacity:1" /></flowRegion><flowPara
         id="flowPara2995-4-1-5-0-0"
         style="font-weight:normal;font-size:48px;line-height:1.25;-inkscape-font-specification:Lavi;fill:#000000;fill-opacity:1;stroke:#000000;stroke-width:0.99236238;stroke-linejoin:miter;stroke-miterlimit:4;stroke-dasharray:none;stroke-opacity:1">Crrr</flowPara></flowRoot>    <flowRoot
       xml:space="preserve"
       id="flowRoot2987-7-9-9-7-4"
       style="font-style:normal;font-variant:normal;font-weight:normal;font-stretch:normal;line-height:0.01%;font-family:Lavi;-inkscape-font-specification:Lavi;letter-spacing:0px;word-spacing:0px;fill:#000000;fill-opacity:1;stroke:#000000;stroke-width:0.99236238;stroke-miterlimit:4;stroke-dasharray:none;stroke-opacity:1;filter:url(#filter4375-5)"
       transform="matrix(0.87546097,-0.19155085,0,0.93952354,972.78852,1490.7432)"><flowRegion
         id="flowRegion2989-4-5-8-7-8"
         style="stroke-width:5.40286207"><rect
           id="rect2991-45-1-3-3-4"
           width="319.66232"
           height="56.089447"
           x="120.55251"
           y="265.53046"
           style="font-style:normal;font-variant:normal;font-weight:normal;font-stretch:normal;font-family:Lavi;-inkscape-font-specification:Lavi;fill:#000000;fill-opacity:1;stroke:#000000;stroke-width:0.99236238;stroke-miterlimit:4;stroke-dasharray:none;stroke-opacity:1" /></flowRegion><flowPara
         id="flowPara2995-4-1-5-0-07"
         style="font-weight:normal;font-size:48px;line-height:1.25;-inkscape-font-specification:Lavi;fill:#000000;fill-opacity:1;stroke:#000000;stroke-width:0.99236238;stroke-linejoin:miter;stroke-miterlimit:4;stroke-dasharray:none;stroke-opacity:1">Crrr</flowPara></flowRoot>    <flowRoot
       xml:space="preserve"
       id="flowRoot2987-7-9-9-7-0"
       style="font-style:normal;font-variant:normal;font-weight:normal;font-stretch:normal;line-height:0.01%;font-family:Lavi;-inkscape-font-specification:Lavi;letter-spacing:0px;word-spacing:0px;fill:#000000;fill-opacity:1;stroke:#000000;stroke-width:0.99236238;stroke-miterlimit:4;stroke-dasharray:none;stroke-opacity:1;filter:url(#filter4375-4)"
       transform="matrix(0.87546097,-0.19155085,0,0.93952354,804.77596,1590.865)"><flowRegion
         id="flowRegion2989-4-5-8-7-41"
         style="stroke-width:5.40286207"><rect
           id="rect2991-45-1-3-3-8"
           width="319.66232"
           height="56.089447"
           x="120.55251"
           y="265.53046"
           style="font-style:normal;font-variant:normal;font-weight:normal;font-stretch:normal;font-family:Lavi;-inkscape-font-specification:Lavi;fill:#000000;fill-opacity:1;stroke:#000000;stroke-width:0.99236238;stroke-miterlimit:4;stroke-dasharray:none;stroke-opacity:1" /></flowRegion><flowPara
         id="flowPara2995-4-1-5-0-7"
         style="font-weight:normal;font-size:48px;line-height:1.25;-inkscape-font-specification:Lavi;fill:#000000;fill-opacity:1;stroke:#000000;stroke-width:0.99236238;stroke-linejoin:miter;stroke-miterlimit:4;stroke-dasharray:none;stroke-opacity:1">Crrr</flowPara></flowRoot>    <flowRoot
       xml:space="preserve"
       id="flowRoot2987-7-9-9-7-3"
       style="font-style:normal;font-variant:normal;font-weight:normal;font-stretch:normal;line-height:0.01%;font-family:Lavi;-inkscape-font-specification:Lavi;letter-spacing:0px;word-spacing:0px;fill:#000000;fill-opacity:1;stroke:#000000;stroke-width:0.99236238;stroke-miterlimit:4;stroke-dasharray:none;stroke-opacity:1;filter:url(#filter4375-51)"
       transform="matrix(0.87546097,-0.19155085,0,0.93952354,918.61304,1556.5766)"><flowRegion
         id="flowRegion2989-4-5-8-7-85"
         style="stroke-width:5.40286207"><rect
           id="rect2991-45-1-3-3-5"
           width="319.66232"
           height="56.089447"
           x="120.55251"
           y="265.53046"
           style="font-style:normal;font-variant:normal;font-weight:normal;font-stretch:normal;font-family:Lavi;-inkscape-font-specification:Lavi;fill:#000000;fill-opacity:1;stroke:#000000;stroke-width:0.99236238;stroke-miterlimit:4;stroke-dasharray:none;stroke-opacity:1" /></flowRegion><flowPara
         id="flowPara2995-4-1-5-0-78"
         style="font-weight:normal;font-size:48px;line-height:1.25;-inkscape-font-specification:Lavi;fill:#000000;fill-opacity:1;stroke:#000000;stroke-width:0.99236238;stroke-linejoin:miter;stroke-miterlimit:4;stroke-dasharray:none;stroke-opacity:1">Crrr</flowPara></flowRoot>    <flowRoot
       xml:space="preserve"
       id="flowRoot2987-7-9-9-7-4-5"
       style="font-style:normal;font-variant:normal;font-weight:normal;font-stretch:normal;line-height:0.01%;font-family:Lavi;-inkscape-font-specification:Lavi;letter-spacing:0px;word-spacing:0px;fill:#000000;fill-opacity:1;stroke:#000000;stroke-width:0.99236238;stroke-miterlimit:4;stroke-dasharray:none;stroke-opacity:1;filter:url(#filter4375-5-4)"
       transform="matrix(0.87546097,-0.19155085,0,0.93952354,1709.1715,1404.891)"><flowRegion
         id="flowRegion2989-4-5-8-7-8-5"
         style="stroke-width:5.40286207"><rect
           id="rect2991-45-1-3-3-4-3"
           width="319.66232"
           height="56.089447"
           x="120.55251"
           y="265.53046"
           style="font-style:normal;font-variant:normal;font-weight:normal;font-stretch:normal;font-family:Lavi;-inkscape-font-specification:Lavi;fill:#000000;fill-opacity:1;stroke:#000000;stroke-width:0.99236238;stroke-miterlimit:4;stroke-dasharray:none;stroke-opacity:1" /></flowRegion><flowPara
         id="flowPara2995-4-1-5-0-07-0"
         style="font-weight:normal;font-size:48px;line-height:1.25;-inkscape-font-specification:Lavi;fill:#000000;fill-opacity:1;stroke:#000000;stroke-width:0.99236238;stroke-linejoin:miter;stroke-miterlimit:4;stroke-dasharray:none;stroke-opacity:1">Sssioft</flowPara></flowRoot>    <flowRoot
       xml:space="preserve"
       id="flowRoot2987-7-9-9-7-4-5-3"
       style="font-style:normal;font-variant:normal;font-weight:normal;font-stretch:normal;line-height:0.01%;font-family:Lavi;-inkscape-font-specification:Lavi;letter-spacing:0px;word-spacing:0px;fill:#000000;fill-opacity:1;stroke:#000000;stroke-width:0.99236238;stroke-miterlimit:4;stroke-dasharray:none;stroke-opacity:1;filter:url(#filter4375-5-4-8)"
       transform="matrix(0.87546097,-0.19155085,0,0.93952354,1849.8968,1373.479)"><flowRegion
         id="flowRegion2989-4-5-8-7-8-5-2"
         style="stroke-width:5.40286207"><rect
           id="rect2991-45-1-3-3-4-3-3"
           width="319.66232"
           height="56.089447"
           x="120.55251"
           y="265.53046"
           style="font-style:normal;font-variant:normal;font-weight:normal;font-stretch:normal;font-family:Lavi;-inkscape-font-specification:Lavi;fill:#000000;fill-opacity:1;stroke:#000000;stroke-width:0.99236238;stroke-miterlimit:4;stroke-dasharray:none;stroke-opacity:1" /></flowRegion><flowPara
         id="flowPara2995-4-1-5-0-07-0-4"
         style="font-weight:normal;font-size:48px;line-height:1.25;-inkscape-font-specification:Lavi;fill:#000000;fill-opacity:1;stroke:#000000;stroke-width:0.99236238;stroke-linejoin:miter;stroke-miterlimit:4;stroke-dasharray:none;stroke-opacity:1">Sssioft</flowPara></flowRoot>    <flowRoot
       xml:space="preserve"
       id="flowRoot2987-7-9-9-7-4-5-16"
       style="font-style:normal;font-variant:normal;font-weight:normal;font-stretch:normal;line-height:0.01%;font-family:Lavi;-inkscape-font-specification:Lavi;letter-spacing:0px;word-spacing:0px;fill:#000000;fill-opacity:1;stroke:#000000;stroke-width:0.99236238;stroke-miterlimit:4;stroke-dasharray:none;stroke-opacity:1;filter:url(#filter4375-5-4-81)"
       transform="matrix(0.87546097,-0.19155085,0,0.93952354,1768.4782,1433.4203)"><flowRegion
         id="flowRegion2989-4-5-8-7-8-5-9"
         style="stroke-width:5.40286207"><rect
           id="rect2991-45-1-3-3-4-3-6"
           width="319.66232"
           height="56.089447"
           x="120.55251"
           y="265.53046"
           style="font-style:normal;font-variant:normal;font-weight:normal;font-stretch:normal;font-family:Lavi;-inkscape-font-specification:Lavi;fill:#000000;fill-opacity:1;stroke:#000000;stroke-width:0.99236238;stroke-miterlimit:4;stroke-dasharray:none;stroke-opacity:1" /></flowRegion><flowPara
         id="flowPara2995-4-1-5-0-07-0-9"
         style="font-weight:normal;font-size:48px;line-height:1.25;-inkscape-font-specification:Lavi;fill:#000000;fill-opacity:1;stroke:#000000;stroke-width:0.99236238;stroke-linejoin:miter;stroke-miterlimit:4;stroke-dasharray:none;stroke-opacity:1">Sssssioft</flowPara></flowRoot>    <flowRoot
       xml:space="preserve"
       id="flowRoot2987-7-9-9-7-4-5-35"
       style="font-style:normal;font-variant:normal;font-weight:normal;font-stretch:normal;line-height:0.01%;font-family:Lavi;-inkscape-font-specification:Lavi;letter-spacing:0px;word-spacing:0px;fill:#000000;fill-opacity:1;stroke:#000000;stroke-width:1.71342587;stroke-miterlimit:4;stroke-dasharray:none;stroke-opacity:1;filter:url(#filter4375-5-4-2)"
       transform="matrix(0.51519764,-0.13096801,0.02602001,0.52891141,20.178104,2599.5144)"><flowRegion
         id="flowRegion2989-4-5-8-7-8-5-0"
         style="stroke-width:9.32865334"><rect
           id="rect2991-45-1-3-3-4-3-60"
           width="572.43164"
           height="165.43835"
           x="120.55251"
           y="265.53046"
           style="font-style:normal;font-variant:normal;font-weight:normal;font-stretch:normal;font-family:Lavi;-inkscape-font-specification:Lavi;fill:#000000;fill-opacity:1;stroke:#000000;stroke-width:1.71342587;stroke-miterlimit:4;stroke-dasharray:none;stroke-opacity:1" /></flowRegion><flowPara
         id="flowPara2995-4-1-5-0-07-0-8"
         style="font-weight:normal;font-size:48px;line-height:1.25;-inkscape-font-specification:Lavi;text-align:center;text-anchor:middle;fill:#000000;fill-opacity:1;stroke:#000000;stroke-width:1.71342587;stroke-linejoin:miter;stroke-miterlimit:4;stroke-dasharray:none;stroke-opacity:1">Sssioft  Sssioft</flowPara><flowPara
         style="font-weight:normal;font-size:48px;line-height:1.25;-inkscape-font-specification:Lavi;text-align:center;text-anchor:middle;fill:#000000;fill-opacity:1;stroke:#000000;stroke-width:1.71342587;stroke-linejoin:miter;stroke-miterlimit:4;stroke-dasharray:none;stroke-opacity:1"
         id="flowPara4701">Sssssioft</flowPara></flowRoot>    <flowRoot
       xml:space="preserve"
       id="flowRoot2987-7-9-9-7-4-5-35-8"
       style="font-style:normal;font-variant:normal;font-weight:normal;font-stretch:normal;line-height:0.01%;font-family:Lavi;-inkscape-font-specification:Lavi;letter-spacing:0px;word-spacing:0px;fill:#000000;fill-opacity:1;stroke:#000000;stroke-width:1.71342587;stroke-miterlimit:4;stroke-dasharray:none;stroke-opacity:1;filter:url(#filter4375-5-4-2-8)"
       transform="matrix(0.51519764,-0.13096801,0.02602001,0.52891141,-0.4074104,2539.5559)"><flowRegion
         id="flowRegion2989-4-5-8-7-8-5-0-7"
         style="stroke-width:9.32865334"><rect
           id="rect2991-45-1-3-3-4-3-60-4"
           width="572.43164"
           height="165.43835"
           x="120.55251"
           y="265.53046"
           style="font-style:normal;font-variant:normal;font-weight:normal;font-stretch:normal;font-family:Lavi;-inkscape-font-specification:Lavi;fill:#000000;fill-opacity:1;stroke:#000000;stroke-width:1.71342587;stroke-miterlimit:4;stroke-dasharray:none;stroke-opacity:1" /></flowRegion><flowPara
         style="font-weight:normal;font-size:48px;line-height:1.25;-inkscape-font-specification:Lavi;text-align:center;text-anchor:middle;fill:#000000;fill-opacity:1;stroke:#000000;stroke-width:1.71342587;stroke-linejoin:miter;stroke-miterlimit:4;stroke-dasharray:none;stroke-opacity:1"
         id="flowPara4701-1">Crrr Crrr Crrr</flowPara><flowPara
         style="font-weight:normal;font-size:48px;line-height:1.25;-inkscape-font-specification:Lavi;text-align:center;text-anchor:middle;fill:#000000;fill-opacity:1;stroke:#000000;stroke-width:1.71342587;stroke-linejoin:miter;stroke-miterlimit:4;stroke-dasharray:none;stroke-opacity:1"
         id="flowPara4750">Crrr Crrr</flowPara></flowRoot>    <flowRoot
       xml:space="preserve"
       id="flowRoot2987-7-9-9-7-4-5-35-8-9"
       style="font-style:normal;font-variant:normal;font-weight:normal;font-stretch:normal;line-height:0.01%;font-family:Lavi;-inkscape-font-specification:Lavi;letter-spacing:0px;word-spacing:0px;fill:#000000;fill-opacity:1;stroke:#000000;stroke-width:1.42419648;stroke-miterlimit:4;stroke-dasharray:none;stroke-opacity:1;filter:url(#filter4375-5-4-2-8-9)"
       transform="matrix(0.58514884,-0.16690279,0.02955289,0.67403324,794.64055,2560.7837)"><flowRegion
         id="flowRegion2989-4-5-8-7-8-5-0-7-8"
         style="stroke-width:7.75395966"><rect
           id="rect2991-45-1-3-3-4-3-60-4-4"
           width="572.43164"
           height="165.43835"
           x="120.55251"
           y="265.53046"
           style="font-style:normal;font-variant:normal;font-weight:normal;font-stretch:normal;font-family:Lavi;-inkscape-font-specification:Lavi;fill:#000000;fill-opacity:1;stroke:#000000;stroke-width:1.42419648;stroke-miterlimit:4;stroke-dasharray:none;stroke-opacity:1" /></flowRegion><flowPara
         style="font-weight:normal;font-size:48px;line-height:1.25;-inkscape-font-specification:Lavi;text-align:center;text-anchor:middle;fill:#000000;fill-opacity:1;stroke:#000000;stroke-width:1.42419648;stroke-linejoin:miter;stroke-miterlimit:4;stroke-dasharray:none;stroke-opacity:1"
         id="flowPara4701-1-5">Crrr Crrr Crrr</flowPara><flowPara
         style="font-weight:normal;font-size:48px;line-height:1.25;-inkscape-font-specification:Lavi;text-align:center;text-anchor:middle;fill:#000000;fill-opacity:1;stroke:#000000;stroke-width:1.42419648;stroke-linejoin:miter;stroke-miterlimit:4;stroke-dasharray:none;stroke-opacity:1"
         id="flowPara4750-7">Crrr Crrr</flowPara></flowRoot>    <flowRoot
       xml:space="preserve"
       id="flowRoot2987-7-9-9-7-4-5-35-81"
       style="font-style:normal;font-variant:normal;font-weight:normal;font-stretch:normal;line-height:0.01%;font-family:Lavi;-inkscape-font-specification:Lavi;letter-spacing:0px;word-spacing:0px;fill:#000000;fill-opacity:1;stroke:#000000;stroke-width:1.56195223;stroke-miterlimit:4;stroke-dasharray:none;stroke-opacity:1;filter:url(#filter4375-5-4-2-7)"
       transform="matrix(0.567614,-0.1430478,0.02866729,0.57769536,962.87231,2603.608)"><flowRegion
         id="flowRegion2989-4-5-8-7-8-5-0-5"
         style="stroke-width:8.50396347"><rect
           id="rect2991-45-1-3-3-4-3-60-6"
           width="572.43164"
           height="165.43835"
           x="120.55251"
           y="265.53046"
           style="font-style:normal;font-variant:normal;font-weight:normal;font-stretch:normal;font-family:Lavi;-inkscape-font-specification:Lavi;fill:#000000;fill-opacity:1;stroke:#000000;stroke-width:1.56195223;stroke-miterlimit:4;stroke-dasharray:none;stroke-opacity:1" /></flowRegion><flowPara
         id="flowPara2995-4-1-5-0-07-0-8-1"
         style="font-weight:normal;font-size:48px;line-height:1.25;-inkscape-font-specification:Lavi;text-align:center;text-anchor:middle;fill:#000000;fill-opacity:1;stroke:#000000;stroke-width:1.56195223;stroke-linejoin:miter;stroke-miterlimit:4;stroke-dasharray:none;stroke-opacity:1">Sssioft  Sssioft</flowPara><flowPara
         style="font-weight:normal;font-size:48px;line-height:1.25;-inkscape-font-specification:Lavi;text-align:center;text-anchor:middle;fill:#000000;fill-opacity:1;stroke:#000000;stroke-width:1.56195223;stroke-linejoin:miter;stroke-miterlimit:4;stroke-dasharray:none;stroke-opacity:1"
         id="flowPara4701-3">Sssssioft</flowPara></flowRoot>    <flowRoot
       xml:space="preserve"
       id="flowRoot2987-7-9-9-6"
       style="font-style:normal;font-variant:normal;font-weight:normal;font-stretch:normal;line-height:0.01%;font-family:Lavi;-inkscape-font-specification:Lavi;letter-spacing:0px;word-spacing:0px;fill:#000000;fill-opacity:1;stroke:none"
       transform="matrix(1.0490588,0,0,0.97373943,1118.8904,2850.5155)"><flowRegion
         id="flowRegion2989-4-5-8-75"><rect
           id="rect2991-45-1-3-34"
           width="417.15793"
           height="141.89404"
           x="120.55251"
           y="265.53046"
           style="font-style:normal;font-variant:normal;font-weight:normal;font-stretch:normal;font-family:Lavi;-inkscape-font-specification:Lavi" /></flowRegion><flowPara
         id="flowPara2995-4-1-5-4"
         style="font-size:48px;line-height:1.25">Rùdail</flowPara></flowRoot>    <flowRoot
       xml:space="preserve"
       id="flowRoot2987-7-9-9-6-2"
       style="font-style:normal;font-variant:normal;font-weight:normal;font-stretch:normal;line-height:0.01%;font-family:Lavi;-inkscape-font-specification:Lavi;letter-spacing:0px;word-spacing:0px;fill:#000000;fill-opacity:1;stroke:none"
       transform="matrix(0.69322557,-0.22010773,0,0.54518538,1625.9378,3064.2286)"><flowRegion
         id="flowRegion2989-4-5-8-75-8"><rect
           id="rect2991-45-1-3-34-5"
           width="417.15793"
           height="141.89404"
           x="120.55251"
           y="265.53046"
           style="font-style:normal;font-variant:normal;font-weight:normal;font-stretch:normal;font-family:Lavi;-inkscape-font-specification:Lavi" /></flowRegion><flowPara
         id="flowPara2995-4-1-5-4-4"
         style="font-size:48px;line-height:1.25">Fruuuiss !</flowPara></flowRoot>    <flowRoot
       xml:space="preserve"
       id="flowRoot2987-7-9-9-9"
       style="font-style:normal;font-variant:normal;font-weight:normal;font-stretch:normal;line-height:0.01%;font-family:Lavi;-inkscape-font-specification:Lavi;letter-spacing:0px;word-spacing:0px;fill:#000000;fill-opacity:1;stroke:none"
       transform="matrix(0.99017359,-0.4318322,0.17414417,0.9011435,94.595755,2519.9311)"><flowRegion
         id="flowRegion2989-4-5-8-6"><rect
           id="rect2991-45-1-3-2"
           width="417.15793"
           height="141.89404"
           x="120.55251"
           y="265.53046"
           style="font-style:normal;font-variant:normal;font-weight:normal;font-stretch:normal;font-family:Lavi;-inkscape-font-specification:Lavi" /></flowRegion><flowPara
         id="flowPara2995-4-1-5-7"
         style="font-size:48px;line-height:1.25;text-align:center;text-anchor:middle;fill:#ffffff">O sole</flowPara><flowPara
         style="font-size:48px;line-height:1.25;text-align:center;text-anchor:middle;fill:#ffffff"
         id="flowPara4923">miamh !</flowPara></flowRoot>  </g>
</svg>
