<?xml version="1.0" encoding="UTF-8" standalone="no"?>
<svg
   xmlns:dc="http://purl.org/dc/elements/1.1/"
   xmlns:cc="http://creativecommons.org/ns#"
   xmlns:rdf="http://www.w3.org/1999/02/22-rdf-syntax-ns#"
   xmlns:svg="http://www.w3.org/2000/svg"
   xmlns="http://www.w3.org/2000/svg"
   xmlns:xlink="http://www.w3.org/1999/xlink"
   xmlns:sodipodi="http://sodipodi.sourceforge.net/DTD/sodipodi-0.dtd"
   xmlns:inkscape="http://www.inkscape.org/namespaces/inkscape"
   id="svg2"
   version="1.1"
   inkscape:version="1.0.2 (e86c870879, 2021-01-15, custom)"
   width="2481"
   height="3503"
   sodipodi:docname="E34P08.svg">
  <metadata
     id="metadata8">
    <rdf:RDF>
      <cc:Work
         rdf:about="">
        <dc:format>image/svg+xml</dc:format>
        <dc:type
           rdf:resource="http://purl.org/dc/dcmitype/StillImage" />
        <dc:title />
      </cc:Work>
    </rdf:RDF>
  </metadata>
  <defs
     id="defs6" />
  <sodipodi:namedview
     pagecolor="#ffffff"
     bordercolor="#666666"
     borderopacity="1"
     objecttolerance="10"
     gridtolerance="10"
     guidetolerance="10"
     inkscape:pageopacity="0"
     inkscape:pageshadow="2"
     inkscape:window-width="1920"
     inkscape:window-height="1017"
     id="namedview4"
     showgrid="false"
     inkscape:zoom="0.49190039"
     inkscape:cx="1312.2057"
     inkscape:cy="1775.2949"
     inkscape:window-x="-8"
     inkscape:window-y="-8"
     inkscape:window-maximized="1"
     inkscape:current-layer="layer1"
     inkscape:document-rotation="0"
     inkscape:snap-global="false"
     borderlayer="true" />
  <g
     inkscape:groupmode="layer"
     id="layer2"
     inkscape:label="artwork"
     sodipodi:insensitive="true">
    <image
       sodipodi:absref="C:\Users\Xan\Documents\git\peppercarrot\webcomics\ep34_The-Knighting-of-Shichimi\lang\gfx_Pepper-and-Carrot_by-David-Revoy_E34P08.png"
       xlink:href="../gfx_Pepper-and-Carrot_by-David-Revoy_E34P08.png"
       y="0"
       x="0"
       id="image10"
       height="3503"
       width="2481" />
  </g>
  <g
     inkscape:groupmode="layer"
     id="layer3"
     inkscape:label="speechbubbles"
     style="display:inline">
    <path
       style="color:#000000;display:inline;overflow:visible;visibility:visible;fill:#ffffff;fill-opacity:1;fill-rule:nonzero;stroke:none;stroke-width:0.770224px;marker:none;enable-background:accumulate"
       d="m 1858.8745,2602.7661 c 24.645,-31.5484 88.5186,-58.8546 134.0691,-29.1667 47.5832,1.2392 31.3766,-27.3129 31.3766,-27.3129 -2.2798,-13.3723 -128.0086,-31.4485 -165.4457,56.4796 z"
       id="path3984-7"
       inkscape:connector-curvature="0"
       sodipodi:nodetypes="cccc" />
    <path
       style="display:inline;fill:#ffffff;stroke:none;stroke-width:1.27872"
       d="m 2139.8749,2631.6764 c -38.8957,1.3086 -78.3668,11.695 -110.1696,34.5814 -50.9316,38.0769 -76.0224,107.137 -60.8391,168.6749 7.3425,33.4838 28.7325,64.2339 59.2085,80.8492 29.6367,16.5153 63.5712,23.2199 97.0086,26.9705 49.4177,5.0539 99.8706,-0.9022 146.9529,-16.5161 26.5479,-9.3794 48.3257,-30.6891 58.5522,-56.7141 10.1491,-24.9303 12.0138,-52.2185 12.0494,-78.8319 -0.8392,-40.8025 -15.1378,-81.2701 -40.212,-113.6133 -11.8126,-15.2379 -28.8351,-26.347 -47.663,-30.9131 -22.1071,-5.334 -44.7373,-8.0292 -67.215,-11.3103 -15.8053,-2.0089 -31.7245,-3.4085 -47.6729,-3.1772 z"
       id="path3280-8-3"
       inkscape:connector-curvature="0"
       sodipodi:nodetypes="csssc" />
    <path
       style="color:#000000;display:inline;overflow:visible;visibility:visible;fill:#ffffff;fill-opacity:1;fill-rule:nonzero;stroke:none;stroke-width:0.728515px;marker:none;enable-background:accumulate"
       d="m 2152.1088,2472.571 c -41.7584,-0.9701 -84.0784,3.662 -123.2497,17.4105 -14.7151,5.29 -29.2257,12.7608 -38.8403,24.7234 -12.0315,15.1252 -17.9022,34.0355 -18.41,52.7878 -0.1046,18.5638 7.1715,37.6624 21.8731,50.5903 11.7363,10.1785 26.957,15.6751 41.7542,20.7364 27.1244,9.1294 55.5564,14.2904 84.0868,17.5432 18.9775,2.1752 38.0323,3.74 57.1042,4.8757 16.8858,0.6093 33.7178,-1.6169 50.1146,-5.1354 23.7549,-4.5131 47.7514,-10.3879 68.4689,-22.4672 14.7362,-8.7345 27.1907,-21.7633 32.0384,-37.6643 6.5761,-20.4107 1.5862,-43.6413 -12.6138,-60.4231 -11.8436,-15.4162 -25.9168,-29.9854 -43.9326,-39.2111 -15.1977,-7.5829 -32.0986,-11.3046 -48.7019,-15.0934 -22.8853,-4.9277 -46.2523,-7.7894 -69.6919,-8.6728 z"
       id="path3970-3"
       inkscape:connector-curvature="0"
       sodipodi:nodetypes="cccscsc" />
    <path
       style="display:inline;fill:#ffffff;fill-rule:evenodd;stroke:none;stroke-width:1.05069px;stroke-linecap:butt;stroke-linejoin:miter;stroke-opacity:1"
       d="m 171.77424,2653.9334 c 34.58553,24.7435 28.21744,35.5455 -20.53752,31.9178 77.73051,37.9951 45.64245,43.682 -3.57178,44.3304 33.03731,13.8778 69.59271,27.4582 -6.25056,50.5367 43.9519,3.7416 82.24798,9.0249 7.14348,45.217 38.96604,-1.4865 64.24245,-16.6374 17.24621,32.6265 63.78397,-22.1271 122.03224,-15.1595 89.01361,40.0752 32.06017,-16.2666 84.76818,-57.4914 66.07744,-12.4124 14.68868,-14.3967 33.3827,-19.8453 66.97045,7.9794 -6.54957,-20.067 -26.28307,-51.8703 33.03872,-13.299 -17.93328,-30.1806 -0.73664,-60.6589 59.16366,-15.8996 -8.92332,-22.7564 -68.15824,-31.3862 5.12802,-54.1425 -50.48117,-2.2696 -34.82268,-17.6734 -2.67876,-36.3509 -60.11023,-10.3224 -30.36925,-22.8208 5.35763,-35.4643 -37.23229,-4.8192 -65.95652,-12.9351 -7.14358,-54.9697 -64.7365,17.4505 -46.0022,-12.0637 -42.86115,-32.8045 -29.87466,16.4693 -63.65891,42.3197 -66.07753,-7.0929 -40.07583,61.305 -55.2497,14.4363 -77.68572,-0.8865 -23.3356,72.9473 -76.23503,5.7172 -91.07966,0.8865 30.27293,29.8573 35.55855,43.376 -31.25296,9.7528 z"
       id="path1096"
       inkscape:connector-curvature="0"
       sodipodi:nodetypes="cccccccccccccccccccc" />
    <path
       style="fill:#ffffff;fill-rule:evenodd;stroke:none;stroke-width:1px;stroke-linecap:butt;stroke-linejoin:miter;stroke-opacity:1"
       d="m 276.69249,2637.35 c 22.24357,147.5922 76.16994,294.7462 66.72409,442.7767 39.32721,-7.5351 57.02691,-43.538 110.60404,61.3044 36.13567,-50.5432 43.46402,-9.9468 54.08883,20.3938 25.92501,-21.2619 53.62712,-17.4156 81.20022,-15.3921 -24.07084,-2.6294 -42.56765,-23.176 -74.42406,-0.7793 -0.99204,-50.5675 -24.7242,-64.2967 -53.19608,-40.6932 -22.25284,-65.4923 -46.37098,-77.5206 -92.38131,-54.9383 1.82968,-175.1557 -47.49605,-279.4592 -67.44658,-422.2765 z"
       id="path1313"
       sodipodi:nodetypes="cccccccccc" />
    <path
       style="color:#000000;display:inline;overflow:visible;visibility:visible;fill:#ffffff;fill-opacity:1;fill-rule:nonzero;stroke:none;stroke-width:1.23141px;marker:none;enable-background:accumulate"
       d="m 137.94543,2954.6285 c 2.57481,-37.2862 8.37968,-66.8659 40.31649,-83.2681 31.93682,-16.4021 90.00534,-19.6263 163.67617,-13.1741 39.46208,3.4561 95.53388,8.4886 126.98199,24.0692 31.4482,15.58 38.27248,41.7074 34.95875,96.3255 -3.31371,54.6179 -14.9026,83.7128 -51.27921,97.2543 -36.37663,13.5417 -97.54109,11.5299 -110.85534,12.9077 -34.81312,-4.3382 -101.93998,1.8146 -144.61363,-9.6672 -42.67375,-11.4818 -60.89408,-40.5984 -59.18522,-124.4473 z"
       id="path4546-6-0"
       inkscape:connector-curvature="0"
       sodipodi:nodetypes="cssssscsc" />
    <path
       style="fill:#ffffff;fill-rule:evenodd;stroke:none;stroke-width:1.49986px;stroke-linecap:butt;stroke-linejoin:miter;stroke-opacity:1"
       d="m 217.08242,2649.8057 c 36.90709,-50.2257 39.2881,-5.139 58.31878,36.2923 18.49928,-30.6102 5.37016,-37.0801 47.77595,2.3088 8.80076,-60.6152 28.70148,-43.015 52.77387,-10.9502 -8.33465,-42.6242 -8.81213,-62.5771 28.15389,-25.9228 9.37569,-48.4233 28.08772,-13.1777 54.29681,10.3696 -6.36522,-54.7029 -9.43727,-54.5433 44.24189,-44.9322 -37.30857,-48.1984 12.34553,-26.491 50.27471,-20.7394 -56.92936,-37.391 -36.38571,-30.7833 20.1101,-27.6509 -70.09485,-30.9514 -74.25014,-26.6667 -8.04407,-63.9433 -98.70585,11.1753 -89.4022,9.8366 -24.13193,-55.302 -39.18092,5.5174 -140.98295,82.943 -78.42873,13.8262 -53.48141,18.2513 -77.40978,39.2565 -49.37466,-20.9763 l -19.66776,-1.0234 c -20.37926,21.8995 -44.11621,56.4771 -47.59527,11.6299 -29.76644,33.519 -28.07601,39.1189 -42.23077,-3.4564 -19.66696,57.8645 -22.71029,13.0651 -34.18713,-24.1945 -25.83448,34.7634 -26.07555,74.5428 -42.23077,19.0097 -11.24706,56.5135 -34.0037,16.4098 -66.36284,-10.3684 10.09255,61.5083 12.97253,60.8806 -36.19797,22.4662 18.43992,56.1578 -0.12592,44.3678 -52.285671,41.4758 62.451481,49.6039 42.560661,48.1051 -20.110112,82.9544 35.01382,5.5208 97.345683,-28.793 64.351853,17.2813 77.3397,-28.1852 15.08709,45.1113 -4.02196,82.953 69.10198,-57.7667 97.75391,-104.5155 104.57179,-31.1074 z"
       id="path1309"
       inkscape:connector-curvature="0"
       sodipodi:nodetypes="ccccccccccccccccccccccccc" />
    <path
       style="display:inline;fill:#ffffff;stroke:none;stroke-width:0.961721"
       d="m 1992.8795,1907.9827 c -40.7386,2.375 -80.9594,9.8662 -116.6169,22.0289 -23.9783,8.2114 -45.9218,18.6288 -63.3504,31.2654 -45.4249,32.0058 -69.0271,73.4521 -67.4132,113.9943 -0.2557,33.7085 15.1506,67.7048 49.0149,94.8423 32.4413,26.589 78.2926,48.4153 132.872,58.254 31.9166,5.8817 64.8749,9.9401 98.0509,13.0626 45.9968,2.8547 92.4907,-2.8568 136.9465,-10.4243 39.663,-6.7339 79.2759,-16.4494 109.9638,-33.1537 33.9183,-18.4553 55.6072,-42.8811 72.0908,-67.5336 16.7219,-24.6985 25.73,-51.5632 19.4091,-77.6329 -5.5238,-26.6369 -16.5302,-53.4737 -41.3911,-76.1328 -24.2997,-21.9807 -60.6551,-38.9921 -101.9053,-49.6035 -54.0859,-14.3928 -114.5603,-19.6343 -174.4311,-20.1617 -17.7399,-0.035 -35.5153,0.2433 -53.24,1.195 z"
       id="path3280-5"
       inkscape:connector-curvature="0"
       sodipodi:nodetypes="csssc" />
    <path
       style="color:#000000;display:inline;overflow:visible;visibility:visible;fill:#ffffff;fill-opacity:1;fill-rule:nonzero;stroke:none;stroke-width:0.869755px;marker:none;enable-background:accumulate"
       d="m 631.52816,1840.5303 c 47.24511,-27.3875 115.83444,-55.1086 154.24551,3.9472 23.5574,-4.8627 69.71482,-40.1263 115.42935,17.7336 -47.53609,-35.9834 -78.50267,-15.4767 -118.07887,4.9225 -18.59072,-41.5285 -83.01307,-49.4207 -140.96132,7.1368 -57.94866,56.5566 -38.62415,45.003 -38.62415,45.003 l 10.52452,-62.5977 z"
       id="path5074-8"
       inkscape:connector-curvature="0"
       sodipodi:nodetypes="ccccsccc" />
    <path
       style="display:inline;fill:#ffffff;stroke:none;stroke-width:1.10488"
       d="m 471.89462,1809.6055 c -35.71903,0.6202 -72.21682,2.8871 -105.73986,14.1083 -44.14425,15.3776 -77.65596,50.1228 -87.12753,89.4906 -6.79544,26.0118 -6.16448,53.7456 4.24706,79.025 9.98015,23.3857 31.47195,42.7535 57.8126,53.7349 13.24861,5.7353 27.70666,9.0777 42.27276,11.4444 24.12854,4.2459 48.50643,7.586 73.03383,9.6772 54.81192,4.2645 111.77261,0.3106 162.50172,-18.7444 17.17622,-6.5084 33.95294,-14.7612 46.60075,-26.7076 17.39825,-17.5909 25.08577,-40.2604 29.71296,-62.4104 5.63519,-28.9396 1.95832,-60.0042 -15.51369,-85.7743 -17.99392,-26.0108 -49.48409,-44.2053 -83.65105,-52.0684 -34.31657,-8.5105 -70.26583,-10.583 -105.82932,-11.8245 -6.10655,-0.084 -12.21442,-0.064 -18.32023,0.049 z"
       id="path3280-5-9"
       inkscape:connector-curvature="0"
       sodipodi:nodetypes="csssc" />
    <path
       style="color:#000000;display:inline;overflow:visible;visibility:visible;fill:#ffffff;fill-opacity:1;fill-rule:nonzero;stroke:none;stroke-width:1.26507px;marker:none;enable-background:accumulate"
       d="m 1537.3167,284.93368 c 6.4759,-104.4622 75.8807,-180.22896 314.821,-161.45132 127.9896,10.05817 273.2736,16.43161 265.2706,169.45591 -8.0031,153.02404 -216.7662,149.85206 -259.822,153.58671 -43.0553,3.73491 -245.9831,-12.46546 -285.7302,-64.3643 -24.8811,-32.48709 -34.9325,-64.88039 -34.5394,-97.227 z"
       id="path4546-7"
       inkscape:connector-curvature="0"
       sodipodi:nodetypes="cssssc" />
    <path
       style="fill:#ffffff;fill-rule:evenodd;stroke:none;stroke-width:1px;stroke-linecap:butt;stroke-linejoin:miter;stroke-opacity:1"
       d="m 1583.1971,228.38894 -0.065,25.78758 C 1064.4433,130.64867 897.1794,416.85146 793.5913,670.33743 810.89342,604.71047 848.83107,539.01086 867.11504,495.25305 921.33848,365.48369 1120.9039,126.81475 1583.1971,228.38894 Z"
       id="path1237"
       sodipodi:nodetypes="cccsc" />
    <path
       style="fill:#ffffff;fill-rule:evenodd;stroke:none;stroke-width:0.951606px;stroke-linecap:butt;stroke-linejoin:miter;stroke-opacity:1"
       d="m 813.77486,210.57161 c 29.27094,11.6566 55.72986,18.90382 46.73436,-29.44381 51.81149,65.63911 44.37917,20.68522 52.57617,4.90728 30.80381,46.36722 57.30795,39.75955 80.32471,-9.81455 13.0117,71.5083 40.2399,36.86205 64.2598,26.17227 -0.058,20.10925 -31.5214,52.78611 55.5358,15.11924 -20.2654,18.16213 -53.7367,48.5692 6.9611,30.36147 -9.8365,4.81508 7.9394,8.62843 0.8602,11.46309 -31.6823,12.68616 -37.5888,41.28014 10.4455,51.40634 -33.9432,11.28445 -41.6453,39.51712 -1.6768,71.99241 -50.7557,-22.40876 -43.0878,7.21787 -33.696,21.51193 -49.841,-29.38853 -56.8144,-17.62246 -52.576,4.90727 -15.9064,-20.55529 -34.0564,-29.16209 -69.09944,5.88849 7.83862,-21.05339 -30.28819,-20.45825 -65.47233,12.86027 18.5282,-32.0567 -7.63308,-36.36757 -36.75912,-16.13181 -7.68217,-34.06529 -36.52888,-16.76923 -67.18066,4.90737 25.01887,-33.24846 26.83183,-61.02486 -21.90672,-76.88127 47.23174,-19.02054 38.63125,-34.36262 20.44629,-49.07308 17.96615,-13.83306 29.6803,-28.9017 -17.52539,-55.61627 27.6,4.15315 56.98758,9.50763 27.74853,-24.53664 z"
       id="path4582"
       inkscape:connector-curvature="0"
       sodipodi:nodetypes="cccccccscccccccccccc" />
    <path
       style="fill:#ffffff;fill-rule:evenodd;stroke:none;stroke-width:1.14149px;stroke-linecap:butt;stroke-linejoin:miter;stroke-opacity:1"
       d="m 186.64099,269.10219 c 14.16793,-17.9695 21.6656,-57.67395 -26.96962,-49.84375 39.28832,-24.22773 26.02054,-46.39487 -3.9116,-60.30611 73.97307,21.84758 73.30597,-3.1264 61.65626,-34.98976 47.54155,45.23929 40.41961,-2.73478 35.84699,-20.87523 10.75548,16.73933 13.0223,42.92164 49.60085,2.10678 -0.32028,30.13252 -6.17118,65.92523 62.1714,25.78584 -22.50387,36.76194 -23.29348,63.59943 42.00483,60.23151 -28.38205,11.84018 -67.58994,23.8538 -13.96314,34.38016 -34.61657,-0.92979 -57.61576,1.55757 -42.76886,15.17701 -14.37392,-2.5435 -33.83306,-9.95842 -3.30801,30.50934 -20.80242,-14.97453 -46.52652,-38.26005 -39.11492,-5.59088 -18.23798,-14.68676 -19.40407,6.8976 -15.2404,39.80566 -12.94537,-38.21825 -26.75878,-42.54053 -41.59034,-7.10557 6.55708,-27.98121 3.27152,-63.65454 -44.38626,-25.35425 -12.90735,-2.90399 -11.03497,-2.74842 -20.02718,-3.93075 z"
       id="path1213"
       sodipodi:nodetypes="cccccccccccccccc" />
    <path
       style="fill:#ffffff;fill-rule:evenodd;stroke:none;stroke-width:1.28731px;stroke-linecap:butt;stroke-linejoin:miter;stroke-opacity:1"
       d="M 223.92681,451.40352 C 191.03014,380.78428 162.95416,309.9462 234.75229,234.57441 l -10.34265,-15.32374 c -90.31546,91.35161 -49.21656,162.34365 -0.48283,232.15285 z"
       id="path1217"
       sodipodi:nodetypes="cccc" />
    <path
       style="fill:#ffffff;fill-rule:evenodd;stroke:none;stroke-width:1.08499px;stroke-linecap:butt;stroke-linejoin:miter;stroke-opacity:1"
       d="m 1643.7985,1929.1739 c 96.8015,-46.6867 120.9988,-40.2821 80.5755,28.3512 65.4725,-1.176 123.2483,3.9962 149.8904,34.8462 l 15.5883,-26.0596 c -31.2138,-18.9598 -72.3678,-35.221 -134.1445,-30.1606 20.9177,-34.9284 13.3859,-99.1339 -111.9097,-6.9772 z"
       id="path1284"
       sodipodi:nodetypes="cccccc" />
  </g>
  <g
     inkscape:groupmode="layer"
     id="layer1"
     inkscape:label="txt">
    <text
       xml:space="preserve"
       style="font-style:normal;font-variant:normal;font-weight:normal;font-stretch:normal;font-size:81.3623px;line-height:1.25;font-family:Lavi;-inkscape-font-specification:Lavi;text-align:center;letter-spacing:0px;word-spacing:0px;text-anchor:middle;fill:#000000;fill-opacity:1;stroke:none;stroke-width:1.408;stroke-miterlimit:4;stroke-dasharray:none"
       x="316.34204"
       y="221.56798"
       id="text4246-3-2-2-6-3-7-9-3-3-56-9-3-20"
       transform="matrix(0.93887237,0,-0.13753791,1.0651075,0,0)"><tspan
         style="font-style:normal;font-variant:normal;font-weight:normal;font-stretch:normal;font-size:81.3623px;font-family:Lavi;-inkscape-font-specification:Lavi;stroke:#000000;stroke-width:1.408;stroke-miterlimit:4;stroke-dasharray:none;stroke-opacity:1"
         sodipodi:role="line"
         x="316.34204"
         y="221.56798"
         id="tspan334">?!!</tspan></text>
    <text
       xml:space="preserve"
       style="font-style:normal;font-variant:normal;font-weight:normal;font-stretch:normal;font-size:55.0875px;line-height:1.25;font-family:Lavi;-inkscape-font-specification:Lavi;text-align:center;letter-spacing:0px;word-spacing:0px;text-anchor:middle;fill:#000000;fill-opacity:1;stroke:none;stroke-width:1.22417"
       x="978.47021"
       y="283.81088"
       id="text4246-3-2-2-6-3-7-9-3-3-56-9-3-20-3"
       transform="scale(0.97385246,1.0268496)"><tspan
         style="font-style:normal;font-variant:normal;font-weight:bold;font-stretch:normal;font-size:55.0875px;font-family:Lavi;-inkscape-font-specification:'Lavi Bold';stroke-width:1.22417"
         sodipodi:role="line"
         x="978.47021"
         y="283.81088"
         id="tspan880">Ela<tspan
   style="font-weight:normal"
   id="tspan2424"> era</tspan></tspan><tspan
         style="font-style:normal;font-variant:normal;font-weight:normal;font-stretch:normal;font-size:55.0875px;font-family:Lavi;-inkscape-font-specification:'Lavi Bold';stroke-width:1.22417"
         sodipodi:role="line"
         x="978.47021"
         y="352.67026"
         id="tspan888">o alvo!</tspan></text>
    <text
       xml:space="preserve"
       style="font-style:normal;font-variant:normal;font-weight:normal;font-stretch:normal;font-size:48.8015px;line-height:1.25;font-family:Lavi;-inkscape-font-specification:Lavi;text-align:center;letter-spacing:0px;word-spacing:0px;text-anchor:middle;fill:#000000;fill-opacity:1;stroke:none;stroke-width:1.08448"
       x="1835.2006"
       y="208.50026"
       id="text4246-3-2-2-6-3-7-9-3-3-56-9-3-20-3-7"><tspan
         style="font-size:48.8015px;stroke-width:1.08448"
         sodipodi:role="line"
         x="1835.2006"
         y="208.50026"
         id="tspan2440">Eu só cancelei o </tspan><tspan
         style="font-size:48.8015px;stroke-width:1.08448"
         sodipodi:role="line"
         x="1835.2006"
         y="269.54138"
         id="tspan2444">seu <tspan
   style="font-style:italic"
   id="tspan2446">Feitiço de Glamour, </tspan></tspan><tspan
         style="font-size:48.8015px;stroke-width:1.08448"
         sodipodi:role="line"
         x="1835.2006"
         y="330.54324"
         id="tspan2448">que a faz parecer </tspan><tspan
         style="font-size:48.8015px;stroke-width:1.08448"
         sodipodi:role="line"
         x="1835.2006"
         y="391.54514"
         id="tspan914">uma jovem.</tspan></text>
    <text
       xml:space="preserve"
       style="font-style:normal;font-variant:normal;font-weight:normal;font-stretch:normal;font-size:45px;line-height:1.25;font-family:Lavi;-inkscape-font-specification:Lavi;text-align:center;letter-spacing:0px;word-spacing:0px;text-anchor:middle;fill:#000000;fill-opacity:1;stroke:none"
       x="489.57349"
       y="1897.157"
       id="text4246-3-2-2-6-3-7-9-3-3-56-9-3-20-5"><tspan
         style="font-size:45px"
         sodipodi:role="line"
         x="489.57349"
         y="1897.157"
         id="tspan2470">Eu percebi esse</tspan><tspan
         style="font-size:45px"
         sodipodi:role="line"
         x="489.57349"
         y="1953.407"
         id="tspan2476">feitiço logo que </tspan><tspan
         style="font-size:45px"
         sodipodi:role="line"
         x="489.57349"
         y="2009.657"
         id="tspan924">eu cheguei aqui.</tspan></text>
    <text
       xml:space="preserve"
       style="font-style:normal;font-variant:normal;font-weight:normal;font-stretch:normal;font-size:45px;line-height:1.25;font-family:Lavi;-inkscape-font-specification:Lavi;text-align:center;letter-spacing:0px;word-spacing:0px;text-anchor:middle;fill:#000000;fill-opacity:1;stroke:none"
       x="2060.0312"
       y="1986.6521"
       id="text4246-3-2-2-6-3-7-9-3-3-56-9-3-20-5-9"><tspan
         style="font-size:45px"
         sodipodi:role="line"
         x="2060.0312"
         y="1986.6521"
         id="tspan921">Então, eu te dei uma </tspan><tspan
         style="font-size:45px"
         sodipodi:role="line"
         x="2060.0312"
         y="2042.9021"
         id="tspan2493">pequena amostra do que </tspan><tspan
         style="font-size:45px"
         sodipodi:role="line"
         x="2060.0312"
         y="2099.1521"
         id="tspan2495">você merece por fazer </tspan><tspan
         style="font-size:45px"
         sodipodi:role="line"
         x="2060.0312"
         y="2155.4021"
         id="tspan948">a Shichimi lutar </tspan><tspan
         style="font-size:45px"
         sodipodi:role="line"
         x="2060.0312"
         y="2211.6521"
         id="tspan2579">comigo!</tspan></text>
    <text
       xml:space="preserve"
       style="font-style:normal;font-variant:normal;font-weight:normal;font-stretch:normal;font-size:60px;line-height:1.25;font-family:Lavi;-inkscape-font-specification:Lavi;text-align:center;letter-spacing:2px;word-spacing:0px;text-anchor:middle;fill:#000000;fill-opacity:1;stroke:none;stroke-width:1.32287"
       x="371.23419"
       y="2215.2615"
       id="text4246-3-2-2-6-3-7-9-3-3-56-9-3-20-5-9-0"
       transform="scale(0.860916,1.1615535)"><tspan
         style="font-style:normal;font-variant:normal;font-weight:bold;font-stretch:normal;font-size:60px;font-family:Lavi;-inkscape-font-specification:'Lavi Bold';stroke-width:1.32287"
         sodipodi:role="line"
         x="372.23419"
         y="2215.2615"
         id="tspan992-6">INSOLENTE!</tspan></text>
    <text
       xml:space="preserve"
       style="font-style:normal;font-variant:normal;font-weight:normal;font-stretch:normal;font-size:58px;line-height:1.25;font-family:Lavi;-inkscape-font-specification:Lavi;text-align:center;letter-spacing:0px;word-spacing:0px;text-anchor:middle;fill:#000000;fill-opacity:1;stroke:none;stroke-width:1.30553"
       x="324.97919"
       y="2749.8735"
       id="text4246-3-2-2-6-3-7-9-3-3-56-9-3-20-5-2"><tspan
         style="font-weight:bold;font-size:58px;stroke-width:1.30553"
         sodipodi:role="line"
         x="324.97919"
         y="2749.8735"
         id="tspan1085"><tspan
           id="tspan2529"
           style="font-weight:normal;font-size:58px;stroke-width:1.30553">Como </tspan></tspan><tspan
         style="font-weight:bold;font-size:58px;stroke-width:1.30553"
         sodipodi:role="line"
         x="324.97919"
         y="2822.4202"
         id="tspan2531">ousa,</tspan></text>
    <text
       xml:space="preserve"
       style="font-style:normal;font-variant:normal;font-weight:normal;font-stretch:normal;font-size:50px;line-height:1.25;font-family:Lavi;-inkscape-font-specification:Lavi;text-align:center;letter-spacing:0px;word-spacing:0px;text-anchor:middle;fill:#000000;fill-opacity:1;stroke:none;stroke-width:1.30553"
       x="324.56845"
       y="2924.1201"
       id="text4246-3-2-2-6-3-7-9-3-3-56-9-3-20-5-2-7"><tspan
         style="font-size:50px;stroke-width:1.30553"
         sodipodi:role="line"
         x="324.56845"
         y="2924.1201"
         id="tspan1119">em frente </tspan><tspan
         style="font-size:50px;stroke-width:1.30553"
         sodipodi:role="line"
         x="324.56845"
         y="2986.6201"
         id="tspan2535">de toda a </tspan><tspan
         style="font-size:50px;stroke-width:1.30553"
         sodipodi:role="line"
         x="324.56845"
         y="3049.1201"
         id="tspan959">minha escola!</tspan></text>
    <text
       xml:space="preserve"
       style="font-style:normal;font-variant:normal;font-weight:normal;font-stretch:normal;font-size:45px;line-height:1.25;font-family:Lavi;-inkscape-font-specification:Lavi;text-align:center;letter-spacing:0px;word-spacing:0px;text-anchor:middle;fill:#000000;fill-opacity:1;stroke:none"
       x="2149.2981"
       y="2548.0259"
       id="text4246-3-2-2-6-3-7-9-3-3-56-9-3-20-5-9-02"><tspan
         style="font-size:45px"
         sodipodi:role="line"
         x="2149.2981"
         y="2548.0259"
         id="tspan992-2">Considere-se</tspan><tspan
         style="font-size:45px"
         sodipodi:role="line"
         x="2149.2981"
         y="2604.2759"
         id="tspan1175">sortuda!</tspan></text>
    <text
       xml:space="preserve"
       style="font-style:normal;font-variant:normal;font-weight:normal;font-stretch:normal;font-size:45px;line-height:1.25;font-family:Lavi;-inkscape-font-specification:Lavi;text-align:center;letter-spacing:0px;word-spacing:0px;text-anchor:middle;fill:#000000;fill-opacity:1;stroke:none"
       x="2160.4646"
       y="2723.9202"
       id="text4246-3-2-2-6-3-7-9-3-3-56-9-3-20-5-9-02-2"><tspan
         style="font-size:45px"
         sodipodi:role="line"
         x="2160.4646"
         y="2723.9202"
         id="tspan970">Se eu tivesse</tspan><tspan
         style="font-size:45px"
         sodipodi:role="line"
         x="2160.4646"
         y="2780.1702"
         id="tspan2559">toda a minha</tspan><tspan
         style="font-size:45px"
         sodipodi:role="line"
         x="2160.4646"
         y="2836.4202"
         id="tspan2561">Rea, eu teria</tspan><tspan
         style="font-size:45px"
         sodipodi:role="line"
         x="2160.4646"
         y="2892.6702"
         id="tspan982">ido além.</tspan></text>
  </g>
</svg>
