{
   "id": 12,
   "original-language": "fr",
   "supporters": 575,
   "published": "2015-10-31",
   "pluxmlID": 331,
   "background-color": "#FFFFFF",
   "credits": {
      "art":[
         "David Revoy <https://framagit.org/Deevad>"
      ],
      "scenario":[
         "David Revoy <https://framagit.org/Deevad>"
      ]
   },
   "software":[
      {
         "name": "Krita",
         "version": "2.9.8"
      },
      {
         "name": "Inkscape",
         "version": "0.91"
      },
      {
         "name": "Blender",
         "version": "2.71"
      },
      {
         "name": "GIMP",
         "version": "2.8.14"
      },
      {
         "name": "G'MIC",
         "version": "1.6.7"
      },
      {
         "name": "Linux Mint",
         "version": "17.2"
      }
   ]
}
