<?xml version="1.0" encoding="UTF-8" standalone="no"?>
<svg
   xmlns:dc="http://purl.org/dc/elements/1.1/"
   xmlns:cc="http://creativecommons.org/ns#"
   xmlns:rdf="http://www.w3.org/1999/02/22-rdf-syntax-ns#"
   xmlns:svg="http://www.w3.org/2000/svg"
   xmlns="http://www.w3.org/2000/svg"
   xmlns:xlink="http://www.w3.org/1999/xlink"
   xmlns:sodipodi="http://sodipodi.sourceforge.net/DTD/sodipodi-0.dtd"
   xmlns:inkscape="http://www.inkscape.org/namespaces/inkscape"
   sodipodi:docname="E18P08.svg"
   height="4503"
   width="2481"
   inkscape:version="1.0 (4035a4fb49, 2020-05-01)"
   version="1.1"
   id="svg2">
  <metadata
     id="metadata8">
    <rdf:RDF>
      <cc:Work
         rdf:about="">
        <dc:format>image/svg+xml</dc:format>
        <dc:type
           rdf:resource="http://purl.org/dc/dcmitype/StillImage" />
        <dc:title />
      </cc:Work>
    </rdf:RDF>
  </metadata>
  <defs
     id="defs6" />
  <sodipodi:namedview
     inkscape:document-rotation="0"
     inkscape:guide-bbox="true"
     showguides="true"
     inkscape:object-nodes="true"
     inkscape:current-layer="layer2"
     inkscape:window-maximized="0"
     inkscape:window-y="74"
     inkscape:window-x="0"
     inkscape:cy="333.33142"
     inkscape:cx="1295.3439"
     inkscape:zoom="0.9002897"
     showgrid="false"
     id="namedview4"
     inkscape:window-height="1004"
     inkscape:window-width="1744"
     inkscape:pageshadow="2"
     inkscape:pageopacity="0"
     guidetolerance="10"
     gridtolerance="10"
     objecttolerance="10"
     borderopacity="1"
     bordercolor="#666666"
     pagecolor="#ffffff">
    <sodipodi:guide
       inkscape:locked="false"
       id="guide4214"
       orientation="0,1"
       position="3653.5365,4415.3377" />
  </sodipodi:namedview>
  <g
     sodipodi:insensitive="true"
     transform="translate(0,1024)"
     style="display:inline"
     inkscape:label="artwork"
     id="layer1"
     inkscape:groupmode="layer">
    <image
       sodipodi:absref="/home/cherry/peppercarrot/webcomics/ep18_The-Encounter/lang/gfx_Pepper-and-Carrot_by-David-Revoy_E18P08.png"
       xlink:href="../gfx_Pepper-and-Carrot_by-David-Revoy_E18P08.png"
       width="2481.4438"
       height="4504.5391"
       preserveAspectRatio="none"
       style="image-rendering:optimizeQuality"
       id="image4223"
       x="0.54707891"
       y="-1023.3771" />
  </g>
  <g
     transform="translate(0,1024)"
     style="display:inline;opacity:0.855"
     inkscape:label="text"
     id="layer2"
     inkscape:groupmode="layer">
    <text
       xml:space="preserve"
       style="font-style:normal;font-variant:normal;font-weight:normal;font-stretch:normal;font-size:15.8297px;line-height:100%;font-family:'Nanum Pen Script OTF';-inkscape-font-specification:'Nanum Pen Script OTF';text-align:center;letter-spacing:0px;word-spacing:0px;text-anchor:middle;display:inline;opacity:0.855;fill:#483e37;fill-opacity:1;stroke:none;stroke-width:1.31914;filter:url(#filter4155)"
       x="1240.8005"
       y="-770.8894"
       id="text22"><tspan
         id="tspan37"
         sodipodi:role="line"
         x="1240.8005"
         y="-770.8894"
         style="font-style:normal;font-variant:normal;font-weight:normal;font-stretch:normal;font-size:52.7657px;line-height:100%;font-family:'Nanum Pen Script OTF';-inkscape-font-specification:'Nanum Pen Script OTF';fill:#483e37;stroke-width:1.31914">후추와 당근은 완전히 자유 오픈소스이고</tspan><tspan
         id="tspan21"
         sodipodi:role="line"
         x="1240.8005"
         y="-718.12372"
         style="font-style:normal;font-variant:normal;font-weight:normal;font-stretch:normal;font-size:52.7657px;line-height:100%;font-family:'Nanum Pen Script OTF';-inkscape-font-specification:'Nanum Pen Script OTF';fill:#483e37;stroke-width:1.31914">독자들의 후원을 받아 운영하고 있습니다.</tspan><tspan
         id="tspan23"
         sodipodi:role="line"
         x="1240.8005"
         y="-665.35803"
         style="font-style:normal;font-variant:normal;font-weight:normal;font-stretch:normal;font-size:52.7657px;line-height:100%;font-family:'Nanum Pen Script OTF';-inkscape-font-specification:'Nanum Pen Script OTF';fill:#483e37;stroke-width:1.31914">이번 화에 도움을 주신 720명의 후원자분께 감사드립니다:</tspan></text>
    <text
       xml:space="preserve"
       style="font-style:normal;font-variant:normal;font-weight:normal;font-stretch:normal;font-size:15.816px;line-height:100%;font-family:'Nanum Pen Script OTF';-inkscape-font-specification:'Nanum Pen Script OTF';text-align:center;letter-spacing:0px;word-spacing:0px;text-anchor:middle;display:inline;opacity:0.855;fill:#483e37;fill-opacity:1;stroke:none;stroke-width:1.318;filter:url(#filter4155)"
       x="1240.6318"
       y="3274.9033"
       id="text26"><tspan
         sodipodi:role="line"
         id="tspan24"
         x="1240.6318"
         y="3274.9033"
         style="font-style:normal;font-variant:normal;font-weight:normal;font-stretch:normal;font-size:52.7201px;line-height:100%;font-family:'Nanum Pen Script OTF';-inkscape-font-specification:'Nanum Pen Script OTF';fill:#483e37;stroke-width:1.318">여러분도 www.patreon.com/davidrevoy에서 후추와 당근의 다음 화의 후원자가 될 수 있습니다</tspan></text>
  </g>
</svg>
