<?xml version="1.0" encoding="UTF-8" standalone="no"?>
<!-- Created with Inkscape (http://www.inkscape.org/) -->

<svg
   xmlns:dc="http://purl.org/dc/elements/1.1/"
   xmlns:cc="http://creativecommons.org/ns#"
   xmlns:rdf="http://www.w3.org/1999/02/22-rdf-syntax-ns#"
   xmlns:svg="http://www.w3.org/2000/svg"
   xmlns="http://www.w3.org/2000/svg"
   xmlns:xlink="http://www.w3.org/1999/xlink"
   xmlns:sodipodi="http://sodipodi.sourceforge.net/DTD/sodipodi-0.dtd"
   xmlns:inkscape="http://www.inkscape.org/namespaces/inkscape"
   id="svg2"
   version="1.1"
   inkscape:version="0.92.3 (2405546, 2018-03-11)"
   width="2481"
   height="3503"
   sodipodi:docname="E32P04.svg">
  <metadata
     id="metadata8">
    <rdf:RDF>
      <cc:Work
         rdf:about="">
        <dc:format>image/svg+xml</dc:format>
        <dc:type
           rdf:resource="http://purl.org/dc/dcmitype/StillImage" />
        <dc:title />
      </cc:Work>
    </rdf:RDF>
  </metadata>
  <defs
     id="defs6">
    <filter
       style="color-interpolation-filters:sRGB"
       id="filter4375-4-1-1-1-9-5-8-4"
       inkscape:label="Drop Shadow">
      <feFlood
         id="feFlood4377-7-9-0-8-1-7-3-3"
         flood-opacity="1"
         flood-color="rgb(108,125,133)"
         result="flood" />
      <feComposite
         id="feComposite4379-3-8-8-2-77-4-1-07"
         in2="SourceGraphic"
         in="flood"
         operator="in"
         result="composite1" />
      <feMorphology
         id="feMorphology4393-1-0-49-8-9-3-0-8"
         operator="dilate"
         radius="6.2000000000000002"
         result="result3" />
      <feComposite
         id="feComposite4385-9-5-7-0-8-8-7-6"
         in2="result3"
         in="SourceGraphic"
         operator="over"
         result="fbSourceGraphic" />
      <feColorMatrix
         result="fbSourceGraphicAlpha"
         in="fbSourceGraphic"
         values="0 0 0 -1 0 0 0 0 -1 0 0 0 0 -1 0 0 0 0 1 0"
         id="feColorMatrix4544-8" />
      <feTurbulence
         id="feTurbulence4546-8"
         type="fractalNoise"
         numOctaves="3"
         seed="37"
         baseFrequency="0.129 0.0050000000000000001"
         result="turbulence" />
      <feDisplacementMap
         id="feDisplacementMap4548-4"
         in2="turbulence"
         in="fbSourceGraphic"
         scale="6.6"
         yChannelSelector="G"
         xChannelSelector="R"
         result="fbSourceGraphic" />
      <feColorMatrix
         result="fbSourceGraphicAlpha"
         in="fbSourceGraphic"
         values="0 0 0 -1 0 0 0 0 -1 0 0 0 0 -1 0 0 0 0 1 0"
         id="feColorMatrix4670-3" />
      <feFlood
         id="feFlood4672-1"
         flood-opacity="1"
         flood-color="rgb(17,52,65)"
         result="flood"
         in="fbSourceGraphic" />
      <feComposite
         id="feComposite4674-4"
         in2="fbSourceGraphic"
         in="flood"
         operator="in"
         result="composite1" />
      <feGaussianBlur
         id="feGaussianBlur4676-92"
         in="composite1"
         stdDeviation="0"
         result="blur" />
      <feOffset
         id="feOffset4678-0"
         dx="6"
         dy="6"
         result="offset" />
      <feComposite
         id="feComposite4680-68"
         in2="offset"
         in="fbSourceGraphic"
         operator="over"
         result="composite2" />
    </filter>
    <filter
       style="color-interpolation-filters:sRGB"
       id="filter4375-4-1-1-1-9-5-8-4-3"
       inkscape:label="Drop Shadow">
      <feFlood
         id="feFlood4377-7-9-0-8-1-7-3-3-6"
         flood-opacity="1"
         flood-color="rgb(108,125,133)"
         result="flood" />
      <feComposite
         id="feComposite4379-3-8-8-2-77-4-1-07-7"
         in2="SourceGraphic"
         in="flood"
         operator="in"
         result="composite1" />
      <feMorphology
         id="feMorphology4393-1-0-49-8-9-3-0-8-5"
         operator="dilate"
         radius="6.2000000000000002"
         result="result3" />
      <feComposite
         id="feComposite4385-9-5-7-0-8-8-7-6-3"
         in2="result3"
         in="SourceGraphic"
         operator="over"
         result="fbSourceGraphic" />
      <feColorMatrix
         result="fbSourceGraphicAlpha"
         in="fbSourceGraphic"
         values="0 0 0 -1 0 0 0 0 -1 0 0 0 0 -1 0 0 0 0 1 0"
         id="feColorMatrix4544-8-5" />
      <feTurbulence
         id="feTurbulence4546-8-6"
         type="fractalNoise"
         numOctaves="3"
         seed="37"
         baseFrequency="0.129 0.0050000000000000001"
         result="turbulence" />
      <feDisplacementMap
         id="feDisplacementMap4548-4-2"
         in2="turbulence"
         in="fbSourceGraphic"
         scale="6.6"
         yChannelSelector="G"
         xChannelSelector="R"
         result="fbSourceGraphic" />
      <feColorMatrix
         result="fbSourceGraphicAlpha"
         in="fbSourceGraphic"
         values="0 0 0 -1 0 0 0 0 -1 0 0 0 0 -1 0 0 0 0 1 0"
         id="feColorMatrix4670-3-9" />
      <feFlood
         id="feFlood4672-1-1"
         flood-opacity="1"
         flood-color="rgb(17,52,65)"
         result="flood"
         in="fbSourceGraphic" />
      <feComposite
         id="feComposite4674-4-2"
         in2="fbSourceGraphic"
         in="flood"
         operator="in"
         result="composite1" />
      <feGaussianBlur
         id="feGaussianBlur4676-92-7"
         in="composite1"
         stdDeviation="0"
         result="blur" />
      <feOffset
         id="feOffset4678-0-0"
         dx="6"
         dy="6"
         result="offset" />
      <feComposite
         id="feComposite4680-68-9"
         in2="offset"
         in="fbSourceGraphic"
         operator="over"
         result="composite2" />
    </filter>
  </defs>
  <sodipodi:namedview
     pagecolor="#ffffff"
     bordercolor="#666666"
     borderopacity="1"
     objecttolerance="10"
     gridtolerance="10"
     guidetolerance="10"
     inkscape:pageopacity="0"
     inkscape:pageshadow="2"
     inkscape:window-width="1366"
     inkscape:window-height="713"
     id="namedview4"
     showgrid="false"
     inkscape:zoom="0.40000001"
     inkscape:cx="1097.1718"
     inkscape:cy="1572.4614"
     inkscape:window-x="0"
     inkscape:window-y="27"
     inkscape:window-maximized="1"
     inkscape:current-layer="layer1"
     inkscape:snap-global="false" />
  <g
     inkscape:groupmode="layer"
     id="layer2"
     inkscape:label="artwork"
     sodipodi:insensitive="true">
    <image
       sodipodi:absref="/home/juanjo/Comics/Pepper and Carrot/lang-ep-32-final/es/../gfx_Pepper-and-Carrot_by-David-Revoy_E32P04.png"
       xlink:href="../gfx_Pepper-and-Carrot_by-David-Revoy_E32P04.png"
       y="0"
       x="0"
       id="image10"
       height="3503"
       width="2481" />
  </g>
  <g
     inkscape:groupmode="layer"
     id="layer3"
     inkscape:label="speechbubbles"
     style="display:inline">
    <path
       style="display:inline;fill:#ffffff;fill-rule:evenodd;stroke:none;stroke-width:1.08443344px;stroke-linecap:butt;stroke-linejoin:miter;stroke-opacity:1"
       d="m 738.22855,1001.5945 c -1.79333,10.8211 -3.58665,21.6422 -5.37997,32.4633 -10.09132,8.7447 -24.46328,9.7443 -35.57165,3.0389 2.75687,11.7059 5.51371,23.4119 8.27057,35.1179 -2.44146,2.6036 -6.10458,3.5629 -9.25537,2.3429 1.73131,6.6435 3.46263,13.2868 5.19395,19.9303 -4.30321,4.248 -10.12543,6.3839 -15.74235,5.6129 3.10345,11.8167 6.48755,23.6295 7.87117,35.9287 -2.51675,9.581 -6.48093,18.5138 -10.25842,27.4786 12.63996,2.803 25.41353,5.0781 37.73822,9.492 9.06048,8.4652 14.65326,21.8841 14.37091,35.447 10.45355,-5.4515 20.90712,-10.9031 31.36068,-16.3548 5.0259,1.1302 7.7638,8.8529 4.94774,13.8041 11.89861,-6.8724 23.73321,-13.893 35.57893,-20.8875 3.83484,2.3576 6.77462,6.6255 7.85477,11.5207 6.95693,-1.6131 13.81412,-3.7402 20.67368,-5.8293 1.29781,2.4675 1.90973,5.3215 2.26141,8.1593 9.90133,1.0275 20.15705,1.0078 29.4877,5.5089 3.74943,3.2523 6.3239,7.8991 8.77391,12.4459 9.62294,-12.2483 19.22744,-25.309 32.23514,-32.8014 7.50914,-4.1913 15.58742,-8.5702 24.13134,-7.6088 4.77312,1.4811 9.54572,2.9885 14.39747,4.0869 7.2212,-4.6447 15.86794,-7.5351 24.06033,-5.0166 0.88175,1.5134 2.86201,-0.8419 1.61861,-1.9173 -1.58008,-6.115 -4.11472,-11.8554 -5.40283,-18.0789 3.58713,-8.2482 7.77914,-16.5682 8.41646,-25.9869 -1.97152,-7.0026 -5.56294,-13.1759 -7.91227,-19.9937 -0.50502,-1.1641 -1.47385,-2.6514 -0.34056,-3.736 2.10713,-3.4709 5.11501,-6.1581 8.48628,-7.7681 -4.98818,-7.1983 -13.72943,-9.7596 -17.62807,-18.1415 -3.57283,-6.7853 -5.70513,-15.2979 -3.52344,-23.1135 7.16902,-12.706 16.41361,-23.5659 24.06034,-35.8566 -10.52233,7.109 -20.9951,14.3165 -31.4774,21.505 -2.769,-1.5601 -4.81058,-4.6628 -5.50762,-8.1338 -3.74781,0.7596 -7.43033,1.8852 -11.11739,2.9623 -0.51976,-3.3036 -0.11184,-6.6825 -0.49242,-10.0013 -2.05109,-0.4436 -4.15936,-0.438 -6.19333,-1.0015 -0.57278,-9.5411 0.74465,-19.0348 1.77994,-28.46977 -8.10522,8.74857 -16.21043,17.49717 -24.31565,26.24577 -3.75698,-1.2098 -7.06909,-4.182 -9.01464,-8.1147 -13.62245,1.2063 -27.50482,0.6142 -40.81483,4.7343 -7.57367,-0.6157 -13.43221,-6.8597 -20.03174,-10.4809 -2.24624,-1.583 -4.98473,-4.018 -7.68399,-2.2991 -8.63206,3.7808 -15.69565,11.9769 -25.0937,13.4059 -5.4767,1.0073 -11.11578,0.668 -16.50103,-0.8403 -5.99889,2.6706 -10.02016,9.3739 -16.30221,11.3786 -8.22464,-1.0171 -14.82715,-8.4312 -18.25542,-16.8195 -2.9561,-5.9985 -5.9022,-12.0038 -8.92528,-17.95693 -0.276,1.53283 -0.55198,3.06563 -0.82797,4.59853 z"
       id="path4508-2"
       inkscape:connector-curvature="0"
       sodipodi:nodetypes="cccccccccccccccccccccccccccc" />
    <path
       style="display:inline;opacity:1;fill:#ffffff;fill-rule:evenodd;stroke:none;stroke-width:1px;stroke-linecap:butt;stroke-linejoin:miter;stroke-opacity:1"
       d="m 1232.4018,1041.2127 c -50.2716,5.6942 -99.4961,17.7102 -149.0566,27.4906 -16.2443,3.0274 -32.4856,6.4771 -49.0334,7.3138 -27.8674,1.7997 -55.81752,0.5765 -83.70319,1.8779 -31.70373,1.116 -63.45592,2.4021 -94.96073,6.3059 -12.00129,1.5369 -23.8923,4.0749 -35.32968,8.0574 -14.69956,4.8219 -28.95873,11.1539 -44.13898,14.3919 -8.25968,1.6756 -16.87794,1.7222 -25.07509,-0.3374 -10.7596,-2.4958 -20.93572,-6.8981 -31.28412,-10.666 -13.71759,-5.23 -27.87124,-9.9766 -42.63207,-10.8825 -17.52114,-1.6165 -35.20254,-2.0954 -52.74398,-0.5311 -14.1515,1.5758 -28.28924,6.1786 -39.51262,15.1684 -12.84906,9.8693 -22.82322,24.1414 -25.65265,40.2688 -1.27746,9.6884 1.31912,19.7672 6.8849,27.7728 0.67219,-10.5849 -2.17144,-21.4525 1.0625,-31.8106 4.3372,-15.0701 16.29647,-27.1362 30.36748,-33.5682 11.89389,-5.571 25.40408,-6.3815 38.3065,-5.114 19.64653,0.787 39.52891,0.029 58.88579,4.0577 18.62559,4.5312 35.23728,14.582 53.3582,20.5503 10.41976,3.2102 21.70042,4.3166 32.36695,1.64 19.04553,-4.0346 36.58663,-12.9001 55.30192,-18.0596 12.43504,-3.5706 25.3649,-5.5175 38.31511,-5.3097 37.76726,-1.0812 75.53995,-2.1833 113.32462,-2.3508 32.59244,0.08 65.21724,1.5823 97.78584,-0.2844 34.3956,-1.6839 68.688,-6.4713 103.1848,-5.2917 8.1876,0.3248 16.7783,0.3919 24.2138,4.3017 5.7439,2.8127 10.051,8.1503 11.8047,14.2786 1.4492,4.1969 1.4605,8.6884 2.352,12.9932 0.6018,2.1839 3.7128,2.0534 5.1858,0.8257 1.3359,-0.8313 1.5858,-2.4429 1.5437,-3.865 4.0897,-23.3572 8.874,-46.6096 11.8375,-70.1495 -0.345,-4.8848 -5.0077,-8.1954 -9.5346,-8.8976 -1.1287,-0.2017 -2.2808,-0.247 -3.4244,-0.1766 z"
       id="path4316-3"
       inkscape:connector-curvature="0"
       sodipodi:nodetypes="ccsccscccccccccccccccccccccccc" />
    <path
       style="display:inline;fill:#ffffff;stroke:none;stroke-width:0.99300945"
       d="m 1219.473,963.89209 c -48.9319,0.59735 -98.453,6.73892 -144.1132,24.15505 -26.365,10.6015 -50.7158,27.64596 -65.5734,51.26266 -13.22214,23.3455 -15.49174,51.3265 -9.5399,76.9652 9.403,35.3761 41.1066,64.0235 78.3821,72.1804 31.6514,8.4665 64.6231,10.3836 97.0971,14.3197 69.6934,6.4896 139.685,0.6786 209.4444,-1.4083 27.3003,-1.0004 54.6984,-2.0549 81.7138,-6.1505 32.9451,-6.0575 64.7579,-20.8029 87.68,-44.4258 12.7495,-13.4049 21.4791,-30.6167 22.6727,-48.7902 2.4767,-22.3348 -0.8181,-45.9229 -13.0488,-65.4468 -12.4421,-18.9543 -32.4337,-32.327 -53.7854,-40.97465 -32.3199,-13.93963 -67.3739,-21.06533 -102.4077,-25.46691 -51.7686,-5.86794 -103.9968,-4.45639 -156.0062,-6.02897 -10.8375,-0.16748 -21.6767,-0.20944 -32.5155,-0.19088 z"
       id="path3280-8-2-3"
       inkscape:connector-curvature="0"
       sodipodi:nodetypes="csssc" />
    <path
       style="display:inline;fill:#ffffff;fill-rule:evenodd;stroke:none;stroke-width:1px;stroke-linecap:butt;stroke-linejoin:miter;stroke-opacity:1"
       d="m 1891.3766,2207.5293 c 4.401,9.7034 -4.7621,22.199 -15.1321,20.761 -9.2497,0.1495 -17.2014,-5.5472 -24.1917,-11.085 -2.1741,-1.4556 -4.3959,-2.837 -6.6654,-4.133 -2.8354,7.4007 -3.13,16.2749 -9.0338,22.1015 -8.2119,8.4241 -20.9041,11.5245 -32.1252,8.7735 -2.7312,1.4957 -1.6607,5.8433 0.8205,7.0273 2.1563,3.9092 -1.448,8.6017 -5.3625,9.2457 -9.0434,4.1681 -19.4023,2.7482 -28.6278,6.266 9.3133,4.5102 19.4418,6.863 28.8993,11.0078 1.2246,6.32 -3.4821,12.2449 -8.9169,14.6602 2.1993,2.8626 5.3588,4.732 7.8758,7.2771 0.6885,0.7656 2.3845,1.493 2.1456,2.5756 -5.205,9.3853 -15.3068,15.3269 -25.6968,16.4578 10.3934,5.4628 23.2318,4.6995 32.7002,12.2129 4.5301,4.3891 4.3046,11.3683 3.5408,17.1955 -0.4128,4.1564 -0.9123,8.3069 -1.1313,12.4803 2.9779,-0.7709 4.491,-3.9702 7.3464,-5.0288 7.2333,-4.8687 16.3319,-8.3394 25.014,-5.9523 4.7388,1.8296 8.3502,5.6907 12.4334,8.5073 12.38,0.9628 25.3018,-0.068 37.0199,4.8859 4.8252,3.3619 8.4087,8.3792 10.5021,13.9063 10.4957,-3.7874 20.5331,-10.2761 32.0215,-10.0543 10.1987,1.1633 20.9974,3.5294 30.8797,-0.5424 11.4867,-4.2294 23.7289,-8.6601 36.1103,-6.3872 10.3264,1.795 20.3617,4.933 30.5914,7.1831 8.4305,-3.499 14.8896,-11.5049 24.3239,-12.4785 9.6014,-1.1197 19.419,1.4068 27.707,6.3652 -4.4291,-9.9039 0.7391,-23.4105 11.2227,-26.5868 5.1023,-1.9874 10.5158,-2.9228 15.708,-4.6163 -3.8859,-4.3204 -10.11,-6.2968 -12.6565,-11.8613 -0.4454,-6.3288 5.5702,-11.0727 4.8227,-17.4434 -2.2057,-4.0033 -7.6007,-5.5539 -8.5622,-10.3691 1.5921,-8.844 8.766,-15.1112 15.8131,-19.7566 1.3928,-0.9285 2.965,-1.5881 4.2095,-2.7376 -3.2745,-2.9536 -7.9453,-2.7414 -11.8935,-4.1065 -5.2209,-1.1528 -11.1645,-2.292 -14.6225,-6.8512 -2.3451,-4.6891 -1.938,-10.5032 0.5321,-15.054 -4.6454,-3.3547 -10.4845,-1.0714 -15.689,-1.5069 -8.9724,0.2878 -18.7567,0.5666 -26.5682,-4.6559 -6.2337,-5.9255 -7.8228,-14.9001 -9.6822,-22.977 0.09,-1.1529 -1.3252,-2.4391 -2.1636,-1.1919 -9.9097,6.3366 -19.9497,13.7338 -31.9219,15.0544 -11.3099,0.173 -21.7193,-7.4183 -26.8982,-17.3829 -2.392,-2.2142 -5.6703,0.052 -7.3631,2.0777 -8.5809,6.6815 -17.7039,13.9851 -28.8249,15.1545 -12.3862,0.356 -23.6572,-5.7717 -34.4446,-11.2076 -4.7599,-2.5401 -9.5022,-5.1144 -14.2576,-7.6632 0.064,0.151 0.1278,0.3021 0.1916,0.4531 z"
       id="path4582"
       inkscape:connector-curvature="0"
       sodipodi:nodetypes="ccccccccccccccccccccccccccccccccccccccccccccccc" />
    <path
       style="display:inline;fill:#ffffff;fill-rule:evenodd;stroke:none;stroke-width:1px;stroke-linecap:butt;stroke-linejoin:miter;stroke-opacity:1"
       d="m 1982.1328,2325.6113 c -12.8691,7.4955 -25.7383,14.9909 -38.6074,22.4864 0.7954,19.5281 2.2328,39.6275 -3.7131,58.5597 -1.442,4.7665 -2.884,9.5331 -4.326,14.2996 -1.6554,-3.8605 -5.4614,-7.4211 -9.9258,-6.9336 -6.7867,4.7357 -9.0295,13.3509 -9.9231,21.1392 -2.0838,11.9256 -2.8847,24.0205 -3.8503,36.0737 3.8713,-15.6614 7.4521,-31.5035 13.7676,-46.4082 3.8906,4.0568 6.8647,9.3231 12.1582,11.7598 6.004,-2.9668 8.1205,-9.8641 10.0033,-15.7846 11.8101,-31.5596 23.2778,-63.2456 34.8385,-94.8971 0,-0.1943 -0.2322,-0.3937 -0.4219,-0.2949 z"
       id="path891"
       inkscape:connector-curvature="0"
       inkscape:transform-center-x="1.787008"
       inkscape:transform-center-y="33.226638"
       sodipodi:nodetypes="ccccccccc" />
  </g>
  <g
     inkscape:groupmode="layer"
     id="layer1"
     inkscape:label="txt"
     style="display:inline">
    <path
       style="fill:#ffffff;fill-opacity:1;fill-rule:evenodd;stroke:none;stroke-width:0.94053411px;stroke-linecap:butt;stroke-linejoin:miter;stroke-opacity:1"
       d="m 174.7126,2258.8349 c -3.36938,-3.7999 -6.72222,-7.6105 -10.1665,-11.3632 1.9231,4.2807 3.8462,8.5612 5.76931,12.8419 -2.93013,-2.0125 -5.86025,-4.025 -8.79038,-6.0374 1.01404,12.553 -5.7888,24.3449 -13.3982,34.7741 -3.4858,9.0104 -6.97159,18.0207 -10.45738,27.0311 -3.12967,1.2779 -6.72486,1.7473 -10.16651,1.2953 2.54229,2.9718 5.0846,5.9436 7.62689,8.9155 -2.5679,1.4869 -5.7703,2.1881 -8.87663,1.9194 2.28619,3.2298 4.57238,6.4596 6.85857,9.6894 -6.82247,-0.5568 -13.64494,-1.1136 -20.46741,-1.6704 8.8166,7.0652 18.97471,14.0443 22.64595,24.2083 3.65058,21.5288 8.96562,42.8245 14.35708,64.0846 -5.97815,11.7455 -13.5916,22.8278 -20.93281,33.9953 10.6981,-5.8988 21.3962,-11.7977 32.0943,-17.6966 -0.47309,3.47 -1.92474,6.8412 -4.20261,9.7651 4.51622,-1.2651 9.03244,-2.53 13.54866,-3.7951 -0.84571,8.2229 -4.41757,16.1355 -9.58677,23.1184 7.89866,-4.7664 13.22859,-11.8164 20.73421,-16.9514 33.47877,15.7845 70.3731,27.1979 108.78035,30.2721 33.60494,3.4669 68.34086,3.1217 100.99251,-5.0356 17.59853,-5.685 33.07357,-15.2689 46.27546,-26.446 8.60401,0.3381 15.14189,5.7713 23.10878,7.8278 1.88885,0.6924 4.50218,2.1184 6.0733,2.1236 -6.34186,-6.2346 -12.68373,-12.4692 -19.0256,-18.7038 4.01208,-2.9781 8.05705,-5.9649 12.61585,-8.3504 3.30659,1.569 6.61318,3.1378 9.91977,4.7067 -8.26104,-13.5711 -6.88319,-29.9038 -0.6319,-43.8327 1.98864,-7.2547 3.97727,-14.5094 5.96591,-21.7641 5.35489,-2.6462 10.94763,-4.9282 16.51756,-7.2334 -5.41024,-0.813 -10.82047,-1.6262 -16.23071,-2.4393 4.06064,-3.7451 9.78797,-6.0954 15.74123,-6.7791 -4.54229,-1.2493 -9.08459,-2.4986 -13.62688,-3.7479 -0.55819,-23.1856 -10.84015,-45.1429 -21.77177,-66.1071 -3.43389,-6.582 -8.6523,-13.4657 -6.70591,-20.9612 3.82699,-9.083 14.98948,-13.9309 20.14267,-22.3445 -12.82674,3.7666 -24.96091,8.9433 -37.35409,13.5752 -1.51491,-3.2405 -1.30439,-7.0058 0.53962,-10.1216 -20.26126,2.0974 -40.05875,-3.2804 -59.50904,-7.2147 -54.94053,-8.2693 -112.02614,-6.0978 -165.90086,6.1094 -7.60322,1.4566 -16.74149,1.9474 -22.8866,-2.8467 -2.91303,-2.0945 -5.17957,-4.7918 -6.67458,-7.7493 -1.49089,2.7982 -0.59866,5.9191 0.13239,8.7759 -7.12702,-7.1279 -11.74538,-15.6847 -18.15647,-23.2309 5.02641,12.4644 10.05283,24.9289 15.07924,37.3933 z"
       id="path4212-3"
       inkscape:connector-curvature="0"
       sodipodi:nodetypes="ccccccccccccccccccccccscccccccccccccccccccccccccccc" />
    <path
       style="display:inline;fill:#ffffff;fill-rule:evenodd;stroke:none;stroke-width:1px;stroke-linecap:butt;stroke-linejoin:miter;stroke-opacity:1"
       d="m 310.70312,2453.291 c -8.21398,3.1565 -12.9353,11.3236 -16.15302,19.0514 -5.6045,14.1172 -7.86723,29.361 -8.43367,44.4712 -0.18011,11.5779 2.49004,23.9731 10.804,32.5225 8.55381,9.0353 21.00841,13.3258 33.20607,14.111 26.62301,3.0258 53.74718,6.7941 78.25045,18.258 2.11816,1.0078 4.24122,2.0052 6.36914,2.9922 -25.92997,-17.4348 -55.94738,-27.1336 -85.46519,-36.5491 -9.15309,-1.9188 -16.58306,-10.2666 -16.96924,-19.6885 -0.54779,-8.5768 2.64096,-16.755 4.47368,-25.0023 3.19319,-12.494 6.66713,-25.528 4.31784,-38.4807 -1.16255,-5.1466 -4.54264,-11.2602 -10.40006,-11.6857 z"
       id="path4186-80"
       inkscape:connector-curvature="0"
       sodipodi:nodetypes="cscssc" />
    <text
       xml:space="preserve"
       style="font-style:normal;font-variant:normal;font-weight:normal;font-stretch:normal;line-height:0%;font-family:Lavi;-inkscape-font-specification:Lavi;text-align:center;letter-spacing:0px;word-spacing:0px;text-anchor:middle;display:inline;fill:#000000;fill-opacity:1;stroke:none"
       x="829.83612"
       y="1086.9447"
       id="text4246-7-6-1-7-6-6"><tspan
         sodipodi:role="line"
         style="font-size:45px;line-height:1.25"
         x="836.86737"
         y="1086.9447"
         id="tspan846">¡No me lo </tspan><tspan
         sodipodi:role="line"
         style="font-size:45px;line-height:1.25"
         x="829.83612"
         y="1143.1947"
         id="tspan877">puedo creer!</tspan></text>
    <text
       xml:space="preserve"
       style="font-style:normal;font-variant:normal;font-weight:normal;font-stretch:normal;line-height:0%;font-family:Lavi;-inkscape-font-specification:Lavi;text-align:center;letter-spacing:0px;word-spacing:0px;text-anchor:middle;display:inline;fill:#000000;fill-opacity:1;stroke:none"
       x="1289.5938"
       y="1037.46"
       id="text4246-7-6-1-7-6-6-6"><tspan
         sodipodi:role="line"
         style="font-size:45px;line-height:1.25"
         x="1289.5938"
         y="1037.46"
         id="tspan873">Tantos años de estudio</tspan><tspan
         sodipodi:role="line"
         style="font-size:45px;line-height:1.25"
         x="1289.5938"
         y="1093.71"
         id="tspan79">y nadie me toma en serio</tspan><tspan
         sodipodi:role="line"
         style="font-size:45px;line-height:1.25"
         x="1289.5938"
         y="1149.96"
         id="tspan905">bajo el pretexto de que...</tspan></text>
    <text
       xml:space="preserve"
       style="font-style:normal;font-variant:normal;font-weight:normal;font-stretch:normal;font-size:13.49506664px;line-height:0%;font-family:Lavi;-inkscape-font-specification:Lavi;text-align:center;letter-spacing:0px;word-spacing:0px;text-anchor:middle;fill:#000000;fill-opacity:1;stroke:none;stroke-width:0.99999994"
       x="303.43878"
       y="2307.4636"
       id="text4246-1-3-1"
       transform="scale(0.99789912,1.0021053)"><tspan
         sodipodi:role="line"
         style="font-style:normal;font-variant:normal;font-weight:normal;font-stretch:normal;font-size:45px;line-height:1.25;font-family:Lavi;-inkscape-font-specification:Lavi;stroke-width:0.99999994"
         x="303.43878"
         y="2307.4636"
         id="tspan902">...¡que no</tspan><tspan
         sodipodi:role="line"
         style="font-style:normal;font-variant:normal;font-weight:normal;font-stretch:normal;font-size:45px;line-height:1.25;font-family:Lavi;-inkscape-font-specification:Lavi;stroke-width:0.99999994"
         x="303.43878"
         y="2363.7136"
         id="tspan89">tengo suficiente</tspan><tspan
         sodipodi:role="line"
         style="font-style:normal;font-variant:normal;font-weight:normal;font-stretch:normal;font-size:45px;line-height:1.25;font-family:Lavi;-inkscape-font-specification:Lavi;stroke-width:0.99999994"
         x="303.43878"
         y="2419.9636"
         id="tspan918">experiencia!</tspan></text>
    <text
       xml:space="preserve"
       style="font-style:normal;font-variant:normal;font-weight:normal;font-stretch:normal;line-height:0%;font-family:Lavi;-inkscape-font-specification:Lavi;letter-spacing:0px;word-spacing:0px;opacity:0.85700001;fill:#ffffff;fill-opacity:1;stroke:#98b9ca;stroke-width:0.95450699;stroke-miterlimit:4;stroke-dasharray:none;stroke-opacity:1;filter:url(#filter4375-4-1-1-1-9-5-8-4)"
       x="787.65729"
       y="1584.5073"
       id="text4580-6-0-9"
       transform="matrix(0.45385441,-0.55441241,0.42180805,1.1015917,506.31624,1607.76)"><tspan
         sodipodi:role="line"
         id="tspan4582-1-1-26"
         x="787.65729"
         y="1584.5073"
         style="font-size:70px;line-height:1.25;fill:#ffffff;fill-opacity:1;stroke:#98b9ca;stroke-width:0.95450699;stroke-opacity:1"><tspan
           style="font-size:93.14950562px;fill:#ffffff;fill-opacity:1;stroke:#98b9ca;stroke-width:0.95450699;stroke-opacity:1"
           id="tspan4315-8-64"><tspan
   style="font-size:113.6233139px"
   id="tspan99">¡</tspan><tspan
   style="font-size:82.49363708px"
   id="tspan97">¡ </tspan>POF<tspan
   style="font-size:72.14802551px;stroke-width:0.95450699"
   id="tspan1131"> </tspan><tspan
   style="font-size:82.64876556px;stroke-width:0.95450699"
   id="tspan1133">!</tspan></tspan><tspan
           style="font-size:114.73223114px;fill:#ffffff;fill-opacity:1;stroke:#98b9ca;stroke-width:0.95450699;stroke-opacity:1"
           id="tspan4313-2-9">!</tspan></tspan></text>
    <text
       xml:space="preserve"
       style="font-style:normal;font-variant:normal;font-weight:normal;font-stretch:normal;font-size:15.67466736px;line-height:0%;font-family:Lavi;-inkscape-font-specification:Lavi;text-align:center;letter-spacing:0px;word-spacing:0px;text-anchor:middle;display:inline;fill:#000000;fill-opacity:1;stroke:#000000;stroke-width:1.79999995;stroke-miterlimit:4;stroke-dasharray:none;stroke-opacity:1"
       x="2779.0186"
       y="2023.4807"
       id="text4246-3-7-9-5-1-6-2"
       transform="matrix(0.87277154,0,-0.23842397,1.1457752,0,0)"><tspan
         sodipodi:role="line"
         style="font-size:58.77999878px;line-height:1.25;stroke:#000000;stroke-width:1.79999995;stroke-miterlimit:4;stroke-dasharray:none;stroke-opacity:1"
         x="2779.0186"
         y="2023.4807"
         id="tspan1222">¡CARROT!</tspan></text>
    <text
       xml:space="preserve"
       style="font-style:normal;font-variant:normal;font-weight:normal;font-stretch:normal;line-height:0%;font-family:Lavi;-inkscape-font-specification:Lavi;letter-spacing:0px;word-spacing:0px;display:inline;opacity:0.85700001;fill:#ffffff;fill-opacity:1;stroke:#98b9ca;stroke-width:1.4887538;stroke-miterlimit:4;stroke-dasharray:none;stroke-opacity:1;filter:url(#filter4375-4-1-1-1-9-5-8-4-3)"
       x="787.65729"
       y="1584.5073"
       id="text4580-6-0-9-3"
       transform="matrix(0.33769447,-0.30629363,0.31385009,0.60859124,1407.0816,1753.5904)"><tspan
         sodipodi:role="line"
         id="tspan4582-1-1-26-6"
         x="787.65729"
         y="1584.5073"
         style="font-size:70px;line-height:1.25;fill:#ffffff;fill-opacity:1;stroke:#98b9ca;stroke-width:1.4887538;stroke-opacity:1"><tspan
           style="font-size:93.14950562px;fill:#ffffff;fill-opacity:1;stroke:#98b9ca;stroke-width:1.4887538;stroke-opacity:1"
           id="tspan4315-8-64-0"><tspan
   style="font-size:114.10015653px"
   id="tspan103">¡</tspan><tspan
   style="font-size:82.54053875px"
   id="tspan101">¡</tspan>PAF<tspan
   style="font-size:82.64876556px;stroke-width:1.4887538"
   id="tspan1133-2">!</tspan></tspan><tspan
           style="font-size:114.73223114px;fill:#ffffff;fill-opacity:1;stroke:#98b9ca;stroke-width:1.4887538;stroke-opacity:1"
           id="tspan4313-2-9-6">!</tspan></tspan></text>
  </g>
</svg>
