<?xml version="1.0" encoding="UTF-8" standalone="no"?>
<!-- Created with Inkscape (http://www.inkscape.org/) -->

<svg
   xmlns:dc="http://purl.org/dc/elements/1.1/"
   xmlns:cc="http://creativecommons.org/ns#"
   xmlns:rdf="http://www.w3.org/1999/02/22-rdf-syntax-ns#"
   xmlns:svg="http://www.w3.org/2000/svg"
   xmlns="http://www.w3.org/2000/svg"
   xmlns:xlink="http://www.w3.org/1999/xlink"
   xmlns:sodipodi="http://sodipodi.sourceforge.net/DTD/sodipodi-0.dtd"
   xmlns:inkscape="http://www.inkscape.org/namespaces/inkscape"
   id="svg2"
   version="1.1"
   inkscape:version="0.92.2 5c3e80d, 2017-08-06"
   width="2481"
   height="3503"
   sodipodi:docname="E26P05.svg">
  <metadata
     id="metadata8">
    <rdf:RDF>
      <cc:Work
         rdf:about="">
        <dc:format>image/svg+xml</dc:format>
        <dc:type
           rdf:resource="http://purl.org/dc/dcmitype/StillImage" />
        <dc:title />
      </cc:Work>
    </rdf:RDF>
  </metadata>
  <defs
     id="defs6" />
  <sodipodi:namedview
     pagecolor="#ffffff"
     bordercolor="#666666"
     borderopacity="1"
     objecttolerance="10"
     gridtolerance="10"
     guidetolerance="10"
     inkscape:pageopacity="0"
     inkscape:pageshadow="2"
     inkscape:window-width="1680"
     inkscape:window-height="1006"
     id="namedview4"
     showgrid="false"
     inkscape:zoom="0.22637739"
     inkscape:cx="1240.5"
     inkscape:cy="1751.5"
     inkscape:window-x="0"
     inkscape:window-y="47"
     inkscape:window-maximized="0"
     inkscape:current-layer="layer1"
     inkscape:snap-global="false" />
  <g
     inkscape:groupmode="layer"
     id="layer2"
     inkscape:label="artwork"
     sodipodi:insensitive="true">
    <image
       sodipodi:absref="/Users/gand/Documents/Pepper&amp;Carrot/ep26_Books-are-great/it/../gfx_Pepper-and-Carrot_by-David-Revoy_E26P05.png"
       xlink:href="../gfx_Pepper-and-Carrot_by-David-Revoy_E26P05.png"
       width="2481"
       height="3503"
       id="image10"
       x="0"
       y="0" />
  </g>
  <g
     inkscape:groupmode="layer"
     id="layer3"
     inkscape:label="speechbubbles">
    <path
       style="color:#000000;display:inline;overflow:visible;visibility:visible;fill:#ffffff;fill-opacity:1;fill-rule:nonzero;stroke:none;stroke-width:0.92450988px;marker:none;enable-background:accumulate"
       d="m 653.60812,135.7782 c 24.93599,-26.29902 218.83689,-42.805964 281.47865,19.61939 62.64176,62.42536 16.25058,128.56377 -24.13218,147.75882 -40.38275,19.19515 -155.94507,35.07079 -206.26965,12.48855 -50.32469,-22.58226 -88.43569,-53.66009 -86.417,-111.51787 0.82392,-23.61408 10.4041,-42.04977 35.34018,-68.34889 z"
       id="path4040"
       inkscape:connector-curvature="0"
       sodipodi:nodetypes="zssssz" />
    <path
       style="color:#000000;display:inline;overflow:visible;visibility:visible;fill:#ffffff;fill-opacity:1;fill-rule:nonzero;stroke:none;stroke-width:1px;marker:none;enable-background:accumulate"
       d="m 723.30366,175.8066 c 15.6509,39.1272 126.32477,118.49941 138.62187,131.91441 12.2971,13.415 38.0092,32.4196 58.1317,35.7734 20.1226,3.3537 29.8656,-15.8488 47.3048,-18.9433 14.983,-2.6587 26.47777,2.1745 35.42117,12.2357 -14.533,-25.7121 -39.12717,-25.7121 -49.18837,-21.2404 -10.0613,4.4717 -27.948,17.8867 -44.7168,5.5896 -16.7687,-12.2971 -86.0797,-88.31561 -103.96637,-91.66931 -17.8867,-3.3538 -40.245,-29.0659 -40.245,-43.5988 0,-14.533 -41.363,-10.0613 -41.363,-10.0613 z"
       id="path4562"
       inkscape:connector-curvature="0"
       sodipodi:nodetypes="cssscssssc" />
    <path
       style="color:#000000;display:inline;overflow:visible;visibility:visible;fill:#ffffff;fill-opacity:1;fill-rule:nonzero;stroke:none;stroke-width:1px;marker:none;enable-background:accumulate"
       d="m 629.44972,1457.2356 c 5.31864,112.846 187.39235,142.8215 217.19246,120.0477 -67.73192,45.7834 -243.1513,-13.454 -259.18624,-91.6691 -22.55675,-34.7368 41.99378,-28.3786 41.99378,-28.3786 z"
       id="path4480"
       inkscape:connector-curvature="0"
       sodipodi:nodetypes="cccc" />
    <path
       style="color:#000000;display:inline;overflow:visible;visibility:visible;fill:#ffffff;fill-opacity:1;fill-rule:nonzero;stroke:none;stroke-width:0.77267522px;marker:none;enable-background:accumulate"
       d="m 1697.506,1517.4852 c 5.6292,-47.4416 52.8446,-80.5244 171.6921,-67.0728 63.6611,7.2055 136.0402,13.0874 128.5345,82.6142 -7.5057,69.5266 -111.6467,63.8009 -133.2255,64.6189 -21.5789,0.818 -133.3386,-10.7214 -151.9897,-35.1724 -11.6753,-15.3056 -15.9497,-30.2645 -15.0114,-44.9879 z"
       id="path4546-6"
       inkscape:connector-curvature="0"
       sodipodi:nodetypes="cssssc" />
    <path
       style="fill:#ffffff;fill-opacity:1;stroke:none;stroke-width:1.17011929"
       d="m 1822.1841,1642.7664 c -3.072,-33.1575 17.3038,-49.6518 35.8561,-57.4653 23.5123,-9.9025 193.1276,-20.9391 213.5953,6.8159 18.8502,25.5615 32.243,72.5563 -24.0436,95.7706 -56.2865,23.2142 -150.2248,10.4987 -166.2153,6.278 -15.9905,-4.2208 -55.9945,-15.5227 -59.1925,-51.3992 z"
       id="path3659-8"
       inkscape:connector-curvature="0"
       sodipodi:nodetypes="cssssc" />
    <path
       style="fill:#ffffff;fill-opacity:1;fill-rule:evenodd;stroke:none;stroke-width:0.57074118px;stroke-linecap:butt;stroke-linejoin:miter;stroke-opacity:1"
       d="m 2045.2157,1752.4365 c 2.8478,6.2781 -2.7067,12.8754 -6.6854,14.9282 -4.7257,4.1933 -9.9339,3.4238 -14.756,2.3824 -4.7156,-1.6167 -8.9124,2.4725 -12.725,6.7734 -5.8446,5.4542 -13.3739,6.5511 -18.6228,1.2394 -3.9397,-3.6716 -8.4641,-8.1406 -13.7451,-5.3035 -6.2088,2.7499 -13.9137,4.8375 -18.6038,-1.7964 -2.9664,-7.3562 -9.8827,-5.3756 -15.0565,-3.3626 -6.6035,2.2865 -13.6152,3.2535 -19.5505,-0.695 -3.9688,-2.3804 -9.0795,-3.9874 -10.2159,-11.0177 -1.4774,-7.7322 -2.9448,-16.9207 -8.5192,-19.9579 -3.8972,-2.4942 -9.7267,-4.4919 -9.6976,-12.3212 1.0837,-6.8382 4.2374,-13.2886 7.0808,-18.978 7.0153,-6.9042 15.2764,0.321 23.1079,-0.7647 5.1177,-0.6887 10.1757,-3.071 14.8599,-6.8213 7.3585,-4.1094 14.4416,1.0655 21.8212,-1.2502 8.5897,-1.9266 17.2829,-0.2509 25.7891,-4.696 9.5237,-3.9035 19.6465,-0.7854 26.2121,8.5566 2.7393,4.5693 6.7227,6.697 11.0541,6.5043 5.6774,0.514 8.7552,-0.3982 11.9308,7.2374 2.6334,5.4974 1.9582,3.7813 3.3976,9.6865 1.5504,5.8484 6.7819,7.8078 7.4887,14.5687 0.4858,5.574 -4.44,9.3467 -4.5644,15.0876 z"
       id="path4367-3-5"
       inkscape:connector-curvature="0"
       sodipodi:nodetypes="ccccccccccccccccccccccc" />
    <path
       style="opacity:1;fill:#ffffff;fill-rule:evenodd;stroke:none;stroke-width:1.3443836px;stroke-linecap:butt;stroke-linejoin:miter;stroke-opacity:1"
       d="m 1542.1535,1496.6176 c 57.2733,-8.6915 60.9764,19.7045 77.6569,27.317 17.2205,7.8588 50.5803,-25.7702 66.8815,-19.2081 16.3015,6.562 20.9961,40.3754 46.6514,50.2361 25.6551,9.861 44.0985,-16.5088 14.0519,-27.3374 -30.0465,-10.8286 -24.8419,-34.9697 -49.8325,-40.9228 -41.6779,-9.928 -54.8951,20.1792 -69.9481,24.4763 -9.9661,2.8447 -19.8986,-16.3184 -38.035,-21.5527 -18.1365,-5.2344 -47.4261,6.9916 -47.4261,6.9916 z"
       id="path4272"
       inkscape:connector-curvature="0"
       sodipodi:nodetypes="csssssssc" />
    <path
       style="color:#000000;display:inline;overflow:visible;visibility:visible;fill:#ffffff;fill-opacity:1;fill-rule:nonzero;stroke:none;stroke-width:0.82009757px;marker:none;enable-background:accumulate"
       d="m 1142.4856,2864.1872 c -11.6468,-10.5306 -29.7748,-23.9453 23.708,-26.9445 -66.889,-25.4199 -53.5528,-66.5215 -17.3827,-77.5114 -55.1347,-2.4623 -60.018,-5.9422 13.2506,-86.1248 -85.2431,76.5575 -92.9723,77.6987 -97.8123,39.8671 -14.6476,22.2479 -42.9096,20.2317 -38.0902,-13.2081 -16.7142,26.9328 -61.15462,44.4068 -63.03601,3.5626 -20.87583,32.1468 -40.64507,30.134 -61.18688,23.193 4.26855,24.5984 3.06513,52.2255 2.20375,90.2578 -1.06945,22.4558 1.16284,27.1694 5.45989,42.6743 -3.48967,24.576 2.60062,25.021 5.3607,43.2742 36.13143,-21.8896 36.15537,-19.3678 36.78079,8.5148 66.05216,-49.2416 53.10916,-10.5176 68.00046,-3.5241 24.7362,-37.6615 49.5345,-14.6169 75.1973,-9.0224 11.4565,-43.0546 27.8498,-39.8265 47.5466,-35.0085 z"
       id="path3549-3-78"
       inkscape:connector-curvature="0"
       sodipodi:nodetypes="ccccccccccccccc" />
    <path
       style="fill:#ffffff;fill-rule:evenodd;stroke:none;stroke-width:1.13942826px;stroke-linecap:butt;stroke-linejoin:miter;stroke-opacity:1"
       d="m 1070.4314,2830.0957 c -27.4547,59.5841 -59.0694,67.5264 -95.81266,11.7969 -9.7776,18.9638 -0.91279,72.9945 -62.71442,-5.8985 6.6343,35.9292 -2.9074,46.3002 -19.40432,45.6814 v 210.3491 c 16.05537,-5.021 28.38838,-0.9441 33.34086,21.1844 34.74206,-24.3217 58.66519,-25.9635 60.97336,17.6953 32.71888,-50.0516 46.27008,-29.7987 60.97138,-13.7629 49.431,-48.3175 69.8826,-11.6016 97.5537,3.9322 -5.0554,-27.0789 3.263,-41.2211 62.7144,-5.8984 -11.2028,-17.1802 -28.0186,-35.416 41.8096,-37.3545 -29.8231,-13.9992 -44.3185,-33.6991 -22.6479,-66.8466 -40.7922,-22.7542 -20.1556,-41.4306 17.4207,-58.9821 -54.0943,-11.4374 -45.0779,-31.2542 -20.9049,-53.0835 -54.7124,20.744 -109.0353,15.4029 -80.3776,-23.6821 -33.623,21.5488 -57.4016,40.8165 -72.9222,-45.1307 z"
       id="path4582"
       inkscape:connector-curvature="0"
       sodipodi:nodetypes="cccccccccccccccc" />
    <path
       style="fill:#ffffff;fill-rule:evenodd;stroke:none;stroke-width:0.97864747px;stroke-linecap:butt;stroke-linejoin:miter;stroke-opacity:1"
       d="m 889.1222,3112.1477 c 26.68633,2.7051 65.76398,-10.089 44.18918,-50.8159 41.87691,28.8558 76.21162,23.8184 144.33082,-21.4911 -5.6607,63.1309 24.7852,57.2326 52.2327,45.1123 -26.342,21.244 20.9429,33.4174 46.3779,34.6108 -53.8053,45.9493 -25.5515,60.5625 -4.3504,77.8691 -52.8779,-12.8043 -40.0892,13.1396 -46.4049,27.8104 -45.3613,-33.2402 -78.3497,-25.3512 -104.4112,5.5621 -13.6306,-16.8115 -17.9091,-51.558 -68.15728,1.854 18.47745,-46.1099 -5.74243,-41.27 -44.95483,-18.5402 6.14546,-15.7057 42.67059,-39.5884 -18.85199,-37.0806 38.42816,-14.9306 46.48674,-35.1561 0,-64.8909 z"
       id="path4584"
       inkscape:connector-curvature="0"
       sodipodi:nodetypes="cccccccccccc" />
    <path
       style="fill:#ffffff;fill-opacity:1;fill-rule:evenodd;stroke:none;stroke-width:1.20378375px;stroke-linecap:butt;stroke-linejoin:miter;stroke-opacity:1"
       d="m 1981.9785,2095.4121 c -19.2854,-1.455 -30.0355,17.25 -45.387,24.1978 -15.7316,3.2493 -33.3072,-8.8053 -47.5617,2.3915 -12.8986,6.4399 -26.8865,18.4901 -22.3817,34.4797 1.2795,14.5148 -14.8588,23.199 -12.795,37.512 0.5805,14.9876 18.6095,22.9474 15.7152,38.6673 -5.0091,14.4332 -16.152,31.2861 -3.6771,45.7315 12.97,16.4632 37.4802,7.3034 52.9334,18.313 12.3785,16.4451 27.0164,35.3547 49.4912,36.3645 21.0104,1.4166 36.6951,-13.7588 57.8644,-11.3603 15.6684,-0.2743 34.4829,13.0535 49.9755,17.0684 12.9948,-0.9747 27.6659,2.8301 39.0961,-5.2936 11.0776,-10.9424 26.2494,-9.9512 33.4996,4.2911 12.1733,10.8294 30.2814,3.2684 42.9472,-2.9753 15.4606,-11.2104 29.4716,5.7337 42.8254,11.7228 18.1271,8.5166 36.6985,-19.7741 46.7081,-34.174 9.6093,-15.7777 29.1894,-8.0933 43.95,-11.1197 13.534,-5.3118 27.0938,-16.7119 31.0916,-31.2344 -2.3231,-13.1731 -3.3877,-27.7059 4.929,-39.5519 4.9172,-14.5929 -7.4971,-26.4673 -16.9313,-35.506 -11.6332,-14.3198 5.0919,-29.8117 0.2414,-45.0946 -3.9614,-20.0832 -27.086,-22.8669 -43.8798,-20.484 -15.3779,3.5888 -24.6251,-8.6408 -34.747,-17.5181 -15.2722,-14.4281 -38.7873,-18.472 -57.7946,-9.1296 -16.8225,9.3712 -31.8219,2.1835 -50.7137,4.8547 -13.7161,3.6209 -27.6384,14.2403 -41.9996,12.1074 -12.0006,-2.3973 -26.1682,14.5509 -38.7714,-1.2023 -10.1008,-12.5056 -26.5753,-4.2472 -39.8523,-0.3323 -17.6272,8.5891 -28.6247,-11.7057 -41.7426,-19.1901 -3.95,-2.2431 -8.4592,-3.6585 -13.0333,-3.5355 z"
       id="path4367"
       inkscape:connector-curvature="0"
       sodipodi:nodetypes="cccccccccccccccccccccccccccccc" />
    <path
       style="color:#000000;display:inline;overflow:visible;visibility:visible;fill:#ffffff;fill-opacity:1;fill-rule:nonzero;stroke:none;stroke-width:1.3837055px;marker:none;enable-background:accumulate"
       d="m 2170.3615,2309.0962 c -0.3713,38.0127 6.7641,58.9988 10.8638,63.5533 4.0997,4.5543 14.1043,16.9116 18.197,24.3263 3.3617,6.1716 9.6066,12.58 5.6022,19.0563 -4.0042,6.4764 -34.1758,30.3537 -35.5389,56.2139 -1.3632,25.8606 5.3064,30.7584 16.8647,34.3062 11.5583,3.5478 26.5828,8.5604 26.6542,27.601 0.071,19.0406 -9.8738,34.7396 -15.8025,39.9571 -5.9287,5.2176 -38.3186,24.4352 -54.9686,48.0709 -8.8964,12.629 -3.6957,116.332 -77.1531,147.1353 96.1421,-38.7249 86.06,-126.0636 93.2119,-138.7724 6.2517,-11.109 19.0349,-23.9504 28.6904,-28.7662 12.35,-6.1599 23.5652,-12.3444 30.546,-25.4347 6.9807,-13.0901 15.9013,-23.3083 13.774,-42.6236 -2.1271,-19.3153 -5.4443,-39.4224 -23.4332,-41.8264 -11.5582,-3.5478 -18.351,-12.9635 -18.0761,-18.9365 0.2753,-5.9731 12.8845,-27.1311 24.7298,-33.5613 11.8453,-6.4303 16.5638,-17.6507 16.086,-29.7343 -0.4779,-12.0835 -10.5747,-31.5425 -12.3436,-41.7953 -1.7687,-10.2527 -15.6194,-65.4734 -15.6194,-65.4734 z"
       id="path5058"
       inkscape:connector-curvature="0"
       sodipodi:nodetypes="cscsssssscssssccscccc" />
  </g>
  <g
     inkscape:groupmode="layer"
     id="layer1"
     inkscape:label="txt">
    <text
       xml:space="preserve"
       style="color:#000000;font-style:normal;font-variant:normal;font-weight:normal;font-stretch:normal;font-size:14.56374168px;line-height:0.01%;font-family:Arial;-inkscape-font-specification:Arial;letter-spacing:1.17453516px;word-spacing:0px;display:inline;overflow:visible;visibility:visible;fill:#e69d76;fill-opacity:1;fill-rule:nonzero;stroke:#e99f77;stroke-width:2;stroke-miterlimit:4;stroke-dasharray:none;stroke-opacity:1;marker:none;enable-background:accumulate"
       x="-789.3432"
       y="134.55949"
       id="text1711-2"
       transform="matrix(-0.05075958,-0.85891373,1.1934833,0.49447225,0,0)"><tspan
         sodipodi:role="line"
         x="-787.76733"
         y="134.55949"
         id="tspan1709-8"
         style="font-style:normal;font-variant:normal;font-weight:bold;font-stretch:normal;font-family:Lavi;-inkscape-font-specification:'Lavi Bold';letter-spacing:3.15169597px;word-spacing:0px;fill:#ffffff;fill-opacity:1;stroke:#ffffff;stroke-width:2;stroke-miterlimit:4;stroke-dasharray:none;stroke-opacity:1"><tspan
           x="-789.3432"
           y="134.55949"
           style="color:#000000;font-style:normal;font-variant:normal;font-weight:bold;font-stretch:normal;font-size:77.6733017px;line-height:1.25;font-family:Lavi;-inkscape-font-specification:'Lavi Bold';text-align:center;letter-spacing:3.15169597px;word-spacing:0px;text-anchor:middle;display:inline;overflow:visible;visibility:visible;fill:#ffffff;fill-opacity:1;fill-rule:nonzero;stroke:#ffffff;stroke-width:2;stroke-miterlimit:4;stroke-dasharray:none;stroke-opacity:1;marker:none;enable-background:accumulate"
           id="tspan1707-9">Sssbammm!</tspan></tspan></text>
    <text
       xml:space="preserve"
       style="font-style:normal;font-variant:normal;font-weight:normal;font-stretch:normal;line-height:0%;font-family:Lavi;-inkscape-font-specification:Lavi;text-align:center;letter-spacing:0px;word-spacing:0px;text-anchor:middle;fill:#000000;fill-opacity:1;stroke:none"
       x="794.22394"
       y="136.39999"
       id="text4246-5-3"><tspan
         sodipodi:role="line"
         style="font-size:45px;line-height:1.25"
         x="794.22394"
         y="139.8878"
         id="tspan890" /><tspan
         sodipodi:role="line"
         style="font-size:45px;line-height:1.25"
         x="794.22394"
         y="177.60426"
         id="tspan843">Aha!</tspan><tspan
         sodipodi:role="line"
         style="font-size:45px;line-height:1.25"
         x="794.22394"
         y="233.85426"
         id="tspan847">Finalmente ecco</tspan><tspan
         sodipodi:role="line"
         style="font-size:45px;line-height:1.25"
         x="794.22394"
         y="290.10425"
         id="tspan849">l'uscita!</tspan><tspan
         sodipodi:role="line"
         style="font-size:45px;line-height:1.25"
         x="794.22394"
         y="308.63779"
         id="tspan917" /></text>
    <text
       xml:space="preserve"
       style="color:#000000;font-style:normal;font-variant:normal;font-weight:normal;font-stretch:normal;font-size:10.93896103px;line-height:0.01%;font-family:Arial;-inkscape-font-specification:Arial;letter-spacing:0.88220423px;word-spacing:0px;display:inline;overflow:visible;visibility:visible;fill:#e69d76;fill-opacity:1;fill-rule:nonzero;stroke:#e99f77;stroke-width:2;stroke-miterlimit:4;stroke-dasharray:none;stroke-opacity:1;marker:none;enable-background:accumulate"
       x="224.66396"
       y="1548.6953"
       id="text1711-2-3"
       transform="matrix(-0.02665862,-0.84533119,1.1912388,0.26225273,0,0)"><tspan
         sodipodi:role="line"
         x="225.8476"
         y="1548.6953"
         id="tspan1709-8-6"
         style="font-style:normal;font-variant:normal;font-weight:bold;font-stretch:normal;font-family:Lavi;-inkscape-font-specification:'Lavi Bold';letter-spacing:2.36726809px;word-spacing:0px;fill:#ffffff;fill-opacity:1;stroke:#ffffff;stroke-width:2;stroke-miterlimit:4;stroke-dasharray:none;stroke-opacity:1"><tspan
           x="224.66396"
           y="1548.6953"
           style="color:#000000;font-style:normal;font-variant:normal;font-weight:bold;font-stretch:normal;font-size:58.34113693px;line-height:1.25;font-family:Lavi;-inkscape-font-specification:'Lavi Bold';text-align:center;letter-spacing:2.36726809px;word-spacing:0px;text-anchor:middle;display:inline;overflow:visible;visibility:visible;fill:#ffffff;fill-opacity:1;fill-rule:nonzero;stroke:#ffffff;stroke-width:2;stroke-miterlimit:4;stroke-dasharray:none;stroke-opacity:1;marker:none;enable-background:accumulate"
           id="tspan1707-9-7">Wooop!</tspan></tspan></text>
    <path
       style="fill:#ffffff;fill-opacity:1;fill-rule:evenodd;stroke:none;stroke-width:0.9326129px;stroke-linecap:butt;stroke-linejoin:miter;stroke-opacity:1"
       d="m 337.8574,1202.3778 c -6.6742,-8.5996 1.61188,-19.3901 8.21833,-23.2096 7.40645,-7.1039 16.92229,-7.0471 25.81571,-6.5131 8.84698,1.3971 15.33255,-5.4459 21.07721,-12.5198 9.0924,-9.1782 22.29458,-12.3279 33.02412,-5.6348 7.97424,4.5624 17.1955,10.1714 25.93609,4.9375 10.4235,-5.2969 23.69134,-9.9318 33.75259,-1.1899 7.15722,10.1523 19.04019,5.8356 27.796,1.8292 11.24623,-4.6999 23.55466,-7.5533 35.17073,-2.9954 7.70197,2.6678 17.25376,3.9699 21.05348,14.0209 4.58625,11.0078 9.52022,24.1481 20.26112,27.4471 7.60272,2.8488 18.5393,4.575 20.45326,16.0339 -0.22279,10.2257 -4.24825,20.309 -7.90926,29.2151 -10.82405,11.5394 -27.42592,2.6654 -41.172,5.8607 -8.98795,2.0576 -17.44373,6.5807 -24.88679,13.028 -12.14017,7.5216 -26.11864,1.4049 -38.74673,6.3068 -14.89227,4.5811 -30.87408,3.9138 -44.98427,12.162 -16.0674,7.6646 -34.97082,5.1806 -49.06923,-7.1381 -6.05085,-6.1221 -13.71569,-8.4171 -21.4206,-7.2464 -10.29187,0.4132 -15.57209,2.3794 -23.17406,-8.1387 -6.09402,-7.5017 -4.4547,-5.1298 -8.514,-13.4728 -4.24387,-8.2372 -14.10059,-10.0299 -17.06344,-19.7751 -2.26948,-8.0541 5.60073,-14.584 4.38174,-23.0075 z"
       id="path4367-3"
       inkscape:connector-curvature="0"
       sodipodi:nodetypes="ccccccccccccccccccccccc" />
    <text
       xml:space="preserve"
       style="font-style:normal;font-variant:normal;font-weight:normal;font-stretch:normal;line-height:0%;font-family:Lavi;-inkscape-font-specification:Lavi;text-align:center;letter-spacing:0px;word-spacing:0px;text-anchor:middle;fill:#000000;fill-opacity:1;stroke:none"
       x="480.21338"
       y="1182.6732"
       id="text4246-5-3-7-2-0"><tspan
         sodipodi:role="line"
         style="font-size:45px;line-height:1.25"
         x="480.21338"
         y="1186.161"
         id="tspan890-5-9-9" /><tspan
         sodipodi:role="line"
         style="font-style:normal;font-variant:normal;font-weight:bold;font-stretch:normal;font-size:53.33333206px;line-height:1.25;font-family:Lavi;-inkscape-font-specification:'Lavi Bold'"
         x="480.21338"
         y="1186.161"
         id="tspan950-2-3" /><tspan
         sodipodi:role="line"
         style="font-style:normal;font-variant:normal;font-weight:bold;font-stretch:normal;font-size:53.33333206px;line-height:1.25;font-family:Lavi;-inkscape-font-specification:'Lavi Bold'"
         x="480.21338"
         y="1231.5079"
         id="tspan893">Arrgh...</tspan><tspan
         sodipodi:role="line"
         style="font-style:normal;font-variant:normal;font-weight:bold;font-stretch:normal;font-size:53.33333206px;line-height:1.25;font-family:Lavi;-inkscape-font-specification:'Lavi Bold'"
         x="480.21338"
         y="1252.8276"
         id="tspan917-6-7-6" /></text>
    <path
       style="color:#000000;display:inline;overflow:visible;visibility:visible;fill:#ffffff;fill-opacity:1;fill-rule:nonzero;stroke:none;stroke-width:1.36609268px;marker:none;enable-background:accumulate"
       d="m 358.48562,1282.9378 c 60.72953,-38.7655 330.03849,-80.662 442.68845,-5.1413 112.6499,75.5207 72.76977,180.9783 8.13445,209.8134 -64.63516,28.8352 -264.37153,39.3072 -355.86732,27.2248 -155.0722,-20.4777 -167.44966,-65.5663 -171.86324,-141.2153 -1.80135,-30.8754 16.17816,-51.9161 76.90766,-90.6816 z"
       id="path4040-3"
       inkscape:connector-curvature="0"
       sodipodi:nodetypes="zssssz" />
    <text
       xml:space="preserve"
       style="font-style:normal;font-variant:normal;font-weight:normal;font-stretch:normal;font-size:45px;line-height:0%;font-family:Lavi;-inkscape-font-specification:'Lavi, Normal';font-variant-ligatures:normal;font-variant-caps:normal;font-variant-numeric:normal;font-feature-settings:normal;text-align:center;letter-spacing:0px;word-spacing:0px;writing-mode:lr-tb;text-anchor:middle;fill:#000000;fill-opacity:1;stroke:none"
       x="584.40906"
       y="1263.9965"
       id="text4246-5-3-5"><tspan
         sodipodi:role="line"
         style="font-style:normal;font-variant:normal;font-weight:normal;font-stretch:normal;font-size:45px;line-height:1.25;font-family:Lavi;-inkscape-font-specification:'Lavi, Normal';font-variant-ligatures:normal;font-variant-caps:normal;font-variant-numeric:normal;font-feature-settings:normal;text-align:center;writing-mode:lr-tb;text-anchor:middle"
         x="584.40906"
         y="1277.0757"
         id="tspan890-6" /><tspan
         sodipodi:role="line"
         style="font-style:normal;font-variant:normal;font-weight:normal;font-stretch:normal;font-size:45px;line-height:1.25;font-family:Lavi;-inkscape-font-specification:'Lavi, Normal';font-variant-ligatures:normal;font-variant-caps:normal;font-variant-numeric:normal;font-feature-settings:normal;text-align:center;writing-mode:lr-tb;text-anchor:middle"
         x="584.40906"
         y="1305.2007"
         id="tspan899">Sono sicura che qui</tspan><tspan
         sodipodi:role="line"
         style="font-style:normal;font-variant:normal;font-weight:normal;font-stretch:normal;font-size:45px;line-height:1.25;font-family:Lavi;-inkscape-font-specification:'Lavi, Normal';font-variant-ligatures:normal;font-variant-caps:normal;font-variant-numeric:normal;font-feature-settings:normal;text-align:center;writing-mode:lr-tb;text-anchor:middle"
         x="584.40906"
         y="1361.4507"
         id="tspan913">c'è scritto qualcosa</tspan><tspan
         sodipodi:role="line"
         style="font-style:normal;font-variant:normal;font-weight:normal;font-stretch:normal;font-size:45px;line-height:1.25;font-family:Lavi;-inkscape-font-specification:'Lavi, Normal';font-variant-ligatures:normal;font-variant-caps:normal;font-variant-numeric:normal;font-feature-settings:normal;text-align:center;writing-mode:lr-tb;text-anchor:middle"
         x="584.40906"
         y="1417.7007"
         id="tspan917-2">sul come togliersi</tspan><tspan
         sodipodi:role="line"
         style="font-style:normal;font-variant:normal;font-weight:normal;font-stretch:normal;font-size:45px;line-height:1.25;font-family:Lavi;-inkscape-font-specification:'Lavi, Normal';font-variant-ligatures:normal;font-variant-caps:normal;font-variant-numeric:normal;font-feature-settings:normal;text-align:center;writing-mode:lr-tb;text-anchor:middle"
         x="584.40906"
         y="1473.9507"
         id="tspan909">questa &quot;cosa&quot; di dosso...</tspan></text>
    <text
       xml:space="preserve"
       style="font-style:normal;font-variant:normal;font-weight:normal;font-stretch:normal;font-size:9.23767757px;line-height:0%;font-family:Lavi;-inkscape-font-specification:Lavi;text-align:center;letter-spacing:0px;word-spacing:0px;text-anchor:middle;fill:#000000;fill-opacity:1;stroke:none;stroke-width:0.76980644"
       x="1847.3668"
       y="1480.8993"
       id="text4246-5-3-5-7"><tspan
         sodipodi:role="line"
         style="font-size:34.64128876px;line-height:1.25;stroke-width:0.76980644"
         x="1847.3668"
         y="1483.5842"
         id="tspan890-6-0" /><tspan
         sodipodi:role="line"
         style="font-style:normal;font-variant:normal;font-weight:normal;font-stretch:normal;font-size:34.66666794px;line-height:1.25;font-family:Lavi;-inkscape-font-specification:Lavi;stroke-width:0.76980644"
         x="1847.3668"
         y="1512.6418"
         id="tspan1038">Carrot... Puoi</tspan><tspan
         sodipodi:role="line"
         style="font-style:normal;font-variant:normal;font-weight:normal;font-stretch:normal;font-size:34.66666794px;line-height:1.25;font-family:Lavi;-inkscape-font-specification:Lavi;letter-spacing:-0.20664062px;stroke-width:0.76980644"
         x="1847.2635"
         y="1555.9752"
         id="tspan1049">leggermi...?</tspan><tspan
         sodipodi:role="line"
         style="font-style:normal;font-variant:normal;font-weight:normal;font-stretch:normal;font-size:34.66666794px;line-height:1.25;font-family:Lavi;-inkscape-font-specification:Lavi;stroke-width:0.76980644"
         x="1847.3668"
         y="1570.2509"
         id="tspan917-2-2" /></text>
    <text
       xml:space="preserve"
       style="font-style:normal;font-variant:normal;font-weight:normal;font-stretch:normal;font-size:9.49034405px;line-height:0%;font-family:Lavi;-inkscape-font-specification:Lavi;text-align:center;letter-spacing:0px;word-spacing:0px;text-anchor:middle;fill:#000000;fill-opacity:1;stroke:none;stroke-width:0.79086202"
       x="1955.5698"
       y="1604.2694"
       id="text4246-5-3-5-7-6"><tspan
         sodipodi:role="line"
         style="font-size:35.58879089px;line-height:1.25;stroke-width:0.79086202"
         x="1955.5698"
         y="1607.0278"
         id="tspan890-6-0-1" /><tspan
         sodipodi:role="line"
         style="font-style:normal;font-variant:normal;font-weight:normal;font-stretch:normal;font-size:30.66666603px;line-height:1.25;font-family:Lavi;-inkscape-font-specification:Lavi;stroke-width:0.79086202"
         x="1955.5698"
         y="1632.3494"
         id="tspan1049-7">Mmm... certo</tspan><tspan
         sodipodi:role="line"
         style="font-style:normal;font-variant:normal;font-weight:normal;font-stretch:normal;font-size:30.66666603px;line-height:1.25;font-family:Lavi;-inkscape-font-specification:Lavi;stroke-width:0.79086202"
         x="1955.5698"
         y="1670.6827"
         id="tspan1080">che non puoi...</tspan><tspan
         sodipodi:role="line"
         style="font-style:normal;font-variant:normal;font-weight:normal;font-stretch:normal;font-size:30.66666603px;line-height:1.25;font-family:Lavi;-inkscape-font-specification:Lavi;stroke-width:0.79086202"
         x="1955.5698"
         y="1683.6945"
         id="tspan917-2-2-9" /></text>
    <text
       xml:space="preserve"
       style="font-style:normal;font-variant:normal;font-weight:normal;font-stretch:normal;font-size:10.48344421px;line-height:0%;font-family:Lavi;-inkscape-font-specification:Lavi;text-align:center;letter-spacing:0px;word-spacing:0px;text-anchor:middle;fill:#000000;fill-opacity:1;stroke:none;stroke-width:0.87362039"
       x="1984.7023"
       y="1719.391"
       id="text4246-5-3-5-7-6-2"><tspan
         sodipodi:role="line"
         style="font-size:39.3129158px;line-height:1.25;stroke-width:0.87362039"
         x="1984.7023"
         y="1722.438"
         id="tspan890-6-0-1-0" /><tspan
         sodipodi:role="line"
         style="font-style:normal;font-variant:normal;font-weight:normal;font-stretch:normal;font-size:26.66666794px;line-height:1.25;font-family:Lavi;-inkscape-font-specification:Lavi;stroke-width:0.87362039"
         x="1984.7023"
         y="1743.8083"
         id="tspan1080-3">Sigh...</tspan><tspan
         sodipodi:role="line"
         style="font-style:normal;font-variant:normal;font-weight:normal;font-stretch:normal;font-size:39.3129158px;line-height:1.25;font-family:Lavi;-inkscape-font-specification:Lavi;stroke-width:0.87362039"
         x="1984.7023"
         y="1755.7714"
         id="tspan917-2-2-9-7" /></text>
    <text
       xml:space="preserve"
       style="color:#000000;font-style:normal;font-variant:normal;font-weight:normal;font-stretch:normal;font-size:13.68011093px;line-height:0.01%;font-family:Arial;-inkscape-font-specification:Arial;letter-spacing:1.1032722px;word-spacing:0px;display:inline;overflow:visible;visibility:visible;fill:#e69d76;fill-opacity:1;fill-rule:nonzero;stroke:#e99f77;stroke-width:0;stroke-miterlimit:4;stroke-dasharray:none;stroke-opacity:1;marker:none;enable-background:accumulate"
       x="2813.7102"
       y="434.09442"
       id="text1711-2-3-9"
       transform="matrix(0.8793411,0.03700556,-0.36761453,1.1217447,0,0)"><tspan
         sodipodi:role="line"
         x="2815.1904"
         y="434.09442"
         id="tspan1709-8-6-2"
         style="font-style:normal;font-variant:normal;font-weight:bold;font-stretch:normal;font-family:Lavi;-inkscape-font-specification:'Lavi Bold';letter-spacing:2.96047211px;word-spacing:0px;fill:#ffffff;fill-opacity:1;stroke:#ffffff;stroke-width:0;stroke-miterlimit:4;stroke-dasharray:none;stroke-opacity:1"><tspan
           x="2813.7102"
           y="434.09442"
           style="color:#000000;font-style:normal;font-variant:normal;font-weight:bold;font-stretch:normal;font-size:72.96060944px;line-height:1.25;font-family:Lavi;-inkscape-font-specification:'Lavi Bold';text-align:center;letter-spacing:2.96047211px;word-spacing:0px;text-anchor:middle;display:inline;overflow:visible;visibility:visible;fill:#ffffff;fill-opacity:1;fill-rule:nonzero;stroke:#ffffff;stroke-width:0;stroke-miterlimit:4;stroke-dasharray:none;stroke-opacity:1;marker:none;enable-background:accumulate"
           id="tspan1707-9-7-2">?!</tspan></tspan></text>
    <text
       xml:space="preserve"
       style="font-style:normal;font-variant:normal;font-weight:normal;font-stretch:normal;line-height:0%;font-family:Lavi;-inkscape-font-specification:Lavi;text-align:center;letter-spacing:0px;word-spacing:0px;text-anchor:middle;fill:#000000;fill-opacity:1;stroke:none"
       x="1035.7271"
       y="3121.5032"
       id="text4246-5-3-5-5"><tspan
         sodipodi:role="line"
         style="font-size:45px;line-height:1.25"
         x="1035.7271"
         y="3125.0007"
         id="tspan890-6-6" /><tspan
         sodipodi:role="line"
         style="font-style:normal;font-variant:normal;font-weight:bold;font-stretch:normal;font-size:53.33333206px;line-height:1.25;font-family:Lavi;-inkscape-font-specification:'Lavi Bold'"
         x="1035.7271"
         y="3170.3809"
         id="tspan954-2">Grrr!!!</tspan><tspan
         sodipodi:role="line"
         style="font-style:normal;font-variant:normal;font-weight:bold;font-stretch:normal;font-size:53.33333206px;line-height:1.25;font-family:Lavi;-inkscape-font-specification:'Lavi Bold'"
         x="1035.7271"
         y="3191.6672"
         id="tspan917-2-0" /></text>
    <text
       xml:space="preserve"
       style="font-style:normal;font-variant:normal;font-weight:normal;font-stretch:normal;font-size:10.72316265px;line-height:0%;font-family:Lavi;-inkscape-font-specification:Lavi;text-align:center;letter-spacing:0px;word-spacing:0px;text-anchor:middle;fill:#000000;fill-opacity:1;stroke:none;stroke-width:0.89359683"
       x="1024.2609"
       y="2766.0842"
       id="text4246-5-3-5-5-9"><tspan
         sodipodi:role="line"
         style="font-size:40.21185684px;line-height:1.25;stroke-width:0.89359683"
         x="1024.2609"
         y="2769.2009"
         id="tspan890-6-6-3" /><tspan
         sodipodi:role="line"
         style="font-style:normal;font-variant:normal;font-weight:bold;font-stretch:normal;font-size:41.70118713px;line-height:1.25;font-family:Lavi;-inkscape-font-specification:'Lavi Bold';stroke-width:0.89359683"
         x="1024.2609"
         y="2804.2678"
         id="tspan962">LO</tspan><tspan
         sodipodi:role="line"
         style="font-style:normal;font-variant:normal;font-weight:bold;font-stretch:normal;font-size:41.70118713px;line-height:1.25;font-family:Lavi;-inkscape-font-specification:'Lavi Bold';stroke-width:0.89359683"
         x="1024.2609"
         y="2856.3945"
         id="tspan966">SAPEVO!!!</tspan><tspan
         sodipodi:role="line"
         style="font-style:normal;font-variant:normal;font-weight:bold;font-stretch:normal;font-size:41.70118713px;line-height:1.25;font-family:Lavi;-inkscape-font-specification:'Lavi Bold';stroke-width:0.89359683"
         x="1024.2609"
         y="2873.4539"
         id="tspan917-2-0-0" /></text>
    <text
       xml:space="preserve"
       style="font-style:normal;font-variant:normal;font-weight:normal;font-stretch:normal;line-height:0%;font-family:Lavi;-inkscape-font-specification:Lavi;text-align:center;letter-spacing:0px;word-spacing:0px;text-anchor:middle;fill:#000000;fill-opacity:1;stroke:none"
       x="1050.8738"
       y="2912.5518"
       id="text4246-5-3-5-9"><tspan
         sodipodi:role="line"
         style="font-size:45px;line-height:1.25"
         x="1050.8738"
         y="2916.0396"
         id="tspan890-6-2" /><tspan
         sodipodi:role="line"
         style="font-style:normal;font-variant:normal;font-weight:normal;font-stretch:normal;font-size:45px;line-height:1.25;font-family:Lavi;-inkscape-font-specification:Lavi"
         x="1050.8738"
         y="2953.7561"
         id="tspan954-7">Era troppo</tspan><tspan
         sodipodi:role="line"
         style="font-style:normal;font-variant:normal;font-weight:normal;font-stretch:normal;font-size:45px;line-height:1.25;font-family:Lavi;-inkscape-font-specification:Lavi"
         x="1050.8738"
         y="3010.0061"
         id="tspan915">bello per</tspan><tspan
         sodipodi:role="line"
         style="font-style:normal;font-variant:normal;font-weight:normal;font-stretch:normal;font-size:45px;line-height:1.25;font-family:Lavi;-inkscape-font-specification:Lavi"
         x="1050.8738"
         y="3066.2561"
         id="tspan1048">essere vero!</tspan><tspan
         sodipodi:role="line"
         style="font-style:normal;font-variant:normal;font-weight:normal;font-stretch:normal;font-size:45px;line-height:1.25;font-family:Lavi;-inkscape-font-specification:Lavi"
         x="1050.8738"
         y="3084.7896"
         id="tspan917-2-9" /></text>
    <text
       xml:space="preserve"
       style="font-style:normal;font-variant:normal;font-weight:normal;font-stretch:normal;line-height:0%;font-family:Lavi;-inkscape-font-specification:Lavi;text-align:center;letter-spacing:0px;word-spacing:0px;text-anchor:middle;fill:#000000;fill-opacity:1;stroke:none"
       x="2107.0674"
       y="2142.3289"
       id="text4246-5-3-5-9-2"><tspan
         sodipodi:role="line"
         style="font-size:45px;line-height:1.25"
         x="2107.0674"
         y="2145.8167"
         id="tspan890-6-2-2" /><tspan
         sodipodi:role="line"
         style="font-style:normal;font-variant:normal;font-weight:normal;font-stretch:normal;font-size:45px;line-height:1.25;font-family:Lavi;-inkscape-font-specification:Lavi"
         x="2107.0674"
         y="2183.5332"
         id="tspan1048-7">Dopotutto forse i libri</tspan><tspan
         sodipodi:role="line"
         style="font-style:normal;font-variant:normal;font-weight:normal;font-stretch:normal;font-size:45px;line-height:1.25;font-family:Lavi;-inkscape-font-specification:Lavi"
         x="2107.0674"
         y="2239.7832"
         id="tspan924">non possono risolvere</tspan><tspan
         sodipodi:role="line"
         style="font-style:normal;font-variant:normal;font-weight:normal;font-stretch:normal;font-size:45px;line-height:1.25;font-family:Lavi;-inkscape-font-specification:Lavi"
         x="2107.0674"
         y="2296.0332"
         id="tspan1117">ogni situazione...</tspan><tspan
         sodipodi:role="line"
         style="font-style:normal;font-variant:normal;font-weight:normal;font-stretch:normal;font-size:45px;line-height:1.25;font-family:Lavi;-inkscape-font-specification:Lavi"
         x="2107.0674"
         y="2314.5667"
         id="tspan917-2-9-3" /></text>
    <text
       xml:space="preserve"
       style="color:#000000;font-style:normal;font-variant:normal;font-weight:normal;font-stretch:normal;font-size:10.93896103px;line-height:0.01%;font-family:Arial;-inkscape-font-specification:Arial;letter-spacing:0.88220423px;word-spacing:0px;display:inline;overflow:visible;visibility:visible;fill:#e69d76;fill-opacity:1;fill-rule:nonzero;stroke:#e99f77;stroke-width:2;stroke-miterlimit:4;stroke-dasharray:none;stroke-opacity:1;marker:none;enable-background:accumulate"
       x="4271.3828"
       y="2071.3848"
       id="text1711-2-3-1"
       transform="matrix(0.79338838,0.2929682,-0.69069394,1.0053697,0,0)"><tspan
         sodipodi:role="line"
         x="4272.5664"
         y="2071.3848"
         id="tspan1709-8-6-29"
         style="font-style:normal;font-variant:normal;font-weight:bold;font-stretch:normal;font-family:Lavi;-inkscape-font-specification:'Lavi Bold';letter-spacing:2.36726809px;word-spacing:0px;fill:#ffffff;fill-opacity:1;stroke:#ffffff;stroke-width:2;stroke-miterlimit:4;stroke-dasharray:none;stroke-opacity:1"><tspan
           x="4271.3828"
           y="2071.3848"
           style="color:#000000;font-style:normal;font-variant:normal;font-weight:bold;font-stretch:normal;font-size:58.34113693px;line-height:1.25;font-family:Lavi;-inkscape-font-specification:'Lavi Bold';text-align:center;letter-spacing:2.36726809px;word-spacing:0px;text-anchor:middle;display:inline;overflow:visible;visibility:visible;fill:#ffffff;fill-opacity:1;fill-rule:nonzero;stroke:#ffffff;stroke-width:2;stroke-miterlimit:4;stroke-dasharray:none;stroke-opacity:1;marker:none;enable-background:accumulate"
           id="tspan1707-9-7-3">Spaf!</tspan></tspan></text>
    <text
       xml:space="preserve"
       style="font-style:normal;font-weight:normal;font-size:32px;line-height:1000%;font-family:Sans;-inkscape-font-specification:Sans;letter-spacing:0px;word-spacing:0px;fill:#000000;fill-opacity:1;stroke:none;stroke-width:1px;stroke-linecap:butt;stroke-linejoin:miter;stroke-opacity:1"
       x="398.40311"
       y="1220.0344"
       id="text897"><tspan
         sodipodi:role="line"
         id="tspan895"
         x="398.40311"
         y="1388.3469" /></text>
  </g>
</svg>
