<?xml version="1.0" encoding="UTF-8" standalone="no"?>
<!-- Created with Inkscape (http://www.inkscape.org/) -->

<svg
   xmlns:dc="http://purl.org/dc/elements/1.1/"
   xmlns:cc="http://creativecommons.org/ns#"
   xmlns:rdf="http://www.w3.org/1999/02/22-rdf-syntax-ns#"
   xmlns:svg="http://www.w3.org/2000/svg"
   xmlns="http://www.w3.org/2000/svg"
   xmlns:xlink="http://www.w3.org/1999/xlink"
   xmlns:sodipodi="http://sodipodi.sourceforge.net/DTD/sodipodi-0.dtd"
   xmlns:inkscape="http://www.inkscape.org/namespaces/inkscape"
   id="svg2"
   version="1.1"
   inkscape:version="0.92.2 2405546, 2018-03-11"
   width="2481"
   height="3503"
   sodipodi:docname="E09P05.svg">
  <metadata
     id="metadata8">
    <rdf:RDF>
      <cc:Work
         rdf:about="">
        <dc:format>image/svg+xml</dc:format>
        <dc:type
           rdf:resource="http://purl.org/dc/dcmitype/StillImage" />
        <dc:title></dc:title>
      </cc:Work>
    </rdf:RDF>
  </metadata>
  <defs
     id="defs6">
    <filter
       style="color-interpolation-filters:sRGB"
       id="filter4375-4-1-1-1"
       inkscape:label="deevad outline effect">
      <feFlood
         id="feFlood4377-7-9-0-8"
         flood-opacity="1"
         flood-color="rgb(0,0,0)"
         result="flood" />
      <feComposite
         id="feComposite4379-3-8-8-2"
         in2="SourceGraphic"
         in="flood"
         operator="in"
         result="composite1" />
      <feMorphology
         id="feMorphology4393-1-0-49-8"
         operator="dilate"
         radius="4"
         result="result3" />
      <feComposite
         id="feComposite4385-9-5-7-0"
         in2="result3"
         in="SourceGraphic"
         operator="over"
         result="composite2" />
    </filter>
    <filter
       style="color-interpolation-filters:sRGB"
       id="filter4375-4-1-1-1-3"
       inkscape:label="deevad outline effect">
      <feFlood
         id="feFlood4377-7-9-0-8-3"
         flood-opacity="1"
         flood-color="rgb(0,0,0)"
         result="flood" />
      <feComposite
         id="feComposite4379-3-8-8-2-7"
         in2="SourceGraphic"
         in="flood"
         operator="in"
         result="composite1" />
      <feMorphology
         id="feMorphology4393-1-0-49-8-2"
         operator="dilate"
         radius="4"
         result="result3" />
      <feComposite
         id="feComposite4385-9-5-7-0-5"
         in2="result3"
         in="SourceGraphic"
         operator="over"
         result="composite2" />
    </filter>
    <filter
       style="color-interpolation-filters:sRGB"
       id="filter4375-4-1-1-1-8"
       inkscape:label="deevad outline effect">
      <feFlood
         id="feFlood4377-7-9-0-8-1"
         flood-opacity="1"
         flood-color="rgb(0,0,0)"
         result="flood" />
      <feComposite
         id="feComposite4379-3-8-8-2-1"
         in2="SourceGraphic"
         in="flood"
         operator="in"
         result="composite1" />
      <feMorphology
         id="feMorphology4393-1-0-49-8-4"
         operator="dilate"
         radius="4"
         result="result3" />
      <feComposite
         id="feComposite4385-9-5-7-0-6"
         in2="result3"
         in="SourceGraphic"
         operator="over"
         result="composite2" />
    </filter>
    <filter
       style="color-interpolation-filters:sRGB"
       id="filter4375-4-1-1-1-9"
       inkscape:label="deevad outline effect">
      <feFlood
         id="feFlood4377-7-9-0-8-5"
         flood-opacity="1"
         flood-color="rgb(0,0,0)"
         result="flood" />
      <feComposite
         id="feComposite4379-3-8-8-2-74"
         in2="SourceGraphic"
         in="flood"
         operator="in"
         result="composite1" />
      <feMorphology
         id="feMorphology4393-1-0-49-8-3"
         operator="dilate"
         radius="4"
         result="result3" />
      <feComposite
         id="feComposite4385-9-5-7-0-8"
         in2="result3"
         in="SourceGraphic"
         operator="over"
         result="composite2" />
    </filter>
  </defs>
  <sodipodi:namedview
     pagecolor="#ffffff"
     bordercolor="#666666"
     borderopacity="1"
     objecttolerance="10"
     gridtolerance="10"
     guidetolerance="10"
     inkscape:pageopacity="0"
     inkscape:pageshadow="2"
     inkscape:window-width="1920"
     inkscape:window-height="1033"
     id="namedview4"
     showgrid="false"
     inkscape:zoom="0.6956522"
     inkscape:cx="1371.8058"
     inkscape:cy="498.83452"
     inkscape:window-x="0"
     inkscape:window-y="47"
     inkscape:window-maximized="0"
     inkscape:current-layer="layer1" />
  <g
     inkscape:groupmode="layer"
     id="layer2"
     inkscape:label="artwork"
     sodipodi:insensitive="true">
    <image
       sodipodi:absref="/home/midgard/git/peppercarrot/comics/ep09_The-Remedy/lang/ca/../gfx_Pepper-and-Carrot_by-David-Revoy_E09P05.png"
       xlink:href="../gfx_Pepper-and-Carrot_by-David-Revoy_E09P05.png"
       width="2481"
       height="3503"
       id="image10"
       x="0"
       y="0" />
  </g>
  <g
     inkscape:groupmode="layer"
     id="layer3"
     inkscape:label="speechbubbles" />
  <g
     inkscape:groupmode="layer"
     id="layer1"
     inkscape:label="txt">
    <path
       style="color:#000000;display:inline;overflow:visible;visibility:visible;fill:#ffffff;fill-opacity:1;fill-rule:nonzero;stroke:none;stroke-width:1px;marker:none;enable-background:accumulate"
       d="m 1306.9086,2668.4656 c 44.9205,17.9366 90.7302,35.6747 10.8479,81.4808 75.8537,-11.8136 29.446,13.5287 10.8477,30.4195 119.0388,-3.8326 -21.0014,71.4844 -54.2468,104.1917 30.1861,-13.0351 139.113,-84.2802 129.1953,-49.871 9.5973,-2.3383 20.89,-9.0348 25.6403,1.0864 12.2283,-6.9891 15.706,-9.7183 21.0193,-5.2801 12.0183,-12.719 26.793,-17.9369 21.5924,-3.5746 20.7076,-18.889 18.5996,-4.5355 21.4889,0.1634 19.5006,-22.4959 26.7836,-16.1498 34.5158,-10.8641 11.041,-13.5068 23.9617,-10.4476 38.4604,6.5184 14.8346,-22.9716 30.7753,-21.574 47.3359,-6.5184 4.8639,-5.659 28.0782,-16.0711 35.3926,4.9231 8.209,-8.7424 29.494,-27.9269 50.779,-0.8075 17.0854,-20.747 57.9761,-22.5977 81.4763,3.4892 6.6741,-14.6166 31.1702,-28.4869 62.1283,-15.2096 2.8939,-13.5579 19.4933,-19.0629 48.322,-17.3827 -29.569,-16.3621 -31.0902,-25.677 37.4743,-17.3826 -47.7898,-13.3991 -91.8304,-26.7981 -17.751,-40.1972 -17.3503,-5.3195 -74.0607,7.1942 -11.834,-56.4934 -44.1871,14.0563 -84.3005,17.7084 -96.6441,-39.1108 -23.8381,14.9425 -50.2321,22.3447 -71.0037,-11.9506 -18.9192,16.0691 -45.3905,12.2112 -59.1699,4.3456 -3.7282,17.5989 -31.8819,44.5895 -70.0176,-4.3456 8.3672,27.8138 2.034,72.1151 -42.4051,-1.0864 -0.8813,12.7338 17.4185,81.9829 -106.5057,-1.0865 15.4586,55.7329 -25.6872,23.3035 -58.1838,4.3456 16.1147,34.9432 -8.1372,37.6454 -61.1421,17.3826 40.8896,33.179 -1.1543,24.0185 -27.6126,22.8148 z"
       id="path3549"
       inkscape:connector-curvature="0"
       sodipodi:nodetypes="ccccccccccccccccccccccccccccc" />
    <flowRoot
       xml:space="preserve"
       id="flowRoot3063-8"
       style="color:#000000;font-style:normal;font-variant:normal;font-weight:normal;font-stretch:normal;line-height:0.01%;font-family:Arial;-inkscape-font-specification:Arial;letter-spacing:0px;word-spacing:0px;display:inline;overflow:visible;visibility:visible;fill:#ffd42a;fill-opacity:1;fill-rule:nonzero;stroke:#ffd42a;stroke-width:4.3819828;stroke-opacity:1;marker:none;enable-background:accumulate"
       transform="matrix(0.94497198,-0.30283318,0.33037145,1.0309034,866.21843,878.47873)"><flowRegion
         id="flowRegion3065-8"
         style="stroke-width:4.3819828"><rect
           id="rect3067-6"
           width="248.66193"
           height="90.046997"
           x="92.642677"
           y="425.30325"
           style="color:#000000;font-size:72px;display:inline;overflow:visible;visibility:visible;fill:#ffd42a;fill-opacity:1;fill-rule:nonzero;stroke:#ffd42a;stroke-width:4.3819828;stroke-opacity:1;marker:none;enable-background:accumulate" /></flowRegion><flowPara
         style="color:#000000;font-style:normal;font-variant:normal;font-weight:normal;font-stretch:normal;font-size:64px;line-height:1.25;font-family:Lavi;-inkscape-font-specification:Lavi;text-align:center;text-anchor:middle;display:inline;overflow:visible;visibility:visible;fill:#ffd42a;fill-opacity:1;fill-rule:nonzero;stroke:#ffd42a;stroke-width:3.45422935;stroke-miterlimit:4;stroke-dasharray:none;stroke-opacity:1;marker:none;enable-background:accumulate"
         id="flowPara3188">Wuu</flowPara></flowRoot>    <flowRoot
       xml:space="preserve"
       id="flowRoot3063-8-0"
       style="color:#000000;font-style:normal;font-variant:normal;font-weight:normal;font-stretch:normal;line-height:0.01%;font-family:Arial;-inkscape-font-specification:Arial;letter-spacing:0px;word-spacing:0px;display:inline;overflow:visible;visibility:visible;fill:#ffd42a;fill-opacity:1;fill-rule:nonzero;stroke:#ffd42a;stroke-width:4.3819828;stroke-opacity:1;marker:none;enable-background:accumulate"
       transform="matrix(0.7449843,-0.21593102,0.2604538,0.73507145,1009.8852,1048.4176)"><flowRegion
         id="flowRegion3065-8-3"
         style="stroke-width:4.3819828"><rect
           id="rect3067-6-9"
           width="248.66193"
           height="90.046997"
           x="92.642677"
           y="425.30325"
           style="color:#000000;font-size:72px;display:inline;overflow:visible;visibility:visible;fill:#ffd42a;fill-opacity:1;fill-rule:nonzero;stroke:#ffd42a;stroke-width:4.3819828;stroke-opacity:1;marker:none;enable-background:accumulate" /></flowRegion><flowPara
         style="color:#000000;font-style:normal;font-variant:normal;font-weight:normal;font-stretch:normal;font-size:64px;line-height:1.25;font-family:Lavi;-inkscape-font-specification:Lavi;text-align:center;text-anchor:middle;display:inline;overflow:visible;visibility:visible;fill:#ffd42a;fill-opacity:1;fill-rule:nonzero;stroke:#ffd42a;stroke-width:3.45422935;stroke-miterlimit:4;stroke-dasharray:none;stroke-opacity:1;marker:none;enable-background:accumulate"
         id="flowPara3188-4">uuf</flowPara></flowRoot>    <flowRoot
       xml:space="preserve"
       id="flowRoot3063-8-03"
       style="color:#000000;font-style:normal;font-variant:normal;font-weight:normal;font-stretch:normal;line-height:0.01%;font-family:Arial;-inkscape-font-specification:Arial;letter-spacing:0px;word-spacing:0px;display:inline;overflow:visible;visibility:visible;fill:#ffc022;fill-opacity:1;fill-rule:nonzero;stroke:#ffc022;stroke-width:4.3819828;stroke-opacity:1;marker:none;enable-background:accumulate"
       transform="matrix(0.69985809,-0.7034761,0.76744698,0.76349997,-251.97938,298.69889)"><flowRegion
         id="flowRegion3065-8-1"
         style="stroke-width:4.3819828"><rect
           id="rect3067-6-8"
           width="423.32761"
           height="143.73161"
           x="92.642677"
           y="425.30325"
           style="color:#000000;font-size:72px;display:inline;overflow:visible;visibility:visible;fill:#ffc022;fill-opacity:1;fill-rule:nonzero;stroke:#ffc022;stroke-width:4.3819828;stroke-opacity:1;marker:none;enable-background:accumulate" /></flowRegion><flowPara
         style="color:#000000;font-style:normal;font-variant:normal;font-weight:normal;font-stretch:normal;font-size:64px;line-height:1.25;font-family:Lavi;-inkscape-font-specification:Lavi;text-align:center;text-anchor:middle;display:inline;overflow:visible;visibility:visible;fill:#ffc022;fill-opacity:1;fill-rule:nonzero;stroke:#ffc022;stroke-width:3.45422935;stroke-miterlimit:4;stroke-dasharray:none;stroke-opacity:1;marker:none;enable-background:accumulate"
         id="flowPara3188-8">Meeeuuuhhh!</flowPara></flowRoot>    <flowRoot
       xml:space="preserve"
       id="flowRoot3063-8-03-1"
       style="color:#000000;font-style:normal;font-variant:normal;font-weight:normal;font-stretch:normal;line-height:0.01%;font-family:Arial;-inkscape-font-specification:Arial;letter-spacing:0px;word-spacing:0px;display:inline;overflow:visible;visibility:visible;fill:#ffccaa;fill-opacity:1;fill-rule:nonzero;stroke:#ffccaa;stroke-width:4.3819828;stroke-opacity:1;marker:none;enable-background:accumulate"
       transform="matrix(0.90934859,-0.39719657,0.43331581,0.99204057,323.39674,1108.6169)"><flowRegion
         id="flowRegion3065-8-1-9"
         style="stroke-width:4.3819828"><rect
           id="rect3067-6-8-6"
           width="352.97433"
           height="120.68928"
           x="92.642677"
           y="425.30325"
           style="color:#000000;font-size:72px;display:inline;overflow:visible;visibility:visible;fill:#ffccaa;fill-opacity:1;fill-rule:nonzero;stroke:#ffccaa;stroke-width:4.3819828;stroke-opacity:1;marker:none;enable-background:accumulate" /></flowRegion><flowPara
         style="color:#000000;font-style:normal;font-variant:normal;font-weight:normal;font-stretch:normal;font-size:64px;line-height:1.25;font-family:Lavi;-inkscape-font-specification:Lavi;text-align:center;text-anchor:middle;display:inline;overflow:visible;visibility:visible;fill:#ffccaa;fill-opacity:1;fill-rule:nonzero;stroke:#ffccaa;stroke-width:3.45422935;stroke-miterlimit:4;stroke-dasharray:none;stroke-opacity:1;marker:none;enable-background:accumulate"
         id="flowPara3188-8-3">Meeeu</flowPara></flowRoot>    <flowRoot
       xml:space="preserve"
       id="flowRoot3063-8-03-1-0"
       style="color:#000000;font-style:normal;font-variant:normal;font-weight:normal;font-stretch:normal;line-height:0.01%;font-family:Arial;-inkscape-font-specification:Arial;letter-spacing:0px;word-spacing:0px;display:inline;overflow:visible;visibility:visible;fill:#ffccaa;fill-opacity:1;fill-rule:nonzero;stroke:#ffccaa;stroke-width:4.3819828;stroke-opacity:1;marker:none;enable-background:accumulate"
       transform="matrix(0.77642497,-0.31599775,0.33354997,0.75284562,462.6793,1234.6959)"><flowRegion
         id="flowRegion3065-8-1-9-3"
         style="stroke-width:4.3819828"><rect
           id="rect3067-6-8-6-1"
           width="352.97433"
           height="120.68928"
           x="92.642677"
           y="425.30325"
           style="color:#000000;font-size:72px;display:inline;overflow:visible;visibility:visible;fill:#ffccaa;fill-opacity:1;fill-rule:nonzero;stroke:#ffccaa;stroke-width:4.3819828;stroke-opacity:1;marker:none;enable-background:accumulate" /></flowRegion><flowPara
         style="color:#000000;font-style:normal;font-variant:normal;font-weight:normal;font-stretch:normal;font-size:64px;line-height:1.25;font-family:Lavi;-inkscape-font-specification:Lavi;text-align:center;text-anchor:middle;display:inline;overflow:visible;visibility:visible;fill:#ffccaa;fill-opacity:1;fill-rule:nonzero;stroke:#ffccaa;stroke-width:3.45422935;stroke-miterlimit:4;stroke-dasharray:none;stroke-opacity:1;marker:none;enable-background:accumulate"
         id="flowPara3188-8-3-5">Meuuu</flowPara></flowRoot>    <flowRoot
       xml:space="preserve"
       id="flowRoot3063-8-9"
       style="color:#000000;font-style:normal;font-variant:normal;font-weight:normal;font-stretch:normal;line-height:0.01%;font-family:Arial;-inkscape-font-specification:Arial;letter-spacing:0px;word-spacing:0px;display:inline;overflow:visible;visibility:visible;fill:#6c6753;fill-opacity:1;fill-rule:nonzero;stroke:#6c6753;stroke-width:4.3819828;stroke-opacity:1;marker:none;enable-background:accumulate"
       transform="matrix(0.94497198,-0.30283318,0.33037145,1.0309034,1001.1473,1741.5055)"><flowRegion
         id="flowRegion3065-8-34"
         style="stroke-width:4.3819828"><rect
           id="rect3067-6-0"
           width="248.66193"
           height="90.046997"
           x="92.642677"
           y="425.30325"
           style="color:#000000;font-size:72px;display:inline;overflow:visible;visibility:visible;fill:#6c6753;fill-opacity:1;fill-rule:nonzero;stroke:#6c6753;stroke-width:4.3819828;stroke-opacity:1;marker:none;enable-background:accumulate" /></flowRegion><flowPara
         style="color:#000000;font-style:normal;font-variant:normal;font-weight:normal;font-stretch:normal;font-size:64px;line-height:1.25;font-family:Lavi;-inkscape-font-specification:Lavi;text-align:center;text-anchor:middle;display:inline;overflow:visible;visibility:visible;fill:#6c6753;fill-opacity:1;fill-rule:nonzero;stroke:#6c6753;stroke-width:3.45422935;stroke-miterlimit:4;stroke-dasharray:none;stroke-opacity:1;marker:none;enable-background:accumulate"
         id="flowPara3188-0">Cooo</flowPara></flowRoot>    <flowRoot
       xml:space="preserve"
       id="flowRoot3063-8-9-1"
       style="color:#000000;font-style:normal;font-variant:normal;font-weight:normal;font-stretch:normal;line-height:0.01%;font-family:Arial;-inkscape-font-specification:Arial;letter-spacing:0px;word-spacing:0px;display:inline;overflow:visible;visibility:visible;fill:#6c6753;fill-opacity:1;fill-rule:nonzero;stroke:#6c6753;stroke-width:4.3819828;stroke-opacity:1;marker:none;enable-background:accumulate"
       transform="matrix(0.78901976,-0.0275263,0.03366822,0.76773924,1211.2058,1869.8971)"><flowRegion
         id="flowRegion3065-8-34-7"
         style="stroke-width:4.3819828"><rect
           id="rect3067-6-0-3"
           width="248.66193"
           height="90.046997"
           x="92.642677"
           y="425.30325"
           style="color:#000000;font-size:72px;display:inline;overflow:visible;visibility:visible;fill:#6c6753;fill-opacity:1;fill-rule:nonzero;stroke:#6c6753;stroke-width:4.3819828;stroke-opacity:1;marker:none;enable-background:accumulate" /></flowRegion><flowPara
         style="color:#000000;font-style:normal;font-variant:normal;font-weight:normal;font-stretch:normal;font-size:64px;line-height:1.25;font-family:Lavi;-inkscape-font-specification:Lavi;text-align:center;text-anchor:middle;display:inline;overflow:visible;visibility:visible;fill:#6c6753;fill-opacity:1;fill-rule:nonzero;stroke:#6c6753;stroke-width:3.45422935;stroke-miterlimit:4;stroke-dasharray:none;stroke-opacity:1;marker:none;enable-background:accumulate"
         id="flowPara3188-0-2">Cooo</flowPara></flowRoot>    <flowRoot
       xml:space="preserve"
       id="flowRoot2987-4-9-3"
       style="font-style:normal;font-variant:normal;font-weight:normal;font-stretch:normal;line-height:0.01%;font-family:Lavi;-inkscape-font-specification:Lavi;text-align:center;letter-spacing:0px;word-spacing:0px;text-anchor:middle;fill:#000000;fill-opacity:1;stroke:none"
       transform="translate(1089.106,2405.6741)"><flowRegion
         id="flowRegion2989-5-4-5"><rect
           id="rect2991-7-9-6"
           width="807.40167"
           height="138.23993"
           x="120.55251"
           y="265.53046"
           style="font-style:normal;font-variant:normal;font-weight:normal;font-stretch:normal;font-family:Lavi;-inkscape-font-specification:Lavi;text-align:center;text-anchor:middle" /></flowRegion><flowPara
         style="font-size:48px;line-height:1.25;text-align:center;text-anchor:middle"
         id="flowPara4222">Cap al laboratori!</flowPara><flowPara
         style="font-size:48px;line-height:1.25;text-align:center;text-anchor:middle"
         id="flowPara3487">Podria ser letal!</flowPara></flowRoot>    <path
       style="color:#000000;fill:#ffffff;fill-opacity:1;fill-rule:nonzero;stroke:none;stroke-width:1px;marker:none;visibility:visible;display:inline;overflow:visible;enable-background:accumulate"
       d="m 971.84465,2848.2429 c 3.31205,-14.401 26.70943,-79.1758 145.63135,9.6387 -89.7729,-88.9784 -71.2152,-91.5724 -39.5157,-90.1023 -13.8281,-10.2271 -18.146,-35.0817 9.4376,-45.218 -13.6573,-9.7431 -12.7169,-22.681 1.2483,-38.4698 -30.3837,7.4939 -41.2427,2.8436 -3.3128,-32.1531 -34.7944,19.8653 -68.0127,37.5475 -51.5637,-13.5538 -13.1313,6.9417 -23.2484,47.4025 -66.95362,-26.685 -3.15891,34.0852 -16.01919,59.6144 -83.5446,33.0327 6.36962,22.7622 3.39238,42.5313 -42.96647,34.2441 9.67394,20.5674 -19.9034,40.6323 -34.32641,43.9815 39.80575,5.4882 49.53951,17.9599 20.12134,38.5935 82.59615,3.3292 35.43972,23.8053 34.7855,37.7052 51.40654,-12.7208 46.18429,13.246 51.93595,32.5075 47.44465,-27.8984 40.40597,-1.2965 59.02326,16.4788 z"
       id="path3549-3"
       inkscape:connector-curvature="0"
       sodipodi:nodetypes="ccccccccccccccc" />
    <flowRoot
       xml:space="preserve"
       id="flowRoot2987-4-9-3-0"
       style="font-style:normal;font-variant:normal;font-weight:normal;font-stretch:normal;line-height:0.01%;font-family:Lavi;-inkscape-font-specification:Lavi;text-align:center;letter-spacing:0px;word-spacing:0px;text-anchor:middle;fill:#000000;fill-opacity:1;stroke:none"
       transform="matrix(1.2398641,0,0,1.2398641,437.33314,2365.9303)"><flowRegion
         id="flowRegion2989-5-4-5-1"><rect
           id="rect2991-7-9-6-4"
           width="602.40173"
           height="310.73996"
           x="120.55251"
           y="265.53046"
           style="font-style:normal;font-variant:normal;font-weight:normal;font-stretch:normal;font-family:Lavi;-inkscape-font-specification:Lavi;text-align:center;text-anchor:middle" /></flowRegion><flowPara
         style="font-size:48px;line-height:1.25;text-align:center;letter-spacing:1.5px;text-anchor:middle;stroke:#000000;stroke-width:1.10000002;stroke-miterlimit:4;stroke-dasharray:none;stroke-opacity:1"
         id="flowPara3030-8-7">Ràpid!</flowPara></flowRoot>    <flowRoot
       xml:space="preserve"
       id="flowRoot3063-8-4"
       style="color:#000000;font-style:normal;font-variant:normal;font-weight:normal;font-stretch:normal;line-height:0.01%;font-family:Arial;-inkscape-font-specification:Arial;letter-spacing:0px;word-spacing:0px;display:inline;overflow:visible;visibility:visible;fill:#ffd42a;fill-opacity:1;fill-rule:nonzero;stroke:#ffd42a;stroke-width:4.3819828;stroke-opacity:1;marker:none;enable-background:accumulate"
       transform="matrix(0.7887004,-0.76050837,0.82966552,0.86042118,-238.14966,365.78067)"><flowRegion
         id="flowRegion3065-8-5"
         style="stroke-width:4.3819828"><rect
           id="rect3067-6-3"
           width="248.66193"
           height="90.046997"
           x="92.642677"
           y="425.30325"
           style="color:#000000;font-size:72px;display:inline;overflow:visible;visibility:visible;fill:#ffd42a;fill-opacity:1;fill-rule:nonzero;stroke:#ffd42a;stroke-width:4.3819828;stroke-opacity:1;marker:none;enable-background:accumulate" /></flowRegion><flowPara
         style="color:#000000;font-style:normal;font-variant:normal;font-weight:normal;font-stretch:normal;font-size:64px;line-height:1.25;font-family:Lavi;-inkscape-font-specification:Lavi;text-align:center;text-anchor:middle;display:inline;overflow:visible;visibility:visible;fill:#ffd42a;fill-opacity:1;fill-rule:nonzero;stroke:#ffd42a;stroke-width:3.45422935;stroke-miterlimit:4;stroke-dasharray:none;stroke-opacity:1;marker:none;enable-background:accumulate"
         id="flowPara3188-9">Wuuh</flowPara></flowRoot>    <flowRoot
       xml:space="preserve"
       id="flowRoot3063-8-0-2"
       style="color:#000000;font-style:normal;font-variant:normal;font-weight:normal;font-stretch:normal;line-height:0.01%;font-family:Arial;-inkscape-font-specification:Arial;letter-spacing:0px;word-spacing:0px;display:inline;overflow:visible;visibility:visible;fill:#ffd42a;fill-opacity:1;fill-rule:nonzero;stroke:#ffd42a;stroke-width:4.3819828;stroke-opacity:1;marker:none;enable-background:accumulate"
       transform="matrix(0.59099277,-0.50234983,0.53889606,0.56369962,52.383887,352.37512)"><flowRegion
         id="flowRegion3065-8-3-4"
         style="stroke-width:4.3819828"><rect
           id="rect3067-6-9-9"
           width="248.66193"
           height="90.046997"
           x="92.642677"
           y="425.30325"
           style="color:#000000;font-size:72px;display:inline;overflow:visible;visibility:visible;fill:#ffd42a;fill-opacity:1;fill-rule:nonzero;stroke:#ffd42a;stroke-width:4.3819828;stroke-opacity:1;marker:none;enable-background:accumulate" /></flowRegion><flowPara
         style="color:#000000;font-style:normal;font-variant:normal;font-weight:normal;font-stretch:normal;font-size:64px;line-height:1.25;font-family:Lavi;-inkscape-font-specification:Lavi;text-align:center;text-anchor:middle;display:inline;overflow:visible;visibility:visible;fill:#ffd42a;fill-opacity:1;fill-rule:nonzero;stroke:#ffd42a;stroke-width:3.45422935;stroke-miterlimit:4;stroke-dasharray:none;stroke-opacity:1;marker:none;enable-background:accumulate"
         id="flowPara3188-4-0">uuh!</flowPara></flowRoot>    <flowRoot
       xml:space="preserve"
       id="flowRoot3063-8-03-4"
       style="color:#000000;font-style:normal;font-variant:normal;font-weight:normal;font-stretch:normal;line-height:0.01%;font-family:Arial;-inkscape-font-specification:Arial;letter-spacing:0px;word-spacing:0px;display:inline;overflow:visible;visibility:visible;fill:#ffc022;fill-opacity:1;fill-rule:nonzero;stroke:#ffc022;stroke-width:4.3819828;stroke-opacity:1;marker:none;enable-background:accumulate"
       transform="matrix(0.98240648,-0.13984811,0.15256526,1.071742,1583.9812,1224.0391)"><flowRegion
         id="flowRegion3065-8-1-0"
         style="stroke-width:4.3819828"><rect
           id="rect3067-6-8-8"
           width="352.97433"
           height="120.68928"
           x="92.642677"
           y="425.30325"
           style="color:#000000;font-size:72px;display:inline;overflow:visible;visibility:visible;fill:#ffc022;fill-opacity:1;fill-rule:nonzero;stroke:#ffc022;stroke-width:4.3819828;stroke-opacity:1;marker:none;enable-background:accumulate" /></flowRegion><flowPara
         style="color:#000000;font-style:normal;font-variant:normal;font-weight:normal;font-stretch:normal;font-size:64px;line-height:1.25;font-family:Lavi;-inkscape-font-specification:Lavi;text-align:center;text-anchor:middle;display:inline;overflow:visible;visibility:visible;fill:#ffc022;fill-opacity:1;fill-rule:nonzero;stroke:#ffc022;stroke-width:3.45422935;stroke-miterlimit:4;stroke-dasharray:none;stroke-opacity:1;marker:none;enable-background:accumulate"
         id="flowPara3188-8-31">MeeOOOooo</flowPara></flowRoot>    <flowRoot
       xml:space="preserve"
       id="flowRoot3063-8-03-1-0-2"
       style="color:#000000;font-style:normal;font-variant:normal;font-weight:normal;font-stretch:normal;line-height:0.01%;font-family:Arial;-inkscape-font-specification:Arial;letter-spacing:0px;word-spacing:0px;display:inline;overflow:visible;visibility:visible;fill:#ffccaa;fill-opacity:1;fill-rule:nonzero;stroke:#ffccaa;stroke-width:4.3819828;stroke-opacity:1;marker:none;enable-background:accumulate"
       transform="matrix(1.0286168,-0.76308527,0.78008336,0.98704604,-252.8807,428.79751)"><flowRegion
         id="flowRegion3065-8-1-9-3-6"
         style="stroke-width:4.3819828"><rect
           id="rect3067-6-8-6-1-9"
           width="352.97433"
           height="120.68928"
           x="92.642677"
           y="425.30325"
           style="color:#000000;font-size:72px;display:inline;overflow:visible;visibility:visible;fill:#ffccaa;fill-opacity:1;fill-rule:nonzero;stroke:#ffccaa;stroke-width:4.3819828;stroke-opacity:1;marker:none;enable-background:accumulate" /></flowRegion><flowPara
         style="color:#000000;font-style:normal;font-variant:normal;font-weight:normal;font-stretch:normal;font-size:64px;line-height:1.25;font-family:Lavi;-inkscape-font-specification:Lavi;text-align:center;text-anchor:middle;display:inline;overflow:visible;visibility:visible;fill:#ffccaa;fill-opacity:1;fill-rule:nonzero;stroke:#ffccaa;stroke-width:3.45422935;stroke-miterlimit:4;stroke-dasharray:none;stroke-opacity:1;marker:none;enable-background:accumulate"
         id="flowPara3188-8-3-5-4">Meoooo!</flowPara></flowRoot>    <flowRoot
       xml:space="preserve"
       id="flowRoot3063-8-03-1-05"
       style="color:#000000;font-style:normal;font-variant:normal;font-weight:normal;font-stretch:normal;line-height:0.01%;font-family:Arial;-inkscape-font-specification:Arial;letter-spacing:0px;word-spacing:0px;display:inline;overflow:visible;visibility:visible;fill:#ffccaa;fill-opacity:1;fill-rule:nonzero;stroke:#ffccaa;stroke-width:4.3819828;stroke-opacity:1;marker:none;enable-background:accumulate"
       transform="matrix(0.77195084,-0.62351574,0.6802154,0.8421485,-34.960884,383.55763)"><flowRegion
         id="flowRegion3065-8-1-9-9"
         style="stroke-width:4.3819828"><rect
           id="rect3067-6-8-6-15"
           width="352.97433"
           height="120.68928"
           x="92.642677"
           y="425.30325"
           style="color:#000000;font-size:72px;display:inline;overflow:visible;visibility:visible;fill:#ffccaa;fill-opacity:1;fill-rule:nonzero;stroke:#ffccaa;stroke-width:4.3819828;stroke-opacity:1;marker:none;enable-background:accumulate" /></flowRegion><flowPara
         style="color:#000000;font-style:normal;font-variant:normal;font-weight:normal;font-stretch:normal;font-size:64px;line-height:1.25;font-family:Lavi;-inkscape-font-specification:Lavi;text-align:center;text-anchor:middle;display:inline;overflow:visible;visibility:visible;fill:#ffccaa;fill-opacity:1;fill-rule:nonzero;stroke:#ffccaa;stroke-width:3.45422935;stroke-miterlimit:4;stroke-dasharray:none;stroke-opacity:1;marker:none;enable-background:accumulate"
         id="flowPara3188-8-3-0"> </flowPara></flowRoot>    <flowRoot
       xml:space="preserve"
       id="flowRoot3063-8-9-4"
       style="color:#000000;font-style:normal;font-variant:normal;font-weight:normal;font-stretch:normal;line-height:0.01%;font-family:Arial;-inkscape-font-specification:Arial;letter-spacing:0px;word-spacing:0px;display:inline;overflow:visible;visibility:visible;fill:#483e37;fill-opacity:1;fill-rule:nonzero;stroke:#483e37;stroke-width:4.3819828;stroke-opacity:1;marker:none;enable-background:accumulate"
       transform="matrix(0.94974412,-0.62604982,0.68297993,1.0361095,-92.856923,439.45781)"><flowRegion
         id="flowRegion3065-8-34-1"
         style="stroke-width:4.3819828"><rect
           id="rect3067-6-0-6"
           width="248.66193"
           height="90.046997"
           x="92.642677"
           y="425.30325"
           style="color:#000000;font-size:72px;display:inline;overflow:visible;visibility:visible;fill:#483e37;fill-opacity:1;fill-rule:nonzero;stroke:#483e37;stroke-width:4.3819828;stroke-opacity:1;marker:none;enable-background:accumulate" /></flowRegion><flowPara
         style="color:#000000;font-style:normal;font-variant:normal;font-weight:normal;font-stretch:normal;font-size:64px;line-height:1.25;font-family:Lavi;-inkscape-font-specification:Lavi;text-align:center;text-anchor:middle;display:inline;overflow:visible;visibility:visible;fill:#483e37;fill-opacity:1;fill-rule:nonzero;stroke:#483e37;stroke-width:3.45422935;stroke-miterlimit:4;stroke-dasharray:none;stroke-opacity:1;marker:none;enable-background:accumulate"
         id="flowPara3188-0-3">Cooo!</flowPara></flowRoot>    <flowRoot
       xml:space="preserve"
       id="flowRoot3063-8-9-4-4"
       style="color:#000000;font-style:normal;font-variant:normal;font-weight:normal;font-stretch:normal;line-height:0.01%;font-family:Arial;-inkscape-font-specification:Arial;letter-spacing:0px;word-spacing:0px;display:inline;overflow:visible;visibility:visible;fill:#483e37;fill-opacity:1;fill-rule:nonzero;stroke:#483e37;stroke-width:4.3819828;stroke-opacity:1;marker:none;enable-background:accumulate"
       transform="matrix(0.68487433,-0.4571937,0.49486606,0.76023252,165.33923,465.03243)"
       inkscape:transform-center-x="-43.097021"
       inkscape:transform-center-y="50.987355"><flowRegion
         id="flowRegion3065-8-34-1-4"
         style="stroke-width:4.3819828"><rect
           id="rect3067-6-0-6-9"
           width="353.99356"
           height="72.084663"
           x="92.642677"
           y="425.30325"
           style="color:#000000;font-size:72px;display:inline;overflow:visible;visibility:visible;fill:#483e37;fill-opacity:1;fill-rule:nonzero;stroke:#483e37;stroke-width:4.3819828;stroke-opacity:1;marker:none;enable-background:accumulate" /></flowRegion><flowPara
         style="color:#000000;font-style:normal;font-variant:normal;font-weight:normal;font-stretch:normal;font-size:64px;line-height:1.25;font-family:Lavi;-inkscape-font-specification:Lavi;text-align:center;text-anchor:middle;display:inline;overflow:visible;visibility:visible;fill:#483e37;fill-opacity:1;fill-rule:nonzero;stroke:#483e37;stroke-width:3.45422935;stroke-miterlimit:4;stroke-dasharray:none;stroke-opacity:1;marker:none;enable-background:accumulate"
         id="flowPara3188-0-3-3">Cooo!</flowPara></flowRoot>    <flowRoot
       xml:space="preserve"
       id="flowRoot3063-8-03-1-05-8"
       style="color:#000000;font-style:normal;font-variant:normal;font-weight:normal;font-stretch:normal;line-height:0.01%;font-family:Arial;-inkscape-font-specification:Arial;letter-spacing:0px;word-spacing:0px;display:inline;overflow:visible;visibility:visible;fill:#ffccaa;fill-opacity:1;fill-rule:nonzero;stroke:#ffccaa;stroke-width:4.3819828;stroke-opacity:1;marker:none;enable-background:accumulate"
       transform="matrix(0.56474589,-0.45615334,0.49763383,0.61610128,194.20975,381.8921)"><flowRegion
         id="flowRegion3065-8-1-9-9-6"
         style="stroke-width:4.3819828"><rect
           id="rect3067-6-8-6-15-7"
           width="262.5029"
           height="154.03389"
           x="176.77422"
           y="422.26297"
           style="color:#000000;font-size:72px;display:inline;overflow:visible;visibility:visible;fill:#ffccaa;fill-opacity:1;fill-rule:nonzero;stroke:#ffccaa;stroke-width:4.3819828;stroke-opacity:1;marker:none;enable-background:accumulate" /></flowRegion><flowPara
         style="color:#000000;font-style:normal;font-variant:normal;font-weight:normal;font-stretch:normal;font-size:64px;line-height:1.25;font-family:Lavi;-inkscape-font-specification:Lavi;text-align:center;text-anchor:middle;display:inline;overflow:visible;visibility:visible;fill:#ffccaa;fill-opacity:1;fill-rule:nonzero;stroke:#ffccaa;stroke-width:3.45422935;stroke-miterlimit:4;stroke-dasharray:none;stroke-opacity:1;marker:none;enable-background:accumulate"
         id="flowPara3188-8-3-0-9">MeeOh  !</flowPara></flowRoot>    <flowRoot
       xml:space="preserve"
       id="flowRoot3063-8-9-4-4-9"
       style="color:#000000;font-style:normal;font-variant:normal;font-weight:normal;font-stretch:normal;line-height:0.01%;font-family:Arial;-inkscape-font-specification:Arial;letter-spacing:0px;word-spacing:0px;display:inline;overflow:visible;visibility:visible;fill:#483e37;fill-opacity:1;fill-rule:nonzero;stroke:#483e37;stroke-width:4.3819828;stroke-opacity:1;marker:none;enable-background:accumulate"
       transform="matrix(0.56307455,-0.37588521,0.40685782,0.62503084,323.95837,455.54213)"
       inkscape:transform-center-x="-35.428547"
       inkscape:transform-center-y="41.91695"><flowRegion
         id="flowRegion3065-8-34-1-4-1"
         style="stroke-width:4.3819828"><rect
           id="rect3067-6-0-6-9-0"
           width="468.10974"
           height="72.527359"
           x="92.642677"
           y="425.30325"
           style="color:#000000;font-size:72px;display:inline;overflow:visible;visibility:visible;fill:#483e37;fill-opacity:1;fill-rule:nonzero;stroke:#483e37;stroke-width:4.3819828;stroke-opacity:1;marker:none;enable-background:accumulate" /></flowRegion><flowPara
         style="color:#000000;font-style:normal;font-variant:normal;font-weight:normal;font-stretch:normal;font-size:64px;line-height:1.25;font-family:Lavi;-inkscape-font-specification:Lavi;text-align:center;text-anchor:middle;display:inline;overflow:visible;visibility:visible;fill:#483e37;fill-opacity:1;fill-rule:nonzero;stroke:#483e37;stroke-width:3.45422935;stroke-miterlimit:4;stroke-dasharray:none;stroke-opacity:1;marker:none;enable-background:accumulate"
         id="flowPara3188-0-3-3-1">Cooo!</flowPara></flowRoot>    <flowRoot
       xml:space="preserve"
       id="flowRoot3063-8-0-2-7"
       style="color:#000000;font-style:normal;font-variant:normal;font-weight:normal;font-stretch:normal;line-height:0.01%;font-family:Arial;-inkscape-font-specification:Arial;letter-spacing:0px;word-spacing:0px;display:inline;overflow:visible;visibility:visible;fill:#ffd42a;fill-opacity:1;fill-rule:nonzero;stroke:#ffd42a;stroke-width:4.3819828;stroke-opacity:1;marker:none;enable-background:accumulate"
       transform="matrix(0.5016147,-0.42637756,0.45739677,0.4784492,212.14382,296.1275)"><flowRegion
         id="flowRegion3065-8-3-4-2"
         style="stroke-width:4.3819828"><rect
           id="rect3067-6-9-9-9"
           width="248.66193"
           height="90.046997"
           x="92.642677"
           y="425.30325"
           style="color:#000000;font-size:72px;display:inline;overflow:visible;visibility:visible;fill:#ffd42a;fill-opacity:1;fill-rule:nonzero;stroke:#ffd42a;stroke-width:4.3819828;stroke-opacity:1;marker:none;enable-background:accumulate" /></flowRegion><flowPara
         style="color:#000000;font-style:normal;font-variant:normal;font-weight:normal;font-stretch:normal;font-size:64px;line-height:1.25;font-family:Lavi;-inkscape-font-specification:Lavi;text-align:center;text-anchor:middle;display:inline;overflow:visible;visibility:visible;fill:#ffd42a;fill-opacity:1;fill-rule:nonzero;stroke:#ffd42a;stroke-width:3.45422935;stroke-miterlimit:4;stroke-dasharray:none;stroke-opacity:1;marker:none;enable-background:accumulate"
         id="flowPara3188-4-0-3">Wuuuh!</flowPara></flowRoot>  </g>
</svg>
