<?xml version="1.0" encoding="UTF-8" standalone="no"?>
<svg
   xmlns:dc="http://purl.org/dc/elements/1.1/"
   xmlns:cc="http://creativecommons.org/ns#"
   xmlns:rdf="http://www.w3.org/1999/02/22-rdf-syntax-ns#"
   xmlns:svg="http://www.w3.org/2000/svg"
   xmlns="http://www.w3.org/2000/svg"
   xmlns:xlink="http://www.w3.org/1999/xlink"
   xmlns:sodipodi="http://sodipodi.sourceforge.net/DTD/sodipodi-0.dtd"
   xmlns:inkscape="http://www.inkscape.org/namespaces/inkscape"
   sodipodi:docname="E14P07.svg"
   height="4503"
   width="2481"
   inkscape:version="1.0 (4035a4fb49, 2020-05-01)"
   version="1.1"
   id="svg2">
  <metadata
     id="metadata8">
    <rdf:RDF>
      <cc:Work
         rdf:about="">
        <dc:format>image/svg+xml</dc:format>
        <dc:type
           rdf:resource="http://purl.org/dc/dcmitype/StillImage" />
        <dc:title />
      </cc:Work>
    </rdf:RDF>
  </metadata>
  <defs
     id="defs6" />
  <sodipodi:namedview
     inkscape:document-rotation="0"
     inkscape:guide-bbox="true"
     showguides="true"
     inkscape:object-nodes="true"
     inkscape:current-layer="layer2"
     inkscape:window-maximized="0"
     inkscape:window-y="44"
     inkscape:window-x="0"
     inkscape:cy="491.1332"
     inkscape:cx="1460.4719"
     inkscape:zoom="0.52"
     showgrid="false"
     id="namedview4"
     inkscape:window-height="1003"
     inkscape:window-width="1030"
     inkscape:pageshadow="2"
     inkscape:pageopacity="0"
     guidetolerance="10"
     gridtolerance="10"
     objecttolerance="10"
     borderopacity="1"
     bordercolor="#666666"
     pagecolor="#ffffff">
    <sodipodi:guide
       inkscape:locked="false"
       id="guide4214"
       orientation="0,1"
       position="3653.5365,4415.3377" />
  </sodipodi:namedview>
  <g
     sodipodi:insensitive="true"
     transform="translate(0,1024)"
     style="display:inline"
     inkscape:label="artwork"
     id="layer1"
     inkscape:groupmode="layer">
    <image
       sodipodi:absref="/home/cherry/peppercarrot/webcomics/ep14_The-Dragon-s-Tooth/lang/gfx_Pepper-and-Carrot_by-David-Revoy_E14P07.png"
       xlink:href="../gfx_Pepper-and-Carrot_by-David-Revoy_E14P07.png"
       y="-1023.3771"
       x="0.54707891"
       id="image4223"
       style="image-rendering:optimizeQuality"
       preserveAspectRatio="none"
       height="4504.5391"
       width="2481.4438" />
  </g>
  <g
     transform="translate(0,1024)"
     style="display:inline"
     inkscape:label="speechbubbles"
     id="layer3"
     inkscape:groupmode="layer">
    <path
       inkscape:connector-curvature="0"
       id="path4279"
       d="m -2021.8885,646.19917 c 1.0628,-51.0158 26.5707,-103.09442 170.0526,-112.65988 143.4819,-9.56546 203.0004,48.89014 207.2517,90.34047 4.2513,41.45033 -82.9007,96.71744 -162.6129,97.78027 -79.7121,1.06282 -214.6914,-11.69112 -214.6914,-75.46086 z"
       style="fill:#ffffff;stroke:none" />
    <path
       sodipodi:nodetypes="csccc"
       inkscape:connector-curvature="0"
       id="path4281"
       d="m -1788.0661,898.08964 c 70.1467,-44.63882 88.2148,-124.35099 45.7016,-190.24639 -42.5132,-65.8954 -82.9007,-54.20428 -82.9007,-54.20428 l 35.0734,41.45033 c 0,0 97.7803,97.78027 2.1257,203.00034 z"
       style="fill:#ffffff;stroke:none" />
  </g>
  <g
     transform="translate(0,1024)"
     style="display:inline;opacity:0.855"
     inkscape:label="text"
     id="layer2"
     inkscape:groupmode="layer">
    <text
       id="text4225"
       y="2978.8181"
       x="1419.4685"
       style="font-style:normal;font-variant:normal;font-weight:normal;font-stretch:normal;line-height:0%;font-family:Arial;-inkscape-font-specification:Arial;text-align:center;letter-spacing:0px;word-spacing:0px;text-anchor:middle;display:inline;fill:#a72f14;fill-opacity:1;stroke:none"
       xml:space="preserve"><tspan
         style="font-style:normal;font-variant:normal;font-weight:normal;font-stretch:normal;font-size:60px;line-height:1.25;font-family:Lavi;-inkscape-font-specification:Lavi"
         y="2978.8181"
         x="1419.4685"
         id="tspan4227"
         sodipodi:role="line">https://www.patreon.com/davidrevoy</tspan></text>
    <flowRoot
       transform="matrix(1.4189846,0,0,1.4785503,-713.91095,-1211.314)"
       style="font-style:normal;font-variant:normal;font-weight:normal;font-stretch:normal;line-height:0.01%;font-family:'Nanum Pen Script OTF';-inkscape-font-specification:'Nanum Pen Script OTF';text-align:center;letter-spacing:0px;word-spacing:0px;text-anchor:middle;display:inline;opacity:0.855;fill:#000000;fill-opacity:1;stroke:none"
       id="flowRoot3027-3"
       xml:space="preserve"><flowRegion
         id="flowRegion3029-6"><rect
           style="font-style:normal;font-variant:normal;font-weight:normal;font-stretch:normal;line-height:100%;font-family:'Nanum Pen Script OTF';-inkscape-font-specification:'Nanum Pen Script OTF';text-align:center;text-anchor:middle;stroke-width:1"
           y="219.33444"
           x="135.21135"
           height="241.27675"
           width="2475.8752"
           id="rect3031-7" /></flowRegion><flowPara
         id="flowPara3497-5"
         style="font-style:normal;font-variant:normal;font-weight:normal;font-stretch:normal;font-size:48px;line-height:100%;font-family:'Nanum Pen Script OTF';-inkscape-font-specification:'Nanum Pen Script OTF';text-align:center;text-anchor:middle">후추와 당근은 완전히 자유 오픈소스이고</flowPara><flowPara
         id="flowPara48"
         style="font-style:normal;font-variant:normal;font-weight:normal;font-stretch:normal;font-size:48px;line-height:100%;font-family:'Nanum Pen Script OTF';-inkscape-font-specification:'Nanum Pen Script OTF';text-align:center;text-anchor:middle">독자들의 후원을 받아 운영하고 있습니다.</flowPara><flowPara
         id="flowPara46"
         style="font-style:normal;font-variant:normal;font-weight:normal;font-stretch:normal;font-size:48px;line-height:100%;font-family:'Nanum Pen Script OTF';-inkscape-font-specification:'Nanum Pen Script OTF';text-align:center;text-anchor:middle">이번 화에 도움을 주신 671명의 후원자분께 감사의 말씀 드립니다:</flowPara><flowPara
         id="flowPara42"
         style="font-style:normal;font-variant:normal;font-weight:normal;font-stretch:normal;font-size:48px;line-height:100%;font-family:'Nanum Pen Script OTF';-inkscape-font-specification:'Nanum Pen Script OTF';text-align:center;text-anchor:middle" /><flowPara
         id="flowPara44"
         style="font-style:normal;font-variant:normal;font-weight:normal;font-stretch:normal;font-size:48px;line-height:100%;font-family:'Nanum Pen Script OTF';-inkscape-font-specification:'Nanum Pen Script OTF';text-align:center;text-anchor:middle" /></flowRoot>
    <flowRoot
       transform="matrix(1.1518121,0,0,1.1884582,-30.57926,2600.1635)"
       style="font-style:normal;font-variant:normal;font-weight:normal;font-stretch:normal;line-height:0.01%;font-family:'Nanum Pen Script OTF';-inkscape-font-specification:'Nanum Pen Script OTF';text-align:center;letter-spacing:0px;word-spacing:0px;text-anchor:middle;display:inline;opacity:0.855;fill:#000000;fill-opacity:1;stroke:none"
       id="flowRoot3027-8-8-2"
       xml:space="preserve"><flowRegion
         id="flowRegion3029-9-3-5"><rect
           style="font-style:normal;font-variant:normal;font-weight:normal;font-stretch:normal;font-family:'Nanum Pen Script OTF';-inkscape-font-specification:'Nanum Pen Script OTF';text-align:center;text-anchor:middle"
           y="219.33444"
           x="135.21135"
           height="376.21677"
           width="2230.314"
           id="rect3031-9-1-6" /></flowRegion><flowPara
         id="flowPara3055"
         style="font-style:normal;font-variant:normal;font-weight:normal;font-stretch:normal;font-size:48px;line-height:1.25;font-family:'Nanum Pen Script OTF';-inkscape-font-specification:'Nanum Pen Script OTF';text-align:center;text-anchor:middle">여러분도 후추와 당근의 다음 화의 후원자가 될 수 있습니다</flowPara></flowRoot>
    <flowRoot
       transform="matrix(0.8686414,0,0,0.9183635,126.6247,2906.6435)"
       style="font-style:normal;font-variant:normal;font-weight:normal;font-stretch:normal;line-height:0.01%;font-family:'Nanum Pen Script OTF';-inkscape-font-specification:'Nanum Pen Script OTF';text-align:center;letter-spacing:0px;word-spacing:0px;text-anchor:middle;display:inline;opacity:0.855;fill:#000000;fill-opacity:1;stroke:none"
       id="flowRoot3027-8-8-2-8-6-3-6"
       xml:space="preserve"><flowRegion
         id="flowRegion3029-9-3-5-1-2-8-2"><rect
           style="font-style:normal;font-variant:normal;font-weight:normal;font-stretch:normal;line-height:100%;font-family:'Nanum Pen Script OTF';-inkscape-font-specification:'Nanum Pen Script OTF';text-align:center;text-anchor:middle"
           y="219.33444"
           x="135.21135"
           height="376.21677"
           width="2230.314"
           id="rect3031-9-1-6-8-7-4-9" /></flowRegion><flowPara
         id="flowPara3278-7-2"
         style="font-style:normal;font-variant:normal;font-weight:normal;font-stretch:normal;font-size:48px;line-height:100%;font-family:'Nanum Pen Script OTF';-inkscape-font-specification:'Nanum Pen Script OTF';text-align:center;text-anchor:middle">라이선스 : 크리에이티브 커먼즈 저작자표시 4.0</flowPara><flowPara
         id="flowPara3233-6-14-6-7"
         style="font-style:normal;font-variant:normal;font-weight:normal;font-stretch:normal;font-size:48px;line-height:100%;font-family:'Nanum Pen Script OTF';-inkscape-font-specification:'Nanum Pen Script OTF';text-align:center;text-anchor:middle">소스 : www.peppercarrot.com에서 볼 수 있음</flowPara><flowPara
         id="flowPara4908-0"
         style="font-style:normal;font-variant:normal;font-weight:normal;font-stretch:normal;font-size:48px;line-height:100%;font-family:'Nanum Pen Script OTF';-inkscape-font-specification:'Nanum Pen Script OTF';text-align:center;text-anchor:middle">소프트웨어 : 이번 화는 100% 자유 소프트웨어로 제작되었습니다</flowPara><flowPara
         id="flowPara3378"
         style="font-style:normal;font-variant:normal;font-weight:normal;font-stretch:normal;font-size:48px;line-height:100%;font-family:'Nanum Pen Script OTF';-inkscape-font-specification:'Nanum Pen Script OTF';text-align:center;text-anchor:middle">리눅스 민트 17에서 크리타 2.9.10, 잉크스케이프 0.91 사용</flowPara></flowRoot>
  </g>
</svg>
