<?xml version="1.0" encoding="UTF-8" standalone="no"?>
<!-- Created with Inkscape (http://www.inkscape.org/) -->

<svg
   xmlns:dc="http://purl.org/dc/elements/1.1/"
   xmlns:cc="http://creativecommons.org/ns#"
   xmlns:rdf="http://www.w3.org/1999/02/22-rdf-syntax-ns#"
   xmlns:svg="http://www.w3.org/2000/svg"
   xmlns="http://www.w3.org/2000/svg"
   xmlns:xlink="http://www.w3.org/1999/xlink"
   xmlns:sodipodi="http://sodipodi.sourceforge.net/DTD/sodipodi-0.dtd"
   xmlns:inkscape="http://www.inkscape.org/namespaces/inkscape"
   id="svg2"
   version="1.1"
   inkscape:version="0.91 r13725"
   width="2481"
   height="3503"
   sodipodi:docname="E32P05.svg">
  <metadata
     id="metadata8">
    <rdf:RDF>
      <cc:Work
         rdf:about="">
        <dc:format>image/svg+xml</dc:format>
        <dc:type
           rdf:resource="http://purl.org/dc/dcmitype/StillImage" />
        <dc:title />
      </cc:Work>
    </rdf:RDF>
  </metadata>
  <defs
     id="defs6">
    <filter
       style="color-interpolation-filters:sRGB"
       id="filter4375-4-1-1-1-9-6-9-2-1-7-1"
       inkscape:label="deevad outline effect">
      <feFlood
         id="feFlood4377-7-9-0-8-1-0-2-2-06-3-9"
         flood-opacity="1"
         flood-color="rgb(0,0,0)"
         result="flood" />
      <feComposite
         id="feComposite4379-3-8-8-2-77-6-0-8-3-6-4"
         in2="SourceGraphic"
         in="flood"
         operator="in"
         result="composite1" />
      <feMorphology
         id="feMorphology4393-1-0-49-8-9-2-2-9-2-1-7"
         operator="dilate"
         radius="4"
         result="result3" />
      <feComposite
         id="feComposite4385-9-5-7-0-8-6-3-7-0-2-8"
         in2="result3"
         in="SourceGraphic"
         operator="over"
         result="composite2" />
    </filter>
    <filter
       style="color-interpolation-filters:sRGB"
       id="filter4375-4-1-1-1-9-6-9-2-1-7-1-2"
       inkscape:label="deevad outline effect">
      <feFlood
         id="feFlood4377-7-9-0-8-1-0-2-2-06-3-9-7"
         flood-opacity="1"
         flood-color="rgb(0,0,0)"
         result="flood" />
      <feComposite
         id="feComposite4379-3-8-8-2-77-6-0-8-3-6-4-0"
         in2="SourceGraphic"
         in="flood"
         operator="in"
         result="composite1" />
      <feMorphology
         id="feMorphology4393-1-0-49-8-9-2-2-9-2-1-7-9"
         operator="dilate"
         radius="4"
         result="result3" />
      <feComposite
         id="feComposite4385-9-5-7-0-8-6-3-7-0-2-8-3"
         in2="result3"
         in="SourceGraphic"
         operator="over"
         result="composite2" />
    </filter>
    <filter
       style="color-interpolation-filters:sRGB"
       id="filter4375-4-1-1-1-9"
       inkscape:label="deevad outline effect">
      <feFlood
         id="feFlood4377-7-9-0-8-1"
         flood-opacity="1"
         flood-color="rgb(0,0,0)"
         result="flood" />
      <feComposite
         id="feComposite4379-3-8-8-2-77"
         in2="SourceGraphic"
         in="flood"
         operator="in"
         result="composite1" />
      <feMorphology
         id="feMorphology4393-1-0-49-8-9"
         operator="dilate"
         radius="4"
         result="result3" />
      <feComposite
         id="feComposite4385-9-5-7-0-8"
         in2="result3"
         in="SourceGraphic"
         operator="over"
         result="composite2" />
    </filter>
    <filter
       inkscape:collect="always"
       style="color-interpolation-filters:sRGB"
       id="filter1101"
       x="-0.12972304"
       width="1.2594461"
       y="-0.36928496"
       height="1.7385699">
      <feGaussianBlur
         inkscape:collect="always"
         stdDeviation="22.559027"
         id="feGaussianBlur1103" />
    </filter>
  </defs>
  <sodipodi:namedview
     pagecolor="#ffffff"
     bordercolor="#666666"
     borderopacity="1"
     objecttolerance="10"
     gridtolerance="10"
     guidetolerance="10"
     inkscape:pageopacity="0"
     inkscape:pageshadow="2"
     inkscape:window-width="1366"
     inkscape:window-height="715"
     id="namedview4"
     showgrid="false"
     inkscape:zoom="0.43852551"
     inkscape:cx="1256.1471"
     inkscape:cy="556.61621"
     inkscape:window-x="-8"
     inkscape:window-y="-8"
     inkscape:window-maximized="1"
     inkscape:current-layer="layer3"
     inkscape:snap-global="false" />
  <g
     inkscape:groupmode="layer"
     id="layer2"
     inkscape:label="artwork"
     sodipodi:insensitive="true">
    <image
       sodipodi:absref="D:\Pepper&amp;Carrot translation\ep32_The-Battlefield_lang-pack\lang\cn\..\gfx_Pepper-and-Carrot_by-David-Revoy_E32P05.png"
       xlink:href="../gfx_Pepper-and-Carrot_by-David-Revoy_E32P05.png"
       width="2481"
       height="3503"
       id="image10"
       x="0"
       y="0" />
  </g>
  <g
     inkscape:groupmode="layer"
     id="layer3"
     inkscape:label="speechbubbles"
     style="display:inline">
    <path
       style="display:inline;fill:#ffffff;fill-rule:evenodd;stroke:none;stroke-width:0.99999988px;stroke-linecap:butt;stroke-linejoin:miter;stroke-opacity:1"
       d="m 1167.9395,1463.957 c -0.9739,10.9428 -0.3195,22.5718 -5.5779,32.5871 -6.8795,10.9342 -19.9247,16.623 -32.5189,17.0951 -11.8746,0.5421 -23.8302,-1.3381 -35.0224,-5.3189 -3.2722,1.8776 -2.4432,6.844 0.2902,8.8192 6.3906,9.2679 12.8005,19.4396 13.2157,31.0363 0.7463,8.0174 -3.0602,17.061 -10.843,20.2527 -5.8901,2.5551 -12.462,2.0176 -18.7078,1.6848 1.662,3.2226 5.0594,4.9871 7.1765,7.8619 4.4548,4.5439 8.8806,10.4496 8.0411,17.1846 -1.2231,9.2375 -9.017,16.5786 -17.8021,18.8827 -3.3006,1.6961 -6.6012,3.3923 -9.9018,5.0884 16.2961,-0.8155 33.0139,-2.7152 48.9804,1.7226 8.9654,3.3543 11.3448,16.9548 4.0743,23.1699 -5.4449,6.3539 -12.2436,11.3083 -18.4922,16.8125 23.3994,-3.4291 46.7691,-9.3587 70.5917,-7.7721 6.4507,0.3856 13.3258,1.4594 18.338,5.9033 4.1733,3.3093 7.4788,7.6649 9.6894,12.5017 7.4443,2.6087 15.202,-0.3538 22.3373,-2.5664 16.4381,-5.4376 32.2317,-12.9953 49.2858,-16.4376 3.5884,0.7788 6.5872,3.5474 7.8886,6.9493 8.0152,2.2412 15.9839,-1.3097 23.794,-2.7571 6.2403,-1.3461 12.5318,-2.7699 18.9482,-2.8015 3.0995,3.638 7.2466,7.4776 12.4082,6.9019 15.4288,0.835 31.3523,-0.6599 46.2309,4.3807 9.2536,4.1195 16.4666,11.8812 21.3453,20.6256 15.8086,-8.9909 29.3816,-22.0493 46.834,-28.0098 11.9971,-4.3383 26.6897,-2.6979 36.2016,6.2522 2.6821,2.5261 4.992,5.411 7.1792,8.3669 6.973,-5.1811 12.9509,-12.4992 21.7813,-14.5117 12.8546,-3.9962 26.5062,-1.6573 39.3711,1.0176 11.3813,2.161 22.6923,4.68 33.9433,7.4375 -6.1156,-5.1788 -11.2384,-12.5211 -11.2441,-20.8125 1.6413,-6.7253 8.6192,-11.6557 15.5078,-10.9355 -1.9708,-4.2752 -2.8941,-10.1594 0.7968,-13.7996 5.8594,-5.6264 14.3681,-6.5322 22.0719,-7.2891 2.034,-0.2719 4.068,-0.5438 6.102,-0.8156 -13.6473,-7.597 -17.3812,-28.2054 -7.1973,-40.0703 6.6971,-7.0826 15.0321,-12.34 23.5645,-16.9258 -12.2465,-0.6773 -24.6647,2.2892 -36.7734,-0.584 -6.7618,-4.2904 -9.5782,-12.2299 -14.702,-18.0419 -2.8385,-5.7999 0.08,-13.0044 5.154,-16.5283 10.9452,-11.0312 21.4161,-22.641 29.9405,-35.6784 4.9476,-7.1868 9.5017,-14.6358 13.8887,-22.1752 -14.4823,19.6818 -34.6969,35.769 -58.3662,42.6724 -7.8508,2.4632 -15.9193,5.5553 -24.2979,4.5815 -4.1788,-1.9666 -7.7361,-5.992 -12.6953,-5.7344 -8.83,3.3561 -17.6601,6.7122 -26.4902,10.0683 -2.6034,-2.0256 -4.5493,-4.8843 -5.459,-8.0566 -8.5163,0.411 -17.3457,-1.0989 -24.6875,-5.6133 -3.6359,-5.9477 -4.1389,-13.616 -1.5039,-20.0469 -11.8784,8.4929 -22.154,18.932 -33.2539,28.3672 -11.3256,-2.193 -20.6784,-10.7951 -32.5039,-10.9922 -31.9046,-2.6757 -63.9984,-5.4418 -96.0112,-3.0677 -15.4692,2.452 -31.0569,6.9416 -46.8385,4.6844 -15.4519,-1.6019 -31.3025,-4.4384 -46.6725,-0.6881 -7.6873,1.796 -16.4611,2.7429 -23.4894,-1.6373 -11.206,-6.4628 -18.3144,-17.6313 -26.6444,-27.1508 -2.2891,-2.7756 -4.641,-5.4987 -7.0315,-8.1873 -0.081,0.6992 -0.1628,1.3984 -0.2441,2.0976 z"
       id="path4508-9"
       inkscape:connector-curvature="0"
       sodipodi:nodetypes="cccccccccccccccccccccccccccccccccccccccccccccccccccc" />
    <path
       style="display:inline;fill:#ffffff;fill-rule:evenodd;stroke:none;stroke-width:1px;stroke-linecap:butt;stroke-linejoin:miter;stroke-opacity:1"
       d="m 1233.6858,1551.6001 c -0.6088,14.9763 -3.2662,30.4744 -11.6602,43.1992 -14.8841,9.9032 -36.2507,8.0436 -49.4355,-3.9336 -3.5264,1.0549 -2.8555,5.9619 -0.6573,7.9977 4.5653,13.7745 9.2425,27.5385 12.6592,41.6546 -4.4891,4.279 -12.8509,2.8847 -15.7109,-2.6171 1.3669,8.6577 9.0993,15.0735 9.2832,24.0527 -3.2425,6.8509 -9.0513,8.5402 -20.1223,10.7721 5.3124,6.4634 11.6281,13.6119 11.1957,22.5472 -0.3631,10.3506 -8.9731,18.5756 -18.2792,21.838 -1.2231,0.4177 -0.6879,1.3365 0.4206,1.0804 16.2988,2.5904 33.591,0.1279 49.0566,6.9673 11.0238,3.8318 20.4902,14.403 20.0294,26.5313 -0.1822,2.4172 -1.2404,4.6955 -1.2637,7.1289 9.9847,-3.685 19.8226,-8.7143 30.6621,-9.1211 4.3073,2.217 5.2329,8.9238 1.6113,12.1739 12.3713,-0.8761 21.0186,-12.6591 33.6085,-12.661 4.0678,-0.2209 7.9048,3.728 7.103,7.7668 1.9073,2.4778 5.7142,-3.4752 8.2321,-3.6732 7.151,-1.7096 6.0308,-2.3202 13.4965,-2.6628 2.6649,1.0566 6.0435,1.9214 9.2006,6.7575 5.2846,-1.6599 7.7002,-3.2964 11.075,-3.2618 10.9369,-1.9429 17.8423,-9.5681 33.1827,-4.0373 10.2139,2.6901 15.3882,11.4501 21.1071,16.5363 3.213,-4.9904 7.0279,-8.3773 10.3381,-11.6886 5.9591,-9.0484 17.0554,-11.7554 27.6095,-13.0204 9.0423,-2.4924 18.3923,1.1364 27.5402,4.914 5.5929,2.837 10.5635,6.8716 16.5087,9.009 4.6597,-2.9935 9.7234,-7.6176 15.7098,-5.8788 6.1907,1.2629 11.6117,4.7237 17.5988,6.6014 -3.5224,-5.2749 -9.0263,-9.9378 -9.4063,-16.6953 2.3004,-4.1426 7.1099,-5.7219 11.4043,-6.8906 -0.1977,-5.8386 4.5098,-10.7273 9.7383,-12.6035 1.1008,-4.2932 -3.8743,-6.3524 -5.477,-9.6772 -3.9437,-6.1856 -2.2688,-16.333 5.1814,-18.9876 4.2904,-1.6863 9.1455,-1.1902 13.3366,-3.2024 -0.18,-3.6135 -4.6184,-3.559 -7.1933,-4.4551 -7.4747,-2.3525 -15.8691,-5.8666 -19.0964,-13.6003 -1.2904,-4.5717 2.4751,-8.5977 2.5784,-12.9751 -1.8945,-3.1602 -6.5169,-5.5187 -5.3945,-9.8157 2.7605,-12.6493 12.5356,-21.8467 19.4186,-32.3092 10.2942,-14.1637 20.5884,-28.3274 30.8825,-42.4911 -16.8501,16.7767 -33.636,33.8856 -53.2754,47.4531 -4.7205,-0.2747 -7.3913,-6.8783 -4.1894,-10.3574 -7.0666,1.8352 -11.903,7.7663 -18.2207,11.041 -2.5103,-3.2623 -2.1754,-8.188 0.4277,-11.2968 -3.2857,-2.8821 -7.7703,2.6571 -10.8867,-0.7012 -4.1229,-4.4836 -2.1442,-10.9601 -1.2201,-16.2618 1.0696,-5.1539 2.6476,-10.1858 3.7514,-15.332 -10.9786,12.8442 -18.6778,28.756 -32.5542,38.929 -2.3493,1.8328 -5.875,2.7874 -8.3192,0.5686 -2.3184,-1.538 -3.9576,-4.1363 -4.1598,-6.9312 -8.4207,0.8047 -15.8605,7.2402 -24.586,5.5059 -9.1981,-4.4956 -20.1094,-2.5912 -29.0762,1.5215 -8.6501,-0.014 -15.1645,-8.2277 -23.9999,-7.1392 -5.5099,-0.9398 -9.0403,-5.8572 -12.0604,-9.9732 -5.4418,-0.6012 -8.306,5.1911 -12.8891,6.9807 -11.1991,5.829 -25.3025,2.6338 -34.8428,-4.9761 -2.217,-2.1426 -5.4642,-4.8476 -8.624,-2.7953 -3.589,1.7483 -4.9906,6.6255 -9.0775,7.4051 -6.6505,0.772 -12.3358,-5.2245 -13.1622,-11.485 -7.2076,-15.108 -12.8116,-30.9005 -19.0472,-46.4174 -0.02,0.9974 -0.04,1.9948 -0.061,2.9922 z"
       id="path4508-9-6"
       inkscape:connector-curvature="0"
       sodipodi:nodetypes="cccccccccccccccccccccccccccccccccccccccccccccccccccccccccccccccc" />
    <path
       style="color:#000000;display:inline;overflow:visible;visibility:visible;fill:#ffffff;fill-opacity:1;fill-rule:nonzero;stroke:none;stroke-width:0.99999994px;marker:none;enable-background:accumulate"
       d="m 1322.5586,1728.1016 c -11.0094,9.9702 -17.1146,23.8053 -25.197,35.9928 -5.7365,9.1028 -17.9114,24.8135 -26.046,32.2016 7.6812,0.2097 5.7344,0.8326 10.9478,2.0534 3.3706,1.3513 7.7807,2.3941 9.3038,6.0235 -1.4478,7.677 -8.2527,12.4101 -13.2117,17.8317 -21.2393,19.7738 -50.3466,30.4414 -79.2715,30.188 30.5673,5.5836 63.676,0.269 89.5548,-17.4158 15.5847,-11.4657 31.0045,-29.6098 44.4036,-43.4287 -3.8521,-0.6581 -8.7325,-0.5391 -12.6274,-0.7071 -7.2015,-0.9549 -9.1708,-6.0664 -6.2213,-10.4154 3.8653,-10.2383 12.9809,-16.9751 20.7567,-24.1405 4.6114,-3.9349 9.2499,-7.8384 13.8074,-11.8359 -7.5773,-6.8137 -16.4342,-11.9448 -25.0566,-17.289 -0.3809,0.3138 -0.7617,0.6276 -1.1426,0.9414 z"
       id="path5066-6"
       inkscape:connector-curvature="0"
       sodipodi:nodetypes="ccccccccccccccc" />
    <path
       style="color:#000000;display:inline;overflow:visible;visibility:visible;fill:#ffffff;fill-opacity:1;fill-rule:nonzero;stroke:none;stroke-width:1px;marker:none;enable-background:accumulate"
       d="m 1441.916,355.47571 c -40.3573,1.56885 -81.1182,9.04093 -116.8749,26.42932 -14.4117,7.72462 -26.8741,19.97094 -30.2978,35.07399 -1.2873,14.86684 6.4208,29.5407 18.0844,39.81667 11.7862,9.68135 27.6074,13.94957 43.0315,16.32272 54.0434,11.04226 109.5989,15.05977 164.9401,15.05427 33.0806,1.1268 66.5295,1.52522 99.1582,-4.25109 22.2589,-2.77574 44.6384,-7.29498 64.5469,-16.97571 15.8318,-7.2199 29.2772,-19.95299 33.7795,-35.62661 2.9606,-11.99215 0.4612,-24.79439 -5.6218,-35.6868 -5.6156,-9.0593 -15.5482,-15.62515 -26.6152,-18.38008 -19.8261,-6.23528 -40.7899,-8.50314 -61.3589,-11.8868 -60.4514,-8.17039 -121.7367,-9.72031 -182.772,-9.88988 z"
       id="path3365-74"
       inkscape:connector-curvature="0"
       sodipodi:nodetypes="csssssc" />
    <path
       style="display:inline;fill:#ffffff;fill-rule:evenodd;stroke:none;stroke-width:1.23641467px;stroke-linecap:butt;stroke-linejoin:miter;stroke-opacity:1"
       d="m 1449.3662,124.9505 c -34.9391,0.38599 -70.504,-1.22989 -104.6425,6.98826 -22.7873,5.52943 -44.0518,19.43318 -54.0603,39.54702 -7.0311,15.81305 -1.2186,34.66567 11.3823,46.63739 6.9789,6.76206 14.7279,13.60859 24.6072,16.42522 9.1243,2.54143 18.713,0.99986 28.0643,1.29424 17.1576,-0.14066 34.3122,0.44407 51.4269,1.51249 67.8039,2.41748 135.6804,1.62733 203.5056,0.57368 22.3739,-0.7183 45.4283,-1.89015 66.2365,-10.24833 13.3018,-5.74789 24.5351,-16.63156 27.7005,-30.14875 4.2729,-14.82251 1.1404,-32.22842 -11.155,-43.13396 -11.4983,-10.48285 -26.6872,-16.54769 -41.732,-21.35899 -19.8752,-5.79725 -40.9357,-6.40673 -61.6065,-6.02763 -27.2394,-0.37607 -54.4754,-0.89413 -81.7066,-1.61992 -19.3369,-0.44807 -38.6788,-0.48431 -58.0204,-0.44072 z"
       id="path1297"
       inkscape:connector-curvature="0" />
    <path
       style="display:inline;fill:#ffffff;fill-rule:evenodd;stroke:none;stroke-width:1.12583423px;stroke-linecap:butt;stroke-linejoin:miter;stroke-opacity:1"
       d="m 1572.9618,208.47852 c -60.877,2.93015 -121.7967,4.91975 -182.5938,10.15913 -18.5349,1.92023 -37.5239,5.5187 -54.1295,17.2328 -12.0532,8.84149 -20.0814,25.05005 -24.1571,42.10005 -1.8151,6.84766 -2.3813,14.2342 -1.4226,21.39382 1.4477,11.97596 5.2365,23.14133 8.5397,34.36904 4.0038,12.69551 9.7238,25.09694 18.6211,32.76453 13.4966,12.22212 29.8437,18.13812 46.0926,19.03049 8.1729,0.59941 16.3439,-0.35293 24.5204,-0.14918 72.8152,-0.3468 145.8177,1.94644 218.4096,-7.15703 18.7503,-2.82699 37.4195,-12.96058 50.3981,-31.46464 7.7281,-11.16398 11.247,-26.62317 10.75,-41.58118 0.3132,-13.61486 0.9146,-27.48045 -1.3744,-40.86368 -3.5491,-12.48607 -11.8139,-21.07558 -19.8588,-28.42494 -16.8544,-15.46383 -37.3456,-22.39732 -57.598,-24.44855 -12.0103,-1.88264 -24.0972,-3.0519 -36.1973,-2.96066 z"
       id="path1299"
       inkscape:connector-curvature="0" />
    <path
       style="display:inline;fill:#ffffff;fill-rule:evenodd;stroke:none;stroke-width:1px;stroke-linecap:butt;stroke-linejoin:miter;stroke-opacity:1"
       d="m 1516.8322,467.18878 c -6.6131,0.47706 -14.4131,0.53134 -19.0606,6.05273 -9.2681,15.84095 -16.7496,33.90699 -15.1611,52.61768 2.1917,20.11622 13.9704,37.89228 28.3815,51.53834 8.5346,8.09616 15.6793,18.09456 18.3938,29.69937 4.3317,16.40289 0.7816,35.11834 -10.8279,47.78415 -2.1207,2.52133 -4.4197,4.88481 -6.7453,7.21593 17.3235,-9.37091 31.4532,-26.25408 34.2349,-46.13162 1.2634,-15.92483 -6.122,-31.08454 -15.4694,-43.50249 -9.5013,-13.2266 -21.135,-25.79068 -25.2403,-41.97989 -3.1205,-17.66298 3.3092,-35.58183 12.9847,-50.18689 1.9316,-3.08666 4.9581,-6.76026 3.4836,-10.5888 -1.0225,-1.66362 -3.0088,-2.74768 -4.9739,-2.51851 z"
       id="path1303"
       inkscape:connector-curvature="0"
       sodipodi:nodetypes="cccccccc" />
    <path
       style="color:#000000;display:inline;overflow:visible;visibility:visible;fill:#ffffff;fill-opacity:1;fill-rule:nonzero;stroke:none;stroke-width:1px;marker:none;filter:url(#filter1101);enable-background:accumulate"
       d="m 2064.5541,245.38398 c -39.6392,1.7245 -79.6747,9.93788 -114.7951,29.05136 -14.1553,8.49097 -26.3959,21.95224 -29.7587,38.55366 -1.2644,16.34177 6.3065,32.47141 17.7626,43.76686 11.5765,10.64183 27.1161,15.33349 42.2658,17.94208 53.0817,12.13776 107.6486,16.55384 162.005,16.5478 32.4919,1.23859 65.3456,1.67653 97.3937,-4.67284 21.8628,-3.05112 43.8441,-8.01871 63.3983,-18.65986 15.5501,-7.93618 28.7562,-21.93251 33.1784,-39.16111 2.9079,-13.18188 0.453,-27.25422 -5.5218,-39.22726 -5.5156,-9.95807 -15.2715,-17.17531 -26.1416,-20.20356 -19.4733,-6.85388 -40.064,-9.34673 -60.267,-13.06608 -59.3757,-8.98097 -119.5704,-10.68466 -179.5196,-10.87105 z"
       id="path3365-74-3"
       inkscape:connector-curvature="0"
       sodipodi:nodetypes="csssssc" />
  </g>
  <g
     inkscape:groupmode="layer"
     id="layer1"
     inkscape:label="txt"
     style="display:inline">
    <text
       xml:space="preserve"
       style="font-style:normal;font-variant:normal;font-weight:normal;font-stretch:normal;line-height:0%;font-family:'小赖字体 SC';-inkscape-font-specification:'小赖字体 SC';text-align:center;letter-spacing:0px;word-spacing:0px;text-anchor:middle;fill:#000000;fill-opacity:1;stroke:none"
       x="1509.0961"
       y="197.70142"
       id="text4246-86"
       sodipodi:linespacing="0%"><tspan
         sodipodi:role="line"
         style="font-style:normal;font-variant:normal;font-weight:normal;font-stretch:normal;font-size:45px;line-height:1.20000005;font-family:'小赖字体 SC';-inkscape-font-specification:'小赖字体 SC'"
         x="1509.0961"
         y="197.70142"
         id="tspan1167">至于嘛，萝卜头？</tspan></text>
    <text
       xml:space="preserve"
       style="font-style:normal;font-variant:normal;font-weight:normal;font-stretch:normal;line-height:0%;font-family:'小赖字体 SC';-inkscape-font-specification:'小赖字体 SC';text-align:center;letter-spacing:0px;word-spacing:0px;text-anchor:middle;fill:#000000;fill-opacity:1;stroke:none"
       x="1510.4191"
       y="296.72693"
       id="text4246-86-3"
       sodipodi:linespacing="0%"><tspan
         sodipodi:role="line"
         style="font-style:normal;font-variant:normal;font-weight:normal;font-stretch:normal;font-size:45px;line-height:1.20000005;font-family:'小赖字体 SC';-inkscape-font-specification:'小赖字体 SC'"
         x="1510.4191"
         y="296.72693"
         id="tspan855">希望这块肉值得</tspan><tspan
         sodipodi:role="line"
         style="font-style:normal;font-variant:normal;font-weight:normal;font-stretch:normal;font-size:45px;line-height:1.20000005;font-family:'小赖字体 SC';-inkscape-font-specification:'小赖字体 SC'"
         x="1510.4191"
         y="350.72693"
         id="tspan3382">你这番辛苦。</tspan></text>
    <text
       xml:space="preserve"
       style="font-style:normal;font-variant:normal;font-weight:normal;font-stretch:normal;line-height:0%;font-family:'小赖字体 SC';-inkscape-font-specification:'小赖字体 SC';text-align:center;letter-spacing:0px;word-spacing:0px;text-anchor:middle;fill:#000000;fill-opacity:1;stroke:none"
       x="1517.1128"
       y="441.07376"
       id="text4246-86-3-7"
       sodipodi:linespacing="0%"><tspan
         sodipodi:role="line"
         style="font-style:normal;font-variant:normal;font-weight:normal;font-stretch:normal;font-size:45px;line-height:1.20000005;font-family:'小赖字体 SC';-inkscape-font-specification:'小赖字体 SC'"
         x="1517.1128"
         y="441.07376"
         id="tspan855-5">你看起来很搞笑...</tspan></text>
    <text
       xml:space="preserve"
       style="font-style:normal;font-variant:normal;font-weight:normal;font-stretch:normal;line-height:0%;font-family:'小赖字体 SC';-inkscape-font-specification:'小赖字体 SC';letter-spacing:0px;word-spacing:0px;display:inline;fill:#ffffff;fill-opacity:1;stroke:#ffffff;stroke-width:1.14998245;stroke-miterlimit:4;stroke-dasharray:none;stroke-opacity:1;filter:url(#filter4375-4-1-1-1-9-6-9-2-1-7-1)"
       x="787.65729"
       y="1584.5073"
       id="text4580-1-7-3-6-9-4"
       transform="matrix(0.8084187,0.00200213,-0.18183537,0.93491494,1593.3651,-1147.577)"
       sodipodi:linespacing="0%"><tspan
         sodipodi:role="line"
         id="tspan4582-8-5-6-1-3-5"
         x="787.65729"
         y="1584.5073"
         style="font-style:normal;font-variant:normal;font-weight:normal;font-stretch:normal;font-size:70px;line-height:1.25;font-family:'小赖字体 SC';-inkscape-font-specification:'小赖字体 SC';letter-spacing:3.44994736px;fill:#ffffff;fill-opacity:1;stroke:#ffffff;stroke-width:1.14998245;stroke-miterlimit:4;stroke-dasharray:none;stroke-opacity:1">...你看起来...</tspan></text>
    <text
       xml:space="preserve"
       style="font-style:normal;font-variant:normal;font-weight:normal;font-stretch:normal;font-size:13.85896969px;line-height:0%;font-family:Lavi;-inkscape-font-specification:Lavi;text-align:center;letter-spacing:0px;word-spacing:0px;text-anchor:middle;display:inline;fill:#000000;fill-opacity:1;stroke:none;stroke-width:3.5999999;stroke-miterlimit:4;stroke-dasharray:none"
       x="1771.8191"
       y="1411.5159"
       id="text4246-2-3-1-3-9-0-5-3-3-6-9-3-7-3-9-4"
       transform="matrix(0.87552816,0,-0.14342897,1.1421677,0,0)"
       sodipodi:linespacing="0%"><tspan
         sodipodi:role="line"
         style="font-style:normal;font-variant:normal;font-weight:normal;font-stretch:normal;font-size:64.97789001px;line-height:1.25;font-family:'小赖字体 SC';-inkscape-font-specification:'小赖字体 SC';stroke:none;stroke-width:3.5999999;stroke-miterlimit:4;stroke-dasharray:none;stroke-opacity:1"
         x="1771.8191"
         y="1411.5159"
         id="tspan4579-4">人靠衣服马靠鞍 !</tspan></text>
    <text
       xml:space="preserve"
       style="font-style:normal;font-variant:normal;font-weight:normal;font-stretch:normal;font-size:12.51824951px;line-height:0%;font-family:Lavi;-inkscape-font-specification:Lavi;text-align:center;letter-spacing:0px;word-spacing:0px;text-anchor:middle;display:inline;fill:#000000;fill-opacity:1;stroke:none;stroke-width:3.5999999;stroke-miterlimit:4;stroke-dasharray:none"
       x="1618.0042"
       y="1589.5555"
       id="text4246-2-3-1-3-9-0-5-3-3-6-9-3-7-3-9-4-6"
       transform="matrix(0.92759422,0,-0.09976132,1.0780576,0,0)"
       sodipodi:linespacing="0%"><tspan
         sodipodi:role="line"
         style="font-style:normal;font-variant:normal;font-weight:normal;font-stretch:normal;font-size:58.69190979px;line-height:1.25;font-family:'小赖字体 SC';-inkscape-font-specification:'小赖字体 SC';stroke:none;stroke-width:3.5999999;stroke-miterlimit:4;stroke-dasharray:none;stroke-opacity:1"
         x="1618.0042"
         y="1589.5555"
         id="tspan4579-4-2">绝对真理 !</tspan></text>
    <text
       xml:space="preserve"
       style="font-style:normal;font-variant:normal;font-weight:normal;font-stretch:normal;line-height:0%;font-family:'小赖字体 SC';-inkscape-font-specification:'小赖字体 SC';letter-spacing:0px;word-spacing:0px;fill:#000000;fill-opacity:1;stroke:#000000;stroke-width:1.19005191;stroke-miterlimit:4;stroke-dasharray:none;stroke-opacity:1;filter:url(#filter4375-4-1-1-1-9)"
       x="787.65729"
       y="1584.5073"
       id="text4580"
       transform="matrix(0.81821305,-0.33688634,-0.15105419,1.1716012,481.86174,1568.9719)"
       sodipodi:linespacing="0%"><tspan
         sodipodi:role="line"
         id="tspan4582"
         x="787.65729"
         y="1584.5073"
         style="font-style:normal;font-variant:normal;font-weight:normal;font-stretch:normal;font-size:70px;line-height:1.25;font-family:'小赖字体 SC';-inkscape-font-specification:'小赖字体 SC';fill:#ffffff;stroke-width:1.19005191">咔嚓 <tspan
   style="font-style:normal;font-variant:normal;font-weight:normal;font-stretch:normal;font-size:80.40014648px;font-family:'小赖字体 SC';-inkscape-font-specification:'小赖字体 SC';stroke-width:1.19005191"
   id="tspan4617">!</tspan></tspan></text>
  </g>
</svg>
