<?xml version="1.0" encoding="UTF-8" standalone="no"?>
<svg
   id="svg2"
   version="1.1"
   inkscape:version="1.1 (c4e8f9ed74, 2021-05-24)"
   width="2481"
   height="3503"
   sodipodi:docname="E35P10.svg"
   xmlns:inkscape="http://www.inkscape.org/namespaces/inkscape"
   xmlns:sodipodi="http://sodipodi.sourceforge.net/DTD/sodipodi-0.dtd"
   xmlns:xlink="http://www.w3.org/1999/xlink"
   xmlns="http://www.w3.org/2000/svg"
   xmlns:svg="http://www.w3.org/2000/svg"
   xmlns:rdf="http://www.w3.org/1999/02/22-rdf-syntax-ns#"
   xmlns:cc="http://creativecommons.org/ns#"
   xmlns:dc="http://purl.org/dc/elements/1.1/">
  <metadata
     id="metadata8">
    <rdf:RDF>
      <cc:Work
         rdf:about="">
        <dc:format>image/svg+xml</dc:format>
        <dc:type
           rdf:resource="http://purl.org/dc/dcmitype/StillImage" />
        <dc:title />
      </cc:Work>
    </rdf:RDF>
  </metadata>
  <defs
     id="defs6" />
  <sodipodi:namedview
     pagecolor="#ffffff"
     bordercolor="#666666"
     borderopacity="1"
     objecttolerance="10"
     gridtolerance="10"
     guidetolerance="10"
     inkscape:pageopacity="0"
     inkscape:pageshadow="2"
     inkscape:window-width="2560"
     inkscape:window-height="1390"
     id="namedview4"
     showgrid="false"
     inkscape:zoom="0.18809182"
     inkscape:cx="1164.325"
     inkscape:cy="1555.0916"
     inkscape:window-x="0"
     inkscape:window-y="24"
     inkscape:window-maximized="1"
     inkscape:current-layer="layer3"
     inkscape:document-rotation="0"
     inkscape:snap-global="false"
     inkscape:pagecheckerboard="0" />
  <g
     inkscape:groupmode="layer"
     id="layer2"
     inkscape:label="artwork"
     sodipodi:insensitive="true">
    <image
       xlink:href="../gfx_Pepper-and-Carrot_by-David-Revoy_E35P10.png"
       y="0"
       x="0"
       id="image10"
       height="3503"
       width="2481" />
  </g>
  <g
     inkscape:groupmode="layer"
     id="layer3"
     inkscape:label="speechbubbles">
    <path
       style="fill:#ffffff;stroke:none;stroke-width:0.953513"
       d="m 1271.5442,421.02709 c -45.5951,-0.29098 -91.6895,0.47467 -136.5144,-10.8164 -18.638,-4.56706 -37.6074,-9.98485 -53.9786,-21.85547 -19.3898,-14.22857 -35.4829,-35.8119 -42.3207,-61.71319 -5.586,-22.55228 -2.0768,-47.05188 6.3639,-67.98492 9.9569,-25.96015 28.0611,-47.72975 50.4595,-58.89989 22.9754,-12.67802 47.3923,-21.30987 71.9624,-28.54857 35.6883,-9.60291 72.451,-11.19293 108.9191,-11.97595 44.0586,-1.49972 88.3528,-4.40377 132.2505,1.8898 27.1358,3.71944 54.1738,8.70206 80.8375,15.73301 26.6836,7.2385 53.276,17.86124 75.7099,36.77391 10.2946,8.36057 18.026,20.45188 23.3029,33.6715 3.6389,9.09672 6.2578,18.69761 8.81,28.27201 4.6714,18.74127 6.0617,39.07366 1.3489,58.00714 -5.9754,25.23075 -21.9708,46.72418 -42.2712,57.45367 -20.6,11.90018 -43.3929,16.87592 -65.8208,21.5171 -32.6356,6.08342 -65.7492,6.88313 -98.7162,7.90491 -39.6746,0.70896 -79.3558,0.54456 -119.0335,0.58217 -0.4364,-0.004 -0.8728,-0.007 -1.3092,-0.0108 z"
       id="path3100-98"
       inkscape:connector-curvature="0"
       sodipodi:nodetypes="zsssssz" />
    <path
       style="color:#000000;display:inline;overflow:visible;visibility:visible;fill:#ffffff;fill-opacity:1;fill-rule:nonzero;stroke:none;stroke-width:0.83737px;marker:none;enable-background:accumulate"
       d="m 1448.7795,517.63055 c 2.403,-24.32977 -9.2766,-33.6163 -20.6628,-38.28253 -11.3869,-4.66626 -19.0826,-5.58729 -28.1978,-26.0826 -9.1142,-20.49521 -0.7357,-41.29642 -4.8853,-52.46499 -11.4569,-16.24953 -34.9307,-26.06627 -44.5289,-30.51513 -21.6856,-10.05119 11.3091,-23.29909 11.3091,-23.29909 8.77,-0.30545 47.7455,23.68713 57.7575,33.72157 14.4084,14.44054 -4.0636,48.20741 4.0399,65.52593 7.5675,16.17219 18.2749,17.40774 23.9472,28.63593 5.6729,11.22843 4.8219,31.66667 1.2211,42.76091 z"
       id="path4538-8"
       inkscape:connector-curvature="0"
       sodipodi:nodetypes="csscscsssc" />
    <path
       style="color:#000000;display:inline;overflow:visible;visibility:visible;fill:#ffffff;fill-opacity:1;fill-rule:nonzero;stroke:none;stroke-width:1.21196px;marker:none;enable-background:accumulate"
       d="m 128.60526,1521.6618 c 4.04686,-52.835 4.62778,-103.8757 58.15572,-134.3848 53.52782,-30.5077 147.82948,-38.1731 266.27874,-29.2988 63.44774,4.7531 143.3755,11.1057 193.97011,33.0647 50.59462,21.9591 71.8562,59.5245 66.66422,136.9162 -5.19199,77.3916 -33.21031,110.9507 -91.65593,130.2669 -58.44553,19.3177 -147.31858,24.3928 -168.71908,26.3926 -21.40048,1.9996 -87.77534,-0.5587 -153.62887,-10.1499 -65.85341,-9.5912 -110.89691,-16.2888 -130.21198,-42.4256 -30.27953,-33.1568 -42.6943,-71.9148 -40.85293,-110.3813 z"
       id="path4546-6-2-0"
       inkscape:connector-curvature="0"
       sodipodi:nodetypes="cssssssscc" />
    <path
       style="fill:#ffffff;fill-rule:evenodd;stroke:none;stroke-width:1.12465px;stroke-linecap:butt;stroke-linejoin:miter;stroke-opacity:1"
       d="m 566.83527,1651.6586 c 4.43847,-15.3188 61.8645,41.4938 43.56991,104.2767 2.42387,27.4208 22.18027,42.2423 21.12076,57.0045 -1.05963,24.2524 -9.53608,35.8508 -36.02508,55.8848 33.90594,-15.8168 54.23301,-33.7608 55.29264,-58.0121 1.05951,-24.2524 -17.71625,-25.1329 -17.14842,-60.0829 1.05952,-10.5449 25.79381,-65.3353 -26.69151,-120.7385 19.07205,-20.0341 -40.1183,21.6675 -40.1183,21.6675 z"
       id="path1303"
       inkscape:connector-curvature="0"
       sodipodi:nodetypes="cccccccc" />
    <path
       style="color:#000000;display:inline;overflow:visible;visibility:visible;fill:#ffffff;fill-opacity:1;fill-rule:nonzero;stroke:none;stroke-width:0.79738px;marker:none;enable-background:accumulate"
       d="m 1305.292,1541.7467 c 2.1509,-37.3903 2.4596,-73.5107 30.9107,-95.1015 28.4508,-21.5896 78.5737,-27.0143 141.5313,-20.7341 33.7236,3.3636 76.2065,7.8593 103.0984,23.3992 26.8919,15.54 38.1926,42.1243 35.4331,96.8929 -2.7595,54.7685 -17.6517,78.5176 -48.7165,92.1873 -31.0649,13.6708 -78.3023,17.2623 -89.677,18.6775 -11.3747,1.4151 -46.6542,-0.3954 -81.6564,-7.1829 -35.0022,-6.7874 -58.9434,-11.5272 -69.2096,-30.0237 -16.094,-23.4644 -22.6928,-50.8927 -21.714,-78.1147 z"
       id="path4546-6-2-0-3"
       inkscape:connector-curvature="0"
       sodipodi:nodetypes="cssssssscc" />
    <path
       style="color:#000000;display:inline;overflow:visible;visibility:visible;fill:#ffffff;fill-opacity:1;fill-rule:nonzero;stroke:none;stroke-width:0.785671px;marker:none;enable-background:accumulate"
       d="m 1351.2932,1759.375 c 2.1835,-41.1512 2.4969,-80.9047 31.3788,-104.6672 28.8817,-23.7613 79.7637,-29.7316 143.6745,-22.8197 34.2343,3.702 77.3604,8.6498 104.6596,25.7529 27.2991,17.1029 38.7711,46.3614 35.9697,106.6388 -2.8014,60.2772 -17.9192,86.415 -49.4543,101.4599 -31.5351,15.0458 -79.488,18.9986 -91.035,20.556 -11.5469,1.5576 -47.3606,-0.4349 -82.8927,-7.9053 -35.5322,-7.4703 -59.836,-12.6866 -70.2578,-33.0436 -16.3378,-25.8245 -23.0363,-56.0116 -22.0428,-85.9718 z"
       id="path4546-6-2-0-3-6"
       inkscape:connector-curvature="0"
       sodipodi:nodetypes="cssssssscc" />
    <path
       style="color:#000000;display:inline;overflow:visible;visibility:visible;fill:#ffffff;fill-opacity:1;fill-rule:nonzero;stroke:none;stroke-width:1.47843px;marker:none;enable-background:accumulate"
       d="m 1474.8245,1844.8292 c 6.1533,73.3287 -47.1663,130.4434 -118.01,146.3855 114.7363,-9.2052 166.2605,-106.0374 160.9588,-137.1332 -5.191,-30.4467 -42.9488,-9.2523 -42.9488,-9.2523 z"
       id="path5010-4"
       inkscape:connector-curvature="0"
       sodipodi:nodetypes="ccsc" />
  </g>
  <g
     inkscape:groupmode="layer"
     id="layer1"
     inkscape:label="txt">
    <text
       xml:space="preserve"
       style="font-style:normal;font-variant:normal;font-weight:normal;font-stretch:normal;font-size:45px;line-height:1.25;font-family:Lavi;-inkscape-font-specification:Lavi;text-align:center;letter-spacing:0px;word-spacing:0px;text-anchor:middle;fill:#000000;fill-opacity:1;stroke:none"
       x="1325.0667"
       y="244.98175"
       id="text4246-3-2-2"><tspan
         style="font-size:45px"
         sodipodi:role="line"
         x="1325.0667"
         y="244.98175"
         id="tspan7817">Ĉu vi scias, ke cedi</tspan><tspan
         style="font-size:45px"
         sodipodi:role="line"
         x="1325.0667"
         y="301.23175"
         id="tspan15985">al majstrino Vasabio </tspan><tspan
         style="font-size:45px"
         sodipodi:role="line"
         x="1325.0667"
         y="357.48175"
         id="tspan20039">ne finiĝos bone por vi ?</tspan></text>
    <text
       xml:space="preserve"
       style="font-style:normal;font-variant:normal;font-weight:normal;font-stretch:normal;font-size:45px;line-height:1.25;font-family:Lavi;-inkscape-font-specification:Lavi;text-align:center;letter-spacing:0px;word-spacing:0px;text-anchor:middle;fill:#000000;fill-opacity:1;stroke:none"
       x="413.41315"
       y="1454.8612"
       id="text4246-3-2-2-3"><tspan
         style="font-size:45px"
         sodipodi:role="line"
         x="413.41315"
         y="1454.8612"
         id="tspan920">Mi scias, sed mi</tspan><tspan
         style="font-size:45px"
         sodipodi:role="line"
         x="413.41315"
         y="1511.1112"
         id="tspan886">ankoraŭ sentas, ke devas</tspan><tspan
         style="font-size:45px"
         sodipodi:role="line"
         x="413.41315"
         y="1567.3612"
         id="tspan890"> esti maniero ŝin atingi</tspan><tspan
         style="font-size:45px"
         sodipodi:role="line"
         x="413.41315"
         y="1623.6112"
         id="tspan892"> – ŝin komprenigi.</tspan></text>
    <text
       xml:space="preserve"
       style="font-style:normal;font-variant:normal;font-weight:normal;font-stretch:normal;font-size:45px;line-height:1.25;font-family:Lavi;-inkscape-font-specification:Lavi;text-align:center;letter-spacing:0px;word-spacing:0px;text-anchor:middle;fill:#000000;fill-opacity:1;stroke:none"
       x="1460.6498"
       y="1490.1573"
       id="text4246-3-2-2-3-3"><tspan
         style="font-size:45px"
         sodipodi:role="line"
         x="1460.6498"
         y="1490.1573"
         id="tspan896">Finfine,</tspan><tspan
         style="font-size:45px"
         sodipodi:role="line"
         x="1460.6498"
         y="1546.4073"
         id="tspan15709">ĉio estas</tspan><tspan
         style="font-size:45px"
         sodipodi:role="line"
         x="1460.6498"
         y="1602.6573"
         id="tspan15711">riparebla.</tspan></text>
    <text
       xml:space="preserve"
       style="font-style:normal;font-variant:normal;font-weight:normal;font-stretch:normal;font-size:45px;line-height:1.25;font-family:Lavi;-inkscape-font-specification:Lavi;text-align:center;letter-spacing:0px;word-spacing:0px;text-anchor:middle;fill:#000000;fill-opacity:1;stroke:none"
       x="1510.4325"
       y="1723.9688"
       id="text4246-3-2-2-3-3-1"><tspan
         style="font-size:45px"
         sodipodi:role="line"
         x="1510.4325"
         y="1723.9688"
         id="tspan17416">Tion mi lernis</tspan><tspan
         style="font-size:45px"
         sodipodi:role="line"
         x="1510.4325"
         y="1780.2188"
         id="tspan19910">de malnova</tspan><tspan
         style="font-size:45px"
         sodipodi:role="line"
         x="1510.4325"
         y="1836.4688"
         id="tspan20700">amiko.</tspan></text>
  </g>
</svg>
