<?xml version="1.0" encoding="UTF-8" standalone="no"?>
<svg
   xmlns:dc="http://purl.org/dc/elements/1.1/"
   xmlns:cc="http://creativecommons.org/ns#"
   xmlns:rdf="http://www.w3.org/1999/02/22-rdf-syntax-ns#"
   xmlns:svg="http://www.w3.org/2000/svg"
   xmlns="http://www.w3.org/2000/svg"
   xmlns:xlink="http://www.w3.org/1999/xlink"
   xmlns:sodipodi="http://sodipodi.sourceforge.net/DTD/sodipodi-0.dtd"
   xmlns:inkscape="http://www.inkscape.org/namespaces/inkscape"
   id="svg2"
   version="1.1"
   inkscape:version="0.92.5 (2060ec1f9f, 2020-04-08)"
   width="2481"
   height="3503"
   sodipodi:docname="E34P03.svg">
  <metadata
     id="metadata8">
    <rdf:RDF>
      <cc:Work
         rdf:about="">
        <dc:format>image/svg+xml</dc:format>
        <dc:type
           rdf:resource="http://purl.org/dc/dcmitype/StillImage" />
        <dc:title />
      </cc:Work>
    </rdf:RDF>
  </metadata>
  <defs
     id="defs6" />
  <sodipodi:namedview
     pagecolor="#ffffff"
     bordercolor="#666666"
     borderopacity="1"
     objecttolerance="10"
     gridtolerance="10"
     guidetolerance="10"
     inkscape:pageopacity="0"
     inkscape:pageshadow="2"
     inkscape:window-width="1920"
     inkscape:window-height="1023"
     id="namedview4"
     showgrid="false"
     inkscape:zoom="0.40000002"
     inkscape:cx="1046.1974"
     inkscape:cy="2830.0595"
     inkscape:window-x="0"
     inkscape:window-y="0"
     inkscape:window-maximized="1"
     inkscape:current-layer="layer1"
     inkscape:document-rotation="0"
     borderlayer="true" />
  <g
     inkscape:groupmode="layer"
     id="layer2"
     inkscape:label="artwork"
     sodipodi:insensitive="true">
    <image
       sodipodi:absref="/home/peppercarrot/webcomics/"
       xlink:href="../gfx_Pepper-and-Carrot_by-David-Revoy_E34P03.png"
       y="0"
       x="0"
       id="image10"
       height="3503"
       width="2481" />
  </g>
  <g
     inkscape:groupmode="layer"
     id="layer3"
     inkscape:label="speechbubbles"
     style="display:inline">
    <path
       style="color:#000000;display:inline;overflow:visible;visibility:visible;fill:#ffffff;fill-opacity:1;fill-rule:nonzero;stroke:none;stroke-width:1.25950468px;marker:none;enable-background:accumulate"
       d="m 1191.0755,2139.3379 c -60.0687,2.7009 -119.6335,11.5443 -178.6936,22.133 -23.36598,5.7535 -46.0762,16.659 -62.22449,34.3389 -16.01054,17.9307 -24.26884,41.1654 -27.48539,64.3773 -4.42673,30.5246 3.63003,62.0353 19.92407,88.2998 10.75615,18.8819 25.89382,36.1306 45.88716,46.2308 25.67085,13.8689 54.34155,21.1305 82.56935,28.3633 26.7947,6.3665 54.1315,10.3157 81.4863,13.6191 33.8072,3.6393 68.0097,4.4547 101.8833,1.135 25.7794,-2.4578 51.5528,-6.1326 76.5015,-13.0202 30.078,-8.5032 59.0397,-22.472 81.8644,-43.5168 17.0175,-15.7564 29.8673,-35.7587 36.4294,-57.6766 7.2148,-22.9296 9.65,-47.3314 6.6822,-71.143 -3.4148,-24.3825 -15.0911,-48.1084 -34.519,-64.3144 -18.1595,-15.3081 -41.0234,-23.9854 -63.8087,-30.6313 -26.9212,-7.8243 -54.9239,-11.342 -82.8734,-13.4863 -17.8621,-1.3662 -35.7167,-2.8628 -53.601,-3.9308 -9.9969,-0.5416 -20.0089,-0.8433 -30.0221,-0.7778 z"
       id="path4546-6-08-2"
       inkscape:connector-curvature="0"
       sodipodi:nodetypes="cssssc" />
    <path
       style="color:#000000;display:inline;overflow:visible;visibility:visible;fill:#ffffff;fill-opacity:1;fill-rule:nonzero;stroke:none;stroke-width:0.586403px;marker:none;enable-background:accumulate"
       d="m 786.34677,2123.5123 c 5.02464,-42.62 47.16918,-72.3401 153.25243,-60.2559 56.824,6.4733 121.4295,11.7571 114.7301,74.2181 -6.6996,62.4603 -99.65607,57.3161 -118.91724,58.0513 -19.26129,0.7346 -119.01807,-9.6322 -135.66614,-31.5981 -10.42127,-13.7499 -14.23657,-27.1885 -13.39915,-40.4154 z"
       id="path4546-6-08"
       inkscape:connector-curvature="0"
       sodipodi:nodetypes="cssssc" />
    <path
       style="fill:#ffffff;fill-rule:evenodd;stroke:none;stroke-width:1.25695px;stroke-linecap:butt;stroke-linejoin:miter;stroke-opacity:1"
       d="m 1471.3459,2456.5997 c -67.1764,-16.6519 -104.4231,-46.199 -116.7263,-96.6707 l -26.7459,22.416 c 34.4783,64.0674 88.4565,69.7439 143.4722,74.2547 z"
       id="path1291"
       inkscape:connector-curvature="0"
       sodipodi:nodetypes="cccc" />
    <path
       style="fill:#ffffff;stroke:none;stroke-width:0.81611365"
       d="m 2050.8806,294.17582 c -31.3159,0.77792 -62.5705,3.67606 -93.6823,7.69904 -22.1697,3.08122 -44.7718,7.81068 -64.4564,20.32868 -13.5218,8.7934 -24.4216,22.87563 -30.0366,39.34718 -2.5615,7.53593 -4.0253,15.70294 -2.8978,23.76627 2.0434,18.23836 12.8686,34.4968 27.2663,42.80876 18.6113,11.62798 39.8972,15.47616 60.4922,20.11977 42.8759,9.08709 86.6978,11.34454 130.2374,9.82248 20.2823,-0.84266 40.5693,-2.41787 60.6835,-5.53012 18.6257,-3.16544 37.4277,-8.32538 53.7248,-19.3539 13.9931,-10.18525 23.7403,-28.16206 23.7836,-47.1729 0.3809,-23.50436 -11.626,-45.77216 -28.5529,-58.82375 -8.5607,-6.80341 -18.5021,-10.87214 -28.5153,-14.01299 -29.7835,-10.31317 -60.6821,-16.48839 -91.7671,-18.65853 -5.422,-0.29309 -10.8515,-0.39907 -16.2794,-0.33999 z"
       id="path3100-2-0"
       inkscape:connector-curvature="0" />
    <path
       style="fill:#ffffff;stroke:none;stroke-width:1.18283"
       d="m 2076.8823,247.4485 c -7.5449,58.07386 -115.0445,73.80425 -191.5313,73.87191 -130.0722,4.35437 -261.8812,-2.91346 -388.7622,-21.54286 -81.9336,-16.08413 -121.7572,-90.80562 -53.7835,-128.46041 69.7185,-29.32136 159.2702,-26.7993 239.7252,-32.43727 113.7926,-2.96731 231.6569,2.45137 338.2128,29.62082 47.4698,14.78235 63.9174,47.65096 56.139,78.94781 z"
       id="path3100-2"
       inkscape:connector-curvature="0" />
    <path
       style="color:#000000;display:inline;overflow:visible;visibility:visible;fill:#ffffff;fill-opacity:1;fill-rule:nonzero;stroke:none;stroke-width:0.99441332px;marker:none;enable-background:accumulate"
       d="m 954.3418,235.82573 c -45.87505,1.80692 -90.50389,13.54618 -132.65874,29.1871 -15.88073,5.53396 -32.79797,10.17296 -45.81804,20.40844 -14.02348,11.24627 -22.59215,26.80738 -28.17223,42.60698 -8.54435,25.45827 -10.7449,52.16944 -11.54367,78.5991 -0.41844,13.01232 -0.22398,26.10425 2.27607,38.96524 2.82333,14.84582 7.67467,29.46472 15.09561,43.02204 11.30881,19.39037 30.71463,34.18064 52.13963,44.39212 21.39559,10.19056 45.2899,15.64687 69.33549,17.91695 23.84715,2.476 47.88886,3.31676 71.88735,3.14884 32.30255,-0.55997 64.91303,-4.15915 95.38533,-14.06371 26.8709,-9.59026 48.2885,-29.29717 60.4625,-52.42693 13.0838,-23.62498 21.7985,-49.16641 25.7259,-75.26105 3.6767,-26.42151 1.7999,-53.85578 -8.6815,-78.95873 -8.6775,-20.13417 -24.0909,-37.81845 -43.5152,-50.69564 -22.4585,-15.63582 -47.7099,-27.84754 -73.7901,-37.99026 -15.25658,-5.46569 -31.57975,-9.16872 -48.1284,-8.85049 z"
       id="path4040-40"
       inkscape:connector-curvature="0"
       sodipodi:nodetypes="zssssz" />
    <path
       style="fill:#ffffff;stroke:none;stroke-width:1.54498076"
       d="m 892.09961,88.834246 c -28.75402,0.42884 -57.83216,4.281816 -85.19428,17.053834 -16.3116,7.5927 -32.41506,17.62742 -45.4192,33.43866 -9.12602,11.39905 -15.8987,26.73034 -17.81839,43.59974 -2.89051,22.13759 1.5927,45.56907 11.34058,63.51789 13.456,26.51299 35.77762,43.84172 59.16006,46.79229 35.76084,6.86319 71.958,5.19104 107.95733,5.45985 28.05868,-0.14871 56.41595,-0.64895 83.90449,-9.24184 18.7707,-6.04302 37.197,-16.84987 51.5197,-34.9364 10.6108,-13.75876 17.6808,-33.39888 17.2066,-53.68993 -0.2887,-24.27943 -9.2063,-47.43972 -22.3777,-63.2895 -14.6982,-18.22173 -33.3654,-29.13975 -52.3065,-36.10771 -27.6725,-10.101218 -56.47609,-11.452365 -84.94555,-12.384603 -7.6746,-0.203902 -15.35121,-0.31035 -23.02714,-0.212281 z"
       id="path3280-1"
       inkscape:connector-curvature="0"
       sodipodi:nodetypes="csssc" />
    <path
       style="color:#000000;display:inline;overflow:visible;visibility:visible;fill:#ffffff;fill-opacity:1;fill-rule:nonzero;stroke:none;stroke-width:0.990091px;marker:none;enable-background:accumulate"
       d="m 488.9942,566.25992 c -18.78498,50.92279 -2.84901,105.08842 13.19711,114.63467 -28.06687,-12.75099 -51.50197,-72.60161 -41.41962,-110.56135 11.40195,-31.85325 28.22251,-4.07332 28.22251,-4.07332 z"
       id="path4480-2"
       inkscape:connector-curvature="0"
       sodipodi:nodetypes="cccc"
       inkscape:transform-center-x="54.91025"
       inkscape:transform-center-y="-145.58616" />
    <path
       style="color:#000000;display:inline;overflow:visible;visibility:visible;fill:#ffffff;fill-opacity:1;fill-rule:nonzero;stroke:none;stroke-width:1.13562px;marker:none;enable-background:accumulate"
       d="m 500.64648,297.6875 c -34.49589,1.10447 -69.4681,2.45433 -102.8418,12.06047 -15.69075,4.51242 -30.64795,11.90596 -43.11437,22.52811 -13.48066,11.226 -23.69532,25.98295 -30.65054,42.01454 -11.02599,25.14979 -14.66035,53.24409 -12.04685,80.48657 2.84889,25.70322 14.42686,50.02788 31.07411,69.64919 7.8848,9.12778 17.65056,16.53943 28.4604,21.86991 20.1191,10.48909 41.73212,18.00794 63.82625,23.07165 28.80114,6.46133 58.32381,9.71941 87.8365,9.86819 18.75376,0.0503 37.60238,-1.41819 55.84896,-5.93268 24.70365,-5.85062 48.64801,-15.22908 70.44929,-28.27101 21.52208,-13.84482 38.73713,-35.23298 45.07535,-60.26879 8.56816,-30.49731 9.14614,-63.19529 1.87645,-94.0132 -3.77229,-15.33854 -10.90739,-29.94598 -21.51688,-41.72532 -10.29623,-11.77457 -23.62623,-20.62277 -38.04559,-26.54042 -25.65476,-11.3088 -53.41879,-16.56294 -80.94724,-20.99145 -18.30362,-2.60316 -36.79545,-3.89644 -55.28404,-3.80576 z"
       id="path4546-6-5-5"
       inkscape:connector-curvature="0"
       sodipodi:nodetypes="cssssc" />
    <path
       style="color:#000000;display:inline;overflow:visible;visibility:visible;fill:#ffffff;fill-opacity:1;fill-rule:nonzero;stroke:none;stroke-width:0.95020783px;marker:none;enable-background:accumulate"
       d="m 277.86769,102.39313 c -35.56383,0.76289 -71.59061,5.11294 -104.99511,18.6582 -18.13412,7.66959 -34.92262,20.99568 -43.823,39.72749 -10.40022,22.94638 -11,50.08037 -3.78851,74.14346 4.76839,14.93088 14.48782,28.26041 27.65442,35.90107 20.51092,12.84733 43.96415,19.36598 67.42606,22.79464 18.06987,2.64697 36.26499,4.17357 54.41466,6.05497 33.22205,2.85269 66.7459,3.24272 99.86868,-1.13021 30.40804,-3.94879 60.86559,-10.02131 89.39326,-22.13955 15.41339,-6.56678 30.59774,-15.11004 41.72218,-28.45817 15.26594,-17.78353 19.88099,-43.81207 14.77935,-66.83532 -3.78862,-17.74512 -13.58949,-34.14341 -27.77637,-44.61175 -17.28608,-13.11061 -38.32761,-18.85805 -58.92631,-23.04897 -31.77552,-6.32304 -64.15059,-7.91882 -96.36529,-9.88438 -19.84367,-1.00105 -39.71817,-1.50609 -59.58402,-1.17148 z"
       id="path4546-6-5-3"
       inkscape:connector-curvature="0"
       sodipodi:nodetypes="cssssc" />
    <path
       id="path1081"
       style="fill:#ffffff;fill-rule:evenodd;stroke:none;stroke-width:1px;stroke-linecap:butt;stroke-linejoin:miter;stroke-opacity:1"
       d="m 293.67188,278.28125 c -10.34602,0.0639 -20.49884,2.27426 -30.72657,3.55078 -2.69982,4.93778 -4.08222,10.48922 -6.23101,15.68234 -5.67931,15.85263 -11.23804,31.88728 -14.15471,48.50943 -1.55744,12.04107 -0.85288,24.84605 5.20433,35.64519 9.1497,17.95023 22.70579,33.83652 27.94646,53.6304 3.09231,10.90551 5.52274,22.36337 4.35032,33.73572 -2.11881,9.59327 -8.21891,17.62309 -11.87847,26.63366 -6.87167,15.32803 -10.49807,32.77889 -6.43519,49.37594 1.01596,4.68537 2.40213,9.28257 3.95804,13.81467 -2.44284,-26.62563 4.52474,-54.43511 21.1636,-75.60842 5.87927,-7.58781 10.3557,-16.41037 11.5087,-26.03213 2.42129,-15.20105 -1.52987,-30.55332 -7.50308,-44.47184 -6.35087,-15.65438 -14.74681,-30.53834 -19.38839,-46.84497 -2.53518,-14.1623 4.48464,-27.52853 11.07638,-39.5497 6.64471,-12.19187 14.72253,-23.64193 20.19033,-36.44305 2.35665,-5.59735 -3.25033,-12.19349 -9.08074,-11.62802 z" />
    <path
       style="color:#000000;display:inline;overflow:visible;visibility:visible;fill:#ffffff;fill-opacity:1;fill-rule:nonzero;stroke:none;stroke-width:0.747612px;marker:none;enable-background:accumulate"
       d="m 899.59119,531.93304 c -2.31202,46.97432 46.46212,99.91514 106.27011,73.88577 -68.51547,11.60614 -80.86302,-50.88993 -74.49691,-77.22915 6.052,-16.0625 -31.7732,3.34338 -31.7732,3.34338 z"
       id="path3978-4"
       inkscape:connector-curvature="0"
       sodipodi:nodetypes="cccc" />
    <path
       style="fill:#ffffff;fill-rule:evenodd;stroke:none;stroke-width:1.17292px;stroke-linecap:butt;stroke-linejoin:miter;stroke-opacity:1"
       d="m 2105.6372,449.67287 c 46.9908,56.36735 25.0644,96.94489 0.9732,119.18809 57.8143,-39.15954 50.7085,-84.22782 24.8731,-138.46075 -6.4903,-8.77797 -25.8463,19.27266 -25.8463,19.27266 z"
       id="path1359"
       inkscape:connector-curvature="0"
       sodipodi:nodetypes="cccc" />
    <path
       style="color:#000000;display:inline;overflow:visible;visibility:visible;fill:#ffffff;fill-opacity:1;fill-rule:nonzero;stroke:none;stroke-width:0.548604px;marker:none;enable-background:accumulate"
       d="m 744.76298,1784.4258 c -23.02506,0.867 -46.48161,5.9216 -66.15692,18.3531 -13.76056,9.5893 -21.22853,26.9834 -19.51803,43.572 0.55586,13.3373 5.069,27.3028 15.40829,36.2633 11.35879,9.28 26.10401,12.594 40.21935,15.0694 20.44819,3.3542 41.14494,5.3796 61.8703,5.6186 27.626,-0.1737 55.35589,-5.0256 81.04299,-15.3087 10.63803,-4.6176 20.97892,-11.9976 25.494,-23.0724 9.52705,-22.3457 0.0239,-50.8982 -20.95407,-63.133 -15.20341,-9.2197 -33.11596,-12.1995 -50.49797,-14.2998 -22.2016,-2.4933 -44.57871,-3.2792 -66.90794,-3.0625 z"
       id="path4546-6-5-3-5"
       inkscape:connector-curvature="0"
       sodipodi:nodetypes="cssssc" />
    <path
       style="color:#000000;display:inline;overflow:visible;visibility:visible;fill:#ffffff;fill-opacity:1;fill-rule:nonzero;stroke:none;stroke-width:0.710537px;marker:none;enable-background:accumulate"
       d="m 849.98651,1849.2956 c 26.9288,18.2447 60.46856,37.1401 111.40082,-0.4118 -51.33263,27.0778 -81.7058,-0.5873 -98.47579,-20.0818 -9.1535,-13.7188 -12.92502,20.4935 -12.92503,20.4936 z"
       id="path3978-4-3"
       inkscape:connector-curvature="0"
       sodipodi:nodetypes="cccc" />
  </g>
  <g
     inkscape:groupmode="layer"
     id="layer1"
     inkscape:label="txt">
    <text
       xml:space="preserve"
       style="font-style:normal;font-variant:normal;font-weight:normal;font-stretch:normal;font-size:45px;line-height:1.25;font-family:Lavi;-inkscape-font-specification:Lavi;text-align:center;letter-spacing:0px;word-spacing:0px;text-anchor:middle;fill:#000000;fill-opacity:1;stroke:none"
       x="328.19693"
       y="154.99399"
       id="text4246-3-2-2-6-3-7-9-3"><tspan
         style="font-size:45px"
         sodipodi:role="line"
         x="335.22818"
         y="154.99399"
         id="tspan892">An e tè de na </tspan><tspan
         style="font-size:45px"
         sodipodi:role="line"
         x="328.19693"
         y="211.24399"
         id="tspan898">h-aoighean agad-</tspan><tspan
         style="font-size:45px"
         sodipodi:role="line"
         x="328.19693"
         y="267.49399"
         id="tspan896">sa a th’ innte?</tspan></text>
    <text
       xml:space="preserve"
       style="font-style:normal;font-variant:normal;font-weight:normal;font-stretch:normal;font-size:45px;line-height:1.25;font-family:Lavi;-inkscape-font-specification:Lavi;text-align:center;letter-spacing:0px;word-spacing:0px;text-anchor:middle;fill:#000000;fill-opacity:1;stroke:none"
       x="515.4679"
       y="380.7894"
       id="text4246-3-2-2-6-3-7-9-3-3"><tspan
         style="font-size:45px"
         sodipodi:role="line"
         x="522.49915"
         y="380.7894"
         id="tspan883">’S e. Seo mo </tspan><tspan
         style="font-size:45px"
         sodipodi:role="line"
         x="522.49915"
         y="437.0394"
         id="tspan887">charaid Peabar. </tspan><tspan
         style="font-size:45px"
         sodipodi:role="line"
         x="522.49915"
         y="493.2894"
         id="tspan879">Na gabhaibh </tspan><tspan
         style="font-size:45px"
         sodipodi:role="line"
         x="515.4679"
         y="549.53943"
         id="tspan890">dragh.</tspan></text>
    <text
       xml:space="preserve"
       style="font-style:normal;font-variant:normal;font-weight:normal;font-stretch:normal;font-size:45px;line-height:1.25;font-family:Lavi;-inkscape-font-specification:Lavi;text-align:center;letter-spacing:0px;word-spacing:0px;text-anchor:middle;fill:#000000;fill-opacity:1;stroke:none"
       x="909.74799"
       y="162.51166"
       id="text4246-3-2-2-6-3-7-9-3-3-5"><tspan
         style="font-size:45px"
         sodipodi:role="line"
         x="916.77924"
         y="162.51166"
         id="tspan878">A Churrain, </tspan><tspan
         style="font-size:45px"
         sodipodi:role="line"
         x="916.77924"
         y="218.76166"
         id="tspan930">a bheil thu </tspan><tspan
         style="font-size:45px"
         sodipodi:role="line"
         x="909.74799"
         y="275.01166"
         id="tspan932">gu math?</tspan></text>
    <text
       xml:space="preserve"
       style="font-style:normal;font-variant:normal;font-weight:normal;font-stretch:normal;font-size:40px;line-height:1.25;font-family:Lavi;-inkscape-font-specification:Lavi;text-align:center;letter-spacing:0px;word-spacing:0px;text-anchor:middle;fill:#000000;fill-opacity:1;stroke:none"
       x="933.35266"
       y="335.34482"
       id="text4246-3-2-2-6-3-7-9-3-3-5-9"><tspan
         sodipodi:role="line"
         x="939.60266"
         y="335.34482"
         style="font-size:40px"
         id="tspan897">Tha mi duilich mun </tspan><tspan
         sodipodi:role="line"
         x="939.60266"
         y="385.34482"
         style="font-size:40px"
         id="tspan916">landadh, feumaidh </tspan><tspan
         sodipodi:role="line"
         x="939.60266"
         y="435.34482"
         style="font-size:40px"
         id="tspan922">mi ionnsachadh </tspan><tspan
         sodipodi:role="line"
         x="939.60266"
         y="485.34482"
         style="font-size:40px"
         id="tspan928">fhathast air </tspan><tspan
         sodipodi:role="line"
         x="933.35266"
         y="535.34485"
         style="font-size:40px"
         id="tspan938">far-luaths.</tspan></text>
    <text
       xml:space="preserve"
       style="font-style:normal;font-variant:normal;font-weight:normal;font-stretch:normal;font-size:45px;line-height:1.25;font-family:Lavi;-inkscape-font-specification:Lavi;text-align:center;letter-spacing:0px;word-spacing:0px;text-anchor:middle;fill:#000000;fill-opacity:1;stroke:none"
       x="1744.1462"
       y="221.09926"
       id="text4246-3-2-2-6-3-7-9-3-3-5-9-2"><tspan
         style="font-size:45px"
         sodipodi:role="line"
         x="1751.1775"
         y="221.09926"
         id="tspan1045">A-rithist, gabhaibh mo leisgeul </tspan><tspan
         style="font-size:45px"
         sodipodi:role="line"
         x="1744.1462"
         y="277.34924"
         id="tspan946">airson na trioblaide,</tspan></text>
    <text
       xml:space="preserve"
       style="font-style:normal;font-variant:normal;font-weight:normal;font-stretch:normal;font-size:45px;line-height:1.25;font-family:Lavi;-inkscape-font-specification:Lavi;text-align:center;letter-spacing:0px;word-spacing:0px;text-anchor:middle;fill:#000000;fill-opacity:1;stroke:none"
       x="2037.0015"
       y="366.36926"
       id="text4246-3-2-2-6-3-7-9-3-3-5-9-2-6"><tspan
         style="font-size:45px"
         sodipodi:role="line"
         x="2044.0327"
         y="366.36926"
         id="tspan8459">agus a thaobh </tspan><tspan
         style="font-size:45px"
         sodipodi:role="line"
         x="2037.0015"
         y="422.61926"
         id="tspan950">m’ èididh…</tspan></text>
    <text
       xml:space="preserve"
       style="font-style:normal;font-variant:normal;font-weight:normal;font-stretch:normal;font-size:45px;line-height:1.25;font-family:Lavi;-inkscape-font-specification:Lavi;text-align:center;letter-spacing:0px;word-spacing:0px;text-anchor:middle;fill:#000000;fill-opacity:1;stroke:none"
       x="767.77356"
       y="1855.4686"
       id="text4246-3-2-2-6-3-7-9-3-3-5-9-2-6-3"><tspan
         style="font-size:45px"
         sodipodi:role="line"
         x="767.77356"
         y="1855.4686"
         id="tspan8459-7">tì hì</tspan></text>
    <text
       xml:space="preserve"
       style="font-style:normal;font-variant:normal;font-weight:normal;font-stretch:normal;font-size:45px;line-height:1.25;font-family:Lavi;-inkscape-font-specification:Lavi;text-align:center;letter-spacing:0px;word-spacing:0px;text-anchor:middle;fill:#000000;fill-opacity:1;stroke:none"
       x="922.21698"
       y="2143.4609"
       id="text4246-3-2-2-6-3-7-9-3-3-5-9-2-6-1"><tspan
         style="font-size:45px"
         sodipodi:role="line"
         x="922.21698"
         y="2143.4609"
         id="tspan1077-7">A Shidimi,</tspan></text>
    <text
       xml:space="preserve"
       style="font-style:normal;font-variant:normal;font-weight:normal;font-stretch:normal;font-size:45px;line-height:1.25;font-family:Lavi;-inkscape-font-specification:Lavi;text-align:center;letter-spacing:0px;word-spacing:0px;text-anchor:middle;fill:#000000;fill-opacity:1;stroke:none"
       x="1190.3296"
       y="2228.157"
       id="text4246-3-2-2-6-3-7-9-3-3-5-9-2-6-1-9"><tspan
         style="font-size:45px"
         x="1197.3608"
         y="2228.157"
         sodipodi:role="line"
         id="tspan968">a’ bhana-bhuidseach òg </tspan><tspan
         style="font-size:45px"
         x="1197.3608"
         y="2284.407"
         sodipodi:role="line"
         id="tspan986">a tha air a tighinn, an e </tspan><tspan
         style="font-size:45px"
         x="1197.3608"
         y="2340.657"
         sodipodi:role="line"
         id="tspan982">caraid dhut a th’ innte </tspan><tspan
         style="font-size:45px"
         x="1190.3296"
         y="2396.907"
         sodipodi:role="line"
         id="tspan978">ann an da-<tspan
   style="-inkscape-font-specification:'Lavi Italic';font-family:Lavi;font-weight:normal;font-style:italic;font-stretch:normal;font-variant:normal"
   id="tspan988">rìribh</tspan>?</tspan></text>
  </g>
</svg>
