<?xml version="1.0" encoding="UTF-8" standalone="no"?>
<!-- Created with Inkscape (http://www.inkscape.org/) -->

<svg
   xmlns:dc="http://purl.org/dc/elements/1.1/"
   xmlns:cc="http://creativecommons.org/ns#"
   xmlns:rdf="http://www.w3.org/1999/02/22-rdf-syntax-ns#"
   xmlns:svg="http://www.w3.org/2000/svg"
   xmlns="http://www.w3.org/2000/svg"
   xmlns:xlink="http://www.w3.org/1999/xlink"
   xmlns:sodipodi="http://sodipodi.sourceforge.net/DTD/sodipodi-0.dtd"
   xmlns:inkscape="http://www.inkscape.org/namespaces/inkscape"
   id="svg2"
   version="1.1"
   inkscape:version="0.92.4 (5da689c313, 2019-01-14)"
   width="2481"
   height="3503"
   sodipodi:docname="E29P03.svg">
  <metadata
     id="metadata8">
    <rdf:RDF>
      <cc:Work
         rdf:about="">
        <dc:format>image/svg+xml</dc:format>
        <dc:type
           rdf:resource="http://purl.org/dc/dcmitype/StillImage" />
        <dc:title />
      </cc:Work>
    </rdf:RDF>
  </metadata>
  <defs
     id="defs6" />
  <sodipodi:namedview
     pagecolor="#ffffff"
     bordercolor="#666666"
     borderopacity="1"
     objecttolerance="10"
     gridtolerance="10"
     guidetolerance="10"
     inkscape:pageopacity="0"
     inkscape:pageshadow="2"
     inkscape:window-width="1850"
     inkscape:window-height="1016"
     id="namedview4"
     showgrid="false"
     inkscape:zoom="0.64"
     inkscape:cx="1267.6461"
     inkscape:cy="619.7776"
     inkscape:window-x="70"
     inkscape:window-y="27"
     inkscape:window-maximized="1"
     inkscape:current-layer="layer1" />
  <g
     inkscape:groupmode="layer"
     id="layer2"
     inkscape:label="artwork"
     sodipodi:insensitive="true">
    <image
       sodipodi:absref="/home/emmiline/Documents/git/webcomics/ep29_Destroyer-of-Worlds/lang/da/../gfx_Pepper-and-Carrot_by-David-Revoy_E29P03.png"
       xlink:href="../gfx_Pepper-and-Carrot_by-David-Revoy_E29P03.png"
       y="0"
       x="0"
       id="image10"
       height="3503"
       width="2481" />
  </g>
  <g
     inkscape:groupmode="layer"
     id="layer3"
     inkscape:label="speechbubbles">
    <path
       style="color:#000000;display:inline;overflow:visible;visibility:visible;fill:#ffffff;fill-opacity:1;fill-rule:nonzero;stroke:none;stroke-width:0.99999994px;marker:none;enable-background:accumulate"
       d="m 176.3096,205.96901 c 3.53664,-26.62382 5.43404,-60.59843 46.78299,-75.62622 41.34895,-15.02779 128.83288,-17.7922 219.71142,-12.51509 48.67944,2.8267 129.19244,-0.0987 166.50229,15.19077 24.37661,9.98947 36.8589,33.31133 32.24355,72.31502 -4.61534,39.00365 -26.6798,59.31682 -71.7139,68.66575 -45.03411,9.34893 -90.17514,9.03196 -129.48637,8.59783 -37.95629,-0.41917 -67.3933,-0.87465 -117.88063,-6.15834 -50.48733,-5.28369 -107.20063,-7.42879 -121.81928,-20.74391 -9.15091,-8.33494 -15.47621,-16.64272 -19.39364,-24.9286 -3.91743,-8.28588 -5.427,-16.54986 -4.94643,-24.79721 z"
       id="path4546-6"
       inkscape:connector-curvature="0"
       sodipodi:nodetypes="csssssssssc" />
    <path
       style="color:#000000;display:inline;overflow:visible;visibility:visible;fill:#ffffff;fill-opacity:1;fill-rule:nonzero;stroke:none;stroke-width:0.92339212px;marker:none;enable-background:accumulate"
       d="m 1768.3237,148.66379 c 35.5427,-30.45889 498.6003,-49.241934 562.8361,16.602 40.7616,41.78204 24.8125,199.79168 -27.234,230.06879 -61.2533,35.63297 -403.6037,25.97602 -489.7048,6.11423 -81.9165,-18.89648 -84.9425,-83.62063 -89.0738,-146.4968 -1.6862,-25.66221 7.6335,-75.82924 43.1765,-106.28822 z"
       id="path4040-4"
       inkscape:connector-curvature="0"
       sodipodi:nodetypes="zssssz" />
    <path
       style="color:#000000;display:inline;overflow:visible;visibility:visible;fill:#ffffff;fill-opacity:1;fill-rule:nonzero;stroke:none;stroke-width:0.99999994px;marker:none;enable-background:accumulate"
       d="m 1879.5724,480.32508 c 2.9996,-27.92669 9.7623,-50.08154 46.9681,-62.36647 37.206,-12.28493 104.8552,-20.04669 190.6807,-15.21408 45.9729,2.58861 111.2959,6.35815 147.9325,18.02744 36.6367,11.6693 44.5869,36.58512 40.7265,77.49314 -3.8604,40.908 -17.3613,62.69956 -59.7396,72.842 -42.3783,10.14243 -113.6342,8.63574 -129.1451,9.66758 -40.5568,-3.24918 -118.7588,1.35913 -168.4731,-7.24059 -49.7144,-8.59972 -70.9408,-30.40745 -68.95,-93.20902 z"
       id="path4546-6-0"
       inkscape:connector-curvature="0"
       sodipodi:nodetypes="cssssscsc" />
    <path
       style="color:#000000;display:inline;overflow:visible;visibility:visible;fill:#ffffff;fill-opacity:1;fill-rule:nonzero;stroke:none;stroke-width:0.83229673px;marker:none;enable-background:accumulate"
       d="m 136.43333,1689.8904 c 3.37872,-29.8673 3.86372,-58.7024 48.55338,-76.2338 44.68967,-17.5314 123.42078,-22.385 222.31236,-18.0305 52.97166,2.3325 119.70224,5.4762 161.94299,17.5993 42.24074,12.1229 59.99166,33.2251 55.65695,76.9709 -4.33472,43.7458 -27.72674,62.8584 -76.52217,74.0949 -48.79542,11.2366 -122.99427,14.5972 -140.86125,15.8459 -17.86696,1.2487 -73.28238,0.1728 -128.26252,-4.8795 -54.98013,-5.0522 -92.58627,-8.5846 -108.71216,-23.2416 -25.27994,-18.5617 -35.64488,-40.3863 -34.10758,-62.1256 z"
       id="path4546-6-2"
       inkscape:connector-curvature="0"
       sodipodi:nodetypes="cssssssscc" />
    <path
       style="color:#000000;display:inline;overflow:visible;visibility:visible;fill:#ffffff;fill-opacity:1;fill-rule:nonzero;stroke:none;stroke-width:1px;marker:none;enable-background:accumulate"
       d="m 521.869,1649.1001 c 16.11108,-12.2669 15.86616,-23.0299 15.86632,-28.1369 10e-5,-5.107 -4.54529,-18.6761 -3.34265,-24.7247 1.02193,-4.995 3.12956,-18.1154 7.70997,-16.7463 4.58049,1.369 41.01203,26.2432 51.36903,17.3665 10.35713,-8.8768 11.10734,-20.8369 5.69423,-31.5145 -5.41309,-10.6777 -12.30128,-24.7121 -5.30101,-32.1137 7.00027,-7.4017 18.59276,-5.447 23.97197,-2.6844 5.3792,2.7626 35.49917,23.7296 45.22292,25.6243 9.7237,1.8947 23.71407,1.7027 43.50196,-19.9526 -14.8657,10.0411 -26.23617,15.9908 -34.47171,12.561 -8.23568,-3.4298 -23.77359,-8.4777 -30.56794,-16.4657 -6.79439,-7.9881 -19.06179,-24.7851 -27.96463,-25.3584 -8.9028,-0.5734 -30.44585,-2.3321 -37.17011,6.2487 -6.72431,8.5806 -9.50599,21.5672 -1.38826,37.7993 4.40691,11.1306 5.56687,16.9279 3.01621,18.7834 -2.55071,1.8553 -15.98612,-1.694 -23.40319,-10.6812 -7.41712,-8.9873 -15.67928,-14.4795 -30.30826,-9.5821 -15.5687,3.9577 -23.51473,25.3051 -27.43064,29.9131 -2.73121,11.1832 -10.25128,59.7905 -19.09981,53.7189 z"
       id="path5058"
       inkscape:connector-curvature="0"
       sodipodi:nodetypes="cscsssssscssssccscccc" />
    <path
       style="color:#000000;display:inline;overflow:visible;visibility:visible;fill:#ffffff;fill-opacity:1;fill-rule:nonzero;stroke:none;stroke-width:0.84288424px;marker:none;enable-background:accumulate"
       d="m 609.21122,1953.2975 c 31.64532,-14.1486 308.69334,-12.5595 356.78242,-8.0067 36.85806,3.4896 80.62896,3.7048 109.67306,16.2064 29.0441,12.5016 39.7263,31.775 39.8718,71.0623 0.1467,39.5933 -15.986,74.5865 -50.2999,82.9062 -34.3137,8.3197 -67.02252,9.1037 -79.50025,9.5659 -8.30067,0.3075 -43.2615,1.1396 -66.9678,1.3445 -28.06272,0.2425 -226.93809,2.9928 -270.82431,-11.1009 -48.27796,-20.0217 -70.08971,-38.8498 -73.08326,-73.0614 -2.69617,-57.805 13.63061,-78.9839 34.34824,-88.9163 z"
       id="path4546-6-28"
       inkscape:connector-curvature="0"
       sodipodi:nodetypes="cssssssccc" />
    <path
       style="fill:#ffffff;fill-rule:evenodd;stroke:none;stroke-width:1px;stroke-linecap:butt;stroke-linejoin:miter;stroke-opacity:1"
       d="m 1323.8016,1984.7216 c 28.8356,-4.5331 58.196,-6.8902 29.1661,-39.0973 40.2304,15.9013 101.614,24.7011 127.3674,-9.3315 21.0416,32.4151 72.5215,18.1393 103.6089,9.2863 -22.7459,39.1099 18.3414,35.1498 48.6838,26.2972 -58.1387,44.4003 -27.6095,58.521 -4.7008,75.2441 -57.1366,-12.3727 -96.278,-0.2731 -77.1628,27.9538 -47.2189,-29.2045 -101.7044,-23.5745 -85.7998,4.2937 -11.7134,-13.2298 -10.4746,-40.9431 -73.6465,1.7915 19.9656,-44.5555 -6.2049,-39.8788 -48.5754,-17.9152 6.6404,-15.1762 46.1072,-38.2538 -20.3703,-35.8306 41.5231,-14.4273 55.9482,-25.3946 1.4294,-42.692 z"
       id="path4584"
       inkscape:connector-curvature="0"
       sodipodi:nodetypes="cccccccccccc" />
    <path
       style="color:#000000;display:inline;overflow:visible;visibility:visible;fill:#ffffff;fill-opacity:1;fill-rule:nonzero;stroke:none;stroke-width:1px;marker:none;enable-background:accumulate"
       d="m 1472.7384,2047.3416 c 0.2312,29.9074 3.2778,68.8487 8.7074,74.7102 -9.1366,-3.6864 -17.8817,-5.2616 -24.6773,-6.6173 -2.08,14.7875 9.0067,61.8116 14.5567,88.5609 -25.1053,-37.9041 -39.0273,-94.4 -38.8725,-117.7051 8.4834,5.8822 16.5056,8.882 21.4065,8.8433 5.497,-10.4938 -6.7061,-51.3933 -7.3939,-51.6226 z"
       id="path5066"
       inkscape:connector-curvature="0"
       sodipodi:nodetypes="cccccccc" />
    <path
       style="color:#000000;display:inline;overflow:visible;visibility:visible;fill:#ffffff;fill-opacity:1;fill-rule:nonzero;stroke:none;stroke-width:1px;marker:none;enable-background:accumulate"
       d="m 214.04851,2864.4648 c 32.22727,-25.7362 438.71369,-45.617 496.95755,10.0178 36.95935,35.3037 59.9252,152.7736 12.73361,178.3562 -55.53956,30.108 -403.3725,28.6319 -481.44203,11.8497 -74.27529,-15.9666 -66.32554,-46.595 -70.07147,-99.7221 -1.5289,-21.6833 9.59481,-74.7653 41.82234,-100.5016 z"
       id="path4040-4-0"
       inkscape:connector-curvature="0"
       sodipodi:nodetypes="zssssz" />
    <path
       style="color:#000000;display:inline;overflow:visible;visibility:visible;fill:#ffffff;fill-opacity:1;fill-rule:nonzero;stroke:none;stroke-width:0.95276612px;marker:none;enable-background:accumulate"
       d="m 226.69462,3057.1153 c 47.31351,-22.7205 430.28623,-31.3992 517.50719,10.3947 67.50944,32.3486 36.95052,219.9853 -28.68421,252.2194 -63.23442,31.0552 -385.47668,27.6551 -467.71071,6.5096 -78.23739,-20.118 -81.12749,-89.0256 -85.07324,-155.9657 -1.61046,-27.3209 16.64745,-90.4375 63.96097,-113.158 z"
       id="path4040-4-0-6"
       inkscape:connector-curvature="0"
       sodipodi:nodetypes="zssssz" />
    <path
       style="color:#000000;display:inline;overflow:visible;visibility:visible;fill:#ffffff;fill-opacity:1;fill-rule:nonzero;stroke:none;stroke-width:0.92228478px;marker:none;enable-background:accumulate"
       d="m 1730.6486,2874.0743 c 31.2217,-35.7225 423.1738,-41.5861 494.4119,19.471 57.1733,49.0024 36.4436,234.3178 -23.9232,269.8271 -58.159,34.2107 -354.5374,30.4651 -430.1711,7.171 -71.9579,-22.1621 -74.6161,-98.0713 -78.2451,-171.8131 -1.4812,-30.0969 6.7055,-88.9334 37.9275,-124.656 z"
       id="path4040-4-0-6-3"
       inkscape:connector-curvature="0"
       sodipodi:nodetypes="zssssz" />
    <path
       style="display:inline;fill:#ffffff;fill-rule:evenodd;stroke:none;stroke-width:1px;stroke-linecap:butt;stroke-linejoin:miter;stroke-opacity:1"
       d="m 1736.956,3166.2871 c 62.9816,23.6939 78.8455,18.3468 77.7644,-36.7289 30.0482,59.516 74.4997,61.3918 86.8664,32.0679 39.7816,25.2051 64.6287,18.1349 84.3556,0 7.3527,23.3227 23.1208,13.9112 36.767,12.7527 4.4946,5.2766 45.0046,16.9566 107.37,-0.5097 4.0396,6.9841 9.4816,12.9986 46.012,-2.4859 9.464,28.3478 39.8285,-1.5711 70.9356,-33.5595 -19.3806,39.327 -11.3442,44.8817 13.4203,29.8306 -11.3221,16.1952 -18.094,28.7321 24.923,1.243 -14.7267,29.893 23.9092,9.3746 86.273,-33.5594 -31.1953,31.7365 -113.9183,85.226 -59.4323,80.7912 -7.5985,9.356 -34.7016,17.5077 46.012,32.3165 -15.0681,6.3488 -61.0707,-2.9287 -22.6963,23.9523 5.1415,3.1422 -12.0707,5.061 20.7793,13.3359 -19.3918,-0.5629 -31.2842,1.4482 -13.4203,13.6724 -35.397,-0.661 -22.1529,12.1929 3.8343,28.5876 -51.2598,-21.0297 -54.0806,-13.3866 -55.5981,-4.9717 -64.2434,-28.6707 -85.682,-18.2145 -72.27,4.9096 -28.3692,-31.2227 -95.018,-14.8219 -98.3586,10.0057 -9.8988,-24.0089 -120.1327,-28.9731 -145.4715,-2.548 15.7049,-28.1589 -17.2766,-14.8988 -50.4289,-4.4746 18.1549,-31.6061 -27.9199,-22.2982 -86.273,8.452 32.6775,-34.902 -4.4364,-22.2946 -59.4324,2.4859 20.7793,-34.2877 -13.0617,-50.8697 -93.9415,-52.2036 38.7116,-12.368 61.2859,-27.9328 21.0891,-55.9324 45.3133,8.2446 33.8008,-15.1367 1.8114,-45.5538 49.425,24.9661 48.394,11.6241 29.1095,-21.8758 z"
       id="path4508"
       inkscape:connector-curvature="0"
       sodipodi:nodetypes="cccccccccccccccccccccccccccc" />
    <path
       style="color:#000000;display:inline;overflow:visible;visibility:visible;fill:#ffffff;fill-opacity:1;fill-rule:nonzero;stroke:none;stroke-width:1px;marker:none;enable-background:accumulate"
       d="m 731.14816,2946.5981 c 58.74459,-31.8831 133.6737,-22.4689 151.46532,-4.8409 -26.0629,-31.5484 -110.87474,-48.9787 -156.02352,-29.9411 -36.86673,19.522 4.5582,34.782 4.5582,34.782 z"
       id="path4480"
       inkscape:connector-curvature="0"
       sodipodi:nodetypes="cccc" />
    <path
       style="color:#000000;display:inline;overflow:visible;visibility:visible;fill:#ffffff;fill-opacity:1;fill-rule:nonzero;stroke:none;stroke-width:0.99999994px;marker:none;enable-background:accumulate"
       d="m 1721.525,3105.1967 c -45.0341,26.3761 -102.4755,18.588 -116.1149,4.0048 19.9802,26.0992 84.9979,40.5188 119.6093,24.7695 28.2623,-16.1501 -3.4944,-28.7743 -3.4944,-28.7743 z"
       id="path4480-2"
       inkscape:connector-curvature="0"
       sodipodi:nodetypes="cccc"
       inkscape:transform-center-x="-155.62645"
       inkscape:transform-center-y="34.210293" />
    <path
       style="fill:#ffffff;stroke:none;stroke-width:1"
       d="m 240.20205,385.0669 c -58.13838,-27.45721 -59.25417,-104.2317 6.40363,-135.1495 33.25786,-15.66089 31.21798,-5.00947 31.21798,-5.00947 l -6.80518,-52.3863 c 0,0 17.27652,-20.93641 -34.72953,12.43271 -52.00605,33.36911 -110.96723,129.16604 3.9131,180.11256 z"
       id="path3063"
       inkscape:connector-curvature="0"
       sodipodi:nodetypes="cscczc" />
    <path
       style="color:#000000;display:inline;overflow:visible;visibility:visible;fill:#ffffff;fill-opacity:1;fill-rule:nonzero;stroke:none;stroke-width:0.99999994px;marker:none;enable-background:accumulate"
       d="m 1452.7839,260.97042 c 32.5901,-37.14844 120.5249,-77.58678 199.7918,-73.40468 42.0311,2.21755 81.2853,18.77332 113.3871,43.73164 54.8474,16.58165 18.1095,-34.39627 18.1095,-34.39627 -9.1911,-10.4538 -45.1517,-22.91599 -79.6603,-28.40181 -77.1713,-12.26787 -186.4105,2.0063 -251.6281,92.47112 z"
       id="path3984"
       inkscape:connector-curvature="0"
       sodipodi:nodetypes="csccsc" />
    <path
       style="color:#000000;display:inline;overflow:visible;visibility:visible;fill:#ffffff;fill-opacity:1;fill-rule:nonzero;stroke:none;stroke-width:1px;marker:none;enable-background:accumulate"
       d="m 876.44075,2262.2076 c 27.46212,-10.0522 29.72719,-13.3589 28.53705,-27.8918 -1.19034,-14.5328 -9.92446,-26.5364 7.13822,-46.8557 17.0627,-20.3194 23.42581,-21.4269 33.84191,-22.8653 -10.7962,-15.1116 -24.19769,-37.3822 -37.83781,-39.5812 -13.64004,-2.1992 45.1695,-29.6441 45.1695,-29.6441 0,0 22.75583,46.3627 21.99513,70.4189 -5.53179,28.827 -31.7847,25.0277 -45.6068,37.2789 -13.82198,12.2511 -2.66123,31.1992 -11.63877,43.0536 -8.97788,11.8543 -27.71027,14.1688 -41.59843,16.0867 z"
       id="path4538"
       inkscape:connector-curvature="0"
       sodipodi:nodetypes="cccccccscc" />
    <path
       style="color:#000000;display:inline;overflow:visible;visibility:visible;fill:#ffffff;fill-opacity:1;fill-rule:nonzero;stroke:none;stroke-width:0.94894397px;marker:none;enable-background:accumulate"
       d="m 1769.2555,1056.2795 c 6.5519,-9.252 22.2105,-18.1835 57.85,-23.2313 35.6393,-5.048 79.5723,-3.874 127.0554,-2.8008 47.483,1.0732 47.2921,0.2256 90.4794,0.2343 45.9613,0.011 80.5776,4.9243 108.0062,33.8751 27.4286,28.9507 29.5596,60.5024 29.4012,96.7323 -0.1584,36.23 3.3057,67.909 -22.079,92.307 -25.3847,24.3978 -67.2742,48.6367 -116.6194,52.6468 -49.3451,4.0103 -167.6142,8.0881 -227.5202,-16.8711 -59.9063,-24.9596 -67.0823,-55.9706 -70.1286,-132.365 -1.2432,-31.1798 -2.6523,-63.5195 23.555,-100.5273 z"
       id="path4040"
       inkscape:connector-curvature="0"
       sodipodi:nodetypes="sssszzzzsss" />
    <path
       style="color:#000000;display:inline;overflow:visible;visibility:visible;fill:#ffffff;fill-opacity:1;fill-rule:nonzero;stroke:none;stroke-width:1.0653249px;marker:none;enable-background:accumulate"
       d="m 1896.6758,1219.0726 c -41.8665,122.7323 -35.3869,185.6777 42.5567,264.4098 -47.4291,-53.5721 -48.443,-140.458 -27.8836,-196.5656 17.5953,-48.018 24.528,-47.5096 24.528,-47.5096 z"
       id="path4440"
       inkscape:connector-curvature="0"
       sodipodi:nodetypes="ccscc" />
  </g>
  <g
     inkscape:groupmode="layer"
     id="layer1"
     inkscape:label="txt">
    <text
       xml:space="preserve"
       style="font-style:normal;font-variant:normal;font-weight:normal;font-stretch:normal;line-height:0%;font-family:Lavi;-inkscape-font-specification:Lavi;text-align:center;letter-spacing:0px;word-spacing:0px;text-anchor:middle;fill:#000000;fill-opacity:1;stroke:none"
       x="410.53223"
       y="183.9449"
       id="text4246"><tspan
         sodipodi:role="line"
         style="font-size:45px;line-height:1.20000005"
         x="410.53223"
         y="183.9449"
         id="tspan823">Haha, det bliver</tspan><tspan
         sodipodi:role="line"
         style="font-size:45px;line-height:1.20000005"
         x="410.53223"
         y="237.9449"
         id="tspan80">lidt kompliceret!</tspan></text>
    <text
       xml:space="preserve"
       style="font-style:normal;font-variant:normal;font-weight:normal;font-stretch:normal;line-height:0%;font-family:Lavi;-inkscape-font-specification:Lavi;text-align:center;letter-spacing:0px;word-spacing:0px;text-anchor:middle;fill:#000000;fill-opacity:1;stroke:none"
       x="2040.8622"
       y="203.0822"
       id="text4246-3"><tspan
         sodipodi:role="line"
         style="font-size:45px;line-height:1.20000005"
         x="2040.8622"
         y="203.0822"
         id="tspan854">Men okay, man kan sige, at</tspan><tspan
         sodipodi:role="line"
         style="font-size:45px;line-height:1.20000005"
         x="2047.8934"
         y="257.08221"
         id="tspan92">det er baseret på </tspan><tspan
         sodipodi:role="line"
         style="font-size:45px;line-height:1.20000005"
         x="2040.8622"
         y="311.08221"
         id="tspan96">forståelsen af lovene bag</tspan><tspan
         sodipodi:role="line"
         style="font-size:45px;line-height:1.20000005"
         x="2040.8622"
         y="365.08221"
         id="tspan98">alle kaotiske systemer…</tspan></text>
    <text
       xml:space="preserve"
       style="font-style:normal;font-variant:normal;font-weight:normal;font-stretch:normal;line-height:0%;font-family:Lavi;-inkscape-font-specification:Lavi;text-align:center;letter-spacing:0px;word-spacing:0px;text-anchor:middle;fill:#000000;fill-opacity:1;stroke:none"
       x="2098.9385"
       y="475.35815"
       id="text4246-3-5"><tspan
         sodipodi:role="line"
         style="font-size:45px;line-height:1.20000005"
         x="2098.9385"
         y="475.35815"
         id="tspan900">…fra de mindste</tspan><tspan
         sodipodi:role="line"
         style="font-size:45px;line-height:1.20000005"
         x="2098.9385"
         y="529.35815"
         id="tspan102">til de største.</tspan></text>
    <text
       xml:space="preserve"
       style="font-style:normal;font-variant:normal;font-weight:normal;font-stretch:normal;line-height:0%;font-family:Lavi;-inkscape-font-specification:Lavi;text-align:center;letter-spacing:0px;word-spacing:0px;text-anchor:middle;fill:#000000;fill-opacity:1;stroke:none"
       x="379.26578"
       y="1678.55"
       id="text4246-3-5-1"><tspan
         sodipodi:role="line"
         style="font-size:45px;line-height:1.20000005"
         x="379.26578"
         y="1678.55"
         id="tspan78">Ja, det gør det jo</tspan><tspan
         sodipodi:role="line"
         style="font-size:45px;line-height:1.20000005"
         x="379.26578"
         y="1732.55"
         id="tspan87">meget mere klart...</tspan></text>
    <text
       xml:space="preserve"
       style="font-style:normal;font-variant:normal;font-weight:normal;font-stretch:normal;line-height:0%;font-family:Lavi;-inkscape-font-specification:Lavi;text-align:center;letter-spacing:0px;word-spacing:0px;text-anchor:middle;fill:#000000;fill-opacity:1;stroke:none"
       x="1969.9979"
       y="1120.0626"
       id="text4246-3-5-1-0"><tspan
         sodipodi:role="line"
         style="font-size:45px;line-height:1.20000005"
         x="1969.9979"
         y="1120.0626"
         id="tspan962">Arg! Vent lidt, jeg</tspan><tspan
         sodipodi:role="line"
         style="font-size:45px;line-height:1.20000005"
         x="1969.9979"
         y="1174.0626"
         id="tspan132">giver jer et</tspan><tspan
         sodipodi:role="line"
         style="font-size:45px;line-height:1.20000005"
         x="1969.9979"
         y="1228.0626"
         id="tspan134">eksempel.</tspan></text>
    <text
       xml:space="preserve"
       style="font-style:normal;font-variant:normal;font-weight:normal;font-stretch:normal;line-height:0%;font-family:Lavi;-inkscape-font-specification:Lavi;text-align:center;letter-spacing:0px;word-spacing:0px;text-anchor:middle;fill:#000000;fill-opacity:1;stroke:none"
       x="853.19385"
       y="2012.5769"
       id="text4246-3-5-1-0-0"><tspan
         sodipodi:role="line"
         style="font-size:45px;line-height:1.20000005"
         x="853.19385"
         y="2012.5769"
         id="tspan1002">Giv mig lige to minutter</tspan><tspan
         sodipodi:role="line"
         style="font-size:45px;line-height:1.20000005"
         x="853.19385"
         y="2066.5769"
         id="tspan1006">og lidt Kaosah-fornuft…</tspan></text>
    <text
       xml:space="preserve"
       style="font-style:normal;font-variant:normal;font-weight:normal;font-stretch:normal;line-height:0%;font-family:Lavi;-inkscape-font-specification:Lavi;text-align:center;letter-spacing:0px;word-spacing:0px;text-anchor:middle;fill:#000000;fill-opacity:1;stroke:none"
       x="1475.0964"
       y="2022.1494"
       id="text4246-3-5-1-0-0-8"><tspan
         sodipodi:role="line"
         style="font-size:45px;line-height:1.20000005"
         x="1475.0964"
         y="2022.1494"
         id="tspan1006-2">Fundet!</tspan></text>
    <text
       xml:space="preserve"
       style="font-style:normal;font-variant:normal;font-weight:normal;font-stretch:normal;font-size:10.15074348px;line-height:0%;font-family:Lavi;-inkscape-font-specification:Lavi;text-align:center;letter-spacing:0px;word-spacing:0px;text-anchor:middle;opacity:0.5;fill:#000000;fill-opacity:1;stroke:none;stroke-width:1"
       x="1565.6989"
       y="1755.6455"
       id="text4246-37"
       transform="matrix(0.95687977,-0.3398346,0.04566864,1.0288442,0,0)"><tspan
         sodipodi:role="line"
         style="font-style:normal;font-variant:normal;font-weight:bold;font-stretch:normal;font-size:38.06529236px;line-height:1.20000005;font-family:Lavi;-inkscape-font-specification:'Lavi Bold';stroke-width:1"
         x="1565.6989"
         y="1755.6455"
         id="tspan4252-5">KRADSE</tspan></text>
    <text
       xml:space="preserve"
       style="font-style:normal;font-variant:normal;font-weight:normal;font-stretch:normal;font-size:8.30989456px;line-height:0%;font-family:Lavi;-inkscape-font-specification:Lavi;text-align:center;letter-spacing:0px;word-spacing:0px;text-anchor:middle;opacity:0.5;fill:#000000;fill-opacity:1;stroke:none;stroke-width:0.99999994"
       x="1771.7487"
       y="1590.5714"
       id="text4246-37-9"
       transform="matrix(1.0008589,-0.17574317,-0.12562566,1.0212007,0,0)"><tspan
         sodipodi:role="line"
         style="font-style:normal;font-variant:normal;font-weight:bold;font-stretch:normal;font-size:31.16210556px;line-height:1.20000005;font-family:Lavi;-inkscape-font-specification:'Lavi Bold';stroke-width:0.99999994"
         x="1771.7487"
         y="1590.5714"
         id="tspan4252-5-2">KRADSE</tspan></text>
    <text
       xml:space="preserve"
       style="font-style:normal;font-variant:normal;font-weight:normal;font-stretch:normal;line-height:0%;font-family:Lavi;-inkscape-font-specification:Lavi;text-align:center;letter-spacing:0px;word-spacing:0px;text-anchor:middle;fill:#000000;fill-opacity:1;stroke:none"
       x="461.76913"
       y="2910.1687"
       id="text4246-3-5-1-0-0-8-9"><tspan
         sodipodi:role="line"
         style="font-size:45px;line-height:1.20000005"
         x="461.76913"
         y="2910.1687"
         id="tspan1200">Se denne tandstik,</tspan><tspan
         sodipodi:role="line"
         style="font-size:45px;line-height:1.20000005"
         x="461.76913"
         y="2964.1687"
         id="tspan85">der sad fast</tspan><tspan
         sodipodi:role="line"
         style="font-size:45px;line-height:1.20000005"
         x="461.76913"
         y="3018.1687"
         id="tspan81">mellem to brosten.</tspan></text>
    <text
       xml:space="preserve"
       style="font-style:normal;font-variant:normal;font-weight:normal;font-stretch:normal;line-height:0%;font-family:Lavi;-inkscape-font-specification:Lavi;text-align:center;letter-spacing:0px;word-spacing:0px;text-anchor:middle;fill:#000000;fill-opacity:1;stroke:none"
       x="471.62576"
       y="3117.9048"
       id="text4246-3-5-1-0-0-8-9-3"><tspan
         sodipodi:role="line"
         style="font-size:45px;line-height:1.20000005"
         x="471.62576"
         y="3117.9048"
         id="tspan1237">Nu hvor jeg har fundet den</tspan><tspan
         sodipodi:role="line"
         style="font-size:45px;line-height:1.20000005"
         x="471.62576"
         y="3171.9048"
         id="tspan103">og samlet den op,</tspan><tspan
         sodipodi:role="line"
         style="font-size:45px;line-height:1.20000005"
         x="471.62576"
         y="3225.9048"
         id="tspan105">forhindrer det helt sikkert</tspan><tspan
         sodipodi:role="line"
         style="font-size:45px;line-height:1.20000005"
         x="471.62576"
         y="3279.9048"
         id="tspan107">at nogen træder på den.</tspan></text>
    <text
       xml:space="preserve"
       style="font-style:normal;font-variant:normal;font-weight:normal;font-stretch:normal;line-height:0%;font-family:Lavi;-inkscape-font-specification:Lavi;text-align:center;letter-spacing:0px;word-spacing:0px;text-anchor:middle;fill:#000000;fill-opacity:1;stroke:none"
       x="1982.1924"
       y="2947.4075"
       id="text4246-3-5-1-0-0-8-9-3-9"><tspan
         sodipodi:role="line"
         style="font-size:45px;line-height:1.20000005"
         x="1982.1924"
         y="2947.4075"
         id="tspan1283">En lille positiv ændring,</tspan><tspan
         sodipodi:role="line"
         style="font-size:45px;line-height:1.20000005"
         x="1982.1924"
         y="3001.4075"
         id="tspan101">som kan have enorme</tspan><tspan
         sodipodi:role="line"
         style="font-size:45px;line-height:1.20000005"
         x="1982.1924"
         y="3055.4075"
         id="tspan1285">konsekvenser i livets</tspan><tspan
         sodipodi:role="line"
         style="font-size:45px;line-height:1.20000005"
         x="1982.1924"
         y="3109.4075"
         id="tspan135">store kaotiske system.</tspan></text>
    <text
       xml:space="preserve"
       style="font-style:normal;font-variant:normal;font-weight:normal;font-stretch:normal;font-size:11.48328495px;line-height:0%;font-family:Lavi;-inkscape-font-specification:Lavi;text-align:center;letter-spacing:0px;word-spacing:0px;text-anchor:middle;fill:#000000;fill-opacity:1;stroke:none;stroke-width:1"
       x="2024.8721"
       y="3269.3684"
       id="text4246-3-5-1-0-0-8-9-3-9-8"><tspan
         sodipodi:role="line"
         style="font-size:61.24419022px;line-height:1.20000005;stroke-width:1"
         x="2024.8721"
         y="3269.3684"
         id="tspan1289-6">Dét er Kaosah!</tspan></text>
    <text
       xml:space="preserve"
       style="font-style:normal;font-weight:normal;font-size:40px;line-height:1.25;font-family:sans-serif;letter-spacing:0px;word-spacing:0px;fill:#000000;fill-opacity:1;stroke:none"
       x="1238.1852"
       y="1907.5369"
       id="text140"><tspan
         sodipodi:role="line"
         id="tspan138"
         x="1238.1852"
         y="1942.9275" /></text>
    <flowRoot
       xml:space="preserve"
       id="flowRoot89"
       style="fill:black;fill-opacity:1;stroke:none;font-family:sans-serif;font-style:normal;font-weight:normal;font-size:40px;line-height:1.25;letter-spacing:0px;word-spacing:0px"><flowRegion
         id="flowRegion91"><rect
           id="rect93"
           width="278.125"
           height="198.4375"
           x="1942.1875"
           y="1406.125" /></flowRegion><flowPara
         id="flowPara95" /></flowRoot>  </g>
</svg>
