<?xml version="1.0" encoding="UTF-8" standalone="no"?>
<!-- Created with Inkscape (http://www.inkscape.org/) -->

<svg
   xmlns:dc="http://purl.org/dc/elements/1.1/"
   xmlns:cc="http://creativecommons.org/ns#"
   xmlns:rdf="http://www.w3.org/1999/02/22-rdf-syntax-ns#"
   xmlns:svg="http://www.w3.org/2000/svg"
   xmlns="http://www.w3.org/2000/svg"
   xmlns:xlink="http://www.w3.org/1999/xlink"
   xmlns:sodipodi="http://sodipodi.sourceforge.net/DTD/sodipodi-0.dtd"
   xmlns:inkscape="http://www.inkscape.org/namespaces/inkscape"
   id="svg2"
   version="1.1"
   inkscape:version="0.92.3 (2405546, 2018-03-11)"
   width="2481"
   height="3503"
   sodipodi:docname="E26P04.svg">
  <metadata
     id="metadata8">
    <rdf:RDF>
      <cc:Work
         rdf:about="">
        <dc:format>image/svg+xml</dc:format>
        <dc:type
           rdf:resource="http://purl.org/dc/dcmitype/StillImage" />
        <dc:title />
      </cc:Work>
    </rdf:RDF>
  </metadata>
  <defs
     id="defs6" />
  <sodipodi:namedview
     pagecolor="#ffffff"
     bordercolor="#666666"
     borderopacity="1"
     objecttolerance="10"
     gridtolerance="10"
     guidetolerance="10"
     inkscape:pageopacity="0"
     inkscape:pageshadow="2"
     inkscape:window-width="1914"
     inkscape:window-height="1018"
     id="namedview4"
     showgrid="false"
     inkscape:zoom="0.42773946"
     inkscape:cx="1093.2153"
     inkscape:cy="2582.633"
     inkscape:window-x="0"
     inkscape:window-y="0"
     inkscape:window-maximized="0"
     inkscape:current-layer="layer1" />
  <g
     inkscape:groupmode="layer"
     id="layer2"
     inkscape:label="artwork"
     sodipodi:insensitive="true">
    <image
       xlink:href="../gfx_Pepper-and-Carrot_by-David-Revoy_E26P04.png"
       y="0"
       x="0"
       id="image10"
       height="3503"
       width="2481" />
  </g>
  <g
     inkscape:groupmode="layer"
     id="layer3"
     inkscape:label="speechbubbles">
    <path
       style="color:#000000;display:inline;overflow:visible;visibility:visible;fill:#ffffff;fill-opacity:1;fill-rule:nonzero;stroke:none;stroke-width:1.94898546px;marker:none;enable-background:accumulate"
       d="m 77.729558,1506.9232 c -5.203345,-67.4656 -3.584614,-126.5765 5.07845,-182.4591 5.380075,-34.7051 174.476322,-42.9783 232.850102,-36.6628 49.82002,5.3902 162.77122,20.0737 187.06565,68.4983 24.29455,48.4244 27.97666,123.5623 23.41598,170.8309 -4.56055,47.2686 -10.10107,57.3541 -55.60984,97.2147 -23.25795,20.3713 -158.58687,32.6947 -213.03592,35.7285 -56.14206,3.132 -134.3364,0.576 -162.01309,-31.0665 -28.05877,-32.079 -12.548133,-54.6183 -17.751332,-122.084 z"
       id="path3373"
       inkscape:connector-curvature="0"
       sodipodi:nodetypes="zsssssssz" />
    <path
       style="color:#000000;display:inline;overflow:visible;visibility:visible;fill:#ffffff;fill-opacity:1;fill-rule:nonzero;stroke:none;stroke-width:0.95470774;marker:none;enable-background:accumulate"
       d="M 369.79142,809.84364 C 305.75829,762.35821 198.20492,558.84155 249.43665,362.79562 266.81502,310.92732 307.36394,84.8784 238.16093,303.5743 c -69.203,218.6959 9.34385,417.00687 131.63049,506.26934 z"
       id="path3010"
       inkscape:connector-curvature="0"
       sodipodi:nodetypes="cczc" />
    <path
       style="color:#000000;display:inline;overflow:visible;visibility:visible;fill:#ffffff;fill-opacity:1;fill-rule:nonzero;stroke:none;stroke-width:0.92846394px;marker:none;enable-background:accumulate"
       d="m 724.75243,1055.8265 c -22.47857,-11.219 -27.79905,-26.6113 -25.55111,-33.0223 2.24784,-6.4108 22.47847,-39.26661 47.20477,-43.27342 24.72641,-4.00682 88.79012,-8.81495 103.40117,-4.80813 14.6111,4.00673 56.19637,30.45175 56.19637,44.07475 0,13.6232 -7.86752,40.0681 -30.34602,48.0817 -22.47851,8.0136 -123.93104,0.7406 -150.90518,-11.0526 z"
       id="path3349"
       inkscape:connector-curvature="0"
       sodipodi:nodetypes="ccscssc" />
    <path
       style="color:#000000;display:inline;overflow:visible;visibility:visible;fill:#ffffff;fill-opacity:1;fill-rule:nonzero;stroke:none;stroke-width:0.70585674px;marker:none;enable-background:accumulate"
       d="m 739.28428,1055.9825 c 19.00356,-19.5487 179.41533,-40.7677 235.7943,-0.4818 56.37902,40.2859 19.36572,97.3247 -12.983,112.7065 -32.34856,15.3818 -122.9281,19.2165 -168.16903,10.3485 -60.01108,-11.7632 -77.27619,-32.8926 -79.48512,-73.2471 -0.90152,-16.4701 5.8392,-29.7772 24.84285,-49.3261 z"
       id="path4040"
       inkscape:connector-curvature="0"
       sodipodi:nodetypes="zssssz" />
    <path
       style="color:#000000;display:inline;overflow:visible;visibility:visible;fill:#ffffff;fill-opacity:1;fill-rule:nonzero;stroke:none;stroke-width:0.9220413px;marker:none;enable-background:accumulate"
       d="m 1556.6491,1184.577 c -4.6607,-31.4449 7.7677,-114.9705 103.3121,-108.0919 95.5443,6.8785 111.08,46.1846 113.4103,57.9765 2.3304,11.7918 22.5267,78.6124 -52.0444,96.3003 -74.5713,17.6877 -141.3745,-0.9828 -164.678,-46.1849 z"
       id="path3525"
       inkscape:connector-curvature="0" />
    <path
       style="color:#000000;display:inline;overflow:visible;visibility:visible;fill:#ffffff;fill-opacity:1;fill-rule:nonzero;stroke:none;stroke-width:1px;marker:none;enable-background:accumulate"
       d="m 934.35118,1104.2126 c 69.98612,31.0197 98.42482,29.5718 151.73632,-4.4587 -31.1182,24.6589 -43.6342,55.9553 -145.08715,33.1222 -40.4073,-9.0941 -6.64917,-28.6635 -6.64917,-28.6635 z"
       id="path4480"
       inkscape:connector-curvature="0"
       sodipodi:nodetypes="ccsc" />
    <path
       style="color:#000000;display:inline;overflow:visible;visibility:visible;fill:#ffffff;fill-opacity:1;fill-rule:nonzero;stroke:none;stroke-width:1px;marker:none;enable-background:accumulate"
       d="m 1496.1025,1128.3709 c 34.6297,22.4436 48.151,28.3727 87.526,0.3521 39.375,-28.0207 48.7701,-12.382 48.7701,-12.382 l -12.8989,31.2148 c 0,0 -87.8568,53.5997 -123.3972,-19.1849 z"
       id="path3072"
       inkscape:connector-curvature="0" />
    <path
       style="color:#000000;display:inline;overflow:visible;visibility:visible;fill:#ffffff;fill-opacity:1;fill-rule:nonzero;stroke:none;stroke-width:0.74193799px;marker:none;enable-background:accumulate"
       d="m 1921.2747,183.12255 c -0.7336,-19.20925 5.8514,-26.39203 36.6602,-38.93681 30.809,-12.54478 60.0351,-6.41212 87.8924,-3.85385 32.0305,2.94151 66.1693,7.50842 77.1725,21.62136 11.0032,14.11286 19.8057,19.60121 16.1379,32.93007 -3.6677,13.32878 -7.3354,27.44172 -20.5392,32.14599 -13.2039,4.70434 -107.0977,10.97669 -122.5021,7.84051 -15.4046,-3.13617 -40.3451,-3.92026 -53.5488,-13.32886 -13.3861,-9.53839 -20.5394,-19.20917 -21.2729,-38.41841 z"
       id="path3373-0"
       inkscape:connector-curvature="0"
       sodipodi:nodetypes="zsssssssz" />
    <path
       style="color:#000000;display:inline;overflow:visible;visibility:visible;fill:#ffffff;fill-opacity:1;fill-rule:nonzero;stroke:none;stroke-width:1.10269368px;marker:none;enable-background:accumulate"
       d="m 1893.5238,275.99898 c 2.9467,-45.42743 40.2693,-55.43685 79.5565,-57.74673 39.2872,-2.30988 55.0021,4.61975 65.8061,6.1596 10.804,1.53995 111.9685,-4.61974 125.719,-3.07979 13.7505,1.53994 78.5744,22.32874 75.6278,58.51664 -2.9465,36.18791 -47.1446,51.58702 -92.3249,53.89689 -45.1803,2.30988 -137.5051,0 -160.0952,4.61975 -22.5902,4.61975 -87.4141,-3.0798 -94.2893,-62.36645 z"
       id="path5034"
       inkscape:connector-curvature="0" />
    <path
       style="color:#000000;display:inline;overflow:visible;visibility:visible;fill:#ffffff;fill-opacity:1;fill-rule:nonzero;stroke:none;stroke-width:1px;marker:none;enable-background:accumulate"
       d="m 2014.1421,464.34286 c -57.0243,-41.23372 -60.4397,-86.77108 -49.5441,-144.9504 10.8956,-58.17932 39.6811,-24.31559 39.6811,-24.31559 0,0 -65.1914,100.00192 9.863,169.26599 z"
       id="path5002"
       inkscape:connector-curvature="0"
       sodipodi:nodetypes="cscc" />
    <path
       style="color:#000000;display:inline;overflow:visible;visibility:visible;fill:#ffffff;fill-opacity:1;fill-rule:nonzero;stroke:none;stroke-width:0.77728993px;marker:none;enable-background:accumulate"
       d="m 1700.4279,2232.4771 c 1.9548,12.6252 -20.2332,66.0408 -111.3756,61.8839 -91.1424,-4.157 -112.9427,-36.8339 -112.8192,-53.7968 0.1234,-16.963 21.4964,-44.2602 34.7426,-49.1276 13.2461,-4.8673 52.126,-15.6749 87.6192,-10.6767 39.5028,5.5627 74.284,12.3263 88.2445,26.9259 13.9604,14.5994 11.9752,21.4764 13.5885,24.7913 z"
       id="path3365"
       inkscape:connector-curvature="0"
       sodipodi:nodetypes="ccccscc" />
    <path
       style="color:#000000;display:inline;overflow:visible;visibility:visible;fill:#ffffff;fill-opacity:1;fill-rule:nonzero;stroke:none;stroke-width:1.56670535px;marker:none;enable-background:accumulate"
       d="m 1438.3713,2309.4063 c 38.2939,-65.1491 248.2312,-65.3935 312.7492,-36.497 64.5178,28.8961 73.8465,64.2591 76.3257,81.6125 2.4793,17.3533 -7.7471,118.76 -41.742,134.2363 -33.9949,15.4759 -130.131,22.5595 -163.6126,22.2827 -33.4818,-0.2768 -140.0364,-11.1873 -166.3313,-34.4652 -25.1539,-22.2681 -55.6831,-102.0204 -17.389,-167.1693 z"
       id="path3330"
       inkscape:connector-curvature="0"
       sodipodi:nodetypes="zsssssz" />
    <path
       style="color:#000000;display:inline;overflow:visible;visibility:visible;fill:#ffffff;fill-opacity:1;fill-rule:nonzero;stroke:none;stroke-width:1.07720649px;marker:none;enable-background:accumulate"
       d="m 1664.135,2448.2545 c -69.9893,51.1328 8.9085,162.5856 132.4832,191.8362 -158.9941,-19.5502 -214.8639,-129.8242 -184.2863,-182.6082 -12.1609,-26.4834 51.8031,-9.228 51.8031,-9.228 z"
       id="path4008"
       inkscape:connector-curvature="0"
       sodipodi:nodetypes="cccc" />
    <path
       style="color:#000000;display:inline;overflow:visible;visibility:visible;fill:#ffffff;fill-opacity:1;fill-rule:nonzero;stroke:none;stroke-width:0.81216347px;marker:none;enable-background:accumulate"
       d="M 91.805509,67.169984 C 118.1593,47.814351 351.91785,57.896128 407.96113,110.56032 c 56.04314,52.66417 -1.25578,124.16351 -42.08475,137.06715 -40.82884,12.90367 -195.29246,20.8767 -245.54913,4.89369 C 53.662925,231.32005 38.98534,197.38676 45.525484,151.88954 48.194771,133.32052 65.45156,86.525837 91.805509,67.169984 Z"
       id="path4040-0"
       inkscape:connector-curvature="0"
       sodipodi:nodetypes="zssssz" />
    <path
       style="color:#000000;display:inline;overflow:visible;visibility:visible;fill:#ffffff;fill-opacity:1;fill-rule:nonzero;stroke:none;stroke-width:1.36803198px;marker:none;enable-background:accumulate"
       d="m 408.49708,446.63321 c 3.70539,26.7234 -24.85146,142.2392 -157.49996,140.72708 C 118.34862,585.84794 84.446029,518.02952 83.461168,481.90318 82.476156,445.77666 111.64199,385.93622 130.54495,374.50632 c 18.90283,-11.4297 74.62511,-37.57108 126.51379,-29.78702 57.75044,8.66313 108.72628,20.26331 130.00269,50.22385 21.27625,29.96014 18.86518,44.76206 21.43565,51.69006 z"
       id="path3365-6"
       inkscape:connector-curvature="0"
       sodipodi:nodetypes="ccccscc" />
    <path
       style="color:#000000;display:inline;overflow:visible;visibility:visible;fill:#ffffff;fill-opacity:1;fill-rule:nonzero;stroke:none;stroke-width:1.17923069px;marker:none;enable-background:accumulate"
       d="m 421.00062,1204.9587 c -82.04637,41.839 -98.69807,91.9551 -101.02486,156.986 -2.32681,65.0308 42.64616,29.4851 42.64616,29.4851 0,0 -53.69551,-114.8291 58.3787,-186.4711 z"
       id="path5002-1"
       inkscape:connector-curvature="0"
       sodipodi:nodetypes="cscc" />
  </g>
  <g
     inkscape:groupmode="layer"
     id="layer1"
     inkscape:label="txt">
    <text
       xml:space="preserve"
       style="font-style:normal;font-variant:normal;font-weight:normal;font-stretch:normal;line-height:0%;font-family:Lavi;-inkscape-font-specification:Lavi;text-align:center;letter-spacing:0px;word-spacing:0px;text-anchor:middle;fill:#000000;fill-opacity:1;stroke:none"
       x="109.66629"
       y="1373.2563"
       id="text4246-5-5"><tspan
         sodipodi:role="line"
         style="font-style:italic;font-variant:normal;font-weight:normal;font-stretch:normal;font-size:45px;line-height:1.25;font-family:Lavi;-inkscape-font-specification:'Lavi Italic';text-align:start;text-anchor:start"
         x="109.66629"
         y="1373.2563"
         id="tspan478">“On a ghabh thu </tspan><tspan
         sodipodi:role="line"
         style="font-style:italic;font-variant:normal;font-weight:normal;font-stretch:normal;font-size:45px;line-height:1.25;font-family:Lavi;-inkscape-font-specification:'Lavi Italic';text-align:start;text-anchor:start"
         x="109.66629"
         y="1429.5063"
         id="tspan105">an ath-ghoirid, bu </tspan><tspan
         sodipodi:role="line"
         style="font-style:italic;font-variant:normal;font-weight:normal;font-stretch:normal;font-size:45px;line-height:1.25;font-family:Lavi;-inkscape-font-specification:'Lavi Italic';text-align:start;text-anchor:start"
         x="109.66629"
         y="1485.7563"
         id="tspan107">chòir dhut teannadh </tspan><tspan
         sodipodi:role="line"
         style="font-style:italic;font-variant:normal;font-weight:normal;font-stretch:normal;font-size:45px;line-height:1.25;font-family:Lavi;-inkscape-font-specification:'Lavi Italic';text-align:start;text-anchor:start"
         x="109.66629"
         y="1542.0063"
         id="tspan109">air seòmar an </tspan><tspan
         sodipodi:role="line"
         style="font-style:italic;font-variant:normal;font-weight:normal;font-stretch:normal;font-size:45px;line-height:1.25;font-family:Lavi;-inkscape-font-specification:'Lavi Italic';text-align:start;text-anchor:start"
         x="109.66629"
         y="1598.2563"
         id="tspan111">Fhreiceadain.”</tspan></text>
    <text
       xml:space="preserve"
       style="font-style:normal;font-variant:normal;font-weight:normal;font-stretch:normal;line-height:0%;font-family:Lavi;-inkscape-font-specification:Lavi;text-align:center;letter-spacing:0px;word-spacing:0px;text-anchor:middle;fill:#000000;fill-opacity:1;stroke:none"
       x="805.59772"
       y="1035.0259"
       id="text4246-5"><tspan
         sodipodi:role="line"
         style="font-size:45px;line-height:1.25"
         x="805.59772"
         y="1035.0259"
         id="tspan859">An-dà...</tspan></text>
    <text
       xml:space="preserve"
       style="font-style:normal;font-variant:normal;font-weight:normal;font-stretch:normal;line-height:0%;font-family:Lavi;-inkscape-font-specification:Lavi;text-align:center;letter-spacing:0px;word-spacing:0px;text-anchor:middle;fill:#000000;fill-opacity:1;stroke:none"
       x="856.27435"
       y="1066.9119"
       id="text4246-5-3"><tspan
         sodipodi:role="line"
         style="font-size:45px;line-height:1.25"
         x="856.27435"
         y="1070.4093"
         id="tspan890" /><tspan
         sodipodi:role="line"
         style="font-size:45px;line-height:1.25"
         x="863.3056"
         y="1108.1523"
         id="tspan482">an ceannard </tspan><tspan
         sodipodi:role="line"
         style="font-size:45px;line-height:1.25"
         x="856.27435"
         y="1164.4023"
         id="tspan115">mòr?!?</tspan><tspan
         sodipodi:role="line"
         style="font-size:45px;line-height:1.25"
         x="856.27435"
         y="1182.9093"
         id="tspan917" /></text>
    <text
       xml:space="preserve"
       style="font-style:normal;font-variant:normal;font-weight:normal;font-stretch:normal;line-height:0%;font-family:Lavi;-inkscape-font-specification:Lavi;text-align:center;letter-spacing:0px;word-spacing:0px;text-anchor:middle;fill:#000000;fill-opacity:1;stroke:none"
       x="1665.2767"
       y="1096.7792"
       id="text4246-5-3-7"><tspan
         sodipodi:role="line"
         style="font-size:45px;line-height:1.25"
         x="1665.2767"
         y="1100.2766"
         id="tspan890-5" /><tspan
         sodipodi:role="line"
         style="font-size:45px;line-height:1.25"
         x="1665.2767"
         y="1138.0197"
         id="tspan950">Ach</tspan><tspan
         sodipodi:role="line"
         style="font-size:45px;line-height:1.25"
         x="1665.2767"
         y="1194.2697"
         id="tspan119">càite?</tspan><tspan
         sodipodi:role="line"
         style="font-size:45px;line-height:1.25"
         x="1665.2767"
         y="1212.7766"
         id="tspan917-6" /></text>
    <text
       xml:space="preserve"
       style="font-style:normal;font-variant:normal;font-weight:normal;font-stretch:normal;line-height:0%;font-family:Lavi;-inkscape-font-specification:Lavi;text-align:center;letter-spacing:0px;word-spacing:0px;text-anchor:middle;fill:#000000;fill-opacity:1;stroke:none"
       x="2031.5693"
       y="160.21571"
       id="text4246-5-3-7-2"><tspan
         sodipodi:role="line"
         style="font-size:45px;line-height:1.25"
         x="2031.5693"
         y="163.71317"
         id="tspan890-5-9" /><tspan
         sodipodi:role="line"
         style="font-size:45px;line-height:1.25"
         x="2031.5693"
         y="201.45618"
         id="tspan950-2">A HÀ...</tspan><tspan
         sodipodi:role="line"
         style="font-size:45px;line-height:1.25"
         x="2031.5693"
         y="219.96317"
         id="tspan917-6-7" /></text>
    <text
       xml:space="preserve"
       style="font-style:normal;font-variant:normal;font-weight:normal;font-stretch:normal;line-height:0%;font-family:Lavi;-inkscape-font-specification:Lavi;text-align:center;letter-spacing:0px;word-spacing:0px;text-anchor:middle;fill:#000000;fill-opacity:1;stroke:none"
       x="1587.4655"
       y="2208.7827"
       id="text4246-5-3-7-6"><tspan
         sodipodi:role="line"
         style="font-size:45px;line-height:1.25"
         x="1587.4655"
         y="2212.2803"
         id="tspan890-5-2" /><tspan
         sodipodi:role="line"
         style="font-style:italic;font-variant:normal;font-weight:normal;font-stretch:normal;font-size:45px;line-height:1.25;font-family:Lavi;-inkscape-font-specification:'Lavi Italic'"
         x="1587.4655"
         y="2250.0232"
         id="tspan917-6-8">Pfff...!</tspan></text>
    <text
       xml:space="preserve"
       style="font-style:normal;font-variant:normal;font-weight:normal;font-stretch:normal;line-height:0%;font-family:Lavi;-inkscape-font-specification:Lavi;text-align:center;letter-spacing:0px;word-spacing:0px;text-anchor:middle;fill:#000000;fill-opacity:1;stroke:none"
       x="1620.2002"
       y="2304.2234"
       id="text4246-5-3-79"><tspan
         sodipodi:role="line"
         style="font-size:45px;line-height:1.25"
         x="1620.2002"
         y="2307.7209"
         id="tspan890-2" /><tspan
         sodipodi:role="line"
         style="font-size:45px;line-height:1.25"
         x="1627.2314"
         y="2345.4639"
         id="tspan917-3">Ro fhurasta nuair </tspan><tspan
         sodipodi:role="line"
         style="font-size:45px;line-height:1.25"
         x="1627.2314"
         y="2401.7139"
         id="tspan146">a bhios tu eòlach </tspan><tspan
         sodipodi:role="line"
         style="font-size:45px;line-height:1.25"
         x="1620.2002"
         y="2457.9639"
         id="tspan148">air an easbhaidh!</tspan></text>
    <text
       xml:space="preserve"
       style="font-style:normal;font-variant:normal;font-weight:normal;font-stretch:normal;line-height:0%;font-family:Lavi;-inkscape-font-specification:Lavi;text-align:center;letter-spacing:0px;word-spacing:0px;text-anchor:middle;fill:#000000;fill-opacity:1;stroke:none"
       x="124.21524"
       y="161.71936"
       id="text4246-5-5-3"><tspan
         sodipodi:role="line"
         style="font-style:italic;font-variant:normal;font-weight:normal;font-stretch:normal;font-size:45px;line-height:1.25;font-family:Lavi;-inkscape-font-specification:'Lavi Italic';text-align:start;text-anchor:start"
         x="124.21524"
         y="161.71936"
         id="tspan940">“Tog ite air </tspan><tspan
         sodipodi:role="line"
         style="font-style:italic;font-variant:normal;font-weight:normal;font-stretch:normal;font-size:45px;line-height:1.25;font-family:Lavi;-inkscape-font-specification:'Lavi Italic';text-align:start;text-anchor:start"
         x="124.21524"
         y="217.96936"
         id="tspan78">an t-slighe.”</tspan></text>
    <text
       xml:space="preserve"
       style="font-style:normal;font-variant:normal;font-weight:normal;font-stretch:normal;font-size:11.12393284px;line-height:0%;font-family:Lavi;-inkscape-font-specification:Lavi;text-align:center;letter-spacing:0px;word-spacing:0px;text-anchor:middle;fill:#000000;fill-opacity:1;stroke:none;stroke-width:0.92699438"
       x="241.16489"
       y="406.48187"
       id="text4246-5-3-9"><tspan
         sodipodi:role="line"
         style="font-size:41.71474838px;line-height:1.25;stroke-width:0.92699438"
         x="247.68282"
         y="406.48187"
         id="tspan995">Chan eil </tspan><tspan
         sodipodi:role="line"
         style="font-size:41.71474838px;line-height:1.25;stroke-width:0.92699438"
         x="247.68282"
         y="458.62531"
         id="tspan85">gainnead dhe </tspan><tspan
         sodipodi:role="line"
         style="font-size:41.71474838px;line-height:1.25;stroke-width:0.92699438"
         x="247.68282"
         y="510.76874"
         id="tspan87">dh’itean </tspan><tspan
         sodipodi:role="line"
         style="font-size:41.71474838px;line-height:1.25;stroke-width:0.92699438"
         x="241.16489"
         y="562.91217"
         id="tspan89">an-seo!</tspan></text>
    <text
       xml:space="preserve"
       style="font-style:normal;font-variant:normal;font-weight:normal;font-stretch:normal;font-size:9.62365437px;line-height:0%;font-family:Lavi;-inkscape-font-specification:Lavi;text-align:center;letter-spacing:0px;word-spacing:0px;text-anchor:middle;fill:#000000;fill-opacity:1;stroke:none;stroke-width:0.80197126"
       x="-5.6001134"
       y="2108.8848"
       id="text4246-5-5-8"
       transform="matrix(0.90354167,-0.46833278,0.47503417,0.86053134,0,0)"><tspan
         sodipodi:role="line"
         style="font-style:italic;font-variant:normal;font-weight:normal;font-stretch:normal;font-size:36.08870697px;line-height:1.25;font-family:Lavi;-inkscape-font-specification:'Lavi Italic';text-align:start;text-anchor:start;fill:#ffffff;fill-opacity:1;stroke-width:0.80197126"
         x="-5.6001134"
         y="2108.8848"
         id="tspan478-2">ciogail</tspan></text>
    <text
       xml:space="preserve"
       style="font-style:normal;font-variant:normal;font-weight:normal;font-stretch:normal;font-size:9.62365437px;line-height:0%;font-family:Lavi;-inkscape-font-specification:Lavi;text-align:center;letter-spacing:0px;word-spacing:0px;text-anchor:middle;fill:#000000;fill-opacity:1;stroke:none;stroke-width:0.80197126"
       x="31.284788"
       y="2072.4109"
       id="text4246-5-5-8-3"
       transform="matrix(0.90354167,-0.46833278,0.47503417,0.86053134,0,0)"
       inkscape:transform-center-x="-64.107832"
       inkscape:transform-center-y="11.506534"><tspan
         sodipodi:role="line"
         style="font-style:italic;font-variant:normal;font-weight:normal;font-stretch:normal;font-size:36.08870697px;line-height:1.25;font-family:Lavi;-inkscape-font-specification:'Lavi Italic';text-align:start;text-anchor:start;fill:#ffffff;fill-opacity:1;stroke-width:0.80197126"
         x="31.284788"
         y="2072.4109"
         id="tspan478-2-7">ciogail</tspan></text>
    <text
       xml:space="preserve"
       style="font-style:normal;font-variant:normal;font-weight:normal;font-stretch:normal;line-height:0%;font-family:Lavi;-inkscape-font-specification:Lavi;text-align:center;letter-spacing:0px;word-spacing:0px;text-anchor:middle;fill:#000000;fill-opacity:1;stroke:none"
       x="2062.343"
       y="246.80626"
       id="text4246-5-3-7-2-0"><tspan
         sodipodi:role="line"
         style="font-size:45px;line-height:1.25"
         x="2062.343"
         y="250.30371"
         id="tspan890-5-9-9" /><tspan
         sodipodi:role="line"
         style="font-style:normal;font-variant:normal;font-weight:bold;font-stretch:normal;font-size:53.33333206px;line-height:1.25;font-family:Lavi;-inkscape-font-specification:'Lavi Bold'"
         x="2062.343"
         y="295.68384"
         id="tspan950-2-3">Lorg mi thu!</tspan><tspan
         sodipodi:role="line"
         style="font-style:normal;font-variant:normal;font-weight:bold;font-stretch:normal;font-size:53.33333206px;line-height:1.25;font-family:Lavi;-inkscape-font-specification:'Lavi Bold'"
         x="2062.343"
         y="316.97037"
         id="tspan917-6-7-6" /></text>
  </g>
</svg>
