<?xml version="1.0" encoding="UTF-8" standalone="no"?>
<!-- Created with Inkscape (http://www.inkscape.org/) -->

<svg
   xmlns:dc="http://purl.org/dc/elements/1.1/"
   xmlns:cc="http://creativecommons.org/ns#"
   xmlns:rdf="http://www.w3.org/1999/02/22-rdf-syntax-ns#"
   xmlns:svg="http://www.w3.org/2000/svg"
   xmlns="http://www.w3.org/2000/svg"
   xmlns:xlink="http://www.w3.org/1999/xlink"
   xmlns:sodipodi="http://sodipodi.sourceforge.net/DTD/sodipodi-0.dtd"
   xmlns:inkscape="http://www.inkscape.org/namespaces/inkscape"
   id="svg2"
   version="1.1"
   inkscape:version="0.92.3 (2405546, 2018-03-11)"
   width="2481"
   height="3503"
   sodipodi:docname="E26P01.svg">
  <metadata
     id="metadata8">
    <rdf:RDF>
      <cc:Work
         rdf:about="">
        <dc:format>image/svg+xml</dc:format>
        <dc:type
           rdf:resource="http://purl.org/dc/dcmitype/StillImage" />
        <dc:title />
      </cc:Work>
    </rdf:RDF>
  </metadata>
  <defs
     id="defs6" />
  <sodipodi:namedview
     pagecolor="#ffffff"
     bordercolor="#666666"
     borderopacity="1"
     objecttolerance="10"
     gridtolerance="10"
     guidetolerance="10"
     inkscape:pageopacity="0"
     inkscape:pageshadow="2"
     inkscape:window-width="1914"
     inkscape:window-height="1018"
     id="namedview4"
     showgrid="false"
     inkscape:zoom="0.48912286"
     inkscape:cx="1481.5488"
     inkscape:cy="1142.5141"
     inkscape:window-x="0"
     inkscape:window-y="0"
     inkscape:window-maximized="0"
     inkscape:current-layer="layer1"
     inkscape:snap-global="false" />
  <g
     inkscape:groupmode="layer"
     id="layer2"
     inkscape:label="artwork"
     sodipodi:insensitive="true">
    <image
       xlink:href="../gfx_Pepper-and-Carrot_by-David-Revoy_E26P01.png"
       y="0"
       x="0"
       id="image10"
       height="3503"
       width="2481" />
  </g>
  <g
     inkscape:groupmode="layer"
     id="layer3"
     inkscape:label="speechbubbles"
     style="display:inline;opacity:1">
    <path
       style="fill:#ffffff;fill-opacity:1;stroke:none;stroke-width:1.67971504"
       d="m 246.5776,1860.1544 c -100.30635,0.4583 -147.472355,-11.1548 -171.050153,-21.4343 -39.12225,-17.0565 -46.773519,-119.6485 32.057003,-140.0903 79.24538,-20.5492 233.78476,-15.9795 297.21085,23.5374 63.42583,39.5169 18.19034,91.5472 3.60669,102.2401 -14.58388,10.6925 -53.30737,35.337 -161.82439,35.7471 z"
       id="path3659-8"
       inkscape:connector-curvature="0"
       sodipodi:nodetypes="cssssc" />
    <path
       style="color:#000000;display:inline;overflow:visible;visibility:visible;fill:#ffffff;fill-opacity:1;fill-rule:nonzero;stroke:none;stroke-width:0.77001458px;marker:none;enable-background:accumulate"
       d="m 274.67689,1847.3732 c 11.17842,15.8247 25.32183,43.4204 25.79652,49.4209 -6.73911,-0.5556 -13.09406,0.387 -18.03883,1.0204 1.81058,10.7946 32.21158,51.6223 41.64451,56.3046 -23.83945,-10.0592 -58.27989,-45.5693 -59.88737,-63.8703 6.68489,-2.1454 10.75049,-2.4727 14.26692,-3.6967 -0.36416,-9.3034 -20.80365,-30.8908 -20.80365,-30.8908 z"
       id="path5066"
       inkscape:connector-curvature="0"
       sodipodi:nodetypes="cccccccc" />
    <path
       style="color:#000000;display:inline;overflow:visible;visibility:visible;fill:#ffffff;fill-opacity:1;fill-rule:nonzero;stroke:none;stroke-width:1.14151335px;marker:none;enable-background:accumulate"
       d="m 1755.7202,1959.3191 c -41.1419,-49.7059 -39.6948,-154.5338 -27.9398,-176.9014 18.3827,-41.8224 62.4251,-49.2864 118.2608,-49.2864 55.8356,0 452.1588,-25.3961 509.4638,26.7951 57.3049,52.1912 39.2661,149.3892 -10.692,210.2788 -49.9583,60.8897 -327.3233,48.4632 -327.3233,48.4632 0,0 -198.587,4.0256 -261.7695,-59.3493 z"
       id="path3992"
       inkscape:connector-curvature="0"
       sodipodi:nodetypes="ccscccc" />
    <path
       style="color:#000000;display:inline;overflow:visible;visibility:visible;fill:#ffffff;fill-opacity:1;fill-rule:nonzero;stroke:none;stroke-width:1px;marker:none;enable-background:accumulate"
       d="m 1984.9695,2224.8076 c 97.5172,-13.4683 140.8945,-73.5032 173.5649,-113.8088 15.274,-18.8437 -32.2063,-50.3843 -32.2063,-50.3843 l -20.4844,64.3961 c 4.4776,5.3732 -31.2523,71.0033 -120.8742,99.797 z"
       id="path4000"
       inkscape:connector-curvature="0"
       sodipodi:nodetypes="csccc" />
    <path
       style="color:#000000;display:inline;overflow:visible;visibility:visible;fill:#ffffff;fill-opacity:1;fill-rule:nonzero;stroke:none;stroke-width:0.83059144px;marker:none;enable-background:accumulate"
       d="m 1986.9871,2045.8133 c 16.1003,-23.0063 28.0556,-67.3113 146.6344,-51.7323 63.5172,8.3448 135.7326,7.6994 128.2439,88.2216 -7.4887,80.5222 -112.6372,70.1622 -134.1673,71.1095 -21.53,0.9474 -123.0936,0.012 -141.7025,-28.3054 -11.6488,-17.7262 -15.0761,-57.9183 0.9915,-79.2934 z"
       id="path4546-6"
       inkscape:connector-curvature="0"
       sodipodi:nodetypes="cssssc" />
    <path
       style="color:#000000;display:inline;overflow:visible;visibility:visible;opacity:1;vector-effect:none;fill:#ffffff;fill-opacity:1;fill-rule:nonzero;stroke:none;stroke-width:1.1801393;stroke-linecap:butt;stroke-linejoin:miter;stroke-miterlimit:4;stroke-dasharray:none;stroke-dashoffset:0;stroke-opacity:1;marker:none;paint-order:stroke fill markers;enable-background:accumulate"
       d="m 892.15013,2727.4883 c -38.71503,-58.6652 -34.56706,-173.0622 -23.50553,-199.4615 -6.48685,-39.4449 17.8463,-72.2613 78.81276,-65.9983 52.33566,5.3763 428.44094,-34.2355 482.36544,27.3629 53.9243,61.5985 51.6137,180.7812 4.6026,252.6461 -47.0112,71.8649 -308.6025,51.449 -308.6025,51.449 -0.247,0.4081 -182.98149,23.2782 -233.67277,-65.9982 z"
       id="path3992-0"
       inkscape:connector-curvature="0"
       sodipodi:nodetypes="ccscscc" />
    <path
       style="color:#000000;display:inline;overflow:visible;visibility:visible;fill:#ffffff;fill-opacity:1;fill-rule:nonzero;stroke:none;stroke-width:1.1471467px;marker:none;enable-background:accumulate"
       d="m 1107.7917,2663.674 c -41.0805,41.3971 -74.3212,126.4523 -32.6058,262.3106 -64.481,-107.4324 -40.7404,-218.5665 -31.5488,-251.0486 9.1915,-32.4819 64.1546,-11.262 64.1546,-11.262 z"
       id="path4008"
       inkscape:connector-curvature="0" />
    <path
       style="color:#000000;display:inline;overflow:visible;visibility:visible;fill:#ffffff;fill-opacity:1;fill-rule:nonzero;stroke:none;stroke-width:1.1471467px;marker:none;enable-background:accumulate"
       d="m 1891.9827,2656.832 c -40.4116,58.3597 -53.3089,167.7072 24.2468,263.2149 -108.4132,-99.3198 -82.2954,-214.0613 -72.6196,-244.9782 2.0322,-33.6961 48.3728,-18.2367 48.3728,-18.2367 z"
       id="path4008-0"
       inkscape:connector-curvature="0"
       sodipodi:nodetypes="cccc" />
    <path
       style="color:#000000;display:inline;overflow:visible;visibility:visible;opacity:1;fill:#ffffff;fill-opacity:1;fill-rule:nonzero;stroke:none;stroke-width:1.3938657px;marker:none;enable-background:accumulate"
       d="m 1845.3514,2744.4158 c -85.6293,-11.4249 -99.8946,-33.2233 -120.3181,-85.7917 -20.4236,-52.5684 17.7873,-199.8538 35.6615,-211.8218 11.3819,-4.5693 198.495,-1.6759 272.5373,10.4072 74.0423,12.0833 142.4094,2.0962 166.728,84.3366 21.0739,71.2666 -60.4755,180.7751 -158.3888,197.5032 -97.9134,16.7282 -196.2199,5.3665 -196.2199,5.3665 z"
       id="path3970"
       inkscape:connector-curvature="0"
       sodipodi:nodetypes="csccssc" />
  </g>
  <g
     inkscape:groupmode="layer"
     id="layer1"
     inkscape:label="txt">
    <text
       xml:space="preserve"
       style="font-style:normal;font-variant:normal;font-weight:normal;font-stretch:normal;line-height:0%;font-family:Lavi;-inkscape-font-specification:Lavi;text-align:center;letter-spacing:0px;word-spacing:0px;text-anchor:middle;fill:#000000;fill-opacity:1;stroke:none"
       x="257.70911"
       y="1760.4698"
       id="text4246"><tspan
         sodipodi:role="line"
         style="font-size:45px;line-height:1.25"
         x="264.74036"
         y="1760.4698"
         id="tspan825">’S caomh leam </tspan><tspan
         sodipodi:role="line"
         style="font-size:45px;line-height:1.25"
         x="257.70911"
         y="1816.7198"
         id="tspan44">leabhraichean!</tspan></text>
    <text
       xml:space="preserve"
       style="font-style:normal;font-variant:normal;font-weight:normal;font-stretch:normal;line-height:0%;font-family:Lavi;-inkscape-font-specification:Lavi;text-align:center;letter-spacing:0px;word-spacing:0px;text-anchor:middle;fill:#000000;fill-opacity:1;stroke:none"
       x="2120.7769"
       y="2060.2957"
       id="text4246-3-5-9"><tspan
         sodipodi:role="line"
         style="font-size:45px;line-height:1.25"
         x="2127.8081"
         y="2060.2957"
         id="tspan958">Nach </tspan><tspan
         sodipodi:role="line"
         style="font-size:45px;line-height:1.25"
         x="2120.7769"
         y="2116.5457"
         id="tspan79">math sin!</tspan></text>
    <text
       xml:space="preserve"
       style="font-style:normal;font-variant:normal;font-weight:normal;font-stretch:normal;line-height:0%;font-family:Lavi;-inkscape-font-specification:Lavi;text-align:center;letter-spacing:0px;word-spacing:0px;text-anchor:middle;fill:#000000;fill-opacity:1;stroke:none"
       x="2062.4443"
       y="1797.9629"
       id="text4246-3-3"><tspan
         sodipodi:role="line"
         style="font-size:45px;line-height:1.25"
         x="2069.4756"
         y="1797.9629"
         id="tspan1107">Tha nòtaichean taistealaich </tspan><tspan
         sodipodi:role="line"
         style="font-size:45px;line-height:1.25"
         x="2069.4756"
         y="1854.2129"
         id="tspan55">chomasaich san leabhar </tspan><tspan
         sodipodi:role="line"
         style="font-size:45px;line-height:1.25"
         x="2069.4756"
         y="1910.4629"
         id="tspan57">ainneamh seo a mhìnicheas </tspan><tspan
         sodipodi:role="line"
         style="font-size:45px;line-height:1.25"
         x="2062.4443"
         y="1966.7129"
         id="tspan59">a h-uile rud mun dùn seo.</tspan></text>
    <text
       xml:space="preserve"
       style="font-style:normal;font-variant:normal;font-weight:normal;font-stretch:normal;line-height:0%;font-family:Lavi;-inkscape-font-specification:Lavi;text-align:center;letter-spacing:0px;word-spacing:0px;text-anchor:middle;fill:#000000;fill-opacity:1;stroke:none"
       x="1173.4302"
       y="2538.7097"
       id="text4246-3-3-1"><tspan
         sodipodi:role="line"
         style="font-size:45px;line-height:1.25"
         x="1180.4614"
         y="2538.7097"
         id="tspan1244">Mar eisimpleir: losgaidh </tspan><tspan
         sodipodi:role="line"
         style="font-size:45px;line-height:1.25"
         x="1180.4614"
         y="2594.9597"
         id="tspan94">droch-shùil an dorais seo </tspan><tspan
         sodipodi:role="line"
         style="font-size:45px;line-height:1.25"
         x="1180.4614"
         y="2651.2097"
         id="tspan104">bàlaichean-teine marbhtach </tspan><tspan
         sodipodi:role="line"
         style="font-size:45px;line-height:1.25"
         x="1180.4614"
         y="2707.4597"
         id="tspan96">a chumas aoighean gun </tspan><tspan
         sodipodi:role="line"
         style="font-size:45px;line-height:1.25"
         x="1173.4302"
         y="2763.7097"
         id="tspan106">chuireadh air falbh.</tspan></text>
    <text
       xml:space="preserve"
       style="font-style:normal;font-variant:normal;font-weight:normal;font-stretch:normal;line-height:0%;font-family:Lavi;-inkscape-font-specification:Lavi;text-align:center;letter-spacing:0px;word-spacing:0px;text-anchor:middle;fill:#000000;fill-opacity:1;stroke:none"
       x="1967.1216"
       y="2538.2783"
       id="text4246-3-3-1-2"><tspan
         sodipodi:role="line"
         style="font-size:45px;line-height:1.25"
         x="1974.1528"
         y="2538.2783"
         id="tspan1230">Ach ma theannas tu </tspan><tspan
         sodipodi:role="line"
         style="font-size:45px;line-height:1.25"
         x="1974.1528"
         y="2594.5283"
         id="tspan122">oirre gu cùramach on </tspan><tspan
         sodipodi:role="line"
         style="font-size:45px;line-height:1.25"
         x="1974.1528"
         y="2650.7783"
         id="tspan124">chliathach far nach </tspan><tspan
         sodipodi:role="line"
         style="font-size:45px;line-height:1.25"
         x="1967.1216"
         y="2707.0283"
         id="tspan126">fhaic i thu...</tspan></text>
  </g>
</svg>
