<?xml version="1.0" encoding="UTF-8" standalone="no"?>
<svg
   xmlns:dc="http://purl.org/dc/elements/1.1/"
   xmlns:cc="http://creativecommons.org/ns#"
   xmlns:rdf="http://www.w3.org/1999/02/22-rdf-syntax-ns#"
   xmlns:svg="http://www.w3.org/2000/svg"
   xmlns="http://www.w3.org/2000/svg"
   xmlns:xlink="http://www.w3.org/1999/xlink"
   xmlns:sodipodi="http://sodipodi.sourceforge.net/DTD/sodipodi-0.dtd"
   xmlns:inkscape="http://www.inkscape.org/namespaces/inkscape"
   id="svg2"
   version="1.1"
   inkscape:version="1.0.2 (e86c870879, 2021-01-15)"
   width="2481"
   height="3503"
   sodipodi:docname="E35P02.svg">
  <metadata
     id="metadata8">
    <rdf:RDF>
      <cc:Work
         rdf:about="">
        <dc:format>image/svg+xml</dc:format>
        <dc:type
           rdf:resource="http://purl.org/dc/dcmitype/StillImage" />
        <dc:title />
      </cc:Work>
    </rdf:RDF>
  </metadata>
  <defs
     id="defs6">
    <filter
       inkscape:collect="always"
       style="color-interpolation-filters:sRGB"
       id="filter1496"
       x="-0.00029344924"
       width="1.0005869"
       y="-0.00023992775"
       height="1.0004799">
      <feGaussianBlur
         inkscape:collect="always"
         stdDeviation="0.26722674"
         id="feGaussianBlur1498" />
    </filter>
  </defs>
  <sodipodi:namedview
     pagecolor="#ffffff"
     bordercolor="#666666"
     borderopacity="1"
     objecttolerance="10"
     gridtolerance="10"
     guidetolerance="10"
     inkscape:pageopacity="0"
     inkscape:pageshadow="2"
     inkscape:window-width="1920"
     inkscape:window-height="967"
     id="namedview4"
     showgrid="false"
     inkscape:zoom="0.98380073"
     inkscape:cx="1827.577"
     inkscape:cy="2570.1367"
     inkscape:window-x="0"
     inkscape:window-y="72"
     inkscape:window-maximized="1"
     inkscape:current-layer="layer3"
     inkscape:document-rotation="0"
     inkscape:snap-global="false"
     inkscape:pagecheckerboard="0"
     showguides="false" />
  <g
     inkscape:groupmode="layer"
     id="layer2"
     inkscape:label="artwork"
     sodipodi:insensitive="true">
    <image
       sodipodi:absref="/felles/omsetting/pepper-carrot/webcomics/new-ep35_The-Reflection/lang/gfx_Pepper-and-Carrot_by-David-Revoy_E35P02.png"
       xlink:href="../gfx_Pepper-and-Carrot_by-David-Revoy_E35P02.png"
       y="0"
       x="0"
       id="image10"
       height="3503"
       width="2481" />
  </g>
  <g
     inkscape:groupmode="layer"
     id="layer3"
     inkscape:label="speechbubbles">
    <path
       style="color:#000000;display:inline;overflow:visible;visibility:visible;fill:#ffffff;fill-opacity:1;fill-rule:nonzero;stroke:none;stroke-width:1.04438px;marker:none;enable-background:accumulate"
       d="m 221.15962,2088.3891 c -8.53624,15.9825 -56.68201,17.3232 -74.40578,14.0745 35.727,17.8793 34.48144,28.9883 -14.02574,30.7124 81.34752,32.224 14.87137,27.3478 1.75952,35.5182 63.87277,11.1053 42.70205,27.9363 1.70389,35.6732 73.41554,0.4725 55.64269,11.8146 27.84767,28.1359 32.50536,-10.6856 82.64816,-18.3695 84.42728,9.5687 47.09769,-24.4063 71.39781,-23.931 88.42919,3.6674 14.22652,-23.7982 62.66859,-28.3783 81.19181,-2.7129 15.95657,-34.7345 72.89144,-29.8444 106.78272,-13.0105 -19.02498,-11.8805 -6.0517,-31.4431 58.81124,-27.487 -5.22086,-10.8908 2.98946,-24.6366 35.74454,-22.8215 -37.72979,-6.5781 -44.68318,-13.3642 25.37245,-20.6665 -53.30823,-0.7056 -103.01856,-2.1531 -40.47639,-27.0562 -19.62117,-0.6025 -66.17457,20.1773 -44.4696,-40.6339 -57.46624,17.9313 -117.85203,27.098 -114.88108,-10.5677 -21.36438,20.3731 -58.42041,30.4543 -74.54173,5.0072 -13.3081,23.7713 -53.72996,13.8173 -74.7284,-2.4075 -13.8747,16.1013 -34.62987,26.9763 -74.54159,5.0062 z"
       id="path3549-3-7-8"
       inkscape:connector-curvature="0"
       sodipodi:nodetypes="ccccccccccccccccccc" />
    <path
       style="fill:#ffffff;stroke:none;stroke-width:1.11747"
       d="m 347.8488,2052.9579 c 35.63387,-0.9734 207.28145,-5.5981 205.16017,88.2508 -3.1332,138.6179 -5.04675,171.3067 -189.4535,169.5006 -198.06309,-1.9399 -158.19979,-72.8537 -159.7506,-161.7125 -1.37301,-78.6678 48.42478,-93.1955 144.04393,-96.0389 z"
       id="path3280-8-6"
       inkscape:connector-curvature="0"
       sodipodi:nodetypes="csssc" />
    <path
       style="color:#000000;display:inline;overflow:visible;visibility:visible;fill:#ffffff;fill-opacity:1;fill-rule:nonzero;stroke:none;stroke-width:1px;marker:none;enable-background:accumulate"
       d="m 612.40058,2341.6788 c -54.36956,-1.3158 -66.37353,-18.0831 -76.5499,-29.227 3.41593,-3.9672 8.07344,-11.8668 8.07344,-11.8668 0,0 -22.49109,-20.0802 -27.87182,-30.4304 -5.38071,-10.3501 9.28192,-17.9731 9.28192,-17.9731 0,0 44.94813,37.9871 57.64264,43.4391 -9.83295,10.5902 -13.21387,16.7305 -18.38931,19.4211 3.1733,8.211 28.66645,25.6349 47.81303,26.6371 z"
       id="path4456-3"
       inkscape:connector-curvature="0" />
    <path
       style="color:#000000;display:inline;overflow:visible;visibility:visible;fill:#ffffff;fill-opacity:1;fill-rule:nonzero;stroke:none;stroke-width:0.803733px;marker:none;enable-background:accumulate"
       d="m 1983.8507,2181.5829 c -5.5983,-49.8633 7.6618,-110.6186 185.5435,-96.2092 169.5981,13.7382 159.0053,32.6233 160.8012,95.9313 1.8922,66.7009 -67.3281,99 -188.8473,92.6054 -71.2126,-3.7472 -142.1746,-7.2938 -157.4974,-92.3275 z"
       id="path5026-4"
       inkscape:connector-curvature="0"
       sodipodi:nodetypes="csssc" />
    <path
       style="color:#000000;display:inline;overflow:visible;visibility:visible;fill:#ffffff;fill-opacity:1;fill-rule:nonzero;stroke:none;stroke-width:1.63768px;marker:none;enable-background:accumulate"
       d="m 2065.086,2229.8886 c -4.2272,-2.5286 -41.7209,44.7549 -41.7209,44.7549 l -35.4466,3.459 1.2502,26.926 -53.4012,-4.5662 35.1739,-8.2914 -1.9242,-26.5703 33.0101,-11.5413 29.8178,-33.9388 z"
       id="path4448"
       inkscape:connector-curvature="0"
       sodipodi:nodetypes="cccccccccc" />
    <path
       style="color:#000000;display:inline;overflow:visible;visibility:visible;fill:#ffffff;fill-opacity:1;fill-rule:nonzero;stroke:none;stroke-width:1.026px;marker:none;enable-background:accumulate"
       d="m 120.6632,2677.9729 c -6.05343,-36.8885 10.08904,-136.1231 134.18491,-132.8179 124.09573,3.3051 144.27401,48.9259 147.30067,62.7297 3.02676,13.8037 29.25839,91.6724 -67.59685,116.3128 -96.85533,24.6401 -183.62143,5.9651 -213.88873,-46.2246 z"
       id="path3525"
       inkscape:connector-curvature="0" />
    <path
       style="color:#000000;display:inline;overflow:visible;visibility:visible;fill:#ffffff;fill-opacity:1;fill-rule:nonzero;stroke:none;stroke-width:0.8273px;marker:none;enable-background:accumulate"
       d="m 1157.2771,2492.4237 c -23.7774,0.8182 -47.9351,1.788 -70.7049,6.9827 -30.4182,7.5173 -54.5093,26.7389 -59.6453,48.8922 -2.4963,13.8942 7.5582,28.0441 23.6385,36.2747 18.45,9.8699 40.9466,15.2118 63.3608,19.0219 33.6821,5.4774 68.6186,5.2221 102.9462,3.7345 27.3122,-1.3088 54.7995,-4.9224 79.5652,-13.2573 11.0081,-3.5602 21.9548,-8.4478 27.7444,-16.0968 7.6797,-9.7255 8.2317,-21.3487 5.5543,-32.0561 -3.3138,-13.2028 -13.3121,-25.8753 -29.2166,-33.7852 -17.5591,-9.089 -39.241,-13.2462 -60.5958,-15.6624 -19.935,-2.2129 -40.0942,-3.2505 -60.2185,-4.2311 -7.4818,-0.2852 -14.9549,-0.132 -22.4283,0.1829 z"
       id="path3525-3"
       inkscape:connector-curvature="0" />
    <path
       style="color:#000000;display:inline;overflow:visible;visibility:visible;fill:#ffffff;fill-opacity:1;fill-rule:nonzero;stroke:none;stroke-width:0.850812px;marker:none;enable-background:accumulate"
       d="m 378.31396,2800.4734 c -21.81603,-6.0365 -24.7236,-21.3438 -23.81085,-34.7307 0.91307,-13.3879 3.43731,-21.6544 -10.14803,-38.2382 -13.58559,-16.5829 -43.44749,-17.8668 -26.36893,-33.9071 2.07754,-10.3968 3.18888,-19.4098 8.63924,-29.73 6.0118,-11.3839 -30.60834,-11.6128 -30.60834,-11.6128 0,0 -9.2601,36.4069 -8.60393,58.2554 0.65624,21.8486 37.98578,15.4181 49.29264,29.8458 10.55851,13.4728 3.54145,36.8172 10.69223,46.6028 7.15061,9.7866 19.89022,13.3481 30.91597,13.5148 z"
       id="path4538-8"
       inkscape:connector-curvature="0"
       sodipodi:nodetypes="csscscsssc" />
    <path
       style="fill:#ffffff;fill-rule:evenodd;stroke:none;stroke-width:1.00018px;stroke-linecap:butt;stroke-linejoin:miter;stroke-opacity:1"
       d="m 683.3565,2839.4097 c 22.47948,-7.6888 8.18259,-27.2917 13.56572,-36.5201 5.55722,-9.5269 47.07364,3.0903 52.88651,-5.37 5.81286,-8.4604 -12.6074,-31.2018 -3.16551,-44.2198 9.44226,-13.0187 37.29048,-1.0958 25.77916,13.6924 -11.51166,14.7889 6.85876,28.7751 -4.63767,39.1332 -19.17293,17.274 -46.18634,1.6002 -58.07288,2.8253 -7.86988,0.8115 -1.86593,15.6117 -9.63373,23.71 -7.76824,8.099 -16.7216,6.749 -16.7216,6.749 z"
       id="path4272-2"
       inkscape:connector-curvature="0"
       sodipodi:nodetypes="csssssssc" />
    <path
       style="fill:#ffffff;stroke:none;stroke-width:1.03835"
       d="m 1757.6864,2734.7823 c -1.258,-33.7766 21.2997,-118.3324 131.3348,-111.9727 110.0352,6.3597 144.4743,43.5131 147.699,103.5506 5.101,94.9786 -52.7885,120.3608 -135.9123,127.3953 -85.6919,7.2524 -144.4514,-57.9436 -143.1215,-118.9732 z"
       id="path3280-8-90"
       inkscape:connector-curvature="0"
       sodipodi:nodetypes="csssc" />
    <path
       style="color:#000000;display:inline;overflow:visible;visibility:visible;fill:#ffffff;fill-opacity:1;fill-rule:nonzero;stroke:none;stroke-width:1px;marker:none;enable-background:accumulate"
       d="m 1981.8954,2716.5742 c 21.7602,57.3157 81.8906,99.8161 102.9782,111.0989 -62.8332,-18.8149 -116.4083,-51.6111 -129.2847,-90.9766 -12.8765,-39.3656 26.3065,-20.1223 26.3065,-20.1223 z"
       id="path4480"
       inkscape:connector-curvature="0" />
    <path
       style="fill:#ffffff;fill-rule:evenodd;stroke:none;stroke-width:0.883699px;stroke-linecap:butt;stroke-linejoin:miter;stroke-opacity:1"
       d="m 1111.9569,1150.3164 c -30.9114,0.1934 -61.9466,2.5884 -92.0091,9.017 -11.2872,2.505 -22.50411,5.4223 -33.20466,9.44 -14.00741,5.7163 -24.60934,16.1572 -32.54191,27.4274 -9.00707,12.9312 -14.72931,27.4508 -17.55115,42.3193 -2.25627,11.6183 -3.36848,39.766 -3.95389,51.5285 1.89835,92.6832 48.74168,89.8576 103.14331,92.4419 69.6883,3.3104 127.6477,10.5219 189.0479,1.7679 58.6337,-10.8752 72.454,-8.0854 92.1683,-30.8942 10.385,-14.8891 14.9291,-32.0839 18.7201,-48.9705 4.1111,-19.3623 6.1613,-39.4958 1.2947,-58.906 -4.71,-18.3953 -16.2065,-34.8313 -29.1369,-49.7479 -16.5756,-17.9002 -40.2796,-30.0899 -65.4238,-36.7768 -27.0809,-7.2348 -55.6665,-8.3084 -83.8112,-8.6074 -15.58,-0.092 -31.1615,-0.087 -46.7417,-0.039 z"
       id="path1353"
       inkscape:connector-curvature="0"
       sodipodi:nodetypes="csssccscccccccsc" />
    <path
       style="color:#000000;display:inline;overflow:visible;visibility:visible;fill:#ffffff;fill-opacity:1;fill-rule:nonzero;stroke:none;stroke-width:1.32704px;marker:none;enable-background:accumulate"
       d="m 1567.2167,1263.2749 c -23.3951,-13.5874 -47.4345,-27.8488 -80.2438,-37.3029 -9.419,-2.6108 -19.456,-5.052 -29.7275,-6.2777 -10.8699,-0.2589 -18.5833,3.1803 -21.2691,7.3616 -4.9062,5.8321 -4.0751,13.3543 -14.8239,17.5815 -8.0334,2.9766 -20.4058,1.2285 -30.8948,0.151 -55.5613,-5.5966 -116.4529,-16.3815 -168.9125,-7.1839 -10.3316,2.0201 -20.2049,4.8402 -25.0559,9.4641 -13.7945,11.5007 -11.0257,28.0336 10.0671,40.719 14.9737,7.6682 42.5542,10.484 56.687,4.5569 7.5899,-3.0688 8.1735,-8.3583 5.5139,-13.1861 -1.2458,-8.9607 7.6217,0.022 24.0822,-3.6677 37.2334,-5.6014 77.5291,-14.6477 110.5037,-9.7254 10.0809,1.4739 25.6582,0.1256 35.3315,-0.599 12.5832,-2.5592 14.9137,-9.3886 15.3033,-15.3984 0.7726,-6.1637 0.047,-13.4883 11.1891,-17.2514 6.7172,-3.1499 17.8965,0.5337 26.5328,1.8753 27.2211,5.8451 51.5565,15.088 70.9679,25.6439 1.7031,1.0526 3.2274,2.1441 4.749,3.2392 z"
       id="path4496-9"
       inkscape:connector-curvature="0"
       inkscape:transform-center-x="43.812193"
       inkscape:transform-center-y="17.777857"
       sodipodi:nodetypes="ccccccccccccccccccc" />
    <path
       style="fill:#ffffff;stroke:none;stroke-width:0.86966"
       d="m 893.12769,506.07458 c 3.73073,-79.95564 21.81324,-109.60227 241.15381,-112.65143 303.5671,-4.2206 324.8063,39.87736 319.0394,157.5583 -4.9624,101.26325 -185.2609,101.47753 -331.6148,98.35148 -252.55826,-5.39418 -226.3013,-61.2111 -228.57841,-143.25835 z"
       id="path3280-8-0"
       inkscape:connector-curvature="0"
       sodipodi:nodetypes="csssc" />
    <path
       style="display:inline;fill:#ffffff;stroke:none;stroke-width:0.760991"
       d="m 848.34584,339.46349 c 3.02789,-50.01478 20.33851,-115.3249 180.18886,-116.35083 159.8502,-1.02669 213.6388,30.58958 222.5418,85.22609 17.0544,104.65861 -64.1523,96.46359 -183.9141,108.03095 -123.46145,11.92426 -223.49541,-3.59923 -218.81656,-76.90621 z"
       id="path3280-8-2"
       inkscape:connector-curvature="0"
       sodipodi:nodetypes="csssc" />
    <path
       style="color:#000000;display:inline;overflow:visible;visibility:visible;fill:#ffffff;fill-opacity:1;fill-rule:nonzero;stroke:none;stroke-width:1.12734px;marker:none;enable-background:accumulate"
       d="m 1080.2823,654.26102 c 23.0354,-30.95776 307.1958,-53.00464 372.8401,17.01045 45.7475,48.79294 28.0994,142.36388 -11.1119,166.72126 -39.2116,24.35859 -228.5219,31.21923 -282.3271,18.81389 -48.3843,-11.15418 -99.1713,-35.16455 -101.8488,-99.06921 -1.0927,-26.0814 -0.5877,-72.51986 22.4477,-103.47639 z"
       id="path4040-5"
       inkscape:connector-curvature="0"
       sodipodi:nodetypes="zssssz" />
    <path
       style="color:#000000;display:inline;overflow:visible;visibility:visible;fill:#ffffff;fill-opacity:1;fill-rule:nonzero;stroke:none;stroke-width:1px;marker:none;enable-background:accumulate"
       d="m 882.35523,386.5815 c -13.93862,-43.79995 -75.39205,-33.32608 -131.42892,10.54697 35.43843,-36.41055 76.35778,-76.93843 143.98747,-47.05147 49.32789,21.79901 14.57754,15.53221 14.57754,15.53221 z"
       id="path4035-4"
       inkscape:connector-curvature="0"
       sodipodi:nodetypes="ccscc" />
    <path
       style="display:inline;fill:#ffffff;fill-rule:evenodd;stroke:none;stroke-width:1.30048px;stroke-linecap:butt;stroke-linejoin:miter;stroke-opacity:1"
       d="m 1548.4515,71.619933 c 24.985,5.793404 24.4053,18.959491 12.7022,17.639048 7.502,22.947809 30.4769,75.029379 10.5214,81.465079 0.3216,63.9758 13.4148,96.99152 -1.5675,133.3805 55.2137,-16.22272 57.3634,11.34478 53.2124,37.36138 20.3681,-34.64111 35.9429,-12.07585 29.8359,19.78535 20.93,-34.83705 45.1859,-50.69323 41.2991,-13.35757 23.6513,-26.97855 24.8612,-39.45512 44.7286,-27.78038 36.1161,-32.36707 51.1793,12.81962 73.0469,32.93992 8.1542,-36.73832 23.3152,-29.5983 49.8625,-10.87598 9.0829,-15.46913 -12.0518,-42.91267 12.7553,-9.1895 -9.9891,-38.67303 40.684,-20.02028 51.0233,-14.32381 -12.6632,-17.39684 9.1057,-22.00167 70.4804,-11.89519 -23.7677,-9.30819 -33.969,-40.04329 13.7163,-61.82426 -62.5354,8.83659 -39.2315,-9.45622 -20.0369,-29.45507 -40.898,-30.71396 -0.2138,-59.34641 20.1138,-88.49783 -41.3041,13.50432 -56.3387,-44.502353 -63.9558,-58.334579 -62.6921,10.543316 -53.3929,4.67716 -47.3762,-0.440896 -38.8414,12.824672 -36.6646,1.446479 -46.7026,-2.724502 -106.7351,15.616521 -102.9554,-0.688504 -125.0299,-9.525581 -8.7451,18.669199 -31.2305,11.414952 -53.7729,4.053771 0.845,15.799861 -12.7693,11.180214 -26.0813,6.987641 -1.7053,6.812619 -14.9264,8.77544 -43.6739,4.198974 20.5299,5.623526 7.8516,6.563777 -55.1011,0.413485 z"
       id="path4289-9-2"
       inkscape:connector-curvature="0"
       sodipodi:nodetypes="cccccccccccccccccccccccc" />
    <path
       style="fill:#ffffff;fill-opacity:1;fill-rule:evenodd;stroke:none;stroke-width:0.979061px;stroke-linecap:butt;stroke-linejoin:miter;stroke-opacity:1"
       d="m 2392.4733,815.30204 c -1.2686,6.66009 -58.6381,58.46671 -22.8128,12.8861 l -33.5196,12.73313 c -64.9725,-27.63761 -277.5394,-10.75944 -348.6418,4.48773 l -19.505,-27.41113 3.8905,23.01082 -22.614,-34.08116 12.6734,45.89548 -11.9368,-15.58093 5.0134,17.20398 -11.5948,-8.36558 1.9613,14.72569 c -26.9579,13.67378 -42.2856,40.63496 -48.358,68.45137 l -21.7703,-2.52 20.2234,10.87665 c -0.2573,1.68861 -0.4892,3.37722 -0.6806,5.06087 -0.011,0.11521 -0.026,0.23342 -0.036,0.34864 l -22.8826,-3.9732 21.9724,14.8131 c -0.048,0.79166 -0.096,1.58133 -0.1371,2.37995 l -43.781,-9.27743 43.4108,25.21097 c -0.01,28.31701 3.1405,57.37601 4.7714,70.07841 1.1309,8.8066 2.3464,25.1376 8.9531,28.6382 l -40.7764,10.5743 54.034,-5.7691 c 1.1477,0.1288 2.3193,0.2572 3.496,0.386 l -13.9593,3.596 24.3017,-2.5045 c 2.4867,0.2532 5.0279,0.505 7.6179,0.7555 l -25.1664,8.056 37.5383,-6.9085 c 90.3545,8.0406 283.5088,16.0443 418.2554,-3.4086 l 19.9156,4.1934 -7.6526,-6.0512 c 2.6308,-0.4179 6.0078,-0.8454 6.1473,-1.2838 l 0.4726,0.1766 -0.3131,-1.3419 c 0.029,-0.2218 0.059,-0.444 0.09,-0.6682 l 1.6103,2.9511 -1.2103,-15.7439 c 0.7628,-18.2837 0.959,-39.0298 0.8646,-60.03998 l 1.4604,-12.6418 c -2.5243,6.5409 -1.6226,-7.85105 -0.035,-15.25312 l -1.4259,1.02409 c 0.1381,-17.00929 -0.3722,-48.20591 -1.0406,-64.4881 l 0.067,-12.34574 c -1.17,1.18302 -0.4165,-9.43935 -0.015,-18.68897 -1.2846,8.32287 -1.127,4.82645 -0.6217,-11.35442 -2.1634,4.6109 1.1584,-38.11198 1.7464,-48.81282 z"
       id="path4212-3"
       inkscape:connector-curvature="0"
       sodipodi:nodetypes="ccccccccccccccccccccccsccccccccccccccccccccccccccc" />
    <path
       style="display:inline;fill:#ffffff;fill-rule:evenodd;stroke:none;stroke-width:1.44912px;stroke-linecap:butt;stroke-linejoin:miter;stroke-opacity:1"
       d="m 2098.6149,741.43806 c 0.6806,41.31231 13.5699,99.33289 8.1415,118.1885 4.1542,65.56524 102.9122,-3.97588 46.8489,-17.72263 -23.7511,-36.29813 -38.7836,-65.39219 -54.9904,-100.46587 z"
       id="path4667-2"
       inkscape:connector-curvature="0"
       sodipodi:nodetypes="cccc" />
    <path
       style="color:#000000;display:inline;overflow:visible;visibility:visible;fill:#ffffff;fill-opacity:1;fill-rule:nonzero;stroke:none;stroke-width:0.891997px;marker:none;enable-background:accumulate"
       d="m 706.08925,2650.7496 c -33.82198,-0.098 -68.83519,5.1296 -96.80692,19.5074 -19.28249,9.8584 -33.4017,26.2721 -32.51795,43.7335 0.67021,14.2429 13.09457,27.0138 29.23433,34.6216 18.40452,8.6903 40.3429,12.1176 61.70625,14.7287 36.92493,4.0973 74.39593,3.3432 111.59255,4.9003 23.50338,0.6389 47.6387,0.9884 70.34021,-4.1125 20.35375,-6.0439 32.95397,-21.5133 34.98659,-36.9608 2.10287,-15.5734 -0.81304,-32.4583 -14.26798,-45.2137 -12.66085,-11.5412 -32.28907,-17.3952 -51.33302,-21.357 -36.64734,-7.3926 -74.96022,-10.2257 -112.93406,-9.8475 z"
       id="path3525-3-5"
       inkscape:connector-curvature="0" />
    <path
       style="fill:#ffffff;fill-rule:evenodd;stroke:none;stroke-width:1.00018px;stroke-linecap:butt;stroke-linejoin:miter;stroke-opacity:1"
       d="m 1223.463,2688.0374 c 17.4992,-16.0693 -3.4666,-28.2803 -2.2428,-38.8936 1.2634,-10.9567 44.3518,-16.0746 46.2777,-26.1572 1.9258,-10.0826 -24.0767,-23.5119 -20.6577,-39.2259 3.4191,-15.7147 33.7111,-15.9794 29.1078,2.1868 -4.6033,18.167 17.8374,23.5982 11.4686,37.7013 -10.6216,23.5196 -41.6554,20.0139 -52.0494,25.9095 -6.8814,3.9037 4.5609,15.0468 0.6993,25.5829 -3.8618,10.5369 -12.6035,12.8962 -12.6035,12.8962 z"
       id="path4272-2-3"
       inkscape:connector-curvature="0"
       sodipodi:nodetypes="csssssssc" />
    <path
       style="color:#000000;display:inline;overflow:visible;visibility:visible;fill:#ffffff;fill-opacity:1;fill-rule:nonzero;stroke:none;stroke-width:1.00989px;marker:none;enable-background:accumulate"
       d="m 1582.7476,2522.3224 c -6.7472,19.7338 -46.4415,21.9845 -61.1229,18.2182 29.8036,21.5056 28.9809,35.1623 -11.0044,37.8903 67.7038,38.545 12.7728,33.3934 2.1066,43.5918 52.898,12.8342 29.5775,30.1632 20.45,47.2005 60.5744,-0.3425 41.1609,27.0397 44.0375,48.5677 4.9825,-10.1977 28.9124,-41.3812 30.8954,-7.0964 0.013,-6.488 39.0397,-60.8477 99.0535,-9.4692 -1.8351,-26.8993 18.3458,-32.7435 38.1464,4.1555 -7.0353,-40.161 61.3931,-29.5513 97.7347,-17.4684 -18.6343,-24.1109 10.0875,-34.3802 40.8794,-29.9904 -4.5078,-13.3079 5.726,-22.6579 29.0674,-28.4736 -31.2474,-7.6032 -37.109,-15.8481 20.5507,-25.6962 -43.9911,-0.1964 -85.0276,-1.3483 -33.8913,-32.7151 -16.198,-0.492 -54.2199,25.6094 -37.4356,-49.338 -27.4755,24.3307 -56.9741,37.9775 -94.9687,-11.5311 -17.2495,25.285 -47.6337,38.132 -61.4028,7.0859 -4.5799,13.3936 -24.3255,18.707 -41.143,19.5706 -6.5864,-5.1921 -13.4053,-12.2772 -20.5502,-21.587 -11.1492,19.9474 -28.0712,33.5613 -61.4027,7.0849 z"
       id="path3549-3-7-9-6"
       inkscape:connector-curvature="0"
       sodipodi:nodetypes="cccccccccccccccccccc" />
    <path
       style="color:#000000;display:inline;overflow:visible;visibility:visible;fill:#ffffff;fill-opacity:1;fill-rule:nonzero;stroke:none;stroke-width:1.22149px;marker:none;enable-background:accumulate"
       d="m 1834.6942,302.71538 c 13.3969,25.86728 33.5213,54.90113 39.2123,61.39746 7.9957,-8.63868 17.0744,-15.33555 24.0331,-20.64544 9.0197,12.83333 45.9509,74.58787 45.5696,92.05922 3.355,-43.2627 -19.8328,-91.86712 -36.9856,-111.86967 -10.7606,5.90497 -16.2791,10.46235 -22.0396,13.47435 -9.2965,-9.62452 -29.0289,-46.10687 -29.0289,-46.10687 z"
       id="path5066-8"
       inkscape:connector-curvature="0" />
  </g>
  <g
     inkscape:groupmode="layer"
     id="layer1"
     inkscape:label="txt"
     style="filter:url(#filter1496)">
    <text
       xml:space="preserve"
       style="font-style:normal;font-variant:normal;font-weight:normal;font-stretch:normal;font-size:45px;line-height:1.25;font-family:Lavi;-inkscape-font-specification:Lavi;text-align:center;letter-spacing:0px;word-spacing:0px;text-anchor:middle;fill:#000000;fill-opacity:1;stroke:none"
       x="1053.1028"
       y="303.57681"
       id="text4246-3-2-2"><tspan
         style="font-size:45px"
         sodipodi:role="line"
         x="1053.1028"
         y="303.57681"
         id="tspan911">Snart mistar</tspan><tspan
         style="font-size:45px"
         sodipodi:role="line"
         x="1053.1028"
         y="359.82681"
         id="tspan8839">eg hyperfarten,</tspan></text>
    <text
       xml:space="preserve"
       style="font-style:normal;font-variant:normal;font-weight:normal;font-stretch:normal;font-size:45px;line-height:1.25;font-family:Lavi;-inkscape-font-specification:Lavi;text-align:center;letter-spacing:0px;word-spacing:0px;text-anchor:middle;fill:#000000;fill-opacity:1;stroke:none"
       x="1167.5723"
       y="475.56839"
       id="text4246-3-2-2-3"><tspan
         style="font-size:45px"
         sodipodi:role="line"
         x="1167.5723"
         y="475.56839"
         id="tspan8848">og draken og drake-</tspan><tspan
         style="font-size:45px"
         sodipodi:role="line"
         x="1167.5723"
         y="531.81836"
         id="tspan8850">ryttaren har halde tritt</tspan><tspan
         style="font-size:45px"
         sodipodi:role="line"
         x="1167.5723"
         y="588.06836"
         id="tspan8858">med oss i timevis.</tspan></text>
    <text
       xml:space="preserve"
       style="font-style:normal;font-variant:normal;font-weight:normal;font-stretch:normal;font-size:45px;line-height:1.25;font-family:Lavi;-inkscape-font-specification:Lavi;text-align:center;letter-spacing:0px;word-spacing:0px;text-anchor:middle;fill:#000000;fill-opacity:1;stroke:none"
       x="1267.569"
       y="699.07538"
       id="text4246-3-2-2-3-6"><tspan
         style="font-size:45px"
         sodipodi:role="line"
         x="1267.569"
         y="699.07538"
         id="tspan8867">Når me sakkar</tspan><tspan
         style="font-size:45px"
         sodipodi:role="line"
         x="1267.569"
         y="755.32538"
         id="tspan912">farten, tek dei</tspan><tspan
         style="font-size:45px"
         sodipodi:role="line"
         x="1267.569"
         y="811.57538"
         id="tspan914">oss snart igjen.</tspan></text>
    <text
       xml:space="preserve"
       style="font-style:normal;font-variant:normal;font-weight:normal;font-stretch:normal;font-size:59.5686px;line-height:1.25;font-family:Lavi;-inkscape-font-specification:Lavi;text-align:center;letter-spacing:0px;word-spacing:0px;text-anchor:middle;fill:#000000;fill-opacity:1;stroke:none;stroke-width:1.32375"
       x="1779.502"
       y="183.52116"
       id="text4246-3-2-2-3-6-3"><tspan
         style="font-size:59.5686px;stroke-width:1.32375"
         sodipodi:role="line"
         x="1779.502"
         y="183.52116"
         id="tspan1079">For ein</tspan><tspan
         style="font-size:59.5686px;stroke-width:1.32375"
         sodipodi:role="line"
         x="1779.502"
         y="257.9819"
         id="tspan8871">tosk eg var!</tspan></text>
    <text
       xml:space="preserve"
       style="font-style:normal;font-variant:normal;font-weight:normal;font-stretch:normal;font-size:45px;line-height:1.25;font-family:Lavi;-inkscape-font-specification:Lavi;text-align:center;letter-spacing:0px;word-spacing:0px;text-anchor:middle;fill:#000000;fill-opacity:1;stroke:none"
       x="2147.592"
       y="919.40289"
       id="text4246-3-2-2-3-6-2"><tspan
         style="font-size:45px"
         sodipodi:role="line"
         x="2147.592"
         y="919.40289"
         id="tspan966">Eg var viss på at</tspan><tspan
         style="font-size:45px"
         sodipodi:role="line"
         x="2147.592"
         y="975.65289"
         id="tspan8880">dei skulle gje opp for</tspan><tspan
         style="font-size:45px"
         sodipodi:role="line"
         x="2147.592"
         y="1031.9028"
         id="tspan8884">mange timar sidan!</tspan></text>
    <text
       xml:space="preserve"
       style="font-style:normal;font-variant:normal;font-weight:normal;font-stretch:normal;font-size:45px;line-height:1.25;font-family:Lavi;-inkscape-font-specification:Lavi;text-align:center;letter-spacing:0px;word-spacing:0px;text-anchor:middle;fill:#000000;fill-opacity:1;stroke:none"
       x="1130.8345"
       y="1231.2422"
       id="text4246-3-2-2-3-6-2-7"><tspan
         style="font-size:45px"
         sodipodi:role="line"
         x="1130.8345"
         y="1231.2422"
         id="tspan979">Om me berre</tspan><tspan
         style="font-size:45px"
         sodipodi:role="line"
         x="1130.8345"
         y="1287.4922"
         id="tspan8891">hadde klart å</tspan><tspan
         style="font-size:45px"
         sodipodi:role="line"
         x="1130.8345"
         y="1343.7422"
         id="tspan8893">rista dei av oss.</tspan></text>
    <text
       xml:space="preserve"
       style="font-style:normal;font-variant:normal;font-weight:normal;font-stretch:normal;font-size:45px;line-height:1.25;font-family:Lavi;-inkscape-font-specification:Lavi;text-align:center;letter-spacing:0px;word-spacing:0px;text-anchor:middle;fill:#000000;fill-opacity:1;stroke:none"
       x="373.42258"
       y="2139.2324"
       id="text4246-3-2-2-3-6-2-7-2"><tspan
         style="font-size:45px"
         sodipodi:role="line"
         x="373.42258"
         y="2139.2324"
         id="tspan8911">Nei, me må<tspan
   style="font-style:normal;font-variant:normal;font-weight:bold;font-stretch:normal;font-family:Lavi;-inkscape-font-specification:'Lavi Bold'"
   id="tspan906" /></tspan><tspan
         style="font-size:45px"
         sodipodi:role="line"
         x="373.42258"
         y="2195.4824"
         id="tspan910"><tspan
           style="font-style:normal;font-variant:normal;font-weight:bold;font-stretch:normal;font-family:Lavi;-inkscape-font-specification:'Lavi Bold'"
           id="tspan913">kvitta oss</tspan></tspan><tspan
         style="font-size:45px"
         sodipodi:role="line"
         x="373.42258"
         y="2251.7324"
         id="tspan8913">heilt med dei!</tspan></text>
    <text
       xml:space="preserve"
       style="font-style:normal;font-variant:normal;font-weight:normal;font-stretch:normal;font-size:45px;line-height:1.25;font-family:Lavi;-inkscape-font-specification:Lavi;text-align:center;letter-spacing:0px;word-spacing:0px;text-anchor:middle;fill:#000000;fill-opacity:1;stroke:none"
       x="2155.4468"
       y="2165.7781"
       id="text4246-3-2-2-3-6-2-7-2-2"><tspan
         style="font-size:45px"
         sodipodi:role="line"
         x="2155.4468"
         y="2165.7781"
         id="tspan1271">Og det <tspan
   style="font-style:normal;font-variant:normal;font-weight:bold;font-stretch:normal;font-family:Lavi;-inkscape-font-specification:'Lavi Bold'"
   id="tspan905">før</tspan> dei</tspan><tspan
         style="font-size:45px"
         sodipodi:role="line"
         x="2155.4468"
         y="2222.0281"
         id="tspan8924">når oss att!</tspan></text>
    <text
       xml:space="preserve"
       style="font-style:normal;font-variant:normal;font-weight:normal;font-stretch:normal;font-size:45px;line-height:1.25;font-family:Lavi;-inkscape-font-specification:Lavi;text-align:center;letter-spacing:0px;word-spacing:0px;text-anchor:middle;fill:#000000;fill-opacity:1;stroke:none"
       x="261.97018"
       y="2627.5852"
       id="text4246-3-2-2-3-6-2-7-2-3"><tspan
         style="font-size:45px"
         sodipodi:role="line"
         x="261.97018"
         y="2627.5852"
         id="tspan903">Men så er</tspan><tspan
         style="font-size:45px"
         sodipodi:role="line"
         x="261.97018"
         y="2683.8352"
         id="tspan8928">eg så ...</tspan></text>
    <text
       xml:space="preserve"
       style="font-style:normal;font-variant:normal;font-weight:normal;font-stretch:normal;font-size:45px;line-height:1.25;font-family:Lavi;-inkscape-font-specification:Lavi;text-align:center;letter-spacing:0px;word-spacing:0px;text-anchor:middle;fill:#000000;fill-opacity:1;stroke:none"
       x="733.3454"
       y="2720.3162"
       id="text4246-3-2-2-3-6-2-7-2-3-3-3"><tspan
         style="font-size:45px"
         x="733.3454"
         y="2720.3162"
         id="tspan1318-9-6"
         sodipodi:role="line">... utruleg ...</tspan><tspan
         style="font-size:45px"
         x="733.3454"
         y="2776.5662"
         id="tspan1356-7"
         sodipodi:role="line" /></text>
    <text
       xml:space="preserve"
       style="font-style:normal;font-variant:normal;font-weight:normal;font-stretch:normal;font-size:45px;line-height:1.25;font-family:Lavi;-inkscape-font-specification:Lavi;text-align:center;letter-spacing:0px;word-spacing:0px;text-anchor:middle;fill:#000000;fill-opacity:1;stroke:none"
       x="1181.2332"
       y="2507.2249"
       id="text4246-3-2-2-3-6-2-7-2-3-3"><tspan
         style="font-size:45px"
         sodipodi:role="line"
         x="1181.2332"
         y="2507.2249"
         id="tspan1318-9" /><tspan
         style="font-size:45px"
         sodipodi:role="line"
         x="1181.2332"
         y="2563.4749"
         id="tspan1356">... trøytt ...</tspan></text>
    <text
       xml:space="preserve"
       style="font-style:normal;font-variant:normal;font-weight:normal;font-stretch:normal;font-size:64.434px;line-height:1.25;font-family:Lavi;-inkscape-font-specification:Lavi;text-align:center;letter-spacing:0px;word-spacing:0px;text-anchor:middle;fill:#000000;fill-opacity:1;stroke:none;stroke-width:1.43187"
       x="1705.5463"
       y="2628.5286"
       id="text4246-3-2-2-3-6-2-7-2-3-3-4"><tspan
         style="font-style:normal;font-variant:normal;font-weight:bold;font-stretch:normal;font-size:64.434px;font-family:Lavi;-inkscape-font-specification:'Lavi Bold';stroke-width:1.43187"
         sodipodi:role="line"
         x="1705.5463"
         y="2628.5286"
         id="tspan1356-4">Oi sann!</tspan></text>
    <text
       xml:space="preserve"
       style="font-style:normal;font-variant:normal;font-weight:normal;font-stretch:normal;font-size:45px;line-height:1.25;font-family:Lavi;-inkscape-font-specification:Lavi;text-align:center;letter-spacing:0px;word-spacing:0px;text-anchor:middle;fill:#000000;fill-opacity:1;stroke:none"
       x="1899.9279"
       y="2695.2532"
       id="text4246-3-2-2-3-6-2-7-2-3-5"><tspan
         style="font-size:45px"
         sodipodi:role="line"
         x="1899.9279"
         y="2695.2532"
         id="tspan1068">Full</tspan><tspan
         style="font-size:45px"
         sodipodi:role="line"
         x="1899.9279"
         y="2751.5032"
         id="tspan1072">skjerpings,</tspan><tspan
         style="font-size:45px"
         sodipodi:role="line"
         x="1899.9279"
         y="2807.7532"
         id="tspan1074">Pepar!</tspan></text>
  </g>
</svg>
