<?xml version="1.0" encoding="UTF-8" standalone="no"?>
<svg
   xmlns:dc="http://purl.org/dc/elements/1.1/"
   xmlns:cc="http://creativecommons.org/ns#"
   xmlns:rdf="http://www.w3.org/1999/02/22-rdf-syntax-ns#"
   xmlns:svg="http://www.w3.org/2000/svg"
   xmlns="http://www.w3.org/2000/svg"
   xmlns:xlink="http://www.w3.org/1999/xlink"
   xmlns:sodipodi="http://sodipodi.sourceforge.net/DTD/sodipodi-0.dtd"
   xmlns:inkscape="http://www.inkscape.org/namespaces/inkscape"
   id="svg2"
   version="1.1"
   inkscape:version="1.0.2 (e86c870879, 2021-01-15)"
   width="2481"
   height="3503"
   sodipodi:docname="E35P08.svg">
  <metadata
     id="metadata8">
    <rdf:RDF>
      <cc:Work
         rdf:about="">
        <dc:format>image/svg+xml</dc:format>
        <dc:type
           rdf:resource="http://purl.org/dc/dcmitype/StillImage" />
        <dc:title />
      </cc:Work>
    </rdf:RDF>
  </metadata>
  <defs
     id="defs6" />
  <sodipodi:namedview
     pagecolor="#ffffff"
     bordercolor="#666666"
     borderopacity="1"
     objecttolerance="10"
     gridtolerance="10"
     guidetolerance="10"
     inkscape:pageopacity="0"
     inkscape:pageshadow="2"
     inkscape:window-width="1920"
     inkscape:window-height="967"
     id="namedview4"
     showgrid="false"
     inkscape:zoom="0.3740595"
     inkscape:cx="1331.2901"
     inkscape:cy="786.8854"
     inkscape:window-x="0"
     inkscape:window-y="72"
     inkscape:window-maximized="1"
     inkscape:current-layer="layer1"
     inkscape:document-rotation="0"
     inkscape:snap-global="false"
     inkscape:pagecheckerboard="0" />
  <g
     inkscape:groupmode="layer"
     id="layer2"
     inkscape:label="artwork"
     sodipodi:insensitive="true">
    <image
       sodipodi:absref="/felles/omsetting/pepper-carrot/webcomics/new-ep35_The-Reflection/lang/gfx_Pepper-and-Carrot_by-David-Revoy_E35P08.png"
       xlink:href="../gfx_Pepper-and-Carrot_by-David-Revoy_E35P08.png"
       width="2481"
       height="3503"
       id="image10"
       x="0"
       y="0" />
  </g>
  <g
     inkscape:groupmode="layer"
     id="layer3"
     inkscape:label="speechbubbles">
    <path
       style="color:#000000;display:inline;overflow:visible;visibility:visible;fill:#ffffff;fill-opacity:1;fill-rule:nonzero;stroke:none;stroke-width:1.01748px;marker:none;enable-background:accumulate"
       d="m 886.97215,258.56541 c -32.72477,0.44968 -64.47624,15.05996 -86.94835,38.00103 -17.94684,17.55567 -28.96837,41.10924 -32.83721,65.4526 -6.96633,33.56805 -6.14916,69.28512 6.29009,101.57239 10.53645,24.85838 32.21108,44.39168 57.51689,54.67416 35.68815,14.75461 76.11784,20.19206 114.16488,11.69267 20.47128,-4.66284 39.1295,-16.02744 52.77759,-31.55808 18.81086,-20.69107 29.23586,-47.63105 32.41576,-74.87549 3.9612,-29.55828 2.1356,-60.37349 -8.9252,-88.37625 -8.3747,-20.34914 -23.09679,-38.28353 -42.15022,-50.06841 -27.0087,-17.77852 -59.73561,-27.04326 -92.30423,-26.51462 z"
       id="path3525-27"
       inkscape:connector-curvature="0" />
    <path
       style="color:#000000;display:inline;overflow:visible;visibility:visible;fill:#ffffff;fill-opacity:1;fill-rule:nonzero;stroke:none;stroke-width:0.810571px;marker:none;enable-background:accumulate"
       d="m 1629.1555,295.55072 c -36.5669,0.72688 -73.0299,12.21391 -98.3009,32.71811 -29.78,23.31606 -46.9051,55.5105 -48.2582,88.05897 -2.0871,32.86257 7.1148,66.74206 30.5327,94.60586 12.4207,14.86478 29.916,27.36863 50.8606,34.84946 28.1635,10.45803 60.7054,12.85021 91.3259,8.61768 23.4859,-2.64939 47.8676,-5.47422 68.4078,-15.23776 35.0537,-17.15702 57.8784,-48.31207 58.0581,-80.28411 0.2876,-12.55455 -0.9346,-25.09447 -1.8042,-37.62308 -1.9732,-20.06109 -5.0972,-40.32201 -13.9213,-59.37328 -10.6156,-22.27678 -30.982,-42.33374 -58.7221,-53.32407 -23.9323,-9.58277 -51.3408,-13.41413 -78.1784,-13.00778 z"
       id="path4040-4-5-3-4"
       inkscape:connector-curvature="0"
       sodipodi:nodetypes="zssssz" />
    <path
       style="fill:#ffffff;fill-rule:evenodd;stroke:none;stroke-width:1.14277px;stroke-linecap:butt;stroke-linejoin:miter;stroke-opacity:1"
       d="m 1560.5962,443.05956 c 3.0987,30.83741 11.5856,59.47611 3.7889,66.37874 -5.2069,29.42714 10.8845,84.76829 -27.9726,97.2687 63.0766,-0.64746 49.4439,-89.40053 58.0802,-122.83664 -1.084,-48.93169 -33.8965,-40.8108 -33.8965,-40.8108 z"
       id="path1085"
       inkscape:connector-curvature="0"
       sodipodi:nodetypes="ccccc" />
    <path
       style="fill:#ffffff;fill-rule:evenodd;stroke:none;stroke-width:1.0381px;stroke-linecap:butt;stroke-linejoin:miter;stroke-opacity:1"
       d="m 1540.5622,1344.4833 c -39.2904,1.8069 -77.2673,22.3731 -98.4833,53.7713 -8.4207,17.3661 -5.7138,36.9437 -8.5269,55.3743 -3.7361,45.952 -3.2143,93.0297 10.3079,137.6342 4.5828,12.3277 15.0335,21.8105 26.8178,28.1602 26.7789,16.5176 60.286,21.0951 91.5169,16.4596 32.2207,-3.1076 65.1845,-12.1404 89.9849,-32.688 16.683,-13.5661 24.8518,-35.0643 23.1283,-55.6222 -0.251,-26.7261 -3.8198,-53.3202 -3.8849,-80.0534 -1.1574,-27.0139 -6.0398,-55.4817 -23.8779,-77.4738 -16.6365,-20.1151 -41.821,-31.825 -66.9909,-39.5374 -12.9121,-3.8106 -26.4125,-6.4079 -39.9919,-6.0248 z"
       id="path1299"
       inkscape:connector-curvature="0" />
    <path
       style="color:#000000;display:inline;overflow:visible;visibility:visible;fill:#ffffff;fill-opacity:1;fill-rule:nonzero;stroke:none;stroke-width:0.926478px;marker:none;enable-background:accumulate"
       d="m 1531.0092,1596.1183 c -0.6222,20.1649 6.6736,27.0756 10.0721,30.442 3.3984,3.3662 14.9068,8.9022 18.2764,13.791 2.7667,4.0585 10.3483,14.2867 6.9395,16.8185 -3.4088,2.5318 -39.8279,13.4508 -39.569,27.0665 0.2595,13.6163 7.8094,22.062 17.8671,25.0419 10.0575,2.9799 23.1527,7.0659 24.2613,17.1932 1.1078,10.1267 -6.514,17.5302 -11.286,19.742 -27.1053,5.2092 -47.6616,41.4987 -47.6616,41.4987 45.0114,-39.4077 48.8502,-21.7092 63.1997,-38.3236 5.2367,-6.2965 13.2746,-11.5246 11.2311,-22.2221 -2.0434,-10.6976 -1.7938,-21.9409 -17.0229,-26.5544 -9.8097,-4.0323 -14.2999,-6.9835 -14.1441,-10.1193 0.1565,-3.135 5.2164,-10.9397 15.2416,-10.5769 10.0258,0.3634 16.1869,-6.8408 20.9047,-21.0372 5.8565,-14.2808 -11.3944,-28.3269 -12.3251,-34.3003 -5.9525,-9.4188 -20.1936,-48.378 -11.3283,-51.0106 z"
       id="path5058-2"
       inkscape:connector-curvature="0"
       sodipodi:nodetypes="cscsssscccsccscccc" />
    <path
       style="display:inline;fill:#ffffff;fill-rule:evenodd;stroke:none;stroke-width:0.7824px;stroke-linecap:butt;stroke-linejoin:miter;stroke-opacity:1"
       d="m 877.968,2870.1388 -20.1414,-103.137 -20.06484,17.4342 -15.86649,-70.2389 -20.49195,11.5133 26.36659,82.3695 23.57881,-19.15 z"
       id="path4667-2"
       inkscape:connector-curvature="0" />
    <path
       style="display:inline;fill:#ffffff;fill-rule:evenodd;stroke:none;stroke-width:0.800756px;stroke-linecap:butt;stroke-linejoin:miter;stroke-opacity:1"
       d="m 661.02098,2713.47 c 20.25131,-9.7562 38.45762,-42.5286 -4.24819,-77.162 48.59498,11.8434 68.83044,-10.1068 84.8468,-92.6185 39.23221,72.3546 56.19712,51.3106 66.84347,24.8341 -2.97887,49.2768 38.0556,42.2858 55.63144,16.0446 -5.70889,76.3831 23.76029,79.0172 50.2056,87.989 -45.21335,11.119 -18.66799,33.6361 -12.99885,52.8383 -53.99369,-15.0176 -71.35213,9.436 -68.20215,55.9848 -20.88669,-12.0405 -47.57817,-48.333 -45.73432,34.5863 -18.76348,-59.6942 -32.15878,-42.7914 -43.66927,1.0069 -6.49356,-20.2619 2.37653,-64.0489 -38.33641,-31.9099 16.2986,-34.8193 8.03588,-60.982 -44.33812,-71.5936 z"
       id="path4584-9"
       inkscape:connector-curvature="0"
       sodipodi:nodetypes="cccccccccccc" />
    <path
       style="color:#000000;display:inline;overflow:visible;visibility:visible;fill:#ffffff;fill-opacity:1;fill-rule:nonzero;stroke:none;stroke-width:1.01599px;marker:none;enable-background:accumulate"
       d="m 915.25633,477.71228 c -4.04952,48.32505 20.65484,106.85492 115.89287,109.89183 -80.33867,-15.35995 -92.0301,-64.16762 -83.52693,-109.83472 7.34037,-39.42391 8.64622,-57.69856 8.64622,-57.69856 z"
       id="path4440-3"
       inkscape:connector-curvature="0"
       sodipodi:nodetypes="ccscc" />
  </g>
  <g
     inkscape:groupmode="layer"
     id="layer1"
     inkscape:label="txt">
    <text
       xml:space="preserve"
       style="font-style:normal;font-variant:normal;font-weight:normal;font-stretch:normal;font-size:45px;line-height:1.25;font-family:Lavi;-inkscape-font-specification:Lavi;text-align:center;letter-spacing:0px;word-spacing:0px;text-anchor:middle;fill:#000000;fill-opacity:1;stroke:none"
       x="894.61328"
       y="352.97977"
       id="text4246-3-2-2-3"><tspan
         style="font-size:45px"
         sodipodi:role="line"
         x="894.61328"
         y="352.97977"
         id="tspan863">Vent!</tspan><tspan
         style="font-size:45px"
         sodipodi:role="line"
         x="894.61328"
         y="409.22977"
         id="tspan9024">Kva har</tspan><tspan
         style="font-size:45px"
         sodipodi:role="line"
         x="894.61328"
         y="465.47977"
         id="tspan9026">eg blitt?</tspan></text>
    <text
       xml:space="preserve"
       style="font-style:normal;font-variant:normal;font-weight:normal;font-stretch:normal;font-size:56px;line-height:1.25;font-family:Lavi;-inkscape-font-specification:Lavi;text-align:center;letter-spacing:0px;word-spacing:0px;text-anchor:middle;fill:#000000;fill-opacity:1;stroke:none"
       x="1631.5472"
       y="406.90021"
       id="text4246-3-2-2-3-3"><tspan
         sodipodi:role="line"
         x="1631.5472"
         y="406.90021"
         id="tspan957"
         style="font-style:normal;font-variant:normal;font-weight:bold;font-stretch:normal;font-size:56px;font-family:Lavi;-inkscape-font-specification:'Lavi Bold'">Ein</tspan><tspan
         sodipodi:role="line"
         x="1631.5472"
         y="476.90021"
         style="font-style:normal;font-variant:normal;font-weight:bold;font-stretch:normal;font-size:56px;font-family:Lavi;-inkscape-font-specification:'Lavi Bold'"
         id="tspan9030">mordar?</tspan></text>
    <text
       xml:space="preserve"
       style="font-style:normal;font-variant:normal;font-weight:normal;font-stretch:normal;font-size:53.3405px;line-height:1.25;font-family:Lavi;-inkscape-font-specification:Lavi;text-align:center;letter-spacing:0px;word-spacing:0px;text-anchor:middle;fill:#000000;fill-opacity:1;stroke:none;stroke-width:1.18534"
       x="1550.6737"
       y="1437.3575"
       id="text4246-3-2-2-3-9"><tspan
         style="font-size:53.3405px;stroke-width:1.18534"
         sodipodi:role="line"
         x="1550.6737"
         y="1437.3575"
         id="tspan877-5-7">Ei</tspan><tspan
         style="font-style:normal;font-variant:normal;font-weight:bold;font-stretch:normal;font-size:53.3405px;font-family:Lavi;-inkscape-font-specification:'Lavi Bold';stroke-width:1.18534"
         sodipodi:role="line"
         x="1550.6737"
         y="1504.0332"
         id="tspan996">vond</tspan><tspan
         style="font-size:53.3405px;stroke-width:1.18534"
         sodipodi:role="line"
         x="1550.6737"
         y="1570.7087"
         id="tspan998">heks?</tspan></text>
    <text
       xml:space="preserve"
       style="font-style:normal;font-variant:normal;font-weight:normal;font-stretch:normal;font-size:104.682px;line-height:1.25;font-family:Lavi;-inkscape-font-specification:Lavi;text-align:center;letter-spacing:0px;word-spacing:0px;text-anchor:middle;fill:#000000;fill-opacity:1;stroke:none;stroke-width:1.18634"
       x="1220.8651"
       y="2644.7488"
       id="text4246-3-2-2-3-9-0"
       transform="matrix(0.90421598,-0.22651773,-0.12390474,1.1369702,0,0)"><tspan
         style="font-style:normal;font-variant:normal;font-weight:bold;font-stretch:normal;font-size:104.682px;font-family:Lavi;-inkscape-font-specification:'Lavi Bold';stroke-width:1.18634"
         sodipodi:role="line"
         x="1220.8651"
         y="2644.7488"
         id="tspan998-6"><tspan
   style="font-size:79.44px;stroke-width:1.18634"
   id="tspan1037">!</tspan><tspan
   id="tspan1045"
   style="font-size:91.8525px;stroke-width:1.18634">!</tspan>!</tspan></text>
  </g>
</svg>
