<?xml version="1.0" encoding="UTF-8" standalone="no"?>
<svg
   xmlns:dc="http://purl.org/dc/elements/1.1/"
   xmlns:cc="http://creativecommons.org/ns#"
   xmlns:rdf="http://www.w3.org/1999/02/22-rdf-syntax-ns#"
   xmlns:svg="http://www.w3.org/2000/svg"
   xmlns="http://www.w3.org/2000/svg"
   xmlns:xlink="http://www.w3.org/1999/xlink"
   xmlns:sodipodi="http://sodipodi.sourceforge.net/DTD/sodipodi-0.dtd"
   xmlns:inkscape="http://www.inkscape.org/namespaces/inkscape"
   id="svg2"
   version="1.1"
   inkscape:version="1.0.2 (e86c870879, 2021-01-15)"
   width="2481"
   height="3503"
   sodipodi:docname="E35P01.svg">
  <metadata
     id="metadata8">
    <rdf:RDF>
      <cc:Work
         rdf:about="">
        <dc:format>image/svg+xml</dc:format>
        <dc:type
           rdf:resource="http://purl.org/dc/dcmitype/StillImage" />
        <dc:title />
      </cc:Work>
    </rdf:RDF>
  </metadata>
  <defs
     id="defs6" />
  <sodipodi:namedview
     pagecolor="#ffffff"
     bordercolor="#666666"
     borderopacity="1"
     objecttolerance="10"
     gridtolerance="10"
     guidetolerance="10"
     inkscape:pageopacity="0"
     inkscape:pageshadow="2"
     inkscape:window-width="1920"
     inkscape:window-height="967"
     id="namedview4"
     showgrid="false"
     inkscape:zoom="0.42773946"
     inkscape:cx="1380.45"
     inkscape:cy="2981.0198"
     inkscape:window-x="0"
     inkscape:window-y="72"
     inkscape:window-maximized="1"
     inkscape:current-layer="layer3"
     inkscape:document-rotation="0"
     inkscape:pagecheckerboard="0" />
  <g
     inkscape:groupmode="layer"
     id="layer2"
     inkscape:label="artwork"
     sodipodi:insensitive="true">
    <image
       sodipodi:absref="/felles/omsetting/pepper-carrot/webcomics/new-ep35_The-Reflection/lang/gfx_Pepper-and-Carrot_by-David-Revoy_E35P01.png"
       xlink:href="../gfx_Pepper-and-Carrot_by-David-Revoy_E35P01.png"
       y="0"
       x="0"
       id="image10"
       height="3503"
       width="2481" />
  </g>
  <g
     inkscape:groupmode="layer"
     id="layer3"
     inkscape:label="speechbubbles">
    <path
       style="color:#000000;display:inline;overflow:visible;visibility:visible;fill:#ffffff;fill-opacity:1;fill-rule:nonzero;stroke:none;stroke-width:0.702616px;marker:none;enable-background:accumulate"
       d="m 908.31656,2690.8716 c -56.5671,0.5082 -140.53526,-8.9399 -159.84828,-42.1866 -19.31294,-33.2467 -21.13352,-88.0062 9.63766,-110.9286 30.77109,-22.9224 86.42441,-34.8201 135.59466,-33.7844 49.17018,1.0364 114.9623,17.56 133.131,48.7678 18.1686,31.2071 11.0573,102.7842 -50.14541,123.3102 -61.20296,20.526 -68.36963,14.8216 -68.36963,14.8216 z"
       id="path3970-3"
       inkscape:connector-curvature="0"
       sodipodi:nodetypes="cccscsc" />
    <path
       style="color:#000000;display:inline;overflow:visible;visibility:visible;fill:#ffffff;fill-opacity:1;fill-rule:nonzero;stroke:none;stroke-width:0.792384px;marker:none;enable-background:accumulate"
       d="m 965.84625,2831.7636 c -68.83291,0.5547 -171.00843,-9.7593 -194.50921,-46.0527 -23.50068,-36.2934 -25.71604,-96.0711 11.72746,-121.0941 37.44338,-25.0232 105.16435,-38.0111 164.99648,-36.8806 59.83212,1.1314 139.89042,19.1693 161.99862,53.237 22.1082,34.067 26.9278,95.8915 -42.5957,124.5015 -71.92015,29.5962 -101.61765,26.2889 -101.61765,26.2889 z"
       id="path3970-3-3"
       inkscape:connector-curvature="0"
       sodipodi:nodetypes="cccscsc" />
    <path
       style="fill:#ffffff;fill-rule:evenodd;stroke:none;stroke-width:1.06225px;stroke-linecap:butt;stroke-linejoin:miter;stroke-opacity:1"
       d="m 1082.5035,2791.6336 c 16.785,-19.6056 38.6627,-36.0206 49.0019,-34.6196 10.3392,1.401 38.8276,20.2647 44.0486,-5.9091 5.221,-26.1736 -0.464,-38.1966 10.459,-36.0914 10.9231,2.1053 27.5797,11.864 30.0863,25.9568 -8.4109,-33.022 -32.6982,-39.4387 -40.8556,-33.0423 -8.1574,6.3964 -12.4748,9.1065 -15.8247,34.4602 -6.2288,19.6797 -15.2021,-31.4488 -75.7503,-2.4836 -29.6051,28.4958 -1.1652,51.729 -1.1652,51.729 z"
       id="path1085"
       inkscape:connector-curvature="0"
       sodipodi:nodetypes="cscscsccc" />
    <path
       style="color:#000000;display:inline;overflow:visible;visibility:visible;fill:#ffffff;fill-opacity:1;fill-rule:nonzero;stroke:none;stroke-width:1.05555px;marker:none;enable-background:accumulate"
       d="m 1633.705,2555.2303 c -5.3662,-71.7856 -23.1638,-80.0398 179.5266,-82.9943 170.0885,-2.4793 271.2422,2.4793 271.1933,107.6268 -0.046,98.0369 -31.8939,72.7842 -214.3086,84.3582 -36.6985,2.3285 -250.3192,3.9046 -232.5394,-33.0923 11.1298,-23.1593 -2.9775,-53.6207 -3.8719,-75.8984 z"
       id="path4546-1"
       inkscape:connector-curvature="0"
       sodipodi:nodetypes="cssssc" />
    <path
       style="fill:#ffffff;stroke:none;stroke-width:1.75731"
       d="m 1917.3254,3297.7184 c -3.0913,-125.2972 0.7839,-185.04 213.1288,-188.3971 202.6457,-3.2037 271.0181,-2.7119 273.61,151.684 0.9257,55.1428 11.3166,120.5996 -16.4145,144.5555 -45.6879,39.4682 -149.3857,16.9687 -233.6565,24.3197 -139.604,12.1777 -227.5455,-28.961 -236.6678,-132.1621 z"
       id="path3280-81"
       inkscape:connector-curvature="0"
       sodipodi:nodetypes="cssssc" />
    <path
       style="color:#000000;display:inline;overflow:visible;visibility:visible;fill:#ffffff;fill-opacity:1;fill-rule:nonzero;stroke:none;stroke-width:1.06477px;marker:none;enable-background:accumulate"
       d="m 1852.8912,2655.6945 c -17.7418,51.5577 -0.5352,96.2189 44.4232,120.3111 -75.8904,-27.089 -92.8027,-105.8188 -83.4584,-127.2019 9.1494,-20.9367 39.0352,6.8908 39.0352,6.8908 z"
       id="path5010-4"
       inkscape:connector-curvature="0"
       sodipodi:nodetypes="ccsc" />
    <path
       style="color:#000000;display:inline;overflow:visible;visibility:visible;fill:#ffffff;fill-opacity:1;fill-rule:nonzero;stroke:none;stroke-width:1px;marker:none;enable-background:accumulate"
       d="m 2181.6979,3031.5111 c 15.5881,37.565 19.0292,51.8083 -13.2212,86.5196 -32.2502,34.7102 -19.1075,46.3288 -19.1075,46.3288 l 31.133,-8.0771 c 0,0 63.6316,-78.7837 1.1957,-124.7713 z"
       id="path3072-56"
       inkscape:connector-curvature="0" />
  </g>
  <g
     inkscape:groupmode="layer"
     id="layer1"
     inkscape:label="txt">
    <text
       xml:space="preserve"
       style="font-style:normal;font-variant:normal;font-weight:normal;font-stretch:normal;font-size:45px;line-height:1.25;font-family:Lavi;-inkscape-font-specification:Lavi;text-align:center;letter-spacing:0px;word-spacing:0px;text-anchor:middle;fill:#000000;fill-opacity:1;stroke:none"
       x="886.95392"
       y="2579.1858"
       id="text4246-3-2-2"><tspan
         style="font-size:45px"
         sodipodi:role="line"
         x="886.95392"
         y="2579.1858"
         id="tspan873">Å, du</tspan><tspan
         style="font-size:45px"
         sodipodi:role="line"
         x="886.95392"
         y="2635.4358"
         id="tspan8798">er vaken!</tspan></text>
    <text
       xml:space="preserve"
       style="font-style:normal;font-variant:normal;font-weight:normal;font-stretch:normal;font-size:45px;line-height:1.25;font-family:Lavi;-inkscape-font-specification:Lavi;text-align:center;letter-spacing:0px;word-spacing:0px;text-anchor:middle;fill:#000000;fill-opacity:1;stroke:none"
       x="937.24908"
       y="2717.1064"
       id="text4246-3-2-2-3"><tspan
         style="font-size:45px"
         sodipodi:role="line"
         x="937.24908"
         y="2717.1064"
         id="tspan914">Alt i orden?</tspan><tspan
         style="font-size:45px"
         sodipodi:role="line"
         x="937.24908"
         y="2773.3564"
         id="tspan857">Du frys ikkje?</tspan></text>
    <text
       xml:space="preserve"
       style="font-style:normal;font-variant:normal;font-weight:normal;font-stretch:normal;font-size:45px;line-height:1.25;font-family:Lavi;-inkscape-font-specification:Lavi;text-align:center;letter-spacing:0px;word-spacing:0px;text-anchor:middle;fill:#000000;fill-opacity:1;stroke:none"
       x="1860.8301"
       y="2505.1311"
       id="text4246-3-2-2-3-3"><tspan
         style="font-size:45px"
         sodipodi:role="line"
         x="1860.8301"
         y="2505.1311"
         id="tspan870" /><tspan
         style="font-size:45px"
         sodipodi:role="line"
         x="1860.8301"
         y="2561.3811"
         id="tspan8807">Eg er dessverre</tspan><tspan
         style="font-size:45px"
         sodipodi:role="line"
         x="1860.8301"
         y="2617.6311"
         id="tspan8813">snart tom for rea,</tspan></text>
    <text
       xml:space="preserve"
       style="font-style:normal;font-variant:normal;font-weight:normal;font-stretch:normal;font-size:45px;line-height:1.25;font-family:Lavi;-inkscape-font-specification:Lavi;text-align:center;letter-spacing:0px;word-spacing:0px;text-anchor:middle;fill:#000000;fill-opacity:1;stroke:none"
       x="2155.6763"
       y="3197.4397"
       id="text4246-3-2-2-3-3-9"><tspan
         style="font-size:45px"
         sodipodi:role="line"
         x="2155.6763"
         y="3197.4397"
         id="tspan905">og kraftfeltet mitt</tspan><tspan
         style="font-size:45px"
         sodipodi:role="line"
         x="2155.6763"
         y="3253.6897"
         id="tspan8828">er ikkje tjukt nok til</tspan><tspan
         style="font-size:45px"
         sodipodi:role="line"
         x="2155.6763"
         y="3309.9397"
         id="tspan8830">å verna oss mot</tspan><tspan
         style="font-size:45px"
         sodipodi:role="line"
         x="2155.6763"
         y="3366.1897"
         id="tspan8832">kulda her oppe.</tspan><tspan
         style="font-size:45px"
         sodipodi:role="line"
         x="2155.6763"
         y="3422.4397"
         id="tspan8824" /><tspan
         style="font-size:45px"
         sodipodi:role="line"
         x="2155.6763"
         y="3478.6897"
         id="tspan8826" /></text>
  </g>
</svg>
