<?xml version="1.0" encoding="UTF-8" standalone="no"?>
<!-- Created with Inkscape (http://www.inkscape.org/) -->

<svg
   xmlns:dc="http://purl.org/dc/elements/1.1/"
   xmlns:cc="http://creativecommons.org/ns#"
   xmlns:rdf="http://www.w3.org/1999/02/22-rdf-syntax-ns#"
   xmlns:svg="http://www.w3.org/2000/svg"
   xmlns="http://www.w3.org/2000/svg"
   xmlns:xlink="http://www.w3.org/1999/xlink"
   xmlns:sodipodi="http://sodipodi.sourceforge.net/DTD/sodipodi-0.dtd"
   xmlns:inkscape="http://www.inkscape.org/namespaces/inkscape"
   id="svg2"
   version="1.1"
   inkscape:version="0.92.3 (2405546, 2018-03-11)"
   width="2481"
   height="3503"
   sodipodi:docname="E32P03.svg">
  <metadata
     id="metadata8">
    <rdf:RDF>
      <cc:Work
         rdf:about="">
        <dc:format>image/svg+xml</dc:format>
        <dc:type
           rdf:resource="http://purl.org/dc/dcmitype/StillImage" />
        <dc:title />
      </cc:Work>
    </rdf:RDF>
  </metadata>
  <defs
     id="defs6">
    <filter
       style="color-interpolation-filters:sRGB"
       id="filter5561-1"
       inkscape:label="deevad outline effect">
      <feFlood
         id="feFlood5563-9"
         flood-opacity="1"
         flood-color="rgb(0,0,0)"
         result="flood" />
      <feComposite
         id="feComposite5565-0"
         in2="SourceGraphic"
         in="flood"
         operator="in"
         result="composite1" />
      <feMorphology
         id="feMorphology5567-7"
         operator="dilate"
         radius="1.8999999999999999 6.0999999999999996"
         result="result3" />
      <feComposite
         id="feComposite5569-2"
         in2="result3"
         in="SourceGraphic"
         operator="over"
         result="composite2" />
    </filter>
    <filter
       inkscape:collect="always"
       style="color-interpolation-filters:sRGB"
       id="filter4213-0-3"
       x="-0.0010298714"
       width="1.0020597"
       y="-0.0014578935"
       height="1.0029159">
      <feGaussianBlur
         inkscape:collect="always"
         stdDeviation="0.24308766"
         id="feGaussianBlur4215-2-5" />
    </filter>
    <filter
       inkscape:collect="always"
       style="color-interpolation-filters:sRGB"
       id="filter4213-8"
       x="-0.0010298714"
       width="1.0020597"
       y="-0.0014578935"
       height="1.0029159">
      <feGaussianBlur
         inkscape:collect="always"
         stdDeviation="0.24308766"
         id="feGaussianBlur4215-7" />
    </filter>
    <filter
       inkscape:collect="always"
       style="color-interpolation-filters:sRGB"
       id="filter4213-8-8"
       x="-0.0010298714"
       width="1.0020597"
       y="-0.0014578935"
       height="1.0029159">
      <feGaussianBlur
         inkscape:collect="always"
         stdDeviation="0.24308766"
         id="feGaussianBlur4215-7-9" />
    </filter>
    <filter
       inkscape:collect="always"
       style="color-interpolation-filters:sRGB"
       id="filter1266-5-1"
       x="-0.013221323"
       width="1.0264426"
       y="-0.024911748"
       height="1.0498235">
      <feGaussianBlur
         inkscape:collect="always"
         stdDeviation="0.78825367"
         id="feGaussianBlur1268-9-2" />
    </filter>
    <filter
       inkscape:collect="always"
       style="color-interpolation-filters:sRGB"
       id="filter1395"
       x="-0.01195875"
       width="1.0239176"
       y="-0.014728761"
       height="1.0294574">
      <feGaussianBlur
         inkscape:collect="always"
         stdDeviation="0.26634151"
         id="feGaussianBlur1397" />
    </filter>
    <filter
       inkscape:collect="always"
       style="color-interpolation-filters:sRGB"
       id="filter1266"
       x="-0.013221323"
       width="1.0264426"
       y="-0.024911748"
       height="1.0498235">
      <feGaussianBlur
         inkscape:collect="always"
         stdDeviation="0.78825367"
         id="feGaussianBlur1268" />
    </filter>
    <filter
       inkscape:collect="always"
       style="color-interpolation-filters:sRGB"
       id="filter1639"
       x="-0.022949615"
       width="1.0458992"
       y="-0.048711937"
       height="1.0974239">
      <feGaussianBlur
         inkscape:collect="always"
         stdDeviation="0.45636794"
         id="feGaussianBlur1641" />
    </filter>
    <filter
       inkscape:collect="always"
       style="color-interpolation-filters:sRGB"
       id="filter1266-5"
       x="-0.013221323"
       width="1.0264426"
       y="-0.024911748"
       height="1.0498235">
      <feGaussianBlur
         inkscape:collect="always"
         stdDeviation="0.78825367"
         id="feGaussianBlur1268-9" />
    </filter>
    <filter
       inkscape:collect="always"
       style="color-interpolation-filters:sRGB"
       id="filter4213-0"
       x="-0.0010298714"
       width="1.0020597"
       y="-0.0014578935"
       height="1.0029159">
      <feGaussianBlur
         inkscape:collect="always"
         stdDeviation="0.24308766"
         id="feGaussianBlur4215-2" />
    </filter>
    <filter
       inkscape:collect="always"
       style="color-interpolation-filters:sRGB"
       id="filter4213"
       x="-0.0010298714"
       width="1.0020597"
       y="-0.0014578935"
       height="1.0029159">
      <feGaussianBlur
         inkscape:collect="always"
         stdDeviation="0.24308766"
         id="feGaussianBlur4215" />
    </filter>
  </defs>
  <sodipodi:namedview
     pagecolor="#ffffff"
     bordercolor="#666666"
     borderopacity="1"
     objecttolerance="10"
     gridtolerance="10"
     guidetolerance="10"
     inkscape:pageopacity="0"
     inkscape:pageshadow="2"
     inkscape:window-width="1920"
     inkscape:window-height="1022"
     id="namedview4"
     showgrid="false"
     inkscape:zoom="0.28695652"
     inkscape:cx="2325.0933"
     inkscape:cy="1095.0043"
     inkscape:window-x="0"
     inkscape:window-y="0"
     inkscape:window-maximized="1"
     inkscape:current-layer="layer3"
     inkscape:snap-global="false" />
  <g
     inkscape:groupmode="layer"
     id="layer2"
     inkscape:label="artwork"
     sodipodi:insensitive="true">
    <image
       sodipodi:absref="/home/peppercarrot/webcomics/"
       xlink:href="../gfx_Pepper-and-Carrot_by-David-Revoy_E32P03.png"
       width="2481"
       height="3503"
       id="image10"
       x="0"
       y="0" />
  </g>
  <g
     inkscape:groupmode="layer"
     id="layer3"
     inkscape:label="speechbubbles">
    <path
       style="fill:#ffffff;stroke:none;stroke-width:1.09737718"
       d="m 392.33221,168.87021 c -6.00482,57.00598 -90.91853,65.82266 -130.11767,67.5077 -39.19907,1.68443 -143.45382,9.03682 -178.774506,-38.6473 C 48.119446,150.04713 63.633046,128.17365 86.603427,104.93729 106.19174,85.121738 152.24383,75.535816 192.5558,70.842405 c 50.05533,-5.826865 133.15862,7.717846 167.86447,32.104975 18.50824,13.00487 37.91692,8.91685 31.91194,65.92283 z"
       id="path3100-98"
       inkscape:connector-curvature="0"
       sodipodi:nodetypes="zsssssz" />
    <path
       style="color:#000000;display:inline;overflow:visible;visibility:visible;fill:#ffffff;fill-opacity:1;fill-rule:nonzero;stroke:none;stroke-width:1.39790297px;marker:none;enable-background:accumulate"
       d="m 393.48964,254.42062 c 3.2915,-46.17134 3.764,-90.74605 47.30088,-117.84703 43.53679,-27.0998 120.23692,-34.60361 216.57746,-27.87208 51.60514,3.60545 116.61429,8.46593 157.76536,27.20634 41.15107,18.74039 58.44414,51.36067 54.22125,118.98514 -4.2229,67.62451 -27.01156,97.16963 -74.54825,114.53918 -47.53657,17.37068 -119.82136,22.5658 -137.22742,24.49587 -17.40607,1.93009 -71.39196,0.26632 -124.95385,-7.54315 -53.56179,-7.80946 -90.19785,-13.27088 -105.90774,-35.92816 -24.62782,-28.69297 -34.72536,-62.43054 -33.22769,-96.03611 z"
       id="path4546-6-2-0"
       inkscape:connector-curvature="0"
       sodipodi:nodetypes="cssssssscc" />
    <path
       style="color:#000000;display:inline;overflow:visible;visibility:visible;fill:#ffffff;fill-opacity:1;fill-rule:nonzero;stroke:none;stroke-width:1.0566107px;marker:none;enable-background:accumulate"
       d="m 1030.5098,134.47461 c -35.57693,0.53823 -71.5292,5.82894 -104.51596,19.62298 -11.12591,5.27951 -18.64774,15.9051 -23.29618,26.99543 -8.64822,19.58471 -17.74528,39.48517 -20.21659,60.98254 -3.16387,23.96917 -1.36122,49.13444 8.62885,71.38846 8.32352,18.29257 24.39628,32.21755 42.53483,40.34836 21.15367,9.74475 43.95303,15.02125 66.41665,20.77345 28.6428,6.73326 58.3399,9.02682 87.6749,6.75011 22.6261,-2.07624 45.0464,-7.39349 65.9064,-16.47084 11.1678,-4.96773 22.1977,-10.90531 30.765,-19.79447 8.9067,-8.90201 15.2542,-20.14332 18.9414,-32.14487 4.9342,-15.70522 6.1272,-32.29209 6.3901,-48.66233 -0.042,-19.10583 -2.6825,-38.56345 -10.5703,-56.11051 -8.7873,-18.83635 -23.868,-34.23574 -41.3703,-45.19986 -25.5776,-16.48399 -55.7207,-24.7521 -85.8622,-27.17663 -13.7732,-1.18578 -27.6099,-1.37631 -41.4266,-1.30182 z"
       id="path4040-41"
       inkscape:connector-curvature="0"
       sodipodi:nodetypes="zssssz" />
    <path
       style="opacity:1;fill:#ffffff;fill-rule:evenodd;stroke:none;stroke-width:1px;stroke-linecap:butt;stroke-linejoin:miter;stroke-opacity:1"
       d="m 1027.5093,510.74622 c 79.9896,-25.34188 116.4009,-40.38771 130.7924,-88.3665 C 1170.344,382.2328 1124.3018,306.2364 1062.2075,265.30816 987.90322,216.33205 341.29191,164.35876 324.67294,147.28839 300.431,122.388 296.37847,193.40523 317.18822,192.66418 c 110.11684,-3.92132 657.67116,48.08675 724.93768,91.15485 62.3575,39.92512 107.1789,103.00167 91.9981,146.96092 -14.5457,42.11997 -106.6147,79.96627 -106.6147,79.96627 z"
       id="path4324-2"
       inkscape:connector-curvature="0"
       sodipodi:nodetypes="cssssssc" />
    <path
       style="color:#000000;display:inline;overflow:visible;visibility:visible;fill:#ffffff;fill-opacity:1;fill-rule:nonzero;stroke:none;stroke-width:0.8141275px;marker:none;enable-background:accumulate"
       d="m 1568.9918,160.75586 c 3.383,58.0424 -36.2287,45.56473 -54.1965,27.27436 -1.6794,-1.6925 -3.3087,-3.49395 -4.951,-5.26655 5.5391,32.63909 5.7874,63.94917 -20.89,57.06055 12.8779,29.50108 -16.6324,34.82714 -23.6887,35.84961 36.8284,10.44428 12.4988,27.33762 -7.0214,34.65625 19.8767,5.47045 49.3755,-1.33603 24.2659,37.39648 37.0376,-15.87086 51.77,0.39261 33.4198,49.15625 34.5985,-36.63239 54.8208,-61.70826 58.8769,4.9375 21.1048,-53.579 43.4716,-66.95947 71.6932,2.65777 2.3337,-66.17428 38.4252,-33.5212 50.7381,-6.88267 -3.4317,-47.05832 36.2985,-39.35867 46.4552,-27.18325 -4.7097,-46.93794 27.1626,-20.43662 40.219,-12.24614 -20.6272,-31.80398 -8.0758,-56.49275 9.9783,-53.41602 -37.2634,-27.61301 -38.2412,-45.70415 -5.2339,-57.75977 -19.1948,-6.35909 -44.0499,-19.18971 -33.0327,-55.71679 -27.3758,17.91152 -36.9994,8.59899 -24.4344,-31.42383 -12.722,22.94734 -45.0968,61.05751 -39.274,3.58044 -28.2194,37.59194 -51.3932,43.77553 -71.8751,2.38831 -14.3597,31.9191 -22.4789,51.04462 -51.2486,-6.27184 z"
       id="path3549-3-7-1"
       inkscape:connector-curvature="0"
       sodipodi:nodetypes="ccccccccccccccccccccc" />
    <path
       style="color:#000000;display:inline;overflow:visible;visibility:visible;fill:#ffffff;fill-opacity:1;fill-rule:nonzero;stroke:none;stroke-width:1px;marker:none;enable-background:accumulate"
       d="m 1898.5376,423.83603 c -31.5172,-40.32544 -51.0315,-61.90879 -76.4783,-108.99711 l 3.258,50.97171 c -16.0686,-10.44733 -25.4093,-31.97446 -37.0346,-49.73896 l -2.127,38.51455 c -36.3006,-43.2467 -51.7192,-53.55742 -83.7945,-82.67547 l -29.5303,38.66317 c 49.3632,6.12619 92.5351,44.77214 122.6506,81.95014 l 4.6002,-30.96826 c 11.8245,10.93146 23.3216,22.49541 33.3564,36.88708 l 3.0413,-39.51242 z"
       id="path4032-8"
       inkscape:connector-curvature="0"
       sodipodi:nodetypes="cccccccccccc" />
    <path
       style="fill:#ffffff;fill-opacity:1;stroke:none;stroke-width:2.36898494"
       d="m 416.43086,1214.1506 c -69.54831,1.8402 -139.59697,2.7239 -208.16117,17.9029 -28.36344,6.6842 -54.998,26.7905 -69.2078,56.463 -10.51006,23.1882 -11.53499,50.6577 -7.25389,75.9791 2.51047,18.4659 7.97592,37.7293 20.59083,50.2541 13.2863,13.1734 31.18158,17.3502 48.16901,18.5422 94.45864,9.7383 189.42788,11.4333 284.18712,8.4738 40.76838,-1.8883 82.34788,-7.6462 119.82589,-27.5017 20.25897,-10.6025 40.06873,-25.2121 52.23637,-47.3723 16.39079,-29.8868 19.03938,-70.2994 4.00899,-101.6042 -8.06295,-17.0703 -22.53817,-29.934 -39.00108,-33.9691 -19.79589,-6.2508 -40.32113,-8.212 -60.58221,-11.4257 -48.0833,-5.9424 -96.51971,-5.8194 -144.81206,-5.7421 z"
       id="path3659-8-8"
       inkscape:connector-curvature="0"
       sodipodi:nodetypes="cssssc" />
    <path
       style="color:#000000;display:inline;overflow:visible;visibility:visible;fill:#ffffff;fill-opacity:1;fill-rule:nonzero;stroke:none;stroke-width:1.0521239px;marker:none;enable-background:accumulate"
       d="m 719.37358,1271.5276 c 37.27306,-60.9345 243.96014,-51.6151 308.24832,-35.9204 70.1587,17.1274 91.7596,41.3958 94.8968,94.5858 0.9691,16.4292 -4.7058,90.9312 -39.2164,105.5981 -34.5105,14.6658 -133.33591,21.9992 -167.84643,21.9992 -34.51044,0 -144.6755,-9.3346 -172.55266,-30.7998 -26.66714,-20.5321 -60.80278,-94.5293 -23.52963,-155.4629 z"
       id="path3330-0"
       inkscape:connector-curvature="0"
       sodipodi:nodetypes="zsssssz" />
    <path
       style="color:#000000;display:inline;overflow:visible;visibility:visible;fill:#ffffff;fill-opacity:1;fill-rule:nonzero;stroke:none;stroke-width:0.99999994px;marker:none;enable-background:accumulate"
       d="M 1127.7031 1285.3086 C 1092.5552 1285.8441 1058.1064 1293.742 1024.0877 1301.9027 C 974.95395 1312.3109 924.54864 1316.9562 874.34321 1315.1816 C 836.49134 1313.2099 799.61632 1303.7026 762.13281 1298.7949 C 734.99975 1294.9525 707.63349 1292.7299 680.22775 1292.4274 C 658.61809 1291.7661 636.60413 1291.427 615.51233 1296.8313 C 608.81321 1299.6045 602.41087 1305.8472 602.80279 1313.588 C 604.18008 1322.0196 615.21381 1326.4833 622.27887 1321.9386 C 648.12281 1314.0716 675.51631 1315.2077 702.14578 1316.9461 C 755.63276 1320.7743 807.68268 1335.2218 861.09284 1339.6659 C 897.16535 1342.4662 933.45221 1340.346 969.27328 1335.6383 C 1010.5721 1330.9445 1050.9896 1320.9392 1091.8719 1313.7577 C 1142.0061 1306.2965 1192.7632 1310.9359 1243.1777 1311.2773 C 1277.8468 1310.6571 1312.049 1317.2944 1346.0336 1323.3061 C 1359.112 1325.5698 1371.8244 1329.4786 1384.6429 1332.8152 C 1404.9653 1336.6273 1425.9616 1337.2918 1445.666 1344.0329 C 1447.7405 1344.6023 1450.7004 1345.5883 1452.2182 1345.9087 C 1426.2276 1333.0901 1398.6868 1323.5532 1370.5334 1316.7771 C 1353.3729 1310.3776 1335.7739 1304.7944 1317.5815 1302.301 C 1302.8794 1298.015 1288.5209 1290.6437 1272.8192 1291.4657 C 1224.3424 1292.4539 1176.163 1284.9034 1127.7031 1285.3086 z "
       id="path5050-5"
       inkscape:connector-curvature="0"
       sodipodi:nodetypes="csccscccccccccccc" />
  </g>
  <g
     inkscape:groupmode="layer"
     id="layer1"
     inkscape:label="txt">
    <text
       xml:space="preserve"
       style="font-style:normal;font-variant:normal;font-weight:normal;font-stretch:normal;line-height:0%;font-family:Lavi;-inkscape-font-specification:Lavi;text-align:center;letter-spacing:0px;word-spacing:0px;text-anchor:middle;fill:#000000;fill-opacity:1;stroke:none"
       x="238.01614"
       y="158.52769"
       id="text4246-10"><tspan
         sodipodi:role="line"
         style="font-size:45px;line-height:1.25"
         x="245.04739"
         y="158.52769"
         id="tspan4262">Gabhaibh mo </tspan><tspan
         sodipodi:role="line"
         style="font-size:45px;line-height:1.25"
         x="238.01614"
         y="214.77769"
         id="tspan223">leisgeul!</tspan></text>
    <text
       xml:space="preserve"
       style="font-style:normal;font-variant:normal;font-weight:normal;font-stretch:normal;line-height:0%;font-family:Lavi;-inkscape-font-specification:Lavi;text-align:center;letter-spacing:0px;word-spacing:0px;text-anchor:middle;fill:#000000;fill-opacity:1;stroke:none"
       x="635.88397"
       y="194.53128"
       id="text4246-10-3"><tspan
         sodipodi:role="line"
         style="font-size:45px;line-height:1.25"
         x="642.91522"
         y="194.53128"
         id="tspan863">’S e bana-bhuidseach </tspan><tspan
         sodipodi:role="line"
         style="font-size:45px;line-height:1.25"
         x="635.88397"
         y="250.78128"
         id="tspan101">cheart na Dubh-</tspan><tspan
         sodipodi:role="line"
         style="font-size:45px;line-height:1.25"
         x="642.91522"
         y="307.03128"
         id="tspan123">choimeasgachd </tspan><tspan
         sodipodi:role="line"
         style="font-size:45px;line-height:1.25"
         x="635.88397"
         y="363.28128"
         id="tspan99">a th’ annam.</tspan></text>
    <text
       xml:space="preserve"
       style="font-style:normal;font-variant:normal;font-weight:normal;font-stretch:normal;line-height:0%;font-family:Lavi;-inkscape-font-specification:Lavi;text-align:center;letter-spacing:0px;word-spacing:0px;text-anchor:middle;fill:#000000;fill-opacity:1;stroke:none"
       x="1044.3275"
       y="216.5408"
       id="text4246-10-3-7"><tspan
         sodipodi:role="line"
         style="font-size:45px;line-height:1.25"
         x="1051.3588"
         y="216.5408"
         id="tspan871">Tha fiù ’s </tspan><tspan
         sodipodi:role="line"
         style="font-size:45px;line-height:1.25"
         x="1051.3588"
         y="272.7908"
         id="tspan107">dioplòma agam </tspan><tspan
         sodipodi:role="line"
         style="font-size:45px;line-height:1.25"
         x="1044.3275"
         y="329.0408"
         id="tspan119">a dh’innseas…</tspan></text>
    <text
       xml:space="preserve"
       style="font-style:normal;font-variant:normal;font-weight:normal;font-stretch:normal;font-size:14.77923584px;line-height:0%;font-family:Lavi;-inkscape-font-specification:Lavi;text-align:center;letter-spacing:0px;word-spacing:0px;text-anchor:middle;fill:#000000;fill-opacity:1;stroke:#000000;stroke-width:1.30000007;stroke-miterlimit:4;stroke-dasharray:none;stroke-opacity:1"
       x="1703.3562"
       y="303.90353"
       id="text4246-7-6-4-0"
       transform="matrix(0.99650308,0,-0.23158448,1.0035092,0,0)"><tspan
         sodipodi:role="line"
         style="font-style:normal;font-variant:normal;font-weight:bold;font-stretch:normal;font-size:74.85820007px;line-height:1.25;font-family:Lavi;-inkscape-font-specification:'Lavi Bold';stroke:#000000;stroke-width:1.30000007;stroke-miterlimit:4;stroke-dasharray:none;stroke-opacity:1"
         x="1703.3562"
         y="303.90353"
         id="tspan4212-7">IST!</tspan></text>
    <text
       xml:space="preserve"
       style="font-style:normal;font-variant:normal;font-weight:normal;font-stretch:normal;line-height:0%;font-family:Lavi;-inkscape-font-specification:Lavi;text-align:center;letter-spacing:0px;word-spacing:0px;text-anchor:middle;fill:#000000;fill-opacity:1;stroke:none"
       x="400.79132"
       y="1296.3143"
       id="text4246-5-5"><tspan
         sodipodi:role="line"
         style="font-style:normal;font-variant:normal;font-weight:normal;font-stretch:normal;font-size:45px;line-height:1.25;font-family:Lavi;-inkscape-font-specification:Lavi;text-align:center;text-anchor:middle"
         x="400.79132"
         y="1296.3143"
         id="tspan213">Chan eil clann-nighnean</tspan><tspan
         sodipodi:role="line"
         style="font-style:normal;font-variant:normal;font-weight:normal;font-stretch:normal;font-size:45px;line-height:1.25;font-family:Lavi;-inkscape-font-specification:Lavi;text-align:center;text-anchor:middle"
         x="407.82257"
         y="1352.5643"
         id="tspan217"> gu feum dhomh </tspan><tspan
         sodipodi:role="line"
         style="font-style:normal;font-variant:normal;font-weight:normal;font-stretch:normal;font-size:45px;line-height:1.25;font-family:Lavi;-inkscape-font-specification:Lavi;text-align:center;text-anchor:middle"
         x="400.79132"
         y="1408.8143"
         id="tspan229">san fheachd seo.</tspan></text>
    <text
       xml:space="preserve"
       style="font-style:normal;font-variant:normal;font-weight:normal;font-stretch:normal;line-height:0%;font-family:Lavi;-inkscape-font-specification:Lavi;text-align:center;letter-spacing:0px;word-spacing:0px;text-anchor:middle;fill:#000000;fill-opacity:1;stroke:none"
       x="913.17175"
       y="1300.0614"
       id="text4246-5-5-3"><tspan
         sodipodi:role="line"
         style="font-style:normal;font-variant:normal;font-weight:normal;font-stretch:normal;font-size:45px;line-height:1.25;font-family:Lavi;-inkscape-font-specification:Lavi;text-align:center;text-anchor:middle"
         x="920.203"
         y="1300.0614"
         id="tspan1127">Thalla dhachaigh </tspan><tspan
         sodipodi:role="line"
         style="font-style:normal;font-variant:normal;font-weight:normal;font-stretch:normal;font-size:45px;line-height:1.25;font-family:Lavi;-inkscape-font-specification:Lavi;text-align:center;text-anchor:middle"
         x="920.203"
         y="1356.3114"
         id="tspan221">’s cluich leis na </tspan><tspan
         sodipodi:role="line"
         style="font-style:normal;font-variant:normal;font-weight:normal;font-stretch:normal;font-size:45px;line-height:1.25;font-family:Lavi;-inkscape-font-specification:Lavi;text-align:center;text-anchor:middle"
         x="913.17175"
         y="1412.5614"
         id="tspan235">doileagan agad.</tspan></text>
    <text
       xml:space="preserve"
       style="color:#000000;font-style:normal;font-variant:normal;font-weight:normal;font-stretch:normal;line-height:0%;font-family:Arial;-inkscape-font-specification:Arial;letter-spacing:0.02734961px;word-spacing:0px;clip-rule:nonzero;display:inline;overflow:visible;visibility:visible;opacity:1;isolation:auto;mix-blend-mode:normal;color-interpolation:sRGB;color-interpolation-filters:linearRGB;solid-color:#000000;solid-opacity:1;fill:#ffffff;fill-opacity:1;fill-rule:nonzero;stroke:#ffffff;stroke-width:0.96854872;stroke-linecap:butt;stroke-linejoin:miter;stroke-miterlimit:4;stroke-dasharray:none;stroke-dashoffset:0;stroke-opacity:1;marker:none;filter:url(#filter5561-1);color-rendering:auto;image-rendering:auto;shape-rendering:auto;text-rendering:auto;enable-background:accumulate"
       id="text4251-1-3"
       inkscape:transform-center-x="-270.60518"
       inkscape:transform-center-y="60.453122"
       y="1742.2045"
       x="1705.2566"
       transform="matrix(0.91879135,-0.67832788,0.07526662,1.411228,-949.41897,401.37966)"><tspan
         sodipodi:role="line"
         id="tspan4253-5-1"
         x="1705.2566"
         y="1742.2045"
         style="font-style:normal;font-variant:normal;font-weight:normal;font-stretch:normal;font-size:45.57711792px;line-height:1.25;font-family:Lavi;-inkscape-font-specification:Lavi;letter-spacing:6.35989523px;stroke-width:0.96854872">Pais!</tspan></text>
    <flowRoot
       xml:space="preserve"
       id="flowRoot971"
       style="font-style:normal;font-variant:normal;font-weight:normal;font-stretch:normal;font-size:0.66666669px;line-height:0%;font-family:Lavi;-inkscape-font-specification:Lavi;text-align:center;letter-spacing:22.65999985px;word-spacing:-79.63999939px;writing-mode:lr-tb;text-anchor:middle;fill:#000000;fill-opacity:1;stroke:none;stroke-width:1px;stroke-linecap:butt;stroke-linejoin:miter;stroke-opacity:1"><flowRegion
         id="flowRegion973"><rect
           id="rect975"
           width="33.872047"
           height="9.9623671"
           x="1695.5948"
           y="340.94467" /></flowRegion><flowPara
         id="flowPara977" /></flowRoot>    <text
       xml:space="preserve"
       style="font-style:normal;font-variant:normal;font-weight:normal;font-stretch:normal;font-size:10.17543411px;line-height:0%;font-family:Lavi;-inkscape-font-specification:Lavi;text-align:center;letter-spacing:0px;word-spacing:0px;text-anchor:middle;fill:#000000;fill-opacity:1;stroke:#000000;stroke-width:3.72000003;stroke-miterlimit:4;stroke-dasharray:none;stroke-opacity:1"
       x="2098.6653"
       y="2255.6174"
       id="text4246-6-5-6-0-2-1"
       transform="matrix(0.88228376,0,-0.23605329,1.1334222,0,0)"><tspan
         sodipodi:role="line"
         style="font-style:normal;font-variant:normal;font-weight:bold;font-stretch:normal;font-size:35.87166214px;line-height:1.25;font-family:Lavi;-inkscape-font-specification:'Lavi Bold';fill:#000000;fill-opacity:1;stroke:none;stroke-width:3.72000003;stroke-miterlimit:4;stroke-dasharray:none;stroke-opacity:1"
         x="2098.6653"
         y="2255.6174"
         id="tspan4252-7-3-1-2-9-2">HÀHÀ HÀ HÀ!</tspan></text>
    <text
       xml:space="preserve"
       style="font-style:normal;font-variant:normal;font-weight:normal;font-stretch:normal;font-size:10.17543411px;line-height:0%;font-family:Lavi;-inkscape-font-specification:Lavi;text-align:center;letter-spacing:0px;word-spacing:0px;text-anchor:middle;fill:#000000;fill-opacity:1;stroke:#000000;stroke-width:3.72000003;stroke-miterlimit:4;stroke-dasharray:none;stroke-opacity:1"
       x="2367.9607"
       y="2228.4077"
       id="text4246-6-5-6-0-2-1-9"
       transform="matrix(0.88228376,0,-0.23605329,1.1334222,0,0)"><tspan
         sodipodi:role="line"
         style="font-style:normal;font-variant:normal;font-weight:bold;font-stretch:normal;font-size:35.87166214px;line-height:1.25;font-family:Lavi;-inkscape-font-specification:'Lavi Bold';fill:#000000;fill-opacity:1;stroke:none;stroke-width:3.72000003;stroke-miterlimit:4;stroke-dasharray:none;stroke-opacity:1"
         x="2367.9607"
         y="2228.4077"
         id="tspan4252-7-3-1-2-9-2-3">HÀHÀ HÀ HÀ!</tspan></text>
    <text
       xml:space="preserve"
       style="font-style:normal;font-variant:normal;font-weight:normal;font-stretch:normal;font-size:10.17543411px;line-height:0%;font-family:Lavi;-inkscape-font-specification:Lavi;text-align:center;letter-spacing:0px;word-spacing:0px;text-anchor:middle;fill:#000000;fill-opacity:1;stroke:#000000;stroke-width:3.72000003;stroke-miterlimit:4;stroke-dasharray:none;stroke-opacity:1"
       x="2640.1641"
       y="2240.2549"
       id="text4246-6-5-6-0-2-1-9-6"
       transform="matrix(0.88228376,0,-0.23605329,1.1334222,0,0)"><tspan
         sodipodi:role="line"
         style="font-style:normal;font-variant:normal;font-weight:bold;font-stretch:normal;font-size:35.87166214px;line-height:1.25;font-family:Lavi;-inkscape-font-specification:'Lavi Bold';fill:#000000;fill-opacity:1;stroke:none;stroke-width:3.72000003;stroke-miterlimit:4;stroke-dasharray:none;stroke-opacity:1"
         x="2640.1641"
         y="2240.2549"
         id="tspan4252-7-3-1-2-9-2-3-0">HÀHÀ HÀ HÀ!</tspan></text>
    <text
       xml:space="preserve"
       style="font-style:normal;font-variant:normal;font-weight:normal;font-stretch:normal;font-size:10.17543411px;line-height:0%;font-family:Lavi;-inkscape-font-specification:Lavi;text-align:center;letter-spacing:0px;word-spacing:0px;text-anchor:middle;fill:#000000;fill-opacity:1;stroke:#000000;stroke-width:3.72000003;stroke-miterlimit:4;stroke-dasharray:none;stroke-opacity:1"
       x="3150.7107"
       y="2239.4143"
       id="text4246-6-5-6-0-2-1-9-6-6"
       transform="matrix(0.88228376,0,-0.23605329,1.1334222,0,0)"><tspan
         sodipodi:role="line"
         style="font-style:normal;font-variant:normal;font-weight:bold;font-stretch:normal;font-size:35.87166214px;line-height:1.25;font-family:Lavi;-inkscape-font-specification:'Lavi Bold';fill:#000000;fill-opacity:1;stroke:none;stroke-width:3.72000003;stroke-miterlimit:4;stroke-dasharray:none;stroke-opacity:1"
         x="3150.7107"
         y="2239.4143"
         id="tspan4252-7-3-1-2-9-2-3-0-2">HÀ HÀ HÀHÀ!</tspan></text>
    <text
       xml:space="preserve"
       style="font-style:normal;font-weight:normal;font-size:40px;line-height:1.25;font-family:sans-serif;letter-spacing:0px;word-spacing:0px;fill:#000000;fill-opacity:1;stroke:none"
       x="1005.3773"
       y="210.88223"
       id="text111"><tspan
         sodipodi:role="line"
         id="tspan109"
         x="1005.3773"
         y="246.27286"></tspan></text>
    <text
       xml:space="preserve"
       style="font-style:normal;font-variant:normal;font-weight:normal;font-stretch:normal;line-height:0%;font-family:Lavi;-inkscape-font-specification:Lavi;text-align:center;letter-spacing:0px;word-spacing:0px;text-anchor:middle;display:inline;opacity:0.6;fill:#000000;fill-opacity:1;stroke:none;stroke-width:1.27569795;filter:url(#filter4213)"
       x="-447.29675"
       y="2872.5061"
       id="text4246-85"
       transform="matrix(1.0676171,0.07756176,-0.2425114,1.1761809,2177.0961,-2758.0454)"><tspan
         sodipodi:role="line"
         style="font-style:normal;font-variant:normal;font-weight:normal;font-stretch:normal;font-size:57.39286804px;line-height:1.26999998;font-family:Fondamento;-inkscape-font-specification:Fondamento;stroke:#000000;stroke-width:1.4631319;stroke-opacity:1"
         x="-447.29675"
         y="2872.5061"
         id="tspan4172">An Dubh-</tspan></text>
    <text
       xml:space="preserve"
       style="font-style:normal;font-variant:normal;font-weight:normal;font-stretch:normal;line-height:0%;font-family:Lavi;-inkscape-font-specification:Lavi;text-align:center;letter-spacing:0px;word-spacing:0px;text-anchor:middle;display:inline;opacity:0.6;fill:#000000;fill-opacity:1;stroke:none;stroke-width:1.53380978;filter:url(#filter4213-0)"
       x="-447.29675"
       y="2872.5061"
       id="text4246-85-3"
       transform="matrix(0.88351581,0.06256338,-0.14516346,0.98761645,1804.5458,-2169.4522)"><tspan
         sodipodi:role="line"
         style="font-style:normal;font-variant:normal;font-weight:normal;font-stretch:normal;font-size:49.28940201px;line-height:1.26999998;font-family:Fondamento;-inkscape-font-specification:Fondamento;stroke:#000000;stroke-width:1.75916731;stroke-opacity:1"
         x="-447.29675"
         y="2872.5061"
         id="tspan4172-7">choimeasgachd</tspan></text>
    <text
       xml:space="preserve"
       style="font-style:normal;font-variant:normal;font-weight:normal;font-stretch:normal;line-height:0%;font-family:Lavi;-inkscape-font-specification:Lavi;text-align:center;letter-spacing:0px;word-spacing:0px;text-anchor:middle;display:inline;opacity:0.69899998;fill:#202020;fill-opacity:1;stroke:#000000;stroke-width:0.72288066;stroke-miterlimit:4;stroke-dasharray:none;stroke-opacity:1;filter:url(#filter1266-5)"
       x="903.31201"
       y="2924.6372"
       id="text4246-8-3-7-2"
       transform="matrix(0.90266372,-0.13973254,-0.03882706,1.0802656,281.14338,-2127.3324)"><tspan
         sodipodi:role="line"
         style="font-size:38.3127861px;line-height:1.25;fill:#202020;fill-opacity:1;stroke:#000000;stroke-width:0.72288066;stroke-miterlimit:4;stroke-dasharray:none;stroke-opacity:1"
         x="903.31201"
         y="2924.6372"
         id="tspan4150-8-6-5-2">Carabhaidh</tspan></text>
    <path
       style="opacity:0.69899998;fill:none;fill-rule:evenodd;stroke:#202020;stroke-width:2.29999995;stroke-linecap:butt;stroke-linejoin:miter;stroke-miterlimit:4;stroke-dasharray:none;stroke-opacity:1;filter:url(#filter1639)"
       d="m 1499.467,2812.6694 c 0.2969,-0.2018 5.4406,1.0091 11.2814,0.025 5.3705,-0.9047 11.288,-3.9721 15.5045,-4.9465 4.7712,-1.1026 5.6404,0.8701 9.7166,-0.5617 6.4878,-2.2789 11.3893,-5.7782 12.3444,-6.2047 3.2009,-1.4294 9.0052,-1.7696 11.176,-1.6419 2.9863,0.1757 7.0265,-4.7429 9.8371,-5.6212 2.8106,-0.8783 12.8234,0.1756 13.8774,-0.8783 1.054,-1.054 9.9235,-3.106 10.2748,-4.8626 0.3513,-1.7567 1.2889,-6.8983 1.2889,-6.8983"
       id="path1409"
       inkscape:connector-curvature="0"
       transform="matrix(1.7191233,0.23814549,-0.23814549,1.7191233,-1009.9119,-4268.3353)"
       sodipodi:nodetypes="cssssssccc" />
    <text
       xml:space="preserve"
       style="font-style:normal;font-variant:normal;font-weight:normal;font-stretch:normal;line-height:0%;font-family:Lavi;-inkscape-font-specification:Lavi;text-align:center;letter-spacing:0px;word-spacing:0px;text-anchor:middle;display:inline;opacity:0.69899998;fill:#202020;fill-opacity:1;stroke:#000000;stroke-width:0.74788481;stroke-miterlimit:4;stroke-dasharray:none;stroke-opacity:1;filter:url(#filter1266)"
       x="903.31201"
       y="2924.6372"
       id="text4246-8-3-7"
       transform="matrix(0.72591405,-0.42611278,0.25080245,1.1007715,-534.822,-1963.9118)"><tspan
         sodipodi:role="line"
         style="font-style:normal;font-variant:normal;font-weight:normal;font-stretch:normal;font-size:51.00867081px;line-height:1.25;font-family:Cursivah;-inkscape-font-specification:Cursivah;fill:#202020;fill-opacity:1;stroke:#000000;stroke-width:0.74788481;stroke-miterlimit:4;stroke-dasharray:none;stroke-opacity:1"
         x="903.31201"
         y="2924.6372"
         id="tspan4150-8-6-5">      Cìob</tspan></text>
    <path
       style="opacity:0.69899998;vector-effect:none;fill:none;fill-opacity:1;fill-rule:evenodd;stroke:#202020;stroke-width:0.70999998;stroke-linecap:butt;stroke-linejoin:miter;stroke-miterlimit:4;stroke-dasharray:none;stroke-dashoffset:0;stroke-opacity:1;filter:url(#filter1395)"
       d="m 1515.9791,2792.4989 c 0.8783,-6.4995 6.9548,-7.3612 3.9686,3.7056 -2.9863,11.0668 -52.5234,35.3083 -52.5234,35.3083"
       id="path910"
       inkscape:connector-curvature="0"
       sodipodi:nodetypes="ccc"
       transform="matrix(1.2920935,0,0,1.4380316,-1053.7032,-3184.9217)" />
    <text
       xml:space="preserve"
       style="font-style:normal;font-variant:normal;font-weight:normal;font-stretch:normal;line-height:0%;font-family:Lavi;-inkscape-font-specification:Lavi;text-align:center;letter-spacing:-0.03348966px;word-spacing:0px;text-anchor:middle;display:inline;opacity:0.69899998;fill:#202020;fill-opacity:1;stroke:#000000;stroke-width:0.68679875;stroke-miterlimit:4;stroke-dasharray:none;stroke-opacity:1;filter:url(#filter1266-5-1)"
       x="903.31201"
       y="2924.6372"
       id="text4246-8-3-7-2-9"
       transform="matrix(1.0729787,-0.01826911,-0.46990954,1.009191,1408.4587,-2095.5058)"><tspan
         sodipodi:role="line"
         style="font-style:normal;font-variant:normal;font-weight:normal;font-stretch:normal;font-size:38.3127861px;line-height:1.25;font-family:Fondamento;-inkscape-font-specification:Fondamento;letter-spacing:-0.03348966px;fill:#202020;fill-opacity:1;stroke:#000000;stroke-width:0.68679875;stroke-miterlimit:4;stroke-dasharray:none;stroke-opacity:1"
         x="903.29529"
         y="2924.6372"
         id="tspan4150-8-6-5-2-3"><tspan
   style="font-size:53.58345795px;letter-spacing:-6.69793224px"
   id="tspan1399">T</tspan><tspan
   style="letter-spacing:-0.66979319px"
   id="tspan1407">ì</tspan>om</tspan></text>
    <text
       xml:space="preserve"
       style="font-style:normal;font-variant:normal;font-weight:normal;font-stretch:normal;line-height:0%;font-family:Lavi;-inkscape-font-specification:Lavi;text-align:center;letter-spacing:0px;word-spacing:0px;text-anchor:middle;display:inline;opacity:0.6;fill:#000000;fill-opacity:1;stroke:none;stroke-width:1.61567485;filter:url(#filter4213-8-8)"
       x="-447.29675"
       y="2872.5061"
       id="text4246-85-9-7"
       transform="matrix(0.83014062,0.02266327,-0.02150506,0.95656928,1346.9982,-1631.7602)"><tspan
         sodipodi:role="line"
         style="font-style:normal;font-variant:normal;font-weight:normal;font-stretch:normal;font-size:49.19388962px;line-height:1.26999998;font-family:Fondamento;-inkscape-font-specification:Fondamento;stroke:#000000;stroke-width:1.8530606;stroke-opacity:1"
         x="-447.29675"
         y="2872.5061"
         id="tspan1120-6">~ Peabar ~</tspan></text>
    <text
       xml:space="preserve"
       style="font-style:normal;font-variant:normal;font-weight:normal;font-stretch:normal;line-height:0%;font-family:Lavi;-inkscape-font-specification:Lavi;text-align:center;letter-spacing:0px;word-spacing:0px;text-anchor:middle;display:inline;opacity:0.6;fill:#000000;fill-opacity:1;stroke:none;stroke-width:1.52892983;filter:url(#filter4213-8)"
       x="-447.29675"
       y="2872.5061"
       id="text4246-85-9"
       transform="matrix(0.95462818,0.03454064,-0.03693331,0.92812895,1466.702,-1662.1466)"><tspan
         sodipodi:role="line"
         style="font-style:normal;font-variant:normal;font-weight:normal;font-stretch:normal;font-size:44.2193222px;line-height:1.26999998;font-family:Fondamento;-inkscape-font-specification:Fondamento;stroke:#000000;stroke-width:1.75357032;stroke-opacity:1"
         x="-447.29675"
         y="2872.5061"
         id="tspan185">bana-bhuidseach</tspan><tspan
         sodipodi:role="line"
         style="font-style:normal;font-variant:normal;font-weight:normal;font-stretch:normal;font-size:44.2193222px;line-height:1.26999998;font-family:Fondamento;-inkscape-font-specification:Fondamento;stroke:#000000;stroke-width:1.75357032;stroke-opacity:1"
         x="-441.8989"
         y="2928.6646"
         id="tspan183">oifigeil   </tspan></text>
    <text
       xml:space="preserve"
       style="font-style:normal;font-variant:normal;font-weight:normal;font-stretch:normal;line-height:0%;font-family:Lavi;-inkscape-font-specification:Lavi;text-align:center;letter-spacing:0px;word-spacing:0px;text-anchor:middle;display:inline;opacity:0.6;fill:#000000;fill-opacity:1;stroke:none;stroke-width:1.53380978;filter:url(#filter4213-0-3)"
       x="-447.29675"
       y="2872.5061"
       id="text4246-85-3-6"
       transform="matrix(0.88284919,0.07135599,-0.15498833,0.98612236,1817.5031,-2095.3194)"><tspan
         sodipodi:role="line"
         style="font-style:normal;font-variant:normal;font-weight:normal;font-stretch:normal;font-size:49.28940201px;line-height:1.26999998;font-family:Fondamento;-inkscape-font-specification:Fondamento;stroke:#000000;stroke-width:1.75916731;stroke-opacity:1"
         x="-447.29675"
         y="2872.5061"
         id="tspan4172-7-2">~ CEUM ~</tspan></text>
  </g>
</svg>
