<?xml version="1.0" encoding="UTF-8" standalone="no"?>
<!-- Created with Inkscape (http://www.inkscape.org/) -->

<svg
   xmlns:dc="http://purl.org/dc/elements/1.1/"
   xmlns:cc="http://creativecommons.org/ns#"
   xmlns:rdf="http://www.w3.org/1999/02/22-rdf-syntax-ns#"
   xmlns:svg="http://www.w3.org/2000/svg"
   xmlns="http://www.w3.org/2000/svg"
   xmlns:xlink="http://www.w3.org/1999/xlink"
   xmlns:sodipodi="http://sodipodi.sourceforge.net/DTD/sodipodi-0.dtd"
   xmlns:inkscape="http://www.inkscape.org/namespaces/inkscape"
   id="svg2"
   version="1.1"
   inkscape:version="0.92.2 2405546, 2018-03-11"
   width="2481"
   height="3503"
   sodipodi:docname="E26P04.svg">
  <metadata
     id="metadata8">
    <rdf:RDF>
      <cc:Work
         rdf:about="">
        <dc:format>image/svg+xml</dc:format>
        <dc:type
           rdf:resource="http://purl.org/dc/dcmitype/StillImage" />
        <dc:title />
      </cc:Work>
    </rdf:RDF>
  </metadata>
  <defs
     id="defs6" />
  <sodipodi:namedview
     pagecolor="#ffffff"
     bordercolor="#666666"
     borderopacity="1"
     objecttolerance="10"
     gridtolerance="10"
     guidetolerance="10"
     inkscape:pageopacity="0"
     inkscape:pageshadow="2"
     inkscape:window-width="1920"
     inkscape:window-height="1056"
     id="namedview4"
     showgrid="false"
     inkscape:zoom="0.85547892"
     inkscape:cx="1205.358"
     inkscape:cy="1242.8022"
     inkscape:window-x="0"
     inkscape:window-y="-8"
     inkscape:window-maximized="1"
     inkscape:current-layer="layer1" />
  <g
     inkscape:groupmode="layer"
     id="layer2"
     inkscape:label="artwork"
     sodipodi:insensitive="true">
    <image
       sodipodi:absref="/home/nightlock/peppercarrot/webcomics/new-ep26_Books-Are-Great/lang/kr/../gfx_Pepper-and-Carrot_by-David-Revoy_E26P04.png"
       xlink:href="../gfx_Pepper-and-Carrot_by-David-Revoy_E26P04.png"
       y="0"
       x="0"
       id="image10"
       height="3503"
       width="2481" />
  </g>
  <g
     inkscape:groupmode="layer"
     id="layer3"
     inkscape:label="speechbubbles">
    <path
       style="color:#000000;display:inline;overflow:visible;visibility:visible;fill:#ffffff;fill-opacity:1;fill-rule:nonzero;stroke:none;stroke-width:1.79122281px;marker:none;enable-background:accumulate"
       d="m 77.580419,1523.9722 c -4.941558,-60.0044 -3.404267,-112.5781 4.822946,-162.2805 5.109397,-30.867 165.698175,-38.2252 221.135095,-32.6082 47.31351,4.7942 154.58197,17.8538 177.65412,60.923 23.07226,43.0689 26.56912,109.8972 22.23789,151.9382 -4.3311,42.0411 -9.59287,51.0112 -52.81203,86.4634 -22.08781,18.1185 -150.60815,29.079 -202.31779,31.7773 -53.31748,2.7857 -127.57775,0.5122 -153.861992,-27.6308 -26.647096,-28.5313 -11.91682,-48.5779 -16.858239,-108.5824 z"
       id="path3373"
       inkscape:connector-curvature="0"
       sodipodi:nodetypes="zsssssssz" />
    <path
       style="color:#000000;display:inline;overflow:visible;visibility:visible;fill:#ffffff;fill-opacity:1;fill-rule:nonzero;stroke:none;stroke-width:0.95470774;marker:none;enable-background:accumulate"
       d="M 369.79142,809.84364 C 305.75829,762.35821 198.20492,558.84155 249.43665,362.79562 266.81502,310.92732 307.36394,84.8784 238.16093,303.5743 c -69.203,218.6959 9.34385,417.00687 131.63049,506.26934 z"
       id="path3010"
       inkscape:connector-curvature="0"
       sodipodi:nodetypes="cczc" />
    <path
       style="color:#000000;display:inline;overflow:visible;visibility:visible;fill:#ffffff;fill-opacity:1;fill-rule:nonzero;stroke:none;stroke-width:0.85485905px;marker:none;enable-background:accumulate"
       d="m 772.57043,1017.8265 c -19.05582,-11.219 -23.56616,-26.61133 -21.66051,-33.02225 1.90557,-6.41084 19.05573,-39.26666 40.01702,-43.27347 20.96139,-4.00682 75.27029,-8.81495 87.65656,-4.80813 12.3863,4.00673 47.6395,30.45171 47.6395,44.07478 0,13.62316 -6.66956,40.06807 -25.72532,48.08167 -19.05577,8.0136 -105.06039,0.7406 -127.92725,-11.0526 z"
       id="path3349"
       inkscape:connector-curvature="0"
       sodipodi:nodetypes="ccscssc" />
    <path
       style="color:#000000;display:inline;overflow:visible;visibility:visible;fill:#ffffff;fill-opacity:1;fill-rule:nonzero;stroke:none;stroke-width:0.62015647px;marker:none;enable-background:accumulate"
       d="m 803.72501,1037.9825 c 14.66913,-19.5487 138.49336,-40.76767 182.01312,-0.4818 43.51977,40.2859 14.94867,97.3247 -10.02177,112.7065 -24.97033,15.3818 -94.89002,19.2165 -129.81217,10.3485 -46.32344,-11.7632 -59.65064,-32.8926 -61.35574,-73.2471 -0.6959,-16.4701 4.50736,-29.7772 19.17656,-49.3261 z"
       id="path4040"
       inkscape:connector-curvature="0"
       sodipodi:nodetypes="zssssz" />
    <path
       style="color:#000000;display:inline;overflow:visible;visibility:visible;fill:#ffffff;fill-opacity:1;fill-rule:nonzero;stroke:none;stroke-width:0.76094609px;marker:none;enable-background:accumulate"
       d="m 1556.6491,1175.6946 c -4.6607,-21.4169 7.7677,-78.3057 103.3121,-73.6207 95.5443,4.6849 111.08,31.456 113.4103,39.4874 2.3304,8.0314 22.5267,53.5425 -52.0444,65.5896 -74.5713,12.047 -141.3745,-0.6694 -164.678,-31.4563 z"
       id="path3525"
       inkscape:connector-curvature="0" />
    <path
       style="color:#000000;display:inline;overflow:visible;visibility:visible;fill:#ffffff;fill-opacity:1;fill-rule:nonzero;stroke:none;stroke-width:1px;marker:none;enable-background:accumulate"
       d="m 938.35118,1086.2126 c 69.98612,31.0197 98.42482,29.5718 151.73632,-4.4587 -31.1182,24.6589 -43.6342,55.9553 -145.08715,33.1222 -40.4073,-9.0941 -6.64917,-28.6635 -6.64917,-28.6635 z"
       id="path4480"
       inkscape:connector-curvature="0"
       sodipodi:nodetypes="ccsc" />
    <path
       style="color:#000000;display:inline;overflow:visible;visibility:visible;fill:#ffffff;fill-opacity:1;fill-rule:nonzero;stroke:none;stroke-width:1px;marker:none;enable-background:accumulate"
       d="m 1496.1025,1128.3709 c 34.6297,22.4436 48.151,28.3727 87.526,0.3521 39.375,-28.0207 48.7701,-12.382 48.7701,-12.382 l -12.8989,31.2148 c 0,0 -87.8568,53.5997 -123.3972,-19.1849 z"
       id="path3072"
       inkscape:connector-curvature="0" />
    <path
       style="color:#000000;display:inline;overflow:visible;visibility:visible;fill:#ffffff;fill-opacity:1;fill-rule:nonzero;stroke:none;stroke-width:0.68418747px;marker:none;enable-background:accumulate"
       d="m 1937.6319,183.12255 c -0.6239,-19.20925 4.9759,-26.39203 31.1752,-38.93681 26.1994,-12.54478 51.0529,-6.41212 74.7423,-3.85385 27.2381,2.94151 56.2693,7.50842 65.6262,21.62136 9.3569,14.11286 16.8425,19.60121 13.7234,32.93007 -3.1189,13.32878 -6.2379,27.44172 -17.4662,32.14599 -11.2283,4.70434 -91.0742,10.97669 -104.1737,7.84051 -13.0999,-3.13617 -34.3089,-3.92026 -45.5371,-13.32886 -11.3833,-9.53839 -17.4664,-19.20917 -18.0901,-38.41841 z"
       id="path3373-0"
       inkscape:connector-curvature="0"
       sodipodi:nodetypes="zsssssssz" />
    <path
       style="color:#000000;display:inline;overflow:visible;visibility:visible;fill:#ffffff;fill-opacity:1;fill-rule:nonzero;stroke:none;stroke-width:0.9851408px;marker:none;enable-background:accumulate"
       d="m 1893.5238,275.99898 c 2.3519,-45.42743 32.1411,-55.43685 63.4984,-57.74673 31.3572,-2.30988 43.9001,4.61975 52.5234,6.1596 8.6232,1.53995 89.3681,-4.61974 100.3431,-3.07979 10.9751,1.53994 62.7145,22.32874 60.3626,58.51664 -2.3517,36.18791 -37.6286,51.58702 -73.6895,53.89689 -36.0608,2.30988 -109.7502,0 -127.7806,4.61975 -18.0304,4.61975 -69.7699,-3.0798 -75.2574,-62.36645 z"
       id="path5034"
       inkscape:connector-curvature="0" />
    <path
       style="color:#000000;display:inline;overflow:visible;visibility:visible;fill:#ffffff;fill-opacity:1;fill-rule:nonzero;stroke:none;stroke-width:1px;marker:none;enable-background:accumulate"
       d="m 2014.1421,464.34286 c -57.0243,-41.23372 -60.4397,-86.77108 -49.5441,-144.9504 10.8956,-58.17932 39.6811,-24.31559 39.6811,-24.31559 0,0 -65.1914,100.00192 9.863,169.26599 z"
       id="path5002"
       inkscape:connector-curvature="0"
       sodipodi:nodetypes="cscc" />
    <path
       style="color:#000000;display:inline;overflow:visible;visibility:visible;fill:#ffffff;fill-opacity:1;fill-rule:nonzero;stroke:none;stroke-width:0.77728993px;marker:none;enable-background:accumulate"
       d="m 1700.4279,2232.4771 c 1.9548,12.6252 -20.2332,66.0408 -111.3756,61.8839 -91.1424,-4.157 -112.9427,-36.8339 -112.8192,-53.7968 0.1234,-16.963 21.4964,-44.2602 34.7426,-49.1276 13.2461,-4.8673 52.126,-15.6749 87.6192,-10.6767 39.5028,5.5627 74.284,12.3263 88.2445,26.9259 13.9604,14.5994 11.9752,21.4764 13.5885,24.7913 z"
       id="path3365"
       inkscape:connector-curvature="0"
       sodipodi:nodetypes="ccccscc" />
    <path
       style="color:#000000;display:inline;overflow:visible;visibility:visible;fill:#ffffff;fill-opacity:1;fill-rule:nonzero;stroke:none;stroke-width:1.50715446px;marker:none;enable-background:accumulate"
       d="m 1467.4131,2309.4063 c 35.4382,-65.1491 229.7192,-65.3935 289.4258,-36.497 59.7063,28.8961 68.3393,64.2591 70.6337,81.6125 2.2943,17.3533 -7.1694,118.76 -38.6291,134.2363 -31.4597,15.4759 -120.4264,22.5595 -151.4111,22.2827 -30.9849,-0.2768 -129.593,-11.1873 -153.927,-34.4652 -23.2781,-22.2681 -51.5305,-102.0204 -16.0923,-167.1693 z"
       id="path3330"
       inkscape:connector-curvature="0"
       sodipodi:nodetypes="zsssssz" />
    <path
       style="color:#000000;display:inline;overflow:visible;visibility:visible;fill:#ffffff;fill-opacity:1;fill-rule:nonzero;stroke:none;stroke-width:1.07720649px;marker:none;enable-background:accumulate"
       d="m 1664.135,2448.2545 c -69.9893,51.1328 8.9085,162.5856 132.4832,191.8362 -158.9941,-19.5502 -214.8639,-129.8242 -184.2863,-182.6082 -12.1609,-26.4834 51.8031,-9.228 51.8031,-9.228 z"
       id="path4008"
       inkscape:connector-curvature="0"
       sodipodi:nodetypes="cccc" />
    <path
       style="color:#000000;display:inline;overflow:visible;visibility:visible;fill:#ffffff;fill-opacity:1;fill-rule:nonzero;stroke:none;stroke-width:0.81832737px;marker:none;enable-background:accumulate"
       d="M 88.709705,67.951893 C 113.3529,46.937319 331.93852,57.88319 384.34412,115.06115 c 52.40546,57.17793 -1.17428,134.80537 -39.35309,148.81496 -38.1787,14.00963 -182.61631,22.66601 -229.61089,5.31312 C 53.0429,246.171 39.318018,209.32934 45.433649,159.93263 47.929677,139.77208 64.066352,88.966707 88.709705,67.951893 Z"
       id="path4040-0"
       inkscape:connector-curvature="0"
       sodipodi:nodetypes="zssssz" />
    <path
       style="color:#000000;display:inline;overflow:visible;visibility:visible;fill:#ffffff;fill-opacity:1;fill-rule:nonzero;stroke:none;stroke-width:1.19902074px;marker:none;enable-background:accumulate"
       d="m 439.87684,453.71045 c 4.06309,18.72104 -27.2505,99.64548 -172.70425,98.58617 -145.45375,-1.05948 -182.62914,-48.56958 -183.709075,-73.87784 -1.0801,-25.30839 30.901265,-67.22953 51.629025,-75.23673 20.72762,-8.00706 81.82907,-26.32037 138.72683,-20.86725 63.32539,6.06894 119.22219,14.19543 142.55253,35.18425 23.33015,20.98853 20.68633,31.358 23.50494,36.2114 z"
       id="path3365-6"
       inkscape:connector-curvature="0"
       sodipodi:nodetypes="ccccscc" />
    <path
       style="color:#000000;display:inline;overflow:visible;visibility:visible;fill:#ffffff;fill-opacity:1;fill-rule:nonzero;stroke:none;stroke-width:1.17923069px;marker:none;enable-background:accumulate"
       d="m 421.00062,1204.9587 c -82.04637,41.839 -98.69807,91.9551 -101.02486,156.986 -2.32681,65.0308 42.64616,29.4851 42.64616,29.4851 0,0 -53.69551,-114.8291 58.3787,-186.4711 z"
       id="path5002-1"
       inkscape:connector-curvature="0"
       sodipodi:nodetypes="cscc" />
  </g>
  <g
     inkscape:groupmode="layer"
     id="layer1"
     inkscape:label="txt">
    <text
       id="text888"
       y="1427.2426"
       x="129.588"
       style="font-style:normal;font-variant:normal;font-weight:normal;font-stretch:normal;font-size:14.60991859px;line-height:100%;font-family:'Nanum Pen Script OTF';-inkscape-font-specification:'Nanum Pen Script OTF';text-align:center;letter-spacing:0px;word-spacing:0px;text-anchor:middle;fill:#000000;fill-opacity:1;stroke:none;stroke-width:1.21749318"
       xml:space="preserve"><tspan
         y="1427.2426"
         x="129.588"
         style="font-style:normal;font-variant:normal;font-weight:normal;font-stretch:normal;font-size:54.7871933px;line-height:100%;font-family:'Nanum Pen Script OTF';-inkscape-font-specification:'Nanum Pen Script OTF';text-align:start;text-anchor:start;stroke-width:1.21749318"
         sodipodi:role="line"
         id="tspan1001">“그대는  지름길을</tspan><tspan
         y="1482.0298"
         x="129.588"
         style="font-style:normal;font-variant:normal;font-weight:normal;font-stretch:normal;font-size:54.7871933px;line-height:100%;font-family:'Nanum Pen Script OTF';-inkscape-font-specification:'Nanum Pen Script OTF';text-align:start;text-anchor:start;stroke-width:1.21749318"
         sodipodi:role="line"
         id="tspan1007">택했기 때문에, 곧</tspan><tspan
         y="1536.8169"
         x="129.588"
         style="font-style:normal;font-variant:normal;font-weight:normal;font-stretch:normal;font-size:54.7871933px;line-height:100%;font-family:'Nanum Pen Script OTF';-inkscape-font-specification:'Nanum Pen Script OTF';text-align:start;text-anchor:start;stroke-width:1.21749318"
         sodipodi:role="line"
         id="tspan999">수호자의 방으로</tspan><tspan
         y="1591.6041"
         x="129.588"
         style="font-style:normal;font-variant:normal;font-weight:normal;font-stretch:normal;font-size:54.7871933px;line-height:100%;font-family:'Nanum Pen Script OTF';-inkscape-font-specification:'Nanum Pen Script OTF';text-align:start;text-anchor:start;stroke-width:1.21749318"
         sodipodi:role="line"
         id="tspan997">들에가게 될 것이다.”</tspan></text>
    <text
       id="text893"
       y="999.60919"
       x="841.97632"
       style="font-style:normal;font-variant:normal;font-weight:normal;font-stretch:normal;font-size:16.7400589px;line-height:100%;font-family:'Nanum Pen Script OTF';-inkscape-font-specification:'Nanum Pen Script OTF';text-align:center;letter-spacing:0px;word-spacing:0px;text-anchor:middle;fill:#000000;fill-opacity:1;stroke:none;stroke-width:1.39500487"
       xml:space="preserve"><tspan
         id="tspan891"
         y="999.60919"
         x="841.97632"
         style="font-style:normal;font-variant:normal;font-weight:normal;font-stretch:normal;font-size:62.77522278px;line-height:100%;font-family:'Nanum Pen Script OTF';-inkscape-font-specification:'Nanum Pen Script OTF';stroke-width:1.39500487"
         sodipodi:role="line">흐음...</tspan></text>
    <text
       id="text903"
       y="1030.0536"
       x="898.30872"
       style="font-style:normal;font-variant:normal;font-weight:normal;font-stretch:normal;font-size:14.02040386px;line-height:100%;font-family:'Nanum Pen Script OTF';-inkscape-font-specification:'Nanum Pen Script OTF';text-align:center;letter-spacing:0px;word-spacing:0px;text-anchor:middle;fill:#000000;fill-opacity:1;stroke:none;stroke-width:1.16836703"
       xml:space="preserve"><tspan
         id="tspan899"
         y="1040.2502"
         x="898.30872"
         style="font-style:normal;font-variant:normal;font-weight:normal;font-stretch:normal;font-size:52.5765152px;line-height:100%;font-family:'Nanum Pen Script OTF';-inkscape-font-specification:'Nanum Pen Script OTF';stroke-width:1.16836703"
         sodipodi:role="line"></tspan><tspan
         y="1082.3114"
         x="898.30872"
         style="font-style:normal;font-variant:normal;font-weight:normal;font-stretch:normal;font-size:52.5765152px;line-height:100%;font-family:'Nanum Pen Script OTF';-inkscape-font-specification:'Nanum Pen Script OTF';stroke-width:1.16836703"
         sodipodi:role="line"
         id="tspan1013">큰</tspan><tspan
         y="1134.8879"
         x="898.30872"
         style="font-style:normal;font-variant:normal;font-weight:normal;font-stretch:normal;font-size:52.5765152px;line-height:100%;font-family:'Nanum Pen Script OTF';-inkscape-font-specification:'Nanum Pen Script OTF';stroke-width:1.16836703"
         sodipodi:role="line"
         id="tspan1015">두목이라?!?</tspan><tspan
         id="tspan901"
         y="1159.4237"
         x="898.30872"
         style="font-style:normal;font-variant:normal;font-weight:normal;font-stretch:normal;font-size:52.5765152px;line-height:100%;font-family:'Nanum Pen Script OTF';-inkscape-font-specification:'Nanum Pen Script OTF';stroke-width:1.16836703"
         sodipodi:role="line" /></text>
    <text
       id="text913"
       y="1115.3649"
       x="1665.4244"
       style="font-style:normal;font-variant:normal;font-weight:normal;font-stretch:normal;font-size:15.2367487px;line-height:100%;font-family:'Nanum Pen Script OTF';-inkscape-font-specification:'Nanum Pen Script OTF';text-align:center;letter-spacing:0px;word-spacing:0px;text-anchor:middle;fill:#000000;fill-opacity:1;stroke:none;stroke-width:1.26972902"
       xml:space="preserve"><tspan
         y="1126.4462"
         x="1665.4244"
         style="font-style:normal;font-variant:normal;font-weight:normal;font-stretch:normal;font-size:57.13780594px;line-height:100%;font-family:'Nanum Pen Script OTF';-inkscape-font-specification:'Nanum Pen Script OTF';stroke-width:1.26972902"
         sodipodi:role="line"
         id="tspan1021"></tspan><tspan
         y="1172.1564"
         x="1665.4244"
         style="font-style:normal;font-variant:normal;font-weight:normal;font-stretch:normal;font-size:57.13780594px;line-height:100%;font-family:'Nanum Pen Script OTF';-inkscape-font-specification:'Nanum Pen Script OTF';stroke-width:1.26972902"
         sodipodi:role="line"
         id="tspan1025">어딨지?</tspan><tspan
         id="tspan911"
         y="1198.8207"
         x="1665.4244"
         style="font-style:normal;font-variant:normal;font-weight:normal;font-stretch:normal;font-size:57.13780594px;line-height:100%;font-family:'Nanum Pen Script OTF';-inkscape-font-specification:'Nanum Pen Script OTF';stroke-width:1.26972902"
         sodipodi:role="line" /></text>
    <text
       id="text922"
       y="147.63937"
       x="2031.0363"
       style="font-style:normal;font-variant:normal;font-weight:normal;font-stretch:normal;font-size:14.81438351px;line-height:100%;font-family:'Nanum Pen Script OTF';-inkscape-font-specification:'Nanum Pen Script OTF';text-align:center;letter-spacing:0px;word-spacing:0px;text-anchor:middle;fill:#000000;fill-opacity:1;stroke:none;stroke-width:1.234532"
       xml:space="preserve"><tspan
         id="tspan918"
         y="158.41347"
         x="2031.0363"
         style="font-style:normal;font-variant:normal;font-weight:normal;font-stretch:normal;font-size:55.55393982px;line-height:100%;font-family:'Nanum Pen Script OTF';-inkscape-font-specification:'Nanum Pen Script OTF';stroke-width:1.234532"
         sodipodi:role="line"></tspan><tspan
         y="202.85663"
         x="2031.0363"
         style="font-style:normal;font-variant:normal;font-weight:normal;font-stretch:normal;font-size:55.55393982px;line-height:100%;font-family:'Nanum Pen Script OTF';-inkscape-font-specification:'Nanum Pen Script OTF';stroke-width:1.234532"
         sodipodi:role="line"
         id="tspan1029">아하...</tspan><tspan
         id="tspan920"
         y="228.7818"
         x="2031.0363"
         style="font-style:normal;font-variant:normal;font-weight:normal;font-stretch:normal;font-size:55.55393982px;line-height:100%;font-family:'Nanum Pen Script OTF';-inkscape-font-specification:'Nanum Pen Script OTF';stroke-width:1.234532"
         sodipodi:role="line" /></text>
    <text
       id="text930"
       y="235.8877"
       x="2030.5756"
       style="font-style:normal;font-variant:normal;font-weight:normal;font-stretch:normal;font-size:16.0201664px;line-height:100%;font-family:'Nanum Pen Script OTF';-inkscape-font-specification:'Nanum Pen Script OTF';text-align:center;letter-spacing:0px;word-spacing:0px;text-anchor:middle;fill:#000000;fill-opacity:1;stroke:#000000;stroke-width:1.33501375;stroke-opacity:1"
       xml:space="preserve"><tspan
         id="tspan926"
         y="247.53873"
         x="2030.5756"
         style="font-style:normal;font-variant:normal;font-weight:normal;font-stretch:normal;font-size:71.200737px;line-height:100%;font-family:'Nanum Pen Script OTF';-inkscape-font-specification:'Nanum Pen Script OTF';stroke:#000000;stroke-width:1.33501375;stroke-opacity:1"
         sodipodi:role="line"></tspan><tspan
         y="303.69022"
         x="2030.5756"
         style="font-style:normal;font-variant:normal;font-weight:normal;font-stretch:normal;font-size:71.200737px;line-height:100%;font-family:'Nanum Pen Script OTF';-inkscape-font-specification:'Nanum Pen Script OTF';stroke:#000000;stroke-width:1.33501375;stroke-opacity:1"
         sodipodi:role="line"
         id="tspan1033">찾았다!</tspan><tspan
         id="tspan928"
         y="334.75964"
         x="2030.5756"
         style="font-style:normal;font-variant:normal;font-weight:normal;font-stretch:normal;font-size:71.200737px;line-height:100%;font-family:'Nanum Pen Script OTF';-inkscape-font-specification:'Nanum Pen Script OTF';stroke:#000000;stroke-width:1.33501375;stroke-opacity:1"
         sodipodi:role="line" /></text>
    <text
       id="text936"
       y="2199.7849"
       x="2133.0005"
       style="font-style:normal;font-variant:normal;font-weight:normal;font-stretch:normal;font-size:15.60776901px;line-height:100%;font-family:'Nanum Pen Script OTF';-inkscape-font-specification:'Nanum Pen Script OTF';text-align:center;letter-spacing:0px;word-spacing:0px;text-anchor:middle;fill:#000000;fill-opacity:1;stroke:none;stroke-width:1.30064738"
       xml:space="preserve"
       transform="skewX(-13.682148)"><tspan
         id="tspan934"
         y="2211.136"
         x="2133.0005"
         style="font-style:normal;font-variant:normal;font-weight:normal;font-stretch:normal;font-size:58.52913284px;line-height:100%;font-family:'Nanum Pen Script OTF';-inkscape-font-specification:'Nanum Pen Script OTF';stroke-width:1.30064738"
         sodipodi:role="line"></tspan><tspan
         y="2257.9592"
         x="2133.0005"
         style="font-style:normal;font-variant:normal;font-weight:normal;font-stretch:normal;font-size:58.52913284px;line-height:100%;font-family:'Nanum Pen Script OTF';-inkscape-font-specification:'Nanum Pen Script OTF';stroke-width:1.30064738"
         sodipodi:role="line"
         id="tspan1055">히히...!</tspan></text>
    <text
       id="text949"
       y="2294.1011"
       x="1640.2789"
       style="font-style:normal;font-variant:normal;font-weight:normal;font-stretch:normal;font-size:15.55196857px;line-height:100%;font-family:'Nanum Pen Script OTF';-inkscape-font-specification:'Nanum Pen Script OTF';text-align:center;letter-spacing:0px;word-spacing:0px;text-anchor:middle;fill:#000000;fill-opacity:1;stroke:none;stroke-width:1.29599738"
       xml:space="preserve"><tspan
         id="tspan945"
         y="2305.4116"
         x="1640.2789"
         style="font-style:normal;font-variant:normal;font-weight:normal;font-stretch:normal;font-size:58.31988525px;line-height:100%;font-family:'Nanum Pen Script OTF';-inkscape-font-specification:'Nanum Pen Script OTF';stroke-width:1.29599738"
         sodipodi:role="line"></tspan><tspan
         y="2352.0674"
         x="1640.2789"
         style="font-style:normal;font-variant:normal;font-weight:normal;font-stretch:normal;font-size:58.31988525px;line-height:100%;font-family:'Nanum Pen Script OTF';-inkscape-font-specification:'Nanum Pen Script OTF';stroke-width:1.29599738"
         sodipodi:role="line"
         id="tspan1063">약점을 아니까</tspan><tspan
         y="2410.3875"
         x="1640.2789"
         style="font-style:normal;font-variant:normal;font-weight:normal;font-stretch:normal;font-size:58.31988525px;line-height:100%;font-family:'Nanum Pen Script OTF';-inkscape-font-specification:'Nanum Pen Script OTF';stroke-width:1.29599738"
         sodipodi:role="line"
         id="tspan1065">그냥</tspan><tspan
         y="2468.7073"
         x="1640.2789"
         style="font-style:normal;font-variant:normal;font-weight:normal;font-stretch:normal;font-size:58.31988525px;line-height:100%;font-family:'Nanum Pen Script OTF';-inkscape-font-specification:'Nanum Pen Script OTF';stroke-width:1.29599738"
         sodipodi:role="line"
         id="tspan1067">식은 죽 먹기네!</tspan><tspan
         id="tspan947"
         y="2495.9233"
         x="1640.2789"
         style="font-style:normal;font-variant:normal;font-weight:normal;font-stretch:normal;font-size:58.31988525px;line-height:100%;font-family:'Nanum Pen Script OTF';-inkscape-font-specification:'Nanum Pen Script OTF';stroke-width:1.29599738"
         sodipodi:role="line" /></text>
    <text
       id="text957"
       y="165.53683"
       x="121.99435"
       style="font-style:normal;font-variant:normal;font-weight:normal;font-stretch:normal;font-size:15.30473995px;line-height:100%;font-family:'Nanum Pen Script OTF';-inkscape-font-specification:'Nanum Pen Script OTF';text-align:center;letter-spacing:0px;word-spacing:0px;text-anchor:middle;fill:#000000;fill-opacity:1;stroke:none;stroke-width:1.27539504"
       xml:space="preserve"><tspan
         id="tspan955"
         y="165.53683"
         x="121.99435"
         style="font-style:normal;font-variant:normal;font-weight:normal;font-stretch:normal;font-size:57.39277649px;line-height:100%;font-family:'Nanum Pen Script OTF';-inkscape-font-specification:'Nanum Pen Script OTF';text-align:start;text-anchor:start;stroke-width:1.27539504"
         sodipodi:role="line">“가는 동안</tspan><tspan
         y="222.92961"
         x="121.99435"
         style="font-style:normal;font-variant:normal;font-weight:normal;font-stretch:normal;font-size:57.39277649px;line-height:100%;font-family:'Nanum Pen Script OTF';-inkscape-font-specification:'Nanum Pen Script OTF';text-align:start;text-anchor:start;stroke-width:1.27539504"
         sodipodi:role="line"
         id="tspan979">깃털을 줍는다.”</tspan></text>
    <text
       id="text965"
       y="455.08905"
       x="260.95001"
       style="font-style:normal;font-variant:normal;font-weight:normal;font-stretch:normal;font-size:13.71250916px;line-height:100%;font-family:'Nanum Pen Script OTF';-inkscape-font-specification:'Nanum Pen Script OTF';text-align:center;letter-spacing:0px;word-spacing:0px;text-anchor:middle;fill:#000000;fill-opacity:1;stroke:none;stroke-width:1.14270902"
       xml:space="preserve"><tspan
         id="tspan963"
         y="455.08905"
         x="260.95001"
         style="font-style:normal;font-variant:normal;font-weight:normal;font-stretch:normal;font-size:51.42190933px;line-height:100%;font-family:'Nanum Pen Script OTF';-inkscape-font-specification:'Nanum Pen Script OTF';stroke-width:1.14270902"
         sodipodi:role="line">깃털을 못 보려야</tspan><tspan
         y="506.51096"
         x="260.95001"
         style="font-style:normal;font-variant:normal;font-weight:normal;font-stretch:normal;font-size:51.42190933px;line-height:100%;font-family:'Nanum Pen Script OTF';-inkscape-font-specification:'Nanum Pen Script OTF';stroke-width:1.14270902"
         sodipodi:role="line"
         id="tspan985">못 볼 수가 없네!</tspan></text>
    <text
       inkscape:transform-center-y="22.072087"
       inkscape:transform-center-x="-58.765694"
       transform="matrix(0.92765739,-0.47988915,0.05861326,1.0476628,0,0)"
       id="text973"
       y="2128.4307"
       x="969.07788"
       style="font-style:normal;font-variant:normal;font-weight:normal;font-stretch:normal;font-size:11.40956306px;line-height:100%;font-family:'Nanum Pen Script OTF';-inkscape-font-specification:'Nanum Pen Script OTF';text-align:center;letter-spacing:0px;word-spacing:0px;text-anchor:middle;fill:#000000;fill-opacity:1;stroke:none;stroke-width:0.95079708"
       xml:space="preserve"><tspan
         id="tspan971"
         y="2128.4307"
         x="969.07788"
         style="font-style:normal;font-variant:normal;font-weight:normal;font-stretch:normal;font-size:42.7858696px;line-height:100%;font-family:'Nanum Pen Script OTF';-inkscape-font-specification:'Nanum Pen Script OTF';text-align:start;text-anchor:start;fill:#ffffff;fill-opacity:1;stroke-width:0.95079708"
         sodipodi:role="line">간질</tspan></text>
    <text
       inkscape:transform-center-y="22.072087"
       inkscape:transform-center-x="-58.765694"
       transform="matrix(0.92765739,-0.47988915,0.05861326,1.0476628,0,0)"
       id="text973-9"
       y="2167.6572"
       x="949.35651"
       style="font-style:normal;font-variant:normal;font-weight:normal;font-stretch:normal;font-size:11.40956306px;line-height:100%;font-family:'Nanum Pen Script OTF';-inkscape-font-specification:'Nanum Pen Script OTF';text-align:center;letter-spacing:0px;word-spacing:0px;text-anchor:middle;fill:#000000;fill-opacity:1;stroke:none;stroke-width:0.95079708"
       xml:space="preserve"><tspan
         id="tspan971-1"
         y="2167.6572"
         x="949.35651"
         style="font-style:normal;font-variant:normal;font-weight:normal;font-stretch:normal;font-size:42.7858696px;line-height:100%;font-family:'Nanum Pen Script OTF';-inkscape-font-specification:'Nanum Pen Script OTF';text-align:start;text-anchor:start;fill:#ffffff;fill-opacity:1;stroke-width:0.95079708"
         sodipodi:role="line">간질</tspan></text>
  </g>
</svg>
