<?xml version="1.0" encoding="UTF-8" standalone="no"?>
<!-- Created with Inkscape (http://www.inkscape.org/) -->

<svg
   xmlns:dc="http://purl.org/dc/elements/1.1/"
   xmlns:cc="http://creativecommons.org/ns#"
   xmlns:rdf="http://www.w3.org/1999/02/22-rdf-syntax-ns#"
   xmlns:svg="http://www.w3.org/2000/svg"
   xmlns="http://www.w3.org/2000/svg"
   xmlns:xlink="http://www.w3.org/1999/xlink"
   xmlns:sodipodi="http://sodipodi.sourceforge.net/DTD/sodipodi-0.dtd"
   xmlns:inkscape="http://www.inkscape.org/namespaces/inkscape"
   id="svg2"
   version="1.1"
   inkscape:version="0.92.3 (2405546, 2018-03-11)"
   width="2481"
   height="3503"
   sodipodi:docname="E11P02.svg">
  <sodipodi:namedview
     pagecolor="#ffffff"
     bordercolor="#666666"
     inkscape:pageopacity="0"
     inkscape:pageshadow="2"
     inkscape:window-width="1813"
     inkscape:window-height="955"
     id="namedview70"
     showgrid="false"
     inkscape:zoom="0.56568542"
     inkscape:cx="1403.0411"
     inkscape:cy="725.37957"
     inkscape:current-layer="layer1"
     inkscape:snap-nodes="false"
     inkscape:window-x="64"
     inkscape:window-y="0"
     inkscape:window-maximized="0" />
  <metadata
     id="metadata8">
    <rdf:RDF>
      <cc:Work
         rdf:about="">
        <dc:format>image/svg+xml</dc:format>
        <dc:type
           rdf:resource="http://purl.org/dc/dcmitype/StillImage" />
        <dc:title />
      </cc:Work>
    </rdf:RDF>
  </metadata>
  <defs
     id="defs6">
    <filter
       style="color-interpolation-filters:sRGB"
       id="filter4375-4-1-1-1"
       inkscape:label="deevad outline effect">
      <feFlood
         id="feFlood4377-7-9-0-8"
         flood-opacity="1"
         flood-color="rgb(55,104,53)"
         result="flood" />
      <feComposite
         id="feComposite4379-3-8-8-2"
         in2="SourceGraphic"
         in="flood"
         operator="in"
         result="composite1" />
      <feMorphology
         id="feMorphology4393-1-0-49-8"
         operator="dilate"
         radius="4"
         result="result3" />
      <feComposite
         id="feComposite4385-9-5-7-0"
         in2="result3"
         in="SourceGraphic"
         operator="over"
         result="composite2" />
    </filter>
  </defs>
  <sodipodi:namedview
     pagecolor="#ffffff"
     bordercolor="#666666"
     borderopacity="1"
     objecttolerance="10"
     gridtolerance="10"
     guidetolerance="10"
     inkscape:pageopacity="0"
     inkscape:pageshadow="2"
     inkscape:window-width="1920"
     inkscape:window-height="1025"
     id="namedview4"
     showgrid="false"
     inkscape:zoom="0.40000002"
     inkscape:cx="868.936"
     inkscape:cy="1108.9305"
     inkscape:window-x="0"
     inkscape:window-y="26"
     inkscape:window-maximized="1"
     inkscape:current-layer="layer1" />
  <g
     inkscape:groupmode="layer"
     id="layer2"
     inkscape:label="artwork"
     sodipodi:insensitive="true">
    <image
       sodipodi:absref="/home/fici/Desktop/P&amp;C/all/sl/../gfx_Pepper-and-Carrot_by-David-Revoy_E11P02.png"
       xlink:href="../gfx_Pepper-and-Carrot_by-David-Revoy_E11P02.png"
       width="2481"
       height="3503"
       id="image10"
       x="0"
       y="0" />
  </g>
  <g
     inkscape:groupmode="layer"
     id="layer3"
     inkscape:label="speechbubbles">
    <path
       style="fill:#ffffff;fill-opacity:1;stroke:none;stroke-width:0.95498866"
       d="m 129.49154,237.58868 c -7.02366,-95.74154 32.04391,-97.13594 73.45349,-110.19371 43.20741,-13.62468 359.61887,-38.160035 416.66702,26.70383 31.32216,35.61337 29.93483,171.70322 -54.02829,211.62697 -55.18738,26.24112 -268.96629,46.21997 -354.69887,3.05304 -27.81608,-14.00559 -70.69279,-55.85302 -81.39335,-131.19013 z"
       id="path3659"
       inkscape:connector-curvature="0"
       sodipodi:nodetypes="cssssc" />
    <path
       style="fill:#ffffff;fill-opacity:1;stroke:none;stroke-width:1.02919829"
       d="m 878.28382,464.16801 c 7.82264,77.68893 -26.82134,108.21817 -73.6563,118.77522 -48.86833,11.01539 -418.55278,35.82866 -482.97267,-16.85239 -35.3696,-28.92441 -81.27561,-153.1944 13.70479,-185.51113 62.42881,-21.24116 349.14248,-25.8471 474.88255,-3.88537 34.14952,5.96455 56.03655,26.3371 68.04163,87.47367 z"
       id="path3659-3"
       inkscape:connector-curvature="0"
       sodipodi:nodetypes="cssssc" />
    <path
       style="color:#000000;display:inline;overflow:visible;visibility:visible;fill:#ffffff;fill-opacity:1;fill-rule:nonzero;stroke:none;stroke-width:1px;marker:none;enable-background:accumulate"
       d="m 725.76198,560.62095 c 15.2137,41.75381 60.90819,86.34357 149.80787,69.67515 -89.85178,-4.43964 -113.17241,-40.85544 -119.9781,-76.16592 -6.8056,-35.31052 -14.65449,-50.62321 -14.65449,-50.62321 z"
       id="path4440"
       inkscape:connector-curvature="0"
       sodipodi:nodetypes="ccscc" />
    <path
       style="fill:#ffffff;fill-opacity:1;stroke:none;stroke-width:0.93415558"
       d="m 1647.8421,831.69721 c 31.3272,8.22512 43.5098,16.39264 38.0715,21.82448 12.8215,2.22864 19.4302,70.41769 7.8096,83.27741 -0.7618,1.33944 -1.2991,2.0226 -3.8268,6.03894 6.1405,-1.14648 16.701,-1.83877 19.1622,0.71454 2.461,2.55363 -20.4463,40.75809 -17.2234,41.9724 3.223,1.21419 75.8753,-26.05423 86.3936,-20.46499 10.5185,5.58913 8.1645,17.24113 8.5493,21.43472 3.9103,-1.26098 33.1161,-4.9159 36.5896,-3.7778 3.826,2.14836 14.8747,16.78836 15.7041,20.55269 2.592,-2.4979 23.4967,-8.23173 25.2919,-8.68466 2.1475,1.97133 5.5762,13.60076 6.0527,17.56696 3.2971,-3.7101 21.1489,-14.47363 23.5574,-13.89163 2.4082,0.5822 14.345,30.94073 16.0906,35.00903 1.9221,-3.6079 28.5212,-37.06506 30.8944,-37.7972 2.3733,-0.73211 20.6665,37.6693 21.9329,44.6907 2.6767,-6.513 18.3012,-31.4836 20.7097,-30.9014 2.4085,0.5821 18.5712,16.6884 21.2651,19.7207 0.4025,-6.2602 22.8198,-41.48997 26.0075,-41.5899 3.1879,-0.0999 30.7585,16.7925 33.2374,20.003 -0.6947,-7.0921 4.3247,-17.2346 7.5126,-17.33454 3.1879,-0.0999 37.167,8.55861 40.9432,9.89671 -2.0411,-2.7023 -5.93,-12.96725 -3.5392,-13.0422 2.3909,-0.0749 34.6458,7.30007 41.7931,11.843 -2.5486,-9.19383 75.0295,8.82913 87.2366,11.07623 -7.3603,-8.4599 -37.3033,-52.75854 -33.424,-56.82605 3.8794,-4.06763 14.6457,-2.13974 19.0919,-1.91383 -5.5116,-6.36825 -9.0474,-10.23888 -6.7272,-12.94229 2.3209,-2.70333 17.375,-16.64318 31.4392,-17.42682 -9.7347,-7.65208 -9.1354,-13.52461 -9.1354,-13.52461 0,0 41.5364,-15.6262 50.5309,-19.34074 -7.0735,-3.17584 -24.4181,-18.30637 -21.3532,-23.00608 3.0648,-4.69971 3.8908,-6.45595 10.8938,-10.20638 -5.1156,-1.64446 -16.1323,-6.72859 -15.4232,-10.03911 0.7092,-3.31054 2.2459,-18.77586 10.5601,-22.69127 -7.0226,1.33684 -16.7712,-0.78959 -16.8414,-3.41807 -0.071,-2.62836 14.5203,-50.96713 26.502,-63.15581 -24.3716,13.25944 -41.6023,-14.17622 -67.9017,-13.3518 -26.2997,0.82444 -15.9713,-0.7071 -19.9561,-0.58218 -3.9848,0.1249 -33.4669,1.24712 -37.4516,1.37202 -3.9848,0.1249 -5.5892,-0.22078 -8.7772,-0.12085 -3.1876,0.0999 -21.5033,1.20869 -25.4881,1.3336 -3.9846,0.12491 -41.4658,0.38911 -47.0447,0.56399 -5.5785,0.17487 -27.0867,1.2055 -31.8686,1.35541 -4.7816,0.14989 -8.778,-0.16042 -12.7628,-0.0355 -3.9847,0.12491 -29.4777,1.28047 -33.4623,1.40536 -3.9848,0.12492 -10.3954,-1.00192 -13.5833,-0.90198 -3.1877,0.0999 -14.3092,1.81596 -14.3092,1.81596 0,0 -10.3635,0.20608 -15.1453,0.35597 -4.7816,0.14991 -37.4381,1.8666 -41.4229,1.99152 -3.9848,0.12492 -39.305,1.65055 -36.9142,1.5756 2.391,-0.0749 -34.8096,0.75201 -40.3882,0.92689 -5.5786,0.1749 -15.923,1.14387 -17.5169,1.19384 -1.594,0.05 -12.7583,0.0918 -17.5401,0.24171 -4.7816,0.14992 -15.9364,0.59858 -15.9364,0.59858 l 1.5971,0.0687 c 0,0 -33.4836,0.61408 -37.4685,0.73899 -3.9847,0.1249 2.409,0.59764 4.7997,0.52272 -14.3451,0.44966 -56.5995,1.1803 -59.7871,1.28022 -3.188,0.0999 5.5916,0.3197 10.3734,0.1698 -6.3755,0.19986 -11.9566,0.29569 -11.9566,0.29569 l 18.343,-0.0998 -5.5778,0.21447 c 0,0 -14.8105,32.57473 -14.7226,35.86027 0.088,3.28543 -30.8879,8.20247 -30.8879,8.20247 0,0 12.9093,5.51408 9.8093,8.89955 -3.1,3.38548 -11.0169,5.60662 -11.0169,5.60662 l -1.3652,8.59244 z"
       id="path5888"
       inkscape:connector-curvature="0"
       sodipodi:nodetypes="ccccccccccccccccccscscsccscccccccccscscsscccccccssccccccsccccccsccccc" />
    <path
       style="color:#000000;display:inline;overflow:visible;visibility:visible;fill:#ffffff;fill-opacity:1;fill-rule:nonzero;stroke:none;stroke-width:0.96653736px;marker:none;enable-background:accumulate"
       d="m 1976.1112,1256.7971 c 9.6874,-12.3606 73.1652,-47.8623 76.7318,0.7246 45.6544,-59.1692 74.2048,-42.0203 112.556,0.037 4.7754,-41.0197 34.1083,-41.1115 75.2894,-13.7223 -11.5241,-29.8532 13.9537,-28.4203 48.3772,-31.7865 -42.0639,-15.4948 -48.139,-27.2591 35.7162,-29.7017 -61.9632,-8.1574 -119.551,-17.0355 -39.2717,-48.6168 -22.7058,-3.5505 -83.1212,23.5465 -39.8866,-70.8469 -45.0865,26.6867 -97.7713,11.7789 -138.4034,-59.3916 -10.8884,55.1545 -42.4514,113.6193 -83.6961,56.5989 -26.5715,66.6788 -73.6375,9.7032 -88.0781,-18.4058 6.3892,40.1017 15.9748,65.4703 -41.1054,61.834 85.3763,62.2584 -3.5819,49.6096 -21.2815,60.9486 71.2196,26.1802 42.3966,40.6004 25.0799,61.1039 58.3313,-18.6985 79.5395,2.7269 77.9723,31.2248 z"
       id="path3549-3"
       inkscape:connector-curvature="0"
       sodipodi:nodetypes="cccccccccccccccc" />
    <path
       style="color:#000000;display:inline;overflow:visible;visibility:visible;fill:#ffffff;fill-opacity:1;fill-rule:nonzero;stroke:none;stroke-width:1px;marker:none;enable-background:accumulate"
       d="m 2203.9792,1109.7454 c 31.2445,-19.0795 65.3939,-45.1286 72.8188,-52.0388 -12.6929,-4.9848 -23.0556,-11.472 -31.2287,-16.3975 15.0721,-11.6274 88.769,-61.68328 111.5806,-65.98197 -56.9232,8.44886 -115.9924,42.49157 -138.9231,63.43247 9.6363,8.2294 16.5681,12.0437 21.5327,16.4887 -10.8446,11.026 -54.7604,38.6986 -54.7604,38.6986 z"
       id="path5066"
       inkscape:connector-curvature="0" />
    <flowRoot
       transform="matrix(0.90617713,0,-0.22078013,1.6225798,1678.5783,681.53838)"
       style="font-style:normal;font-variant:normal;font-weight:normal;font-stretch:normal;line-height:0.01%;font-family:Lavi;-inkscape-font-specification:Lavi;text-align:center;letter-spacing:0px;word-spacing:0px;text-anchor:middle;fill:#000000;fill-opacity:1;stroke:#000000;stroke-width:2.30830574;stroke-miterlimit:4;stroke-dasharray:none;stroke-opacity:1"
       id="flowRoot4212-3-7-8-6"
       xml:space="preserve"><flowRegion
         id="flowRegion4214-6-7-8-3"><rect
           style="font-style:normal;font-variant:normal;font-weight:normal;font-stretch:normal;font-family:Lavi;-inkscape-font-specification:Lavi;text-align:center;text-anchor:middle;stroke:#000000;stroke-width:2.30830574;stroke-miterlimit:4;stroke-dasharray:none;stroke-opacity:1"
           y="265.53046"
           x="120.55251"
           height="355.03918"
           width="798.1947"
           id="rect4216-4-0-26-5" /></flowRegion><flowPara
         style="font-size:48px;line-height:1.25;text-align:center;letter-spacing:5.20896292px;text-anchor:middle;stroke:#000000;stroke-width:2.30830574;stroke-miterlimit:4;stroke-dasharray:none;stroke-opacity:1"
         id="flowPara4358-7-1">TIŠINA !</flowPara></flowRoot>    <path
       style="color:#000000;display:inline;overflow:visible;visibility:visible;fill:#ffffff;fill-opacity:1;fill-rule:nonzero;stroke:none;stroke-width:1px;marker:none;enable-background:accumulate"
       d="m 1697.4851,886.12819 c -18.8252,29.01443 -61.2381,84.29629 -74.2046,92.79623 -18.9409,-20.1085 -60.7403,-45.63573 -64.2933,-41.9356 -3.5528,3.70019 -27.2073,84.58528 -34.9365,85.42878 -7.7291,0.8434 -33.7382,-5.1979 -42.2008,-11.4975 26.5964,15.6386 47.8803,25.5999 58.5763,21.1663 7.3992,-2.6017 25.2314,-66.01298 26.2199,-70.44547 21.0279,11.82958 61.6189,40.61727 70.9602,41.89827 10.3659,-6.19187 50.1816,-30.04371 85.8187,-76.16686 35.6371,-46.12323 -25.9399,-41.24415 -25.9399,-41.24415 z"
       id="path5901"
       inkscape:connector-curvature="0"
       sodipodi:nodetypes="ccccccccsc" />
    <path
       style="color:#000000;display:inline;overflow:visible;visibility:visible;fill:#ffffff;fill-opacity:1;fill-rule:nonzero;stroke:none;stroke-width:0.95026833px;marker:none;enable-background:accumulate"
       d="m 171.80612,1750.4707 c 9.2675,5.3207 23.76849,4.2563 15.90706,-9.8158 13.95962,7.4802 18.07072,8.9855 11.95966,-4.0383 10.66105,6.8261 22.25489,7.6203 20.63362,-7.8122 30.50364,17.3171 121.64701,4.8796 160.4371,6.8781 38.79008,1.9983 142.81816,0.3997 153.39728,0 10.57913,-0.3996 91.68555,0 98.73844,0 7.05268,0 35.26364,4.3965 44.07953,6.7944 13.22381,-3.1974 29.5622,-12.0089 29.5622,-12.0089 0,0 0.41183,23.5997 3.05664,24.7987 2.64483,1.1991 15.28012,-1.4145 23.04369,-2.4025 -5.13585,3.9891 -23.04369,16.3913 -20.39886,16.7909 2.64463,0.3998 21.34627,1.4118 28.51251,2.015 -5.73285,2.5269 -21.45981,13.5724 -20.5784,13.9723 12.19321,13.0163 19.33091,10.6224 29.55552,7.6613 -4.89165,6.9176 -17.11927,11.0457 -19.49543,14.6941 1.71019,3.6046 3.80416,5.2509 13.22376,13.1895 -10.67018,-5.3041 -12.99469,-1.6373 -15.68876,1.7292 1.23721,8.3971 3.44708,17.05 1.98744,31.2617 -1.7233,16.7788 -3.39145,33.8581 -11.32585,42.651 4.40806,3.9967 9.46393,11.2415 16.91358,14.1851 -6.90181,1.1007 -15.17026,10.9184 -14.28847,12.9165 0.88162,1.9986 6.97028,9.5051 16.49692,13.3454 -9.05181,0.3778 -15.70993,1.5776 -20.99939,3.5759 -0.88197,3.1975 5.38409,11.3161 7.01386,17.6851 -4.71752,-2.5123 -28.54214,-10.2207 -32.48538,-10.6255 -1.46644,1.7025 -2.58481,8.7305 -1.41931,17.5029 -140.57935,-44.5625 -442.51567,-11.7812 -460.04858,-10.3853 -7.9343,0 -21.89929,0.747 -36.58867,9.5359 9.36962,-12.11 12.82991,-21.3807 12.82991,-21.3807 0,0 -21.00756,-1.9256 -34.17255,1.5576 9.16981,-6.5955 14.55547,-13.5236 13.67385,-14.7227 -0.88161,-1.199 -16.28475,-1.6515 -27.99109,1.1452 4.534,-4.1714 20.93029,-13.7128 20.04868,-15.7112 -9.11811,0.4387 -33.80144,-31.0905 -19.69606,-124.6152 -0.63217,-8.236 -7.08644,-13.08 -18.60155,-17.5424 19.62966,-4.6937 47.11722,-7.3076 32.7071,-22.8251 z"
       id="path3915"
       inkscape:connector-curvature="0"
       sodipodi:nodetypes="ccccsssccsccccccccscccccccccccccccccc" />
    <path
       style="color:#000000;display:inline;overflow:visible;visibility:visible;fill:#ffffff;fill-opacity:1;fill-rule:nonzero;stroke:none;stroke-width:1px;marker:none;enable-background:accumulate"
       d="m 1105.0928,1799.5625 c -91.2283,-62.9886 -159.18424,-107.2113 -244.09747,-102.7556 -84.91309,4.4557 -100.49843,21.9951 -109.53087,27.7757 5.18785,12.9068 23.75593,31.6134 30.75182,34.7014 -22.33894,2.4552 -76.54188,62.7404 -110.47938,56.3411 -64.61909,-12.1847 -273.97666,-3.5558 -101.72794,36.5684 172.24873,40.1242 192.34114,-78.0027 263.45059,-85.6848 -16.89501,-9.5809 -49.34755,-27.5154 -45.74516,-34.2065 3.60245,-6.6909 69.55744,-22.806 102.86379,-16.4917 33.30653,6.3141 121.98932,17.5367 214.51462,83.752 z"
       id="path3923"
       inkscape:connector-curvature="0"
       sodipodi:nodetypes="csccszccsc" />
    <path
       style="fill:#ffffff;fill-rule:evenodd;stroke:none;stroke-width:1px;stroke-linecap:butt;stroke-linejoin:miter;stroke-opacity:1"
       d="m 206.04914,1667.4613 c 1.89036,73.724 51.0397,194.707 109.64083,189.0359 58.60114,-5.6711 34.02647,-28.3554 34.02647,-28.3554 0,0 -83.1758,26.465 -117.20227,-160.6805 -34.02646,-187.1456 -26.46503,0 -26.46503,0 z"
       id="path4413"
       inkscape:connector-curvature="0" />
    <path
       style="fill:#ffffff;stroke:none"
       d="m 1375.5352,3211.3901 c -2.4876,45.6378 38.0321,56.4926 79.2493,63.5302 41.217,7.0375 169.9799,1.8141 161.9069,-54.1964 -8.0731,-56.0106 -70.0989,-64.673 -121.5638,-62.9624 -51.4653,1.7105 -111.0706,10.4766 -119.5924,53.6286 z"
       id="path3938"
       inkscape:connector-curvature="0"
       sodipodi:nodetypes="csssc" />
    <path
       style="color:#000000;display:inline;overflow:visible;visibility:visible;fill:#ffffff;fill-opacity:1;fill-rule:nonzero;stroke:none;stroke-width:1px;marker:none;enable-background:accumulate"
       d="m 1540.2936,3223.4008 c 69.6255,-26.0651 66.8892,-87.8398 67.0296,-99.678 -16.9624,16.0862 -19.0601,54.2993 -76.9475,76.9629 -25.1607,9.8509 9.9179,22.7151 9.9179,22.7151 z"
       id="path3940"
       inkscape:connector-curvature="0"
       sodipodi:nodetypes="ccsc" />
    <flowRoot
       xml:space="preserve"
       id="flowRoot3056-6"
       style="font-style:normal;font-variant:normal;font-weight:normal;font-stretch:normal;line-height:0.01%;font-family:Arial;-inkscape-font-specification:Arial;letter-spacing:0px;word-spacing:0px;fill:#000000;fill-opacity:1;stroke:none"
       transform="matrix(0.92403899,-0.0431397,-0.21669727,0.91096764,408.69829,2651.2462)"><flowRegion
         id="flowRegion3058-8"><rect
           id="rect3060-0"
           width="343.2529"
           height="151.69978"
           x="1244.4525"
           y="652.80212" /></flowRegion><flowPara
         id="flowPara3062-10"
         style="font-style:normal;font-variant:normal;font-weight:normal;font-stretch:normal;font-size:48px;line-height:1.25;font-family:Lavi;-inkscape-font-specification:Lavi">Ta-daaa!</flowPara></flowRoot>    <path
       style="fill:#ffffff;stroke:none;stroke-width:0.92876327"
       d="m 102.50383,2839.3463 c -39.068445,-207.0786 45.94498,-142.4988 307.59598,-148.7024 204.59752,-4.8511 313.71052,42.098 317.49248,138.1124 3.66323,93.0001 -86.92569,168.3512 -279.02097,170.4691 -192.09531,2.118 -344.57083,-23.6624 -346.06749,-159.8791 z"
       id="path3270"
       inkscape:connector-curvature="0"
       sodipodi:nodetypes="csssc" />
    <path
       style="fill:#ffffff;stroke:none"
       d="m 740.22487,3021.0768 c -63.31546,24.471 -150.43401,11.8981 -179.52399,-58.4059 -17.62562,-42.5973 -22.73968,-69.8786 -22.73968,-69.8786 l -34.70784,34.4178 16.75558,49.0193 c 0,0 76.59683,114.726 220.21593,44.8474 z"
       id="path3063"
       inkscape:connector-curvature="0"
       sodipodi:nodetypes="cscccc" />
    <path
       style="color:#000000;display:inline;overflow:visible;visibility:visible;fill:#ffffff;fill-opacity:1;fill-rule:nonzero;stroke:none;stroke-width:0.72815192px;marker:none;enable-background:accumulate"
       d="m 607.91555,1639.7706 c -8.33279,-3.3817 -21.31295,-2.6389 -14.18506,6.3726 -12.54836,-4.7507 -16.23951,-5.7013 -10.68571,2.6436 -9.59018,-4.3436 -19.97829,-4.8071 -18.43049,5.1041 -27.42589,-11.0054 -108.97459,-2.6435 -143.72653,-3.7709 -34.75191,-1.1272 -127.90716,0.3211 -137.37909,0.6208 -9.47196,0.2996 -82.11149,0.3711 -88.4279,0.3996 -6.31621,0.028 -31.6086,-2.6827 -39.51881,-4.188 -11.82308,2.1084 -26.40066,7.8372 -26.40066,7.8372 0,0 -0.51534,-15.1647 -2.89143,-15.9246 -2.3761,-0.7599 -13.67574,0.9709 -20.62249,1.6373 4.57478,-2.5844 20.53563,-10.6272 18.16451,-10.8733 -2.37097,-0.2462 -19.12601,-0.8209 -25.547675,-1.1795 5.118515,-1.6471 19.134635,-8.8093 18.342785,-9.0627 -11.00078,-8.3155 -17.378273,-6.7482 -26.516787,-4.8038 4.337887,-4.4654 15.263027,-7.1678 17.368397,-9.5221 -5.26464,-2.1079 -13.535743,-6.7177 -11.924783,-8.4228 1.610865,-1.7049 12.452373,1.921 20.697693,1.7554 -2.44849,-1.5003 -17.734644,-6.4371 -6.50163,-22.097 6.95068,-9.6901 0.69676,-22.6881 7.74803,-28.371 -3.97257,-2.5508 -8.54549,-7.1862 -15.23549,-9.0478 6.17426,-0.7353 13.51834,-7.078 12.71622,-8.3585 -0.80197,-1.281 -6.30144,-6.0803 -14.85713,-8.5097 8.10426,-0.2795 14.05966,-1.0774 18.78438,-2.383 0.77002,-2.0585 -4.89214,-7.2506 -6.39128,-11.3371 4.24051,1.5955 25.62516,6.4529 29.15916,6.6971 1.30274,-1.1001 2.26068,-5.6211 1.16242,-11.2541 126.17635,28.0692 396.38009,5.7803 412.07348,4.8123 7.1058,-0.031 19.60789,-0.5688 32.70878,-6.2764 -8.31602,7.8205 -11.35742,13.7923 -11.35742,13.7923 0,0 18.82585,1.1524 30.59448,-1.1394 -8.17131,4.2759 -12.95157,8.7499 -12.15456,9.517 0.79699,0.767 14.59449,0.9954 25.06107,-0.8493 -4.03467,2.6992 -18.65956,8.8974 -17.8576,10.178 8.16325,-0.3187 30.46484,19.8435 18.41309,80.0044 0.61731,5.2904 6.42767,8.3773 16.76805,11.1985 -17.55074,3.0959 -42.15174,4.8869 -29.15002,14.8008 z"
       id="path3915-2"
       inkscape:connector-curvature="0"
       sodipodi:nodetypes="ccccsssccsccccccccscccccccccccccccccc" />
  </g>
  <g
     inkscape:groupmode="layer"
     id="layer1"
     inkscape:label="txt">
    <flowRoot
       xml:space="preserve"
       id="flowRoot2987-4-9-3"
       style="font-style:normal;font-variant:normal;font-weight:normal;font-stretch:normal;line-height:0.01%;font-family:Lavi;-inkscape-font-specification:Lavi;text-align:center;letter-spacing:0px;word-spacing:0px;text-anchor:middle;fill:#000000;fill-opacity:1;stroke:none"
       transform="translate(46.248457,-118.0978)"><flowRegion
         id="flowRegion2989-5-4-5"><rect
           id="rect2991-7-9-6"
           width="434.59863"
           height="274.94568"
           x="120.55251"
           y="265.53046"
           style="font-style:normal;font-variant:normal;font-weight:normal;font-stretch:normal;font-family:Lavi;-inkscape-font-specification:Lavi;text-align:center;text-anchor:middle" /></flowRegion><flowPara
         style="font-size:45px;line-height:1.25;text-align:center;text-anchor:middle"
         id="flowPara3030-8">Pepper, zagotovo si talentirana, vendar si tudi naša edina naslednjica.</flowPara></flowRoot>    <flowRoot
       xml:space="preserve"
       id="flowRoot2987-4-9-3-5"
       style="font-style:normal;font-variant:normal;font-weight:normal;font-stretch:normal;line-height:0.01%;font-family:Lavi;-inkscape-font-specification:Lavi;text-align:center;letter-spacing:0px;word-spacing:0px;text-anchor:middle;fill:#000000;fill-opacity:1;stroke:none"
       transform="translate(211.84582,142.20429)"><flowRegion
         id="flowRegion2989-5-4-5-8"><rect
           id="rect2991-7-9-6-5"
           width="550.97479"
           height="230.79358"
           x="88.052513"
           y="260.53046"
           style="font-style:normal;font-variant:normal;font-weight:normal;font-stretch:normal;font-family:Lavi;-inkscape-font-specification:Lavi;text-align:center;text-anchor:middle" /></flowRegion><flowPara
         style="font-size:45px;line-height:1.25;text-align:center;text-anchor:middle"
         id="flowPara3030-8-1">Naša naloga je, da iz tebe naredimo pravo, zlobno Chaosah čarovnico.</flowPara></flowRoot>    <flowRoot
       xml:space="preserve"
       id="flowRoot2987-4-9-3-5-9"
       style="font-style:normal;font-variant:normal;font-weight:normal;font-stretch:normal;line-height:0.01%;font-family:Lavi;-inkscape-font-specification:Lavi;text-align:center;letter-spacing:0px;word-spacing:0px;text-anchor:middle;fill:#000000;fill-opacity:1;stroke:none"
       transform="translate(1615.3329,517.41715)"><flowRegion
         id="flowRegion2989-5-4-5-8-9"><rect
           id="rect2991-7-9-6-5-7"
           width="486.68909"
           height="198.1602"
           x="120.55251"
           y="265.53046"
           style="font-style:normal;font-variant:normal;font-weight:normal;font-stretch:normal;font-family:Lavi;-inkscape-font-specification:Lavi;text-align:center;text-anchor:middle" /></flowRegion><flowPara
         style="font-size:45px;line-height:1.25;text-align:center;text-anchor:middle"
         id="flowPara68">Ampak... jaz nočem biti zlobna! To je ... to je proti vsemu kar ...</flowPara></flowRoot>    <flowRoot
       xml:space="preserve"
       id="flowRoot2987-4-9-3-5-9-8"
       style="font-style:normal;font-variant:normal;font-weight:normal;font-stretch:normal;line-height:0.01%;font-family:Lavi;-inkscape-font-specification:Lavi;text-align:center;letter-spacing:0px;word-spacing:0px;text-anchor:middle;fill:#000000;fill-opacity:1;stroke:none"
       transform="translate(-5.3376942,1265.0416)"><flowRegion
         id="flowRegion2989-5-4-5-8-9-5"><rect
           id="rect2991-7-9-6-5-7-5"
           width="487.29468"
           height="163.38385"
           x="120.55251"
           y="265.53046"
           style="font-style:normal;font-variant:normal;font-weight:normal;font-stretch:normal;font-family:Lavi;-inkscape-font-specification:Lavi;text-align:center;text-anchor:middle" /></flowRegion><flowPara
         style="font-size:45px;line-height:1.25;text-align:center;text-anchor:middle"
         id="flowPara3348">... ali pa ti odvzamemo vse moči!</flowPara></flowRoot>    <flowRoot
       xml:space="preserve"
       id="flowRoot2987-4-9-3-5-9-8-3"
       style="font-style:normal;font-variant:normal;font-weight:normal;font-stretch:normal;line-height:0.01%;font-family:Lavi;-inkscape-font-specification:Lavi;text-align:center;letter-spacing:0px;word-spacing:0px;text-anchor:middle;fill:#000000;fill-opacity:1;stroke:none"
       transform="translate(62.874831,1498.8182)"><flowRegion
         id="flowRegion2989-5-4-5-8-9-5-4"><rect
           id="rect2991-7-9-6-5-7-5-4"
           width="525.72278"
           height="228.41568"
           x="114.80251"
           y="256.90546"
           style="font-style:normal;font-variant:normal;font-weight:normal;font-stretch:normal;font-family:Lavi;-inkscape-font-specification:Lavi;text-align:center;text-anchor:middle"
           ry="0" /></flowRegion><flowPara
         style="font-size:45px;line-height:1.25;text-align:center;text-anchor:middle"
         id="flowPara3030-8-1-8-7-8">In potem boš ponovno mala trapasta sirota iz Veveričjega konca.</flowPara></flowRoot>    <flowRoot
       xml:space="preserve"
       id="flowRoot2987-4-9-3-5-9-8-3-5"
       style="font-style:normal;font-variant:normal;font-weight:normal;font-stretch:normal;line-height:0.01%;font-family:Lavi;-inkscape-font-specification:Lavi;text-align:center;letter-spacing:0px;word-spacing:0px;text-anchor:middle;fill:#000000;fill-opacity:1;stroke:none"
       transform="translate(-12.000126,2475.4424)"><flowRegion
         id="flowRegion2989-5-4-5-8-9-5-4-2"><rect
           id="rect2991-7-9-6-5-7-5-4-9"
           width="571.11359"
           height="311.23492"
           x="120.55251"
           y="265.53046"
           style="font-style:normal;font-variant:normal;font-weight:normal;font-stretch:normal;font-family:Lavi;-inkscape-font-specification:Lavi;text-align:center;text-anchor:middle" /></flowRegion><flowPara
         style="font-size:45px;line-height:1.25;text-align:center;text-anchor:middle"
         id="flowPara3030-8-1-8-7-8-3">Cumin te bo od zdaj naprej opazovala, ti pomagala pri urjenju, in nas obveščala o tvojem napredku.</flowPara></flowRoot>    <flowRoot
       xml:space="preserve"
       id="flowRoot2987-7-9-9-7-0-3-4-1"
       style="font-style:normal;font-variant:normal;font-weight:normal;font-stretch:normal;line-height:0.01%;font-family:Lavi;-inkscape-font-specification:Lavi;letter-spacing:0px;word-spacing:0px;fill:#000000;fill-opacity:1;stroke:#000000;stroke-width:0.99236238;stroke-miterlimit:4;stroke-dasharray:none;stroke-opacity:1;filter:url(#filter4375-4-1-1-1)"
       transform="matrix(1.1967542,-0.56289093,0.22908574,2.2717035,1811.8785,2582.4423)"><flowRegion
         id="flowRegion2989-4-5-8-7-41-7-62-2"
         style="stroke-width:5.40286207"><rect
           id="rect2991-45-1-3-3-8-0-4-6"
           width="319.66232"
           height="56.089447"
           x="120.55251"
           y="265.53046"
           style="font-style:normal;font-variant:normal;font-weight:normal;font-stretch:normal;font-family:Lavi;-inkscape-font-specification:Lavi;fill:#000000;fill-opacity:1;stroke:#000000;stroke-width:0.99236238;stroke-miterlimit:4;stroke-dasharray:none;stroke-opacity:1" /></flowRegion><flowPara
         id="flowPara2995-4-1-5-0-7-2-6-4"
         style="font-weight:normal;font-size:48px;line-height:1.25;-inkscape-font-specification:Lavi;letter-spacing:7.06853437px;fill:#ffffff;fill-opacity:1;stroke:#ffffff;stroke-width:0.99236238;stroke-linejoin:miter;stroke-miterlimit:4;stroke-dasharray:none;stroke-opacity:1">Puf!</flowPara></flowRoot>  </g>
</svg>
