<?xml version="1.0" encoding="UTF-8" standalone="no"?>
<svg
   xmlns:dc="http://purl.org/dc/elements/1.1/"
   xmlns:cc="http://creativecommons.org/ns#"
   xmlns:rdf="http://www.w3.org/1999/02/22-rdf-syntax-ns#"
   xmlns:svg="http://www.w3.org/2000/svg"
   xmlns="http://www.w3.org/2000/svg"
   xmlns:xlink="http://www.w3.org/1999/xlink"
   xmlns:sodipodi="http://sodipodi.sourceforge.net/DTD/sodipodi-0.dtd"
   xmlns:inkscape="http://www.inkscape.org/namespaces/inkscape"
   sodipodi:docname="E08P02.svg"
   height="3503"
   width="2481"
   inkscape:version="1.0 (4035a4fb49, 2020-05-01)"
   version="1.1"
   id="svg2">
  <sodipodi:namedview
     inkscape:document-rotation="0"
     inkscape:window-maximized="0"
     inkscape:window-y="0"
     inkscape:window-x="0"
     inkscape:current-layer="layer3"
     inkscape:cy="943.6204"
     inkscape:cx="868.1731"
     inkscape:zoom="0.4"
     showgrid="false"
     id="namedview70"
     inkscape:window-height="955"
     inkscape:window-width="1813"
     inkscape:pageshadow="2"
     inkscape:pageopacity="0"
     bordercolor="#666666"
     pagecolor="#ffffff" />
  <metadata
     id="metadata8">
    <rdf:RDF>
      <cc:Work
         rdf:about="">
        <dc:format>image/svg+xml</dc:format>
        <dc:type
           rdf:resource="http://purl.org/dc/dcmitype/StillImage" />
        <dc:title />
      </cc:Work>
    </rdf:RDF>
  </metadata>
  <defs
     id="defs6" />
  <sodipodi:namedview
     inkscape:current-layer="layer3"
     inkscape:window-maximized="1"
     inkscape:window-y="26"
     inkscape:window-x="0"
     inkscape:cy="2446.0826"
     inkscape:cx="855.31645"
     inkscape:zoom="0.40000002"
     showgrid="false"
     id="namedview4"
     inkscape:window-height="1025"
     inkscape:window-width="1920"
     inkscape:pageshadow="2"
     inkscape:pageopacity="0"
     guidetolerance="10"
     gridtolerance="10"
     objecttolerance="10"
     borderopacity="1"
     bordercolor="#666666"
     pagecolor="#ffffff" />
  <g
     sodipodi:insensitive="true"
     inkscape:label="artwork"
     id="layer2"
     inkscape:groupmode="layer">
    <image
       sodipodi:absref="C:\Users\stero\Documents\Kernewek\Pepper and Carrot\webcomics\ep08_Pepper-s-Birthday-Party\lang\gfx_Pepper-and-Carrot_by-David-Revoy_E08P02.png"
       xlink:href="../gfx_Pepper-and-Carrot_by-David-Revoy_E08P02.png"
       y="0"
       x="0"
       id="image10"
       height="3503"
       width="2481" />
  </g>
  <g
     inkscape:label="speechbubbles"
     id="layer3"
     inkscape:groupmode="layer">
    <path
       sodipodi:nodetypes="cscsssscc"
       inkscape:connector-curvature="0"
       id="path5034"
       d="m 1083.0615,763.03908 c 0.8685,-28.94964 21.1183,-53.9889 54.5938,-66.51377 36.8995,-13.8059 108.7494,-11.58288 121.8646,-9.3193 13.1149,2.26373 125.1063,-1.09395 152.6122,1.86859 24.6448,2.65439 95.3829,32.82325 91.8062,86.01948 -3.5771,53.19623 -57.2298,69.43702 -112.075,72.83254 -54.8451,3.39552 -164.4698,1.88493 -192.988,-0.77469 -31.4853,-2.93633 -114.2389,-31.54779 -114.4596,-91.67873 z"
       style="color:#000000;display:inline;overflow:visible;visibility:visible;fill:#ffffff;fill-opacity:1;fill-rule:nonzero;stroke:none;stroke-width:1.11936164px;marker:none;enable-background:accumulate" />
    <path
       inkscape:connector-curvature="0"
       id="path4496"
       d="m 551.8556,440.24406 c -14.99282,8.51877 -30.50245,17.596 -48.20233,19.15973 -5.04552,0.33636 -10.30406,0.32712 -15.2446,-1.05894 -4.86848,-2.59081 -7.06818,-8.34689 -6.80048,-13.57773 -0.13652,-7.60327 2.83481,-15.5196 -0.42661,-22.92866 -2.50068,-5.34029 -8.54581,-6.71656 -13.53059,-8.32027 -12.7747,-3.83775 -26.06596,-5.96289 -38.25461,-11.82504 -14.10981,-5.7119 -28.58953,-12.74432 -38.49661,-25.00056 -3.84253,-4.91287 -7.20634,-10.5695 -7.73723,-16.85089 -2.08041,-16.08132 4.86444,-33.23077 18.53249,-41.38227 9.23972,-4.33938 22.34102,-0.10332 26.50121,10.03796 2.27374,5.32319 0.69789,11.19744 -2.14399,15.71711 -3.65198,9.36301 -1.61582,20.54408 4.34291,28.87961 4.80991,6.95622 11.66301,12.39705 19.26574,15.81243 9.24091,7.3656 21.26086,7.23582 32.10448,9.41758 4.94239,1.07107 10.14187,2.54736 14.14388,5.88447 4.64552,6.09016 3.30429,14.09121 1.39348,20.69485 -1.79545,6.8694 -4.65229,14.59983 -1.05717,21.61186 1.86215,5.18008 8.05309,4.14738 12.31492,4.97642 13.99277,0.86542 27.89374,-2.70596 40.08493,-8.99763 1.11361,-0.68924 2.16189,-1.46702 3.21016,-2.25007 z"
       style="color:#000000;fill:#ffffff;fill-opacity:1;fill-rule:nonzero;stroke:none;stroke-width:1px;marker:none;visibility:visible;display:inline;overflow:visible;enable-background:accumulate" />
    <path
       inkscape:connector-curvature="0"
       id="path3992"
       d="M 85.014355,291.56417 C 46.944833,247.85875 51.023647,162.63324 61.900728,142.96582 72.777704,123.29842 87.733495,93.797332 139.39934,93.797332 c 51.66574,0 410.6067,-20.760076 463.63212,25.130598 53.02531,45.89066 51.66574,125.6529 5.43859,179.19198 -46.22736,53.53908 -293.6791,42.61276 -293.6791,42.61276 0,0 -171.31269,6.55582 -229.776595,-49.1685 z"
       style="color:#000000;display:inline;overflow:visible;visibility:visible;fill:#ffffff;fill-opacity:1;fill-rule:nonzero;stroke:none;stroke-width:1.01967871px;marker:none;enable-background:accumulate" />
    <flowRoot
       transform="translate(-65.842431,-135.84187)"
       style="font-style:normal;font-variant:normal;font-weight:normal;font-stretch:normal;line-height:0.01%;font-family:Lavi;-inkscape-font-specification:Lavi;text-align:center;letter-spacing:0px;word-spacing:0px;text-anchor:middle;fill:#000000;fill-opacity:1;stroke:none"
       id="flowRoot2987-4-9-3"
       xml:space="preserve"><flowRegion
         id="flowRegion2989-5-4-5"><rect
           style="font-style:normal;font-variant:normal;font-weight:normal;font-stretch:normal;font-family:Lavi;-inkscape-font-specification:Lavi;text-align:center;text-anchor:middle"
           y="265.53046"
           x="120.55251"
           height="310.73996"
           width="602.40173"
           id="rect2991-7-9-6" /></flowRegion><flowPara
         id="flowPara3385"
         style="font-size:48px;line-height:1.25;text-align:center;text-anchor:middle">O, gelwyn an gwraghes </flowPara><flowPara
         id="flowPara39"
         style="font-size:48px;line-height:1.25;text-align:center;text-anchor:middle">erel a vetsyn dhe'n </flowPara><flowPara
         id="flowPara45"
         style="font-size:48px;line-height:1.25;text-align:center;text-anchor:middle">Kesstrif Ismek? *</flowPara></flowRoot>
    <path
       inkscape:connector-curvature="0"
       id="path3072"
       d="m 1231.9477,620.44708 c 31.91,16.91037 42.2081,25.03965 37.6619,73.10616 -4.5463,48.06651 11.3934,47.51048 11.3934,47.51048 l 18.2935,-27.6155 c 0,0 3.3401,-102.44406 -67.3488,-93.00114 z"
       style="color:#000000;fill:#ffffff;fill-opacity:1;fill-rule:nonzero;stroke:none;stroke-width:1px;marker:none;visibility:visible;display:inline;overflow:visible;enable-background:accumulate" />
    <flowRoot
       transform="translate(878.68424,446.69913)"
       style="font-style:normal;font-variant:normal;font-weight:normal;font-stretch:normal;line-height:0.01%;font-family:Lavi;-inkscape-font-specification:Lavi;text-align:center;letter-spacing:0px;word-spacing:0px;text-anchor:middle;fill:#000000;fill-opacity:1;stroke:none"
       id="flowRoot2987-4-9-3-1"
       xml:space="preserve"><flowRegion
         id="flowRegion2989-5-4-5-1"><rect
           style="font-style:normal;font-variant:normal;font-weight:normal;font-stretch:normal;font-family:Lavi;-inkscape-font-specification:Lavi;text-align:center;text-anchor:middle"
           y="265.53046"
           x="120.55251"
           height="310.73996"
           width="602.40173"
           id="rect2991-7-9-6-6" /></flowRegion><flowPara
         id="flowPara3030-8"
         style="font-size:48px;line-height:1.25;text-align:center;text-anchor:middle">Tybyans splann,</flowPara><flowPara
         id="flowPara3138"
         style="font-size:48px;line-height:1.25;text-align:center;text-anchor:middle">Carrot!</flowPara></flowRoot>
    <flowRoot
       style="font-style:normal;font-variant:normal;font-weight:normal;font-stretch:normal;line-height:0.01%;font-family:Arial;-inkscape-font-specification:Arial;letter-spacing:0px;word-spacing:0px;fill:#000000;fill-opacity:1;stroke:none;stroke-width:1px;stroke-linecap:butt;stroke-linejoin:miter;stroke-opacity:1"
       id="flowRoot3121"
       xml:space="preserve"><flowRegion
         id="flowRegion3123"><rect
           y="831.92261"
           x="1521.739"
           height="13.232513"
           width="34.026463"
           id="rect3125" /></flowRegion><flowPara
         style="font-size:12px;line-height:1.25"
         id="flowPara3127"> </flowPara></flowRoot>
    <flowRoot
       transform="matrix(0.91238015,0.20660818,-0.54839204,0.97185115,893.39439,1219.1371)"
       style="font-style:normal;font-variant:normal;font-weight:normal;font-stretch:normal;line-height:0.01%;font-family:Lavi;-inkscape-font-specification:Lavi;text-align:center;letter-spacing:0px;word-spacing:0px;text-anchor:middle;opacity:0.516279;fill:#000000;fill-opacity:1;stroke:none"
       id="flowRoot2987-4-9-3-1-2"
       xml:space="preserve"><flowRegion
         id="flowRegion2989-5-4-5-1-3"><rect
           style="font-style:normal;font-variant:normal;font-weight:normal;font-stretch:normal;font-family:Lavi;-inkscape-font-specification:Lavi;text-align:center;text-anchor:middle"
           y="265.53046"
           x="120.55251"
           height="63.394516"
           width="248.1633"
           id="rect2991-7-9-6-6-2" /></flowRegion><flowPara
         id="flowPara3138-0"
         style="font-style:normal;font-variant:normal;font-weight:normal;font-stretch:normal;font-size:48px;line-height:1.25;font-family:Fondamento;-inkscape-font-specification:Fondamento;text-align:center;text-anchor:middle">Galow</flowPara></flowRoot>
    <flowRoot
       transform="matrix(0.66530597,0,0,0.68592152,1736.6119,773.25335)"
       style="font-style:normal;font-variant:normal;font-weight:normal;font-stretch:normal;line-height:0.01%;font-family:Lavi;-inkscape-font-specification:Lavi;text-align:center;letter-spacing:0px;word-spacing:0px;text-anchor:middle;display:inline;fill:#000000;fill-opacity:1;stroke:none"
       id="flowRoot2987-4-9-9-9"
       xml:space="preserve"><flowRegion
         id="flowRegion2989-5-4-7-7"><rect
           style="font-style:normal;font-variant:normal;font-weight:normal;font-stretch:normal;font-family:Lavi;-inkscape-font-specification:Lavi;text-align:center;text-anchor:middle"
           y="265.53046"
           x="59.439823"
           height="61.945301"
           width="926.76093"
           id="rect2991-7-9-4-3" /></flowRegion><flowPara
         id="flowPara3080-9-7"
         style="font-size:48px;line-height:1.25;text-align:start;text-anchor:start;fill:#a0a0a0;fill-opacity:1">*  Mirewgh orth Rann 6: An Kesstrif Ismek</flowPara></flowRoot>
  </g>
  <g
     inkscape:label="txt"
     id="layer1"
     inkscape:groupmode="layer" />
</svg>
