<?xml version="1.0" encoding="UTF-8" standalone="no"?>
<svg
   xmlns:dc="http://purl.org/dc/elements/1.1/"
   xmlns:cc="http://creativecommons.org/ns#"
   xmlns:rdf="http://www.w3.org/1999/02/22-rdf-syntax-ns#"
   xmlns:svg="http://www.w3.org/2000/svg"
   xmlns="http://www.w3.org/2000/svg"
   xmlns:xlink="http://www.w3.org/1999/xlink"
   xmlns:sodipodi="http://sodipodi.sourceforge.net/DTD/sodipodi-0.dtd"
   xmlns:inkscape="http://www.inkscape.org/namespaces/inkscape"
   sodipodi:docname="E31P03.svg"
   height="3503"
   width="2481"
   inkscape:version="1.0 (4035a4fb49, 2020-05-01)"
   version="1.1"
   id="svg2">
  <metadata
     id="metadata8">
    <rdf:RDF>
      <cc:Work
         rdf:about="">
        <dc:format>image/svg+xml</dc:format>
        <dc:type
           rdf:resource="http://purl.org/dc/dcmitype/StillImage" />
        <dc:title />
      </cc:Work>
    </rdf:RDF>
  </metadata>
  <defs
     id="defs6">
    <filter
       x="-0.15000001"
       width="1.3"
       y="-0.15000001"
       height="1.3"
       inkscape:menu-tooltip="Something like a water noise"
       inkscape:menu="Distort"
       inkscape:label="Lapping"
       id="filter3018-9-9"
       style="color-interpolation-filters:sRGB">
      <feTurbulence
         result="result1"
         baseFrequency="0.045999999999999999"
         type="fractalNoise"
         seed="0"
         numOctaves="5"
         id="feTurbulence3020-3-0" />
      <feGaussianBlur
         result="result2"
         stdDeviation="2"
         id="feGaussianBlur3022-77-9" />
      <feDisplacementMap
         in="SourceGraphic"
         xChannelSelector="R"
         yChannelSelector="B"
         scale="50"
         in2="result2"
         id="feDisplacementMap3024-6-9" />
    </filter>
    <filter
       x="-0.15000001"
       width="1.3"
       y="-0.15000001"
       height="1.3"
       inkscape:menu-tooltip="Something like a water noise"
       inkscape:menu="Distort"
       inkscape:label="Lapping"
       id="filter3018-9-9-3"
       style="color-interpolation-filters:sRGB">
      <feTurbulence
         result="result1"
         baseFrequency="0.045999999999999999"
         type="fractalNoise"
         seed="0"
         numOctaves="5"
         id="feTurbulence3020-3-0-6" />
      <feGaussianBlur
         result="result2"
         stdDeviation="2"
         id="feGaussianBlur3022-77-9-7" />
      <feDisplacementMap
         in="SourceGraphic"
         xChannelSelector="R"
         yChannelSelector="B"
         scale="50"
         in2="result2"
         id="feDisplacementMap3024-6-9-5" />
    </filter>
    <filter
       inkscape:label="Drop Shadow"
       id="filter4375-4-1-1-1-9-5-8-3"
       style="color-interpolation-filters:sRGB">
      <feFlood
         result="flood"
         flood-color="rgb(39,39,39)"
         flood-opacity="1"
         id="feFlood4377-7-9-0-8-1-7-3-8" />
      <feComposite
         result="composite1"
         operator="in"
         in="flood"
         in2="SourceGraphic"
         id="feComposite4379-3-8-8-2-77-4-1-8" />
      <feMorphology
         result="result3"
         radius="6.2000000000000002"
         operator="dilate"
         id="feMorphology4393-1-0-49-8-9-3-0-31" />
      <feComposite
         result="fbSourceGraphic"
         operator="over"
         in="SourceGraphic"
         in2="result3"
         id="feComposite4385-9-5-7-0-8-8-7-8" />
      <feColorMatrix
         id="feColorMatrix4544-96"
         values="0 0 0 -1 0 0 0 0 -1 0 0 0 0 -1 0 0 0 0 1 0"
         in="fbSourceGraphic"
         result="fbSourceGraphicAlpha" />
      <feTurbulence
         result="turbulence"
         baseFrequency="0.129 0.0050000000000000001"
         seed="37"
         numOctaves="3"
         type="fractalNoise"
         id="feTurbulence4546-4" />
      <feDisplacementMap
         result="fbSourceGraphic"
         xChannelSelector="R"
         yChannelSelector="G"
         scale="6.6"
         in="fbSourceGraphic"
         in2="turbulence"
         id="feDisplacementMap4548-3" />
      <feColorMatrix
         id="feColorMatrix4670-33"
         values="0 0 0 -1 0 0 0 0 -1 0 0 0 0 -1 0 0 0 0 1 0"
         in="fbSourceGraphic"
         result="fbSourceGraphicAlpha" />
      <feFlood
         in="fbSourceGraphic"
         result="flood"
         flood-color="rgb(0,0,0)"
         flood-opacity="0.40999999999999998"
         id="feFlood4672-8" />
      <feComposite
         result="composite1"
         operator="in"
         in="flood"
         in2="fbSourceGraphic"
         id="feComposite4674-6" />
      <feGaussianBlur
         result="blur"
         stdDeviation="0"
         in="composite1"
         id="feGaussianBlur4676-0" />
      <feOffset
         result="offset"
         dy="6"
         dx="6"
         id="feOffset4678-4" />
      <feComposite
         result="composite2"
         operator="over"
         in="fbSourceGraphic"
         in2="offset"
         id="feComposite4680-8" />
    </filter>
    <filter
       inkscape:label="Roughen"
       id="filter4375-4-1-1-1-9-3"
       style="color-interpolation-filters:sRGB">
      <feFlood
         result="flood"
         flood-color="rgb(44,110,8)"
         flood-opacity="1"
         id="feFlood4377-7-9-0-8-1-6" />
      <feComposite
         result="composite1"
         operator="in"
         in="flood"
         in2="SourceGraphic"
         id="feComposite4379-3-8-8-2-77-75" />
      <feMorphology
         result="result3"
         radius="4"
         operator="dilate"
         id="feMorphology4393-1-0-49-8-9-35" />
      <feComposite
         result="fbSourceGraphic"
         operator="over"
         in="SourceGraphic"
         in2="result3"
         id="feComposite4385-9-5-7-0-8-6-2" />
      <feColorMatrix
         id="feColorMatrix333"
         values="0 0 0 -1 0 0 0 0 -1 0 0 0 0 -1 0 0 0 0 1 0"
         in="fbSourceGraphic"
         result="fbSourceGraphicAlpha" />
      <feTurbulence
         result="turbulence"
         baseFrequency="0.013 0.013"
         seed="1"
         numOctaves="5"
         type="fractalNoise"
         id="feTurbulence335" />
      <feDisplacementMap
         result="fbSourceGraphic"
         xChannelSelector="R"
         yChannelSelector="G"
         scale="6.6"
         in="fbSourceGraphic"
         id="feDisplacementMap337"
         in2="turbulence" />
      <feColorMatrix
         id="feColorMatrix435"
         values="0 0 0 -1 0 0 0 0 -1 0 0 0 0 -1 0 0 0 0 1 0"
         in="fbSourceGraphic"
         result="fbSourceGraphicAlpha" />
      <feTurbulence
         result="turbulence"
         baseFrequency="0.001 0.4414"
         seed="27"
         numOctaves="5"
         type="fractalNoise"
         id="feTurbulence437" />
      <feDisplacementMap
         xChannelSelector="R"
         yChannelSelector="G"
         scale="4.27461"
         in="fbSourceGraphic"
         id="feDisplacementMap439"
         in2="turbulence" />
    </filter>
    <filter
       inkscape:label="Roughen"
       id="filter4375-4-1-1-1-9-3-7"
       style="color-interpolation-filters:sRGB">
      <feFlood
         result="flood"
         flood-color="rgb(44,110,8)"
         flood-opacity="1"
         id="feFlood4377-7-9-0-8-1-6-5" />
      <feComposite
         result="composite1"
         operator="in"
         in="flood"
         in2="SourceGraphic"
         id="feComposite4379-3-8-8-2-77-75-1" />
      <feMorphology
         result="result3"
         radius="4"
         operator="dilate"
         id="feMorphology4393-1-0-49-8-9-35-3" />
      <feComposite
         result="fbSourceGraphic"
         operator="over"
         in="SourceGraphic"
         in2="result3"
         id="feComposite4385-9-5-7-0-8-6-2-7" />
      <feColorMatrix
         id="feColorMatrix333-8"
         values="0 0 0 -1 0 0 0 0 -1 0 0 0 0 -1 0 0 0 0 1 0"
         in="fbSourceGraphic"
         result="fbSourceGraphicAlpha" />
      <feTurbulence
         result="turbulence"
         baseFrequency="0.013 0.013"
         seed="1"
         numOctaves="5"
         type="fractalNoise"
         id="feTurbulence335-0" />
      <feDisplacementMap
         result="fbSourceGraphic"
         xChannelSelector="R"
         yChannelSelector="G"
         scale="6.6"
         in="fbSourceGraphic"
         id="feDisplacementMap337-9"
         in2="turbulence" />
      <feColorMatrix
         id="feColorMatrix435-5"
         values="0 0 0 -1 0 0 0 0 -1 0 0 0 0 -1 0 0 0 0 1 0"
         in="fbSourceGraphic"
         result="fbSourceGraphicAlpha" />
      <feTurbulence
         result="turbulence"
         baseFrequency="0.001 0.4414"
         seed="27"
         numOctaves="5"
         type="fractalNoise"
         id="feTurbulence437-2" />
      <feDisplacementMap
         xChannelSelector="R"
         yChannelSelector="G"
         scale="4.27461"
         in="fbSourceGraphic"
         id="feDisplacementMap439-1"
         in2="turbulence" />
    </filter>
    <filter
       inkscape:label="Roughen"
       id="filter4375-4-1-1-1-9-3-7-6"
       style="color-interpolation-filters:sRGB">
      <feFlood
         result="flood"
         flood-color="rgb(44,110,8)"
         flood-opacity="1"
         id="feFlood4377-7-9-0-8-1-6-5-1" />
      <feComposite
         result="composite1"
         operator="in"
         in="flood"
         in2="SourceGraphic"
         id="feComposite4379-3-8-8-2-77-75-1-6" />
      <feMorphology
         result="result3"
         radius="4"
         operator="dilate"
         id="feMorphology4393-1-0-49-8-9-35-3-0" />
      <feComposite
         result="fbSourceGraphic"
         operator="over"
         in="SourceGraphic"
         in2="result3"
         id="feComposite4385-9-5-7-0-8-6-2-7-9" />
      <feColorMatrix
         id="feColorMatrix333-8-1"
         values="0 0 0 -1 0 0 0 0 -1 0 0 0 0 -1 0 0 0 0 1 0"
         in="fbSourceGraphic"
         result="fbSourceGraphicAlpha" />
      <feTurbulence
         result="turbulence"
         baseFrequency="0.013 0.013"
         seed="1"
         numOctaves="5"
         type="fractalNoise"
         id="feTurbulence335-0-9" />
      <feDisplacementMap
         result="fbSourceGraphic"
         xChannelSelector="R"
         yChannelSelector="G"
         scale="6.6"
         in="fbSourceGraphic"
         id="feDisplacementMap337-9-1"
         in2="turbulence" />
      <feColorMatrix
         id="feColorMatrix435-5-5"
         values="0 0 0 -1 0 0 0 0 -1 0 0 0 0 -1 0 0 0 0 1 0"
         in="fbSourceGraphic"
         result="fbSourceGraphicAlpha" />
      <feTurbulence
         result="turbulence"
         baseFrequency="0.001 0.4414"
         seed="27"
         numOctaves="5"
         type="fractalNoise"
         id="feTurbulence437-2-0" />
      <feDisplacementMap
         xChannelSelector="R"
         yChannelSelector="G"
         scale="4.27461"
         in="fbSourceGraphic"
         id="feDisplacementMap439-1-9"
         in2="turbulence" />
    </filter>
    <filter
       inkscape:label="Drop Shadow"
       id="filter4375-4-1-1-1-9-5-8-3-4-3-3"
       style="color-interpolation-filters:sRGB">
      <feFlood
         result="flood"
         flood-color="rgb(44,110,8)"
         flood-opacity="1"
         id="feFlood4377-7-9-0-8-1-7-3-6-6-6" />
      <feComposite
         result="composite1"
         operator="in"
         in="flood"
         in2="SourceGraphic"
         id="feComposite4379-3-8-8-2-77-4-1-7-7-7" />
      <feMorphology
         result="result3"
         radius="6.2000000000000002"
         operator="dilate"
         id="feMorphology4393-1-0-49-8-9-3-0-5-5-5" />
      <feComposite
         result="fbSourceGraphic"
         operator="over"
         in="SourceGraphic"
         in2="result3"
         id="feComposite4385-9-5-7-0-8-8-7-3-3-3" />
      <feColorMatrix
         id="feColorMatrix4544-5-5-5"
         values="0 0 0 -1 0 0 0 0 -1 0 0 0 0 -1 0 0 0 0 1 0"
         in="fbSourceGraphic"
         result="fbSourceGraphicAlpha" />
      <feTurbulence
         result="turbulence"
         baseFrequency="0.129 0.0050000000000000001"
         seed="37"
         numOctaves="3"
         type="fractalNoise"
         id="feTurbulence4546-6-6-6" />
      <feDisplacementMap
         result="fbSourceGraphic"
         xChannelSelector="R"
         yChannelSelector="G"
         scale="6.6"
         in="fbSourceGraphic"
         in2="turbulence"
         id="feDisplacementMap4548-2-2-2" />
      <feColorMatrix
         id="feColorMatrix4670-9-3-9-9"
         values="0 0 0 -1 0 0 0 0 -1 0 0 0 0 -1 0 0 0 0 1 0"
         in="fbSourceGraphic"
         result="fbSourceGraphicAlpha" />
      <feFlood
         in="fbSourceGraphic"
         result="flood"
         flood-color="rgb(0,0,0)"
         flood-opacity="0.40999999999999998"
         id="feFlood4672-1-0-1-1" />
      <feComposite
         result="composite1"
         operator="in"
         in="flood"
         in2="fbSourceGraphic"
         id="feComposite4674-2-3-2-2" />
      <feGaussianBlur
         result="blur"
         stdDeviation="0"
         in="composite1"
         id="feGaussianBlur4676-7-7-7" />
      <feOffset
         result="offset"
         dy="6"
         dx="6"
         id="feOffset4678-0-0-0-0" />
      <feComposite
         result="composite2"
         operator="over"
         in="fbSourceGraphic"
         in2="offset"
         id="feComposite4680-9-9-9" />
    </filter>
  </defs>
  <sodipodi:namedview
     inkscape:document-rotation="0"
     inkscape:snap-global="false"
     inkscape:current-layer="layer1"
     inkscape:window-maximized="1"
     inkscape:window-y="28"
     inkscape:window-x="0"
     inkscape:cy="2591.6087"
     inkscape:cx="1247.6392"
     inkscape:zoom="0.46261217"
     showgrid="false"
     id="namedview4"
     inkscape:window-height="1025"
     inkscape:window-width="1920"
     inkscape:pageshadow="2"
     inkscape:pageopacity="0"
     guidetolerance="10"
     gridtolerance="10"
     objecttolerance="10"
     borderopacity="1"
     bordercolor="#666666"
     pagecolor="#ffffff" />
  <g
     sodipodi:insensitive="true"
     inkscape:label="artwork"
     id="layer2"
     inkscape:groupmode="layer">
    <image
       sodipodi:absref="C:\Users\stero\Documents\Kernewek\Pepper and Carrot\webcomics\ep31_The-Fight\lang\gfx_Pepper-and-Carrot_by-David-Revoy_E31P03.png"
       xlink:href="../gfx_Pepper-and-Carrot_by-David-Revoy_E31P03.png"
       width="2481"
       height="3503"
       id="image10"
       x="0"
       y="0" />
  </g>
  <g
     style="display:inline"
     inkscape:label="speechbubbles"
     id="layer3"
     inkscape:groupmode="layer">
    <path
       sodipodi:nodetypes="csssscssssssc"
       inkscape:connector-curvature="0"
       id="path3023-9"
       d="m 381.74705,3063.5701 c 23.5573,25.2185 16.05782,40.0616 6.16704,51.7938 -9.88784,11.7318 -11.67487,25.2666 -9.83969,33.528 1.83519,8.2615 10.78298,20.2861 18.14084,25.774 7.35884,5.4879 -2.12411,19.0189 -7.55193,27.6085 -7.17016,11.3489 -32.97775,42.2303 -32.97775,42.2303 0,0 24.01881,18.4803 32.06612,7.673 8.04636,-10.807 25.83751,-48.8286 27.68149,-53.69 1.84304,-4.8612 5.11757,-19.9657 -0.30171,-27.3938 -5.42024,-7.4278 -17.54915,-11.083 -21.79889,-20.426 -4.37795,-9.6249 -2.96542,-17.0989 2.36859,-27.0272 5.334,-9.9282 13.34075,-32.9425 2.88638,-43.9873 -10.45535,-11.0446 -16.84049,-16.0833 -16.84049,-16.0833 z"
       style="opacity:1;fill:#ffffff;stroke:none;stroke-width:0.99999994" />
    <path
       sodipodi:nodetypes="ccccccccccccccccccc"
       inkscape:connector-curvature="0"
       id="path3549-3-7-8"
       d="m 2088.451,371.01925 c -5.6125,15.0246 -37.2674,16.28494 -48.9206,13.23097 23.4899,16.80776 22.671,27.25097 -9.2217,28.87178 53.4847,30.29272 9.7777,25.70871 1.1569,33.38946 41.9953,10.43971 28.0759,26.26207 1.1203,33.53521 48.2696,0.44427 36.5842,11.10656 18.3094,26.44973 21.3716,-10.0452 54.3398,-17.2686 55.5095,8.99521 30.966,-22.94363 46.9429,-22.49675 58.1408,3.44761 9.3536,-22.37193 41.2035,-26.67753 53.3823,-2.55036 10.4911,-32.6528 47.9248,-28.05569 70.2078,-12.23072 -12.5087,-11.16851 -3.9789,-29.55869 38.6674,-25.83963 -3.4328,-10.23809 1.9654,-23.16009 23.5014,-21.45374 -24.8067,-6.18388 -29.3785,-12.56327 16.6819,-19.42794 -35.0493,-0.66334 -67.7329,-2.02406 -26.6125,-25.43465 -12.9005,-0.56645 -43.5086,18.96798 -29.238,-38.19865 -37.7831,16.85663 -77.4858,25.47392 -75.5324,-9.93436 -14.0468,19.15213 -38.4105,28.62914 -49.0099,4.70708 -8.7499,22.34663 -35.3266,12.9892 -49.1327,-2.26321 -9.1224,15.13633 -22.7686,25.35958 -49.0099,4.70621 z"
       style="color:#000000;display:inline;overflow:visible;visibility:visible;fill:#ffffff;fill-opacity:1;fill-rule:nonzero;stroke:none;stroke-width:0.99999988px;marker:none;enable-background:accumulate" />
    <path
       sodipodi:nodetypes="cccccccccccc"
       inkscape:connector-curvature="0"
       id="path4584-8"
       d="m 2360.7223,364.6302 c -28.2459,-1.85574 -69.2065,11.37792 -45.4492,49.56814 -51.8709,-25.02651 -124.667,-34.01157 -141.7945,7.67825 -2.8825,-50.99026 -37.6491,-37.14457 -66.3441,-24.86586 27.3093,-20.9346 -22.9151,-31.24914 -49.8034,-31.69953 55.7202,-45.19436 25.5343,-58.34427 2.7317,-74.24873 56.146,10.76492 42.0205,-13.58945 48.3391,-27.72588 48.6971,30.4213 83.3445,22.02164 110.1266,-8.11089 14.7961,15.63738 20.1453,48.60035 71.9307,-3.60211 -18.4098,44.39511 7.051,39.13435 47.9163,16.43862 -6.114,15.11702 -44.1139,38.83869 20.795,34.79211 -40.2239,15.25006 -48.2502,34.72213 1.5518,61.77588 z"
       style="display:inline;fill:#ffffff;fill-rule:evenodd;stroke:none;stroke-width:1px;stroke-linecap:butt;stroke-linejoin:miter;stroke-opacity:1" />
    <path
       sodipodi:nodetypes="cccccccc"
       inkscape:connector-curvature="0"
       id="path5066-6"
       d="m 2058.8601,431.69433 c -27.5042,-3.8742 -62.9203,-11.63396 -67.5341,-17.71819 2.0751,9.48509 2.264,18.32581 2.5306,25.21155 -13.9157,0.25456 -55.6137,-16.44183 -79.4432,-25.19132 31.277,29.44861 81.2873,50.10363 102.7692,52.79146 -4.1923,-9.10689 -5.7958,-17.40615 -5.0533,-22.24832 10.4561,-4.15714 46.3532,12.89672 46.4657,13.60497 z"
       style="color:#000000;display:inline;overflow:visible;visibility:visible;fill:#ffffff;fill-opacity:1;fill-rule:nonzero;stroke:none;stroke-width:1px;marker:none;enable-background:accumulate" />
    <path
       transform="matrix(0.66277094,0,0,0.59257433,574.16516,724.79821)"
       sodipodi:nodetypes="csssssc"
       inkscape:connector-curvature="0"
       id="path3986-45"
       d="m 176.95326,304.17899 c 0,-59.7361 -22.48244,-115.85882 98.01007,-170.07006 130.56298,-58.742076 268.39887,-35.07555 341.04902,5.6261 40.12846,22.48164 99.48111,119.36155 101.46841,158.56335 1.9872,39.2018 -60.43426,96.7909 -148.86606,115.55434 -86.7685,18.41053 -241.07149,-0.58661 -288.76509,-14.58731 -47.6936,-14.0007 -98.92185,-47.48422 -102.89635,-95.08642 z"
       style="color:#000000;display:inline;overflow:visible;visibility:visible;fill:#040404;fill-opacity:1;fill-rule:nonzero;stroke:none;stroke-width:1.4638871px;marker:none;filter:url(#filter3018-9-9);enable-background:accumulate" />
    <path
       sodipodi:nodetypes="cscsscsccc"
       inkscape:connector-curvature="0"
       id="path4394-0"
       d="m 899.88875,1058.8611 c 0,0 -31.4058,-3.2008 -31.71219,-15.0575 -0.30712,-11.8562 30.06575,-29.9486 30.06575,-29.9486 0,0 -37.392,-12.5088 -31.8252,-43.17906 5.56688,-30.67024 42.84594,-46.28311 36.42648,-25.82967 -6.41941,20.45354 -35.38623,54.65079 29.32281,65.22183 -49.058,23.1301 -43.87818,24.9896 -43.11544,29.6681 0.76214,4.6788 31.71224,15.0573 41.48006,17.6475 -35.75199,15.5401 -59.35761,26.6224 -19.40484,65.9512 -27.88769,-15.6994 -45.83688,-45.8117 -11.23743,-64.4738 z"
       style="display:inline;fill:#040404;fill-opacity:1;fill-rule:evenodd;stroke:none;stroke-width:1px;stroke-linecap:butt;stroke-linejoin:miter;stroke-opacity:1" />
    <path
       sodipodi:nodetypes="ccccccccccccccc"
       inkscape:connector-curvature="0"
       id="path3549-3-8"
       d="m 1846.3595,1304.9369 c 2.5985,-8.1848 16.4783,-33.5365 20.5404,-6.7171 29.9083,-35.9114 66.8173,-23.2573 74.9987,-18.0245 -3.7753,-10.6312 3.8363,-29.7408 25.5761,-25.0422 -4.1306,-10.2705 2.106,-17.9825 17.5928,-23.4105 -21.9475,-4.8048 -26.5862,-11.055 12.0272,-20.9214 -30.0686,1.4793 -58.2139,2.0974 -25.7562,-24.4052 -11.105,0.2147 -35.0181,22.1018 -29.4699,-37.3112 -16.8489,20.1051 -35.917,31.9033 -65.7831,-5.5213 -6.0418,16.0608 -16.5176,27.3659 -41.3792,7.8349 11.373,35.9237 -26.9391,23.2408 -40.329,16.5444 22.0592,15.7622 22.5855,26.502 -4.5157,30.1269 49.2968,27.7223 11.365,25.7378 4.8835,34.1336 37.1515,8.1024 22.5854,22.5445 17.6952,36.2469 41.3553,-2.5181 30.2539,19.6858 33.9192,36.4667 z"
       style="color:#000000;display:inline;overflow:visible;visibility:visible;fill:#ffffff;fill-opacity:1;fill-rule:nonzero;stroke:none;stroke-width:1px;marker:none;enable-background:accumulate" />
    <path
       sodipodi:nodetypes="cccccccc"
       inkscape:connector-curvature="0"
       id="path5066-9"
       d="m 1883.1717,1169.2778 c 8.3775,-17.2131 2.214,-37.9227 1.9672,-43.4608 -6.0671,2.2703 -11.9539,3.0892 -16.5234,3.8155 0.426,-10.2142 23.4596,-55.0335 31.5099,-61.7346 -20.5459,15.3354 -47.8551,56.4173 -47.2472,73.3512 6.3231,0.1799 10.0581,-0.5917 13.3951,-0.4107 0.721,8.4891 -5.8909,30.737 -5.8909,30.737 z"
       style="color:#000000;display:inline;overflow:visible;visibility:visible;opacity:1;fill:#ffffff;fill-opacity:1;fill-rule:nonzero;stroke:none;stroke-width:0.77001458px;marker:none;enable-background:accumulate" />
    <path
       transform="matrix(0.66277094,0,0,0.66070126,1070.3542,1474.5082)"
       sodipodi:nodetypes="csssssc"
       inkscape:connector-curvature="0"
       id="path3986-45-3"
       d="m 161.85652,306.34242 c 0,-59.7361 -20.32576,-85.57075 100.16675,-139.78199 130.56298,-58.74208 288.70937,-37.96157 361.35952,2.74008 40.12846,22.48164 51.1338,91.9595 53.1211,131.1613 1.9872,39.2018 -19.45739,143.98214 -107.88919,162.74558 C 481.8462,481.61792 317.7031,449.45954 270.0095,435.45884 222.3159,421.45814 165.83102,353.94462 161.85652,306.34242 Z"
       style="color:#000000;display:inline;overflow:visible;visibility:visible;fill:#000000;fill-opacity:1;fill-rule:nonzero;stroke:none;stroke-width:1.38636136px;marker:none;filter:url(#filter3018-9-9-3);enable-background:accumulate" />
    <path
       inkscape:connector-curvature="0"
       id="path4345-2"
       d="m 1404.0267,1757.2275 c 4.2586,15.4299 8.6477,30.8338 12.8249,46.2798 0.1286,6.3968 0.4151,12.7998 0.4446,19.1924 -1.794,6.7199 -3.5879,13.4396 -5.3824,20.1589 4.7148,-7.8331 9.4297,-15.6663 14.1445,-23.4992 5.9391,9.315 11.8785,18.63 17.8179,27.9451 -1.2398,11.0201 -2.3729,22.0536 -3.6779,33.0663 -2.6419,8.354 -5.1165,16.7737 -7.8617,25.0878 -5.236,7.4081 -10.472,14.8165 -15.7078,22.2248 10.6667,-10.6684 21.3335,-21.337 32.0004,-32.0056 3.8193,-12.2546 7.7513,-24.4957 11.5005,-36.7585 0.8263,-8.194 1.6532,-16.3876 2.4795,-24.5816 -5.0319,-10.194 -10.2927,-20.2781 -15.1745,-30.5451 -2.6016,-5.7032 -5.203,-11.4061 -7.8044,-17.1092 -2.7235,5.7746 -5.447,11.5493 -8.1698,17.3244 2.6111,-10.0404 5.2224,-20.0808 7.8335,-30.1212 -1.319,-8.8587 -2.5268,-17.7499 -3.9151,-26.5882 -2.4731,-6.5929 -4.9462,-13.1856 -7.4192,-19.7785 -7.9566,9.9167 -16.1022,19.7068 -23.9332,29.7079 z"
       style="fill:#000000;fill-opacity:1;fill-rule:evenodd;stroke:none;stroke-width:1px;stroke-linecap:butt;stroke-linejoin:miter;stroke-opacity:1" />
    <path
       inkscape:connector-curvature="0"
       id="path4456-8"
       d="m 684.99307,1779.1582 c 61.66174,-16.2561 73.14039,-41.1907 83.269,-58.351 -4.39854,-4.2253 -10.71973,-13.2123 -10.71973,-13.2123 0,0 22.97628,-32.034 27.75428,-46.8821 4.77802,-14.8481 -12.8848,-20.7999 -12.8848,-20.7999 0,0 -46.19491,61.2421 -59.92565,71.7021 12.55488,11.0884 17.19616,18.1382 23.43027,20.2381 -2.54487,11.4873 -29.27851,40.8822 -50.92337,47.3051 z"
       style="color:#000000;display:inline;overflow:visible;visibility:visible;fill:#ffffff;fill-opacity:1;fill-rule:nonzero;stroke:none;stroke-width:0.99999994px;marker:none;enable-background:accumulate" />
    <path
       sodipodi:nodetypes="ccccccccccccccc"
       inkscape:connector-curvature="0"
       id="path3549-3-3"
       d="m 605.37632,1742.6565 c 7.10694,-7.0451 37.82196,-27.6986 33.30417,-2.0983 49.3473,-29.5394 83.76877,-14.3238 119.03854,-1.6525 12.22304,-9.151 17.04422,-24.4313 48.04849,-18.0279 -2.1127,-10.3184 10.23682,-16.1977 35.49093,-18.1168 -30.85931,-8.8316 -35.31607,-15.5379 26.20234,-16.9297 -45.45793,-4.6486 -51.97115,-31.1506 6.92384,-49.1514 -16.65772,-2.023 -78.1325,24.8565 -46.41462,-28.9456 -33.07659,15.2111 -84.7698,32.3056 -114.57855,-8.2602 -15.35238,13.6354 -35.44627,21.9881 -64.84503,-1.0378 -10.7589,13.9276 -52.25101,11.5144 -66.71315,7.2214 26.70264,18.9829 23.25145,29.0136 -18.62423,26.9409 62.63444,35.4864 6.80756,26.0628 -6.17745,32.525 52.24871,14.9218 24.81323,25.3562 12.10926,37.0424 62.71217,5.9471 37.38519,24.2476 36.23546,40.4905 z"
       style="color:#000000;display:inline;overflow:visible;visibility:visible;fill:#ffffff;fill-opacity:1;fill-rule:nonzero;stroke:none;stroke-width:0.99999994px;marker:none;enable-background:accumulate" />
    <path
       inkscape:transform-center-y="67.499998"
       inkscape:transform-center-x="81.627496"
       sodipodi:nodetypes="csssc"
       inkscape:connector-curvature="0"
       id="path3280-1"
       d="m 289.94988,3283.1371 c 1.85993,-31.391 11.46866,-58.232 92.84856,-58.257 85.46471,-0.03 101.34171,16.735 102.22782,59.083 1.25072,59.762 -46.91884,56.981 -97.40754,57.133 -70.7236,0.212 -97.25127,0.262 -97.66884,-57.959 z"
       style="fill:#ffffff;stroke:none;stroke-width:0.95235085" />
    <path
       sodipodi:nodetypes="cccccccccccccc"
       inkscape:connector-curvature="0"
       id="path4489"
       d="m 1687.674,1652.5805 c 10.8091,28.67 23.8371,40.143 43.3145,1.635 15.888,9.306 15.7808,38.162 67.8321,3.269 -29.8746,44.044 -17.3435,47.61 0,46.583 -25.1962,57.06 -3.7094,48.215 5.7208,56.391 -30.8793,34.465 -26.8332,50.637 -12.2588,61.294 -28.4932,7.7287 20.1219,92.0875 40.2496,129.5436 -38.396,-30.4664 -93.7369,-126.7275 -69.6708,-36.3766 -27.0363,-21.803 -45.9051,-15.837 -62.1113,-0.818 -13.9826,-19.98 -25.3371,-45.217 -64.5631,-14.71 21.7239,-33.802 13.1289,-50.76 -4.0863,-62.929 32.342,-32.722 7.0945,-44.116 -17.9796,-55.573 45.3309,-3.935 32.4477,-40.21 20.4314,-76.005 21.2249,7.19 42.525,14.905 53.1215,-52.304 z"
       style="fill:#ffffff;fill-rule:evenodd;stroke:none;stroke-width:1px;stroke-linecap:butt;stroke-linejoin:miter;stroke-opacity:1" />
  </g>
  <g
     inkscape:label="txt"
     id="layer1"
     inkscape:groupmode="layer">
    <text
       transform="matrix(0.92840736,0,-0.16338777,1.0771134,0,0)"
       id="text4246-3-7-9-5-1-6-2"
       y="330.08981"
       x="2434.2456"
       style="font-style:normal;font-variant:normal;font-weight:normal;font-stretch:normal;font-size:12.4995px;line-height:0%;font-family:Lavi;-inkscape-font-specification:Lavi;text-align:center;letter-spacing:0px;word-spacing:0px;text-anchor:middle;display:inline;fill:#000000;fill-opacity:1;stroke:#000000;stroke-width:1.8;stroke-miterlimit:4;stroke-dasharray:none;stroke-opacity:1"
       xml:space="preserve"><tspan
         id="tspan1222"
         y="330.08981"
         x="2434.2456"
         style="font-size:46.8731px;line-height:1.25;stroke:#000000;stroke-width:1.8;stroke-miterlimit:4;stroke-dasharray:none;stroke-opacity:1"
         sodipodi:role="line">CARROT!</tspan></text>
    <text
       id="text4246-2-3-1-3-9-9"
       y="455.06714"
       x="2186.0227"
       style="font-style:normal;font-variant:normal;font-weight:normal;font-stretch:normal;line-height:0%;font-family:Lavi;-inkscape-font-specification:Lavi;text-align:center;letter-spacing:0px;word-spacing:0px;text-anchor:middle;display:inline;fill:#000000;fill-opacity:1;stroke:none"
       xml:space="preserve"><tspan
         id="tspan4161"
         y="455.06714"
         x="2186.0227"
         style="font-style:normal;font-variant:normal;font-weight:bold;font-stretch:normal;font-size:45px;line-height:1.25;font-family:Lavi;-inkscape-font-specification:'Lavi Bold'"
         sodipodi:role="line">Towl 7-B!</tspan></text>
    <text
       transform="scale(0.99830099,1.0017019)"
       id="text4180"
       y="858.07977"
       x="874.26086"
       style="font-style:normal;font-variant:normal;font-weight:normal;font-stretch:normal;line-height:0%;font-family:Lavi;-inkscape-font-specification:Lavi;text-align:center;letter-spacing:0px;word-spacing:0px;text-anchor:middle;opacity:1;fill:#ffffff;fill-opacity:1;stroke:none"
       xml:space="preserve"><tspan
         style="font-style:normal;font-variant:normal;font-weight:normal;font-stretch:normal;font-size:50.4467px;line-height:1.25;font-family:Drukah;-inkscape-font-specification:Drukah"
         y="858.07977"
         x="874.26086"
         id="tspan4182"
         sodipodi:role="line">JPEGUS</tspan><tspan
         id="tspan881"
         style="font-style:normal;font-variant:normal;font-weight:normal;font-stretch:normal;font-size:50.4467px;line-height:1.25;font-family:Drukah;-inkscape-font-specification:Drukah"
         y="921.13818"
         x="874.26086"
         sodipodi:role="line">QUALITIS!</tspan></text>
    <text
       transform="matrix(0.92074576,-0.63912706,0.0189825,1.6148287,288.5329,-936.66801)"
       id="text4580-6-0-3-3-3"
       y="1584.5073"
       x="787.65729"
       style="font-style:normal;font-variant:normal;font-weight:normal;font-stretch:normal;line-height:0%;font-family:Lavi;-inkscape-font-specification:Lavi;letter-spacing:0px;word-spacing:0px;display:inline;fill:#ffffff;fill-opacity:1;stroke:none;stroke-width:0.667845;stroke-miterlimit:4;stroke-dasharray:none;stroke-opacity:1;filter:url(#filter4375-4-1-1-1-9-5-8-3-4-3-3)"
       xml:space="preserve"><tspan
         style="font-size:70px;line-height:1.25;fill:#ffffff;fill-opacity:1;stroke:none;stroke-width:0.667845;stroke-opacity:1"
         y="1584.5073"
         x="787.65729"
         id="tspan4582-1-1-6-6-6"
         sodipodi:role="line"><tspan
           id="tspan4315-8-0-0-0"
           style="font-size:93.1495px;fill:#ffffff;fill-opacity:1;stroke:none;stroke-width:0.667845;stroke-opacity:1">Brz<tspan
   id="tspan951-6-6"
   style="font-size:79.4373px;stroke:none;stroke-width:0.667845">ouu </tspan></tspan><tspan
           id="tspan4313-2-6-2-2"
           style="font-size:95.3247px;fill:#ffffff;fill-opacity:1;stroke:none;stroke-width:0.667845;stroke-opacity:1">!</tspan></tspan></text>
    <text
       transform="matrix(0.5722263,0.73233759,-0.15643506,1.5473541,0,0)"
       id="text4246-4-9-8-0-3-3"
       y="250.94508"
       x="1255.0968"
       style="font-style:normal;font-variant:normal;font-weight:normal;font-stretch:normal;font-size:6.85986px;line-height:0%;font-family:Lavi;-inkscape-font-specification:Lavi;text-align:center;letter-spacing:0px;word-spacing:0px;text-anchor:middle;opacity:1;fill:#ffffff;fill-opacity:1;stroke:none;stroke-width:0.871821"
       xml:space="preserve"><tspan
         id="tspan4205-3-3-6"
         y="250.94508"
         x="1255.0968"
         style="font-size:69.4294px;line-height:1.25;fill:#ffffff;stroke-width:0.871821"
         sodipodi:role="line">Zo<tspan
   id="tspan947"
   style="font-size:60.0961px;fill:#ffffff">o</tspan><tspan
   style="font-size:46.7627px;fill:#ffffff"
   id="tspan952">um</tspan></tspan></text>
    <text
       transform="matrix(0.95843932,0,-0.20731228,1.0433629,0,0)"
       id="text4246-2-3-1-3-9-9-7"
       y="1199.1886"
       x="2218.0569"
       style="font-style:normal;font-variant:normal;font-weight:normal;font-stretch:normal;font-size:8.93845px;line-height:0%;font-family:Lavi;-inkscape-font-specification:Lavi;text-align:center;letter-spacing:0px;word-spacing:0px;text-anchor:middle;display:inline;fill:#000000;fill-opacity:1;stroke:none;stroke-width:1"
       xml:space="preserve"><tspan
         id="tspan4161-6"
         y="1199.1886"
         x="2216.1948"
         style="font-size:77.6869px;line-height:1.25;letter-spacing:-3.72435px;stroke-width:1"
         sodipodi:role="line">?!!</tspan></text>
    <text
       transform="scale(1.0007559,0.99924467)"
       id="text4246-2-3-1-3-9-9-6"
       y="1692.6017"
       x="716.99976"
       style="font-style:normal;font-variant:normal;font-weight:normal;font-stretch:normal;font-size:16.3252px;line-height:0%;font-family:Lavi;-inkscape-font-specification:Lavi;text-align:center;letter-spacing:0px;word-spacing:0px;text-anchor:middle;display:inline;fill:#000000;fill-opacity:1;stroke:none;stroke-width:1"
       xml:space="preserve"><tspan
         id="tspan4341-1"
         y="1692.6017"
         x="716.99976"
         style="font-style:normal;font-variant:normal;font-weight:bold;font-stretch:normal;font-size:61.2195px;line-height:1.25;font-family:Lavi;-inkscape-font-specification:'Lavi Bold';stroke-width:1"
         sodipodi:role="line">Agh!!</tspan></text>
    <text
       transform="matrix(2.6121838,-1.1716561,1.0024627,2.7172967,-3455.5516,-1335.5706)"
       id="text4580-2-7"
       y="1584.5073"
       x="787.65729"
       style="font-style:normal;font-variant:normal;font-weight:normal;font-stretch:normal;line-height:0%;font-family:Lavi;-inkscape-font-specification:Lavi;letter-spacing:0px;word-spacing:0px;fill:#000000;fill-opacity:1;stroke:#000000;stroke-width:0;stroke-linecap:square;stroke-miterlimit:4;stroke-dasharray:none;stroke-opacity:1;filter:url(#filter4375-4-1-1-1-9-3)"
       xml:space="preserve"><tspan
         style="font-style:normal;font-variant:normal;font-weight:normal;font-stretch:normal;font-size:70px;line-height:1.25;font-family:ComicSpice;-inkscape-font-specification:ComicSpice;fill:#ffffff;stroke-width:0;stroke-linecap:square;stroke-miterlimit:4;stroke-dasharray:none"
         y="1584.5073"
         x="787.65729"
         id="tspan4582-9-0"
         sodipodi:role="line">G</tspan></text>
    <text
       inkscape:transform-center-y="-54.347827"
       inkscape:transform-center-x="13.043478"
       transform="matrix(2.105461,-1.3533418,0.65169544,2.2011566,-2378.9992,-304.63645)"
       id="text4580-2-7-3"
       y="1584.5073"
       x="787.65729"
       style="font-style:normal;font-variant:normal;font-weight:normal;font-stretch:normal;line-height:0%;font-family:Lavi;-inkscape-font-specification:Lavi;letter-spacing:0px;word-spacing:0px;fill:#000000;fill-opacity:1;stroke:#000000;stroke-width:0;stroke-linecap:square;stroke-miterlimit:4;stroke-dasharray:none;stroke-opacity:1;filter:url(#filter4375-4-1-1-1-9-3-7)"
       xml:space="preserve"><tspan
         style="font-style:normal;font-variant:normal;font-weight:normal;font-stretch:normal;font-size:70px;line-height:1.25;font-family:ComicSpice;-inkscape-font-specification:ComicSpice;fill:#ffffff;stroke-width:0;stroke-linecap:square;stroke-miterlimit:4;stroke-dasharray:none"
         y="1584.5073"
         x="787.65729"
         id="tspan4582-9-0-2"
         sodipodi:role="line">Z</tspan></text>
    <text
       transform="matrix(1.7444703,-1.5088795,0.53995933,2.0548705,-1812.631,136.11639)"
       id="text4580-2-7-3-4"
       y="1584.5073"
       x="787.65729"
       style="font-style:normal;font-variant:normal;font-weight:normal;font-stretch:normal;line-height:0%;font-family:Lavi;-inkscape-font-specification:Lavi;letter-spacing:0px;word-spacing:0px;fill:#000000;fill-opacity:1;stroke:#000000;stroke-width:0;stroke-linecap:square;stroke-miterlimit:4;stroke-dasharray:none;stroke-opacity:1;filter:url(#filter4375-4-1-1-1-9-3-7-6)"
       xml:space="preserve"><tspan
         style="font-style:normal;font-variant:normal;font-weight:normal;font-stretch:normal;font-size:70px;line-height:1.25;font-family:ComicSpice;-inkscape-font-specification:ComicSpice;fill:#ffffff;stroke-width:0;stroke-linecap:square;stroke-miterlimit:4;stroke-dasharray:none"
         y="1584.5073"
         x="787.65729"
         id="tspan4582-9-0-2-9"
         sodipodi:role="line">Z</tspan></text>
    <text
       transform="scale(0.99830099,1.0017019)"
       id="text4180-5"
       y="1648.016"
       x="1361.2064"
       style="font-style:normal;font-variant:normal;font-weight:normal;font-stretch:normal;line-height:0%;font-family:Lavi;-inkscape-font-specification:Lavi;text-align:center;letter-spacing:0px;word-spacing:0px;text-anchor:middle;opacity:1;fill:#ffffff;fill-opacity:1;stroke:none"
       xml:space="preserve"><tspan
         id="tspan881-2"
         style="font-style:normal;font-variant:normal;font-weight:normal;font-stretch:normal;font-size:50.4467px;line-height:1.25;font-family:Drukah;-inkscape-font-specification:Drukah"
         y="1648.016"
         x="1361.2064"
         sodipodi:role="line">QUALITIS</tspan><tspan
         id="tspan955"
         style="font-style:normal;font-variant:normal;font-weight:normal;font-stretch:normal;font-size:50.4467px;line-height:1.25;font-family:Drukah;-inkscape-font-specification:Drukah"
         y="1711.0745"
         x="1361.2064"
         sodipodi:role="line">MINIMALIS!</tspan></text>
    <text
       transform="matrix(0.83492136,-0.87630452,0.22267567,0.96400493,0,0)"
       id="text4246-4-9-8-0-3"
       y="3039.0745"
       x="1250.5232"
       style="font-style:normal;font-variant:normal;font-weight:normal;font-stretch:normal;font-size:10.4619px;line-height:0%;font-family:Lavi;-inkscape-font-specification:Lavi;text-align:center;letter-spacing:0px;word-spacing:0px;text-anchor:middle;fill:#000000;fill-opacity:1;stroke:none;stroke-width:0.871821"
       xml:space="preserve"><tspan
         id="tspan4205-3-3"
         y="3039.0745"
         x="1250.5232"
         style="font-size:122.964px;line-height:1.25;stroke-width:0.871821"
         sodipodi:role="line"><tspan
   id="tspan4438"
   style="font-size:105.886px;stroke-width:0.871821">!</tspan>!</tspan></text>
    <text
       inkscape:transform-center-y="69.597214"
       inkscape:transform-center-x="87.405444"
       id="text4246-4-81"
       y="3300.2261"
       x="393.20367"
       style="font-style:normal;font-variant:normal;font-weight:normal;font-stretch:normal;line-height:0%;font-family:Lavi;-inkscape-font-specification:Lavi;text-align:center;letter-spacing:0px;word-spacing:0px;text-anchor:middle;fill:#000000;fill-opacity:1;stroke:none"
       xml:space="preserve"><tspan
         id="tspan4466-1"
         y="3300.2261"
         x="393.20367"
         style="font-size:45px;line-height:1.25"
         sodipodi:role="line">Grr...</tspan></text>
    <text
       id="text4246-39"
       y="2389.5967"
       x="1105.3096"
       style="font-style:normal;font-variant:normal;font-weight:normal;font-stretch:normal;font-size:9.6927px;line-height:0%;font-family:Lavi;-inkscape-font-specification:Lavi;text-align:center;letter-spacing:0px;word-spacing:0px;text-anchor:middle;fill:#202020;fill-opacity:1;stroke:none;stroke-width:1"
       xml:space="preserve"><tspan
         id="tspan105"
         y="2389.5967"
         x="1105.3096"
         style="font-style:normal;font-variant:normal;font-weight:normal;font-stretch:normal;font-size:36.3476px;line-height:1.25;font-family:'Noto Sans';-inkscape-font-specification:'Noto Sans';fill:#202020;fill-opacity:1;stroke-width:1"
         sodipodi:role="line">2019-12-20-E31P03_V15-finek.jpg</tspan></text>
    <text
       id="text4246-39-9"
       y="2686.7583"
       x="1100.6766"
       style="font-style:normal;font-variant:normal;font-weight:normal;font-stretch:normal;font-size:9.6927px;line-height:0%;font-family:Lavi;-inkscape-font-specification:Lavi;text-align:center;letter-spacing:0px;word-spacing:0px;text-anchor:middle;fill:#202020;fill-opacity:1;stroke:none;stroke-width:1"
       xml:space="preserve"><tspan
         id="tspan1139"
         y="2686.7583"
         x="1100.6766"
         style="font-style:normal;font-variant:normal;font-weight:normal;font-stretch:normal;font-size:36.3476px;line-height:1.25;font-family:'Noto Sans';-inkscape-font-specification:'Noto Sans';fill:#202020;fill-opacity:1;stroke-width:1"
         sodipodi:role="line">Fowt</tspan><tspan
         id="tspan139"
         y="2732.1929"
         x="1100.6766"
         style="font-style:normal;font-variant:normal;font-weight:normal;font-stretch:normal;font-size:36.3476px;line-height:1.25;font-family:'Noto Sans';-inkscape-font-specification:'Noto Sans';fill:#202020;fill-opacity:1;stroke-width:1"
         sodipodi:role="line">karga</tspan></text>
    <text
       transform="matrix(1.0449753,-0.15646471,0.20111908,1.8995105,353.62147,258.04295)"
       id="text4580-6-0-8"
       y="1584.5073"
       x="787.65729"
       style="font-style:normal;font-variant:normal;font-weight:normal;font-stretch:normal;line-height:0%;font-family:Lavi;-inkscape-font-specification:Lavi;letter-spacing:0px;word-spacing:0px;display:inline;fill:#ffffff;fill-opacity:1;stroke:#000000;stroke-width:0.575816;stroke-miterlimit:4;stroke-dasharray:none;stroke-opacity:1;filter:url(#filter4375-4-1-1-1-9-5-8-3)"
       xml:space="preserve"><tspan
         style="font-style:normal;font-variant:normal;font-weight:normal;font-stretch:normal;font-size:70px;line-height:1.25;font-family:Combat;-inkscape-font-specification:Combat;fill:#ffffff;fill-opacity:1;stroke:#000000;stroke-width:0.575816;stroke-opacity:1"
         y="1584.5073"
         x="787.65729"
         id="tspan4582-1-1-8"
         sodipodi:role="line"><tspan
           dy="0 10 10 10 10"
           id="tspan4315-8-97"
           style="font-style:normal;font-variant:normal;font-weight:normal;font-stretch:normal;font-size:93.1495px;font-family:Combat;-inkscape-font-specification:Combat;fill:#ffffff;fill-opacity:1;stroke:#000000;stroke-width:0.575816;stroke-opacity:1"><tspan
   id="tspan1031"
   style="letter-spacing:-14.0845px">KRASH</tspan> !</tspan><tspan
           id="tspan4313-2-76"
           style="font-style:normal;font-variant:normal;font-weight:normal;font-stretch:normal;font-size:114.732px;font-family:Combat;-inkscape-font-specification:Combat;fill:#ffffff;fill-opacity:1;stroke:#000000;stroke-width:0.575816;stroke-opacity:1">!!</tspan></tspan></text>
  </g>
</svg>
