<?xml version="1.0" encoding="UTF-8" standalone="no"?>
<svg
   id="svg2"
   version="1.1"
   inkscape:version="1.1 (c4e8f9ed74, 2021-05-24)"
   width="2481"
   height="3503"
   sodipodi:docname="E35P02.svg"
   xmlns:inkscape="http://www.inkscape.org/namespaces/inkscape"
   xmlns:sodipodi="http://sodipodi.sourceforge.net/DTD/sodipodi-0.dtd"
   xmlns:xlink="http://www.w3.org/1999/xlink"
   xmlns="http://www.w3.org/2000/svg"
   xmlns:svg="http://www.w3.org/2000/svg"
   xmlns:rdf="http://www.w3.org/1999/02/22-rdf-syntax-ns#"
   xmlns:cc="http://creativecommons.org/ns#"
   xmlns:dc="http://purl.org/dc/elements/1.1/">
  <metadata
     id="metadata8">
    <rdf:RDF>
      <cc:Work
         rdf:about="">
        <dc:format>image/svg+xml</dc:format>
        <dc:type
           rdf:resource="http://purl.org/dc/dcmitype/StillImage" />
        <dc:title />
      </cc:Work>
    </rdf:RDF>
  </metadata>
  <defs
     id="defs6" />
  <sodipodi:namedview
     pagecolor="#ffffff"
     bordercolor="#666666"
     borderopacity="1"
     objecttolerance="10"
     gridtolerance="10"
     guidetolerance="10"
     inkscape:pageopacity="0"
     inkscape:pageshadow="2"
     inkscape:window-width="1920"
     inkscape:window-height="1011"
     id="namedview4"
     showgrid="false"
     inkscape:window-x="0"
     inkscape:window-y="0"
     inkscape:window-maximized="1"
     inkscape:document-rotation="0"
     inkscape:snap-global="false"
     inkscape:pagecheckerboard="0"
     inkscape:zoom="0.44304882"
     inkscape:cx="1280.8972"
     inkscape:cy="3015.4691"
     inkscape:current-layer="layer1" />
  <g
     inkscape:groupmode="layer"
     id="layer2"
     inkscape:label="artwork"
     sodipodi:insensitive="true">
    <image
       xlink:href="../gfx_Pepper-and-Carrot_by-David-Revoy_E35P02.png"
       y="0"
       x="0"
       id="image10"
       height="3503"
       width="2481" />
  </g>
  <g
     inkscape:groupmode="layer"
     id="layer3"
     inkscape:label="speechbubbles">
    <path
       style="color:#000000;display:inline;overflow:visible;visibility:visible;fill:#ffffff;fill-opacity:1;fill-rule:nonzero;stroke:none;stroke-width:1.24804px;marker:none;enable-background:accumulate"
       d="m 279.89227,2061.2516 c -9.07469,18.4022 -60.25747,19.9459 -79.09924,16.2054 37.98063,20.5863 36.65651,33.3772 -14.91047,35.3624 86.47886,37.1028 15.80944,31.4882 1.87051,40.8957 67.90182,12.7866 45.39566,32.166 1.81136,41.0742 78.04655,0.5441 59.1526,13.6034 29.60428,32.3958 34.55578,-12.3034 87.86156,-21.1507 89.75291,11.0174 50.06858,-28.1015 75.90154,-27.5542 94.00725,4.2227 15.12391,-27.4013 66.62168,-32.6749 86.31333,-3.1237 16.96311,-39.9934 77.48939,-34.3629 113.51852,-14.9803 -20.22507,-13.6793 -6.43344,-36.2037 62.52102,-31.6486 -5.55019,-12.5397 3.17804,-28.3667 37.99929,-26.2767 -40.10977,-7.5741 -47.50178,-15.3876 26.97292,-23.7955 -56.67089,-0.8125 -109.51691,-2.4791 -43.02961,-31.1526 -20.85887,-0.6938 -70.34883,23.2321 -47.27473,-46.786 -61.09117,20.6461 -125.28606,31.2007 -122.1277,-12.1677 -22.71204,23.4577 -62.10554,35.0652 -79.24378,5.7653 -14.14757,27.3703 -57.11922,15.9093 -79.44222,-2.772 -14.7499,18.5391 -36.8143,31.0606 -79.24364,5.7642 z"
       id="path3549-3-7-8"
       inkscape:connector-curvature="0"
       sodipodi:nodetypes="ccccccccccccccccccc" />
    <path
       style="fill:#ffffff;stroke:none;stroke-width:1.21404"
       d="m 413.03165,2014.1668 c 36.63786,-0.9692 213.69448,-5.5598 210.94061,87.8717 -3.45049,117.0729 -5.18895,170.5711 -194.79142,168.7727 -203.64357,-1.9317 -162.6571,-72.5408 -164.25163,-161.0179 -1.41167,-78.33 49.78918,-92.7954 148.10244,-95.6265 z"
       id="path3280-8-6"
       inkscape:connector-curvature="0"
       sodipodi:nodetypes="csssc" />
    <path
       style="color:#000000;display:inline;overflow:visible;visibility:visible;fill:#ffffff;fill-opacity:1;fill-rule:nonzero;stroke:none;stroke-width:1px;marker:none;enable-background:accumulate"
       d="m 596.40058,2341.6788 c -54.36956,-1.3158 -66.37353,-18.0831 -76.5499,-29.227 3.41593,-3.9672 8.07344,-11.8668 8.07344,-11.8668 0,0 -22.49109,-20.0802 -27.87182,-30.4304 -5.38071,-10.3501 9.28192,-17.9731 9.28192,-17.9731 0,0 44.94813,37.9871 57.64264,43.4391 -9.83295,10.5902 -13.21387,16.7305 -18.38931,19.4211 3.1733,8.211 28.66645,25.6349 47.81303,26.6371 z"
       id="path4456-3"
       inkscape:connector-curvature="0" />
    <path
       style="color:#000000;display:inline;overflow:visible;visibility:visible;fill:#ffffff;fill-opacity:1;fill-rule:nonzero;stroke:none;stroke-width:0.838733px;marker:none;enable-background:accumulate"
       d="m 1972.6766,2169.1943 c -4.7159,-56.497 6.4541,-125.335 156.2952,-109.0086 142.8636,15.5659 133.9406,36.9633 135.4535,108.6937 1.5938,75.5745 -56.7149,112.1707 -159.0784,104.9253 -59.9871,-4.2457 -119.7629,-8.2642 -132.6703,-104.6104 z"
       id="path5026-4"
       inkscape:connector-curvature="0"
       sodipodi:nodetypes="csssc" />
    <path
       style="color:#000000;display:inline;overflow:visible;visibility:visible;fill:#ffffff;fill-opacity:1;fill-rule:nonzero;stroke:none;stroke-width:1.63768px;marker:none;enable-background:accumulate"
       d="m 2065.086,2229.8886 c -4.2272,-2.5286 -41.7209,44.7549 -41.7209,44.7549 l -35.4466,3.459 1.2502,26.926 -53.4012,-4.5662 35.1739,-8.2914 -1.9242,-26.5703 33.0101,-11.5413 29.8178,-33.9388 z"
       id="path4448"
       inkscape:connector-curvature="0"
       sodipodi:nodetypes="cccccccccc" />
    <path
       style="color:#000000;display:inline;overflow:visible;visibility:visible;fill:#ffffff;fill-opacity:1;fill-rule:nonzero;stroke:none;stroke-width:1.026px;marker:none;enable-background:accumulate"
       d="m 148.48197,2684.0009 c -5.46661,-32.9854 9.111,-121.7205 121.17689,-118.765 112.06578,2.9554 130.28795,43.7493 133.02121,56.0926 2.73334,12.3432 26.42205,81.9729 -61.04395,104.0062 -87.46608,22.0331 -165.82099,5.334 -193.15415,-41.3338 z"
       id="path3525"
       inkscape:connector-curvature="0" />
    <path
       style="color:#000000;display:inline;overflow:visible;visibility:visible;fill:#ffffff;fill-opacity:1;fill-rule:nonzero;stroke:none;stroke-width:0.8273px;marker:none;enable-background:accumulate"
       d="m 1199.0011,2492.4237 c -18.073,0.8182 -36.4351,1.788 -53.7422,6.9827 -23.1207,7.5173 -41.4321,26.7389 -45.336,48.8922 -1.8974,13.8942 5.745,28.0441 17.9675,36.2747 14.0237,9.8699 31.1232,15.2118 48.16,19.0219 25.6015,5.4774 52.1565,5.2221 78.2486,3.7345 20.7598,-1.3088 41.6527,-4.9224 60.4769,-13.2573 8.3672,-3.5602 16.6877,-8.4478 21.0883,-16.0968 5.8373,-9.7255 6.2569,-21.3487 4.2218,-32.0561 -2.5188,-13.2028 -10.1184,-25.8753 -22.2073,-33.7852 -13.3465,-9.089 -29.8268,-13.2462 -46.0584,-15.6624 -15.1524,-2.2129 -30.4753,-3.2505 -45.7716,-4.2311 -5.6869,-0.2852 -11.3671,-0.132 -17.0476,0.1829 z"
       id="path3525-3"
       inkscape:connector-curvature="0" />
    <path
       style="color:#000000;display:inline;overflow:visible;visibility:visible;fill:#ffffff;fill-opacity:1;fill-rule:nonzero;stroke:none;stroke-width:0.850812px;marker:none;enable-background:accumulate"
       d="m 378.31396,2800.4734 c -21.81603,-6.0365 -24.7236,-21.3438 -23.81085,-34.7307 0.91307,-13.3879 3.43731,-21.6544 -10.14803,-38.2382 -13.58559,-16.5829 -43.44749,-17.8668 -26.36893,-33.9071 2.07754,-10.3968 3.18888,-19.4098 8.63924,-29.73 6.0118,-11.3839 -30.60834,-11.6128 -30.60834,-11.6128 0,0 -9.2601,36.4069 -8.60393,58.2554 0.65624,21.8486 37.98578,15.4181 49.29264,29.8458 10.55851,13.4728 3.54145,36.8172 10.69223,46.6028 7.15061,9.7866 19.89022,13.3481 30.91597,13.5148 z"
       id="path4538-8"
       inkscape:connector-curvature="0"
       sodipodi:nodetypes="csscscsssc" />
    <path
       style="fill:#ffffff;fill-rule:evenodd;stroke:none;stroke-width:1.00018px;stroke-linecap:butt;stroke-linejoin:miter;stroke-opacity:1"
       d="m 683.3565,2839.4097 c 22.47948,-7.6888 8.18259,-27.2917 13.56572,-36.5201 5.55722,-9.5269 47.07364,3.0903 52.88651,-5.37 5.81286,-8.4604 -12.6074,-31.2018 -3.16551,-44.2198 9.44226,-13.0187 37.29048,-1.0958 25.77916,13.6924 -11.51166,14.7889 6.85876,28.7751 -4.63767,39.1332 -19.17293,17.274 -46.18634,1.6002 -58.07288,2.8253 -7.86988,0.8115 -1.86593,15.6117 -9.63373,23.71 -7.76824,8.099 -16.7216,6.749 -16.7216,6.749 z"
       id="path4272-2"
       inkscape:connector-curvature="0"
       sodipodi:nodetypes="csssssssc" />
    <path
       style="fill:#ffffff;stroke:none;stroke-width:1.03835"
       d="m 1757.6864,2734.7823 c -1.258,-33.7766 21.2997,-118.3324 131.3348,-111.9727 110.0352,6.3597 144.4743,43.5131 147.699,103.5506 5.101,94.9786 -52.7885,120.3608 -135.9123,127.3953 -85.6919,7.2524 -144.4514,-57.9436 -143.1215,-118.9732 z"
       id="path3280-8-90"
       inkscape:connector-curvature="0"
       sodipodi:nodetypes="csssc" />
    <path
       style="color:#000000;display:inline;overflow:visible;visibility:visible;fill:#ffffff;fill-opacity:1;fill-rule:nonzero;stroke:none;stroke-width:1px;marker:none;enable-background:accumulate"
       d="m 1981.8954,2716.5742 c 21.7602,57.3157 81.8906,99.8161 102.9782,111.0989 -62.8332,-18.8149 -116.4083,-51.6111 -129.2847,-90.9766 -12.8765,-39.3656 26.3065,-20.1223 26.3065,-20.1223 z"
       id="path4480"
       inkscape:connector-curvature="0" />
    <path
       style="fill:#ffffff;fill-rule:evenodd;stroke:none;stroke-width:0.883699px;stroke-linecap:butt;stroke-linejoin:miter;stroke-opacity:1"
       d="M 1142.7461 1150.3164 C 1116.01 1150.5098 1089.1668 1152.9048 1063.1649 1159.3334 C 1053.4023 1161.8384 1043.7005 1164.7557 1034.4453 1168.7734 C 1022.3299 1174.4897 1013.16 1184.9306 1006.2989 1196.2008 C 998.50844 1209.132 993.55912 1223.6516 991.11843 1238.5201 C 989.16692 1250.1384 988.20494 1261.9082 987.6986 1273.6707 C 987.19366 1289.877 989.00281 1306.2775 994.34058 1321.6455 C 1000.6092 1340.7459 1011.0701 1358.9041 1026.4699 1372.0744 C 1041.2478 1384.1998 1059.4665 1391.102 1077.6913 1396.1648 C 1107.7228 1404.1507 1139.013 1405.3624 1169.9299 1405.3474 C 1193.2176 1405.1005 1216.3375 1401.2756 1238.8614 1395.5149 C 1256.1983 1391.3538 1273.4913 1386.6055 1289.8865 1379.5162 C 1302.1149 1373.8547 1313.4051 1365.234 1320.1417 1353.3642 C 1329.124 1338.4751 1333.0543 1321.2803 1336.3333 1304.3937 C 1339.8891 1285.0314 1341.6623 1264.8979 1337.4531 1245.4877 C 1333.3793 1227.0924 1323.4356 1210.6564 1312.2518 1195.7398 C 1297.9151 1177.8396 1277.4128 1165.6499 1255.6649 1158.963 C 1232.2419 1151.7282 1207.5174 1150.6546 1183.1743 1150.3556 C 1169.6987 1150.2639 1156.2219 1150.2691 1142.7461 1150.3164 z "
       id="path1353"
       inkscape:connector-curvature="0"
       sodipodi:nodetypes="cssscscssccc" />
    <path
       style="color:#000000;display:inline;overflow:visible;visibility:visible;fill:#ffffff;fill-opacity:1;fill-rule:nonzero;stroke:none;stroke-width:1.32704px;marker:none;enable-background:accumulate"
       d="m 1567.2167,1263.2749 c -23.3951,-13.5874 -47.4345,-27.8488 -80.2438,-37.3029 -9.419,-2.6108 -19.456,-5.052 -29.7275,-6.2777 -10.8699,-0.2589 -18.5833,3.1803 -21.2691,7.3616 -4.9062,5.8321 -4.0751,13.3543 -14.8239,17.5815 -8.0334,2.9766 -20.4058,1.2285 -30.8948,0.151 -55.5613,-5.5966 -116.4529,-16.3815 -168.9125,-7.1839 -10.3316,2.0201 -20.2049,4.8402 -25.0559,9.4641 -13.7945,11.5007 -11.0257,28.0336 10.0671,40.719 14.9737,7.6682 42.5542,10.484 56.687,4.5569 7.5899,-3.0688 8.1735,-8.3583 5.5139,-13.1861 -1.2458,-8.9607 7.6217,0.022 24.0822,-3.6677 37.2334,-5.6014 77.5291,-14.6477 110.5037,-9.7254 10.0809,1.4739 25.6582,0.1256 35.3315,-0.599 12.5832,-2.5592 14.9137,-9.3886 15.3033,-15.3984 0.7726,-6.1637 0.047,-13.4883 11.1891,-17.2514 6.7172,-3.1499 17.8965,0.5337 26.5328,1.8753 27.2211,5.8451 51.5565,15.088 70.9679,25.6439 1.7031,1.0526 3.2274,2.1441 4.749,3.2392 z"
       id="path4496-9"
       inkscape:connector-curvature="0"
       inkscape:transform-center-x="43.812193"
       inkscape:transform-center-y="17.777857"
       sodipodi:nodetypes="ccccccccccccccccccc" />
    <path
       style="fill:#ffffff;stroke:none;stroke-width:0.86966"
       d="m 870.21516,506.07458 c 4.03551,-79.95564 23.59527,-109.60227 260.85484,-112.65143 328.367,-4.2206 351.3414,63.76808 345.1033,157.5583 -6.7305,101.19365 -200.3957,101.47753 -358.706,98.35148 -273.19102,-5.39418 -244.789,-61.2111 -247.25214,-143.25835 z"
       id="path3280-8-0"
       inkscape:connector-curvature="0"
       sodipodi:nodetypes="csssc" />
    <path
       style="display:inline;fill:#ffffff;stroke:none;stroke-width:0.760991"
       d="m 846.25597,318.63754 c 2.51728,-62.9498 16.90873,-145.15068 149.80284,-146.44194 132.89389,-1.29222 177.61179,38.50078 185.01359,107.2676 14.1784,131.72583 -53.3341,121.41139 -152.8999,135.97035 -102.64159,15.00816 -185.80637,-4.53008 -181.91653,-96.79601 z"
       id="path3280-8-2"
       inkscape:connector-curvature="0"
       sodipodi:nodetypes="csssc" />
    <path
       style="color:#000000;display:inline;overflow:visible;visibility:visible;fill:#ffffff;fill-opacity:1;fill-rule:nonzero;stroke:none;stroke-width:1.1497px;marker:none;enable-background:accumulate"
       d="m 1036.6912,654.26102 c 27.1853,-30.95776 362.5381,-53.00464 440.0084,17.01045 53.989,48.79294 33.1616,142.36388 -13.1137,166.72126 -46.2757,24.35859 -269.6909,31.21923 -333.1892,18.81389 -57.101,-11.15418 -117.0373,-35.16455 -120.1972,-99.06921 -1.2896,-26.0814 -0.6935,-72.51986 26.4917,-103.47639 z"
       id="path4040-5"
       inkscape:connector-curvature="0"
       sodipodi:nodetypes="zssssz" />
    <path
       style="color:#000000;display:inline;overflow:visible;visibility:visible;fill:#ffffff;fill-opacity:1;fill-rule:nonzero;stroke:none;stroke-width:1px;marker:none;enable-background:accumulate"
       d="m 880.35523,328.5815 c -13.93862,-43.79995 -75.39205,-33.32608 -131.42892,10.54697 35.43843,-36.41055 76.35778,-76.93843 143.98747,-47.05147 49.32789,21.79901 14.57754,15.53221 14.57754,15.53221 z"
       id="path4035-4"
       inkscape:connector-curvature="0"
       sodipodi:nodetypes="ccscc" />
    <path
       style="display:inline;fill:#ffffff;fill-rule:evenodd;stroke:none;stroke-width:1.34642px;stroke-linecap:butt;stroke-linejoin:miter;stroke-opacity:1"
       d="m 1548.4515,72.745511 c 24.985,6.209973 24.4053,20.322756 12.7022,18.907368 7.502,24.597851 30.4769,80.424301 10.5214,87.322751 0.3216,68.57592 13.4148,103.96561 -1.5675,142.97111 55.2137,-17.3892 57.3634,12.16051 53.2124,40.04781 20.3681,-37.13194 35.9429,-12.94415 29.8359,21.208 20.93,-37.34198 45.1859,-54.33828 41.2991,-14.31803 23.6513,-28.91842 24.8612,-42.29211 44.7286,-29.77791 36.1161,-34.69439 51.1793,13.74141 73.0469,35.30844 8.1542,-39.37996 23.3152,-31.72654 49.8625,-11.65801 9.0829,-16.58142 -12.0518,-45.99827 12.7553,-9.85026 -9.9891,-41.45378 40.684,-21.45982 51.0233,-15.35375 -12.6632,-18.64775 9.1057,-23.58368 70.4804,-12.7505 -23.7677,-9.97749 -33.969,-42.92257 13.7163,-66.26968 -62.5354,9.47197 -39.2315,-10.13616 -20.0369,-31.57301 -40.898,-32.92242 -0.2138,-63.61366 20.1138,-94.86119 -41.3041,14.47534 -56.3387,-47.702256 -63.9558,-62.529075 -62.6921,11.301423 -53.3929,5.013467 -47.3762,-0.472599 -38.8414,13.746819 -36.6646,1.550487 -46.7026,-2.920405 -106.7351,16.739413 -102.9554,-0.73801 -125.0299,-10.210509 -8.7451,20.011591 -31.2305,12.235734 -53.7729,4.345254 0.845,16.935936 -12.7693,11.984117 -26.0813,7.490081 -1.7053,7.302474 -14.9264,9.40643 -43.6739,4.500897 20.5299,6.027881 7.8516,7.03574 -55.1011,0.443217 z"
       id="path4289-9-2"
       inkscape:connector-curvature="0"
       sodipodi:nodetypes="cccccccccccccccccccccccc" />
    <path
       style="fill:#ffffff;fill-opacity:1;fill-rule:evenodd;stroke:none;stroke-width:0.979061px;stroke-linecap:butt;stroke-linejoin:miter;stroke-opacity:1"
       d="m 2392.5249,828.31665 c -1.2192,6.34195 -56.3523,55.67385 -21.9235,12.27055 l -32.213,12.12489 c -62.4398,-26.31741 -266.7205,-10.24548 -335.0513,4.27336 l -18.7446,-26.10175 3.7388,21.91163 -21.7325,-32.45316 12.1794,43.70313 -11.4715,-14.83665 4.818,16.38217 -11.1428,-7.96597 1.8848,14.02227 c -25.907,13.02061 -40.6372,38.6939 -46.4729,65.18156 l -20.9217,-2.39962 19.4351,10.35709 c -0.2473,1.60795 -0.4702,3.2159 -0.6541,4.81912 -0.011,0.10971 -0.025,0.22227 -0.035,0.33199 l -21.9906,-3.78341 21.1159,14.1055 c -0.046,0.75385 -0.092,1.5058 -0.1318,2.26627 l -42.0743,-8.83427 41.7186,24.00669 c -0.01,26.96436 3.018,54.63526 4.5854,66.73086 1.0868,8.3859 2.2549,23.9368 8.6041,27.2702 l -39.1869,10.0692 51.9277,-5.4935 c 1.1029,0.1226 2.2289,0.2449 3.3597,0.3675 l -13.4152,3.4243 23.3544,-2.3849 c 2.3898,0.2411 4.8319,0.4809 7.321,0.7194 l -24.1854,7.6712 36.075,-6.5785 c 86.8324,7.6565 272.4573,15.2779 401.9513,-3.2458 l 19.1392,3.9931 -7.3543,-5.7621 c 2.5283,-0.398 5.7736,-0.805 5.9077,-1.2225 l 0.4542,0.1682 -0.3009,-1.2778 c 0.028,-0.2112 0.057,-0.4228 0.086,-0.6363 l 1.5475,2.8101 -1.1631,-14.9918 c 0.7331,-17.4103 0.9216,-37.1654 0.8309,-57.172 l 1.4035,-12.03792 c -2.4259,6.22845 -1.5594,-7.47602 -0.034,-14.52451 l -1.3703,0.97517 c 0.1327,-16.19678 -0.3577,-45.90319 -1,-61.40761 l 0.064,-11.756 c -1.1244,1.12651 -0.4003,-8.98845 -0.014,-17.79623 -1.2346,7.9253 -1.0831,4.5959 -0.5975,-10.81204 -2.0791,4.39065 1.1132,-36.29143 1.6783,-46.48111 z"
       id="path4212-3"
       inkscape:connector-curvature="0"
       sodipodi:nodetypes="ccccccccccccccccccccccsccccccccccccccccccccccccccc" />
    <path
       style="display:inline;fill:#ffffff;fill-rule:evenodd;stroke:none;stroke-width:1.44912px;stroke-linecap:butt;stroke-linejoin:miter;stroke-opacity:1"
       d="m 2102.6149,751.43806 c 0.6806,41.31231 13.5699,99.33289 8.1415,118.1885 4.1542,65.56524 102.9122,-3.97588 46.8489,-17.72263 -23.7511,-36.29813 -38.7836,-65.39219 -54.9904,-100.46587 z"
       id="path4667-2"
       inkscape:connector-curvature="0"
       sodipodi:nodetypes="cccc" />
    <path
       style="color:#000000;display:inline;overflow:visible;visibility:visible;fill:#ffffff;fill-opacity:1;fill-rule:nonzero;stroke:none;stroke-width:0.891997px;marker:none;enable-background:accumulate"
       d="m 733.40911,2654.7496 c -27.56406,-0.098 -56.09893,5.1296 -78.89518,19.5074 -15.71474,9.8584 -27.22154,26.2721 -26.5013,43.7335 0.5462,14.2429 10.67174,27.0138 23.82523,34.6216 14.99922,8.6903 32.87844,12.1176 50.28903,14.7287 30.09288,4.0973 60.63079,3.3432 90.94509,4.9003 19.15466,0.6389 38.82433,0.9884 57.32549,-4.1125 16.58778,-6.0439 26.85665,-21.5133 28.51318,-36.9608 1.71378,-15.5734 -0.66261,-32.4583 -11.62804,-45.2137 -10.31828,-11.5412 -26.31477,-17.3952 -41.83511,-21.357 -29.86665,-7.3926 -61.09068,-10.2257 -92.03839,-9.8475 z"
       id="path3525-3-5"
       inkscape:connector-curvature="0" />
    <path
       style="fill:#ffffff;fill-rule:evenodd;stroke:none;stroke-width:1.00018px;stroke-linecap:butt;stroke-linejoin:miter;stroke-opacity:1"
       d="m 1223.463,2688.0374 c 17.4992,-16.0693 -3.4666,-28.2803 -2.2428,-38.8936 1.2634,-10.9567 44.3518,-16.0746 46.2777,-26.1572 1.9258,-10.0826 -24.0767,-23.5119 -20.6577,-39.2259 3.4191,-15.7147 33.7111,-15.9794 29.1078,2.1868 -4.6033,18.167 17.8374,23.5982 11.4686,37.7013 -10.6216,23.5196 -41.6554,20.0139 -52.0494,25.9095 -6.8814,3.9037 4.5609,15.0468 0.6993,25.5829 -3.8618,10.5369 -12.6035,12.8962 -12.6035,12.8962 z"
       id="path4272-2-3"
       inkscape:connector-curvature="0"
       sodipodi:nodetypes="csssssssc" />
    <path
       style="color:#000000;display:inline;overflow:visible;visibility:visible;fill:#ffffff;fill-opacity:1;fill-rule:nonzero;stroke:none;stroke-width:0.818201px;marker:none;enable-background:accumulate"
       d="m 1685.64,2522.3224 c -4.7682,19.7338 -32.8197,21.9845 -43.1948,18.2182 21.0618,21.5056 20.4805,35.1623 -7.7767,37.8903 47.8454,38.545 9.0264,33.3934 1.4887,43.5918 37.3824,12.8342 20.902,30.1632 14.4518,47.2005 42.8072,-0.3425 29.0879,27.0397 31.1208,48.5677 3.521,-10.1977 20.432,-41.3812 21.8333,-7.0964 0.01,-6.488 27.5889,-60.8477 69.9999,-9.4692 -1.2968,-26.8993 12.9647,-32.7435 26.9575,4.1555 -4.9716,-40.161 43.3858,-29.5513 69.0679,-17.4684 -13.1686,-24.1109 7.1288,-34.3802 28.889,-29.9904 -3.1857,-13.3079 4.0465,-22.6579 20.5415,-28.4736 -22.0821,-7.6032 -26.2244,-15.8481 14.523,-25.6962 -31.088,-0.1964 -60.0879,-1.3483 -23.9506,-32.7151 -11.4468,-0.492 -38.3165,25.6094 -26.4553,-49.338 -19.4165,24.3307 -40.2628,37.9775 -67.1131,-11.5311 -12.19,25.285 -33.6622,38.132 -43.3926,7.0859 -3.2365,13.3936 -17.1906,18.707 -29.0753,19.5706 -4.6545,-5.1921 -9.4734,-12.2772 -14.5225,-21.587 -7.8791,19.9474 -19.8375,33.5613 -43.3925,7.0849 z"
       id="path3549-3-7-9-6"
       inkscape:connector-curvature="0"
       sodipodi:nodetypes="cccccccccccccccccccc" />
    <path
       style="color:#000000;display:inline;overflow:visible;visibility:visible;fill:#ffffff;fill-opacity:1;fill-rule:nonzero;stroke:none;stroke-width:1.22149px;marker:none;enable-background:accumulate"
       d="m 1834.6942,318.52889 c 13.3969,25.86728 33.5213,54.90113 39.2123,61.39746 7.9957,-8.63868 17.0744,-15.33555 24.0331,-20.64544 9.0197,12.83333 45.9509,74.58787 45.5696,92.05922 3.355,-43.2627 -19.8328,-91.86712 -36.9856,-111.86967 -10.7606,5.90497 -16.2791,10.46235 -22.0396,13.47435 -9.2965,-9.62452 -29.0289,-46.10687 -29.0289,-46.10687 z"
       id="path5066-8"
       inkscape:connector-curvature="0" />
  </g>
  <g
     inkscape:groupmode="layer"
     id="layer1"
     inkscape:label="txt">
    <text
       xml:space="preserve"
       style="font-style:normal;font-variant:normal;font-weight:normal;font-stretch:normal;font-size:45px;line-height:1.25;font-family:Lavi;-inkscape-font-specification:Lavi;text-align:center;letter-spacing:0px;word-spacing:0px;text-anchor:middle;fill:#000000;fill-opacity:1;stroke:none"
       x="1011.4492"
       y="248.27942"
       id="text4246-3-2-2"><tspan
         style="font-size:45px"
         sodipodi:role="line"
         x="1011.4492"
         y="248.27942"
         id="tspan911">Ich verliere</tspan><tspan
         style="font-size:45px"
         sodipodi:role="line"
         x="1011.4492"
         y="304.52942"
         id="tspan746">bald mein</tspan><tspan
         style="font-size:45px"
         sodipodi:role="line"
         x="1011.4492"
         y="360.77942"
         id="tspan8308">Hypertempo</tspan></text>
    <text
       xml:space="preserve"
       style="font-style:normal;font-variant:normal;font-weight:normal;font-stretch:normal;font-size:45px;line-height:1.25;font-family:Lavi;-inkscape-font-specification:Lavi;text-align:center;letter-spacing:0px;word-spacing:0px;text-anchor:middle;fill:#000000;fill-opacity:1;stroke:none"
       x="1167.5723"
       y="475.56839"
       id="text4246-3-2-2-3"><tspan
         style="font-size:45px"
         sodipodi:role="line"
         x="1167.5723"
         y="475.56839"
         id="tspan13207">und diese Pilotin und ihr</tspan><tspan
         style="font-size:45px"
         sodipodi:role="line"
         x="1167.5723"
         y="531.81836"
         id="tspan11297">Drache haben stundenlang</tspan><tspan
         style="font-size:45px"
         sodipodi:role="line"
         x="1167.5723"
         y="588.06836"
         id="tspan21867">mit uns mitgehalten.</tspan></text>
    <text
       xml:space="preserve"
       style="font-style:normal;font-variant:normal;font-weight:normal;font-stretch:normal;font-size:45px;line-height:1.25;font-family:Lavi;-inkscape-font-specification:Lavi;text-align:center;letter-spacing:0px;word-spacing:0px;text-anchor:middle;fill:#000000;fill-opacity:1;stroke:none"
       x="1255.0034"
       y="716.26062"
       id="text4246-3-2-2-3-6"><tspan
         style="font-size:45px"
         sodipodi:role="line"
         x="1255.0034"
         y="716.26062"
         id="tspan24208">Sobald wir langsamer</tspan><tspan
         style="font-size:45px"
         sodipodi:role="line"
         x="1255.0034"
         y="772.51062"
         id="tspan35872">werden, erwischen</tspan><tspan
         style="font-size:45px"
         sodipodi:role="line"
         x="1255.0034"
         y="828.76062"
         id="tspan44331">sie uns.</tspan></text>
    <text
       xml:space="preserve"
       style="font-style:normal;font-variant:normal;font-weight:normal;font-stretch:normal;font-size:59.5686px;line-height:1.25;font-family:Lavi;-inkscape-font-specification:Lavi;text-align:center;letter-spacing:0px;word-spacing:0px;text-anchor:middle;fill:#000000;fill-opacity:1;stroke:none;stroke-width:1.32375"
       x="1783.3713"
       y="156.55896"
       id="text4246-3-2-2-3-6-3"><tspan
         style="font-size:59.5686px;stroke-width:1.32375"
         sodipodi:role="line"
         x="1783.3713"
         y="156.55896"
         id="tspan46706">Wie konnte</tspan><tspan
         style="font-size:59.5686px;stroke-width:1.32375"
         sodipodi:role="line"
         x="1783.3713"
         y="231.01971"
         id="tspan51574">ich nur so</tspan><tspan
         style="font-size:59.5686px;stroke-width:1.32375"
         sodipodi:role="line"
         x="1783.3713"
         y="305.48047"
         id="tspan53332">dumm sein!</tspan></text>
    <text
       xml:space="preserve"
       style="font-style:normal;font-variant:normal;font-weight:normal;font-stretch:normal;font-size:45px;line-height:1.25;font-family:Lavi;-inkscape-font-specification:Lavi;text-align:center;letter-spacing:0px;word-spacing:0px;text-anchor:middle;fill:#000000;fill-opacity:1;stroke:none"
       x="2146.4636"
       y="912.58008"
       id="text4246-3-2-2-3-6-2"><tspan
         style="font-size:45px"
         sodipodi:role="line"
         x="2146.4636"
         y="912.58008"
         id="tspan966">Ich dachte, sie</tspan><tspan
         style="font-size:45px"
         sodipodi:role="line"
         x="2146.4636"
         y="968.83008"
         id="tspan55649">würden schon längst</tspan><tspan
         style="font-size:45px"
         sodipodi:role="line"
         x="2146.4636"
         y="1025.0801"
         id="tspan57371">aufgegeben haben.</tspan></text>
    <text
       xml:space="preserve"
       style="font-style:normal;font-variant:normal;font-weight:normal;font-stretch:normal;font-size:45px;line-height:1.25;font-family:Lavi;-inkscape-font-specification:Lavi;text-align:center;letter-spacing:0px;word-spacing:0px;text-anchor:middle;fill:#000000;fill-opacity:1;stroke:none"
       x="1159.248"
       y="1238.2936"
       id="text4246-3-2-2-3-6-2-7"><tspan
         style="font-size:45px"
         sodipodi:role="line"
         x="1159.248"
         y="1238.2936"
         id="tspan979">Wenn ich sie</tspan><tspan
         style="font-size:45px"
         sodipodi:role="line"
         x="1159.248"
         y="1294.5436"
         id="tspan60148">nur abschütteln</tspan><tspan
         style="font-size:45px"
         sodipodi:role="line"
         x="1159.248"
         y="1350.7936"
         id="tspan61622">könnte.</tspan></text>
    <text
       xml:space="preserve"
       style="font-style:normal;font-variant:normal;font-weight:normal;font-stretch:normal;font-size:45px;line-height:1.25;font-family:Lavi;-inkscape-font-specification:Lavi;text-align:center;letter-spacing:0px;word-spacing:0px;text-anchor:middle;fill:#000000;fill-opacity:1;stroke:none"
       x="435.72397"
       y="2098.5901"
       id="text4246-3-2-2-3-6-2-7-2"><tspan
         style="font-size:45px"
         sodipodi:role="line"
         x="435.72397"
         y="2098.5901"
         id="tspan1171-9"><tspan
   style="font-style:normal;font-variant:normal;font-weight:bold;font-stretch:normal;font-family:Lavi;-inkscape-font-specification:'Lavi Bold'"
   id="tspan889">NEIN.</tspan> </tspan><tspan
         style="font-size:45px"
         sodipodi:role="line"
         x="435.72397"
         y="2154.8401"
         id="tspan1220">Ich <tspan
   style="font-style:normal;font-variant:normal;font-weight:bold;font-stretch:normal;font-family:Lavi;-inkscape-font-specification:'Lavi Bold'"
   id="tspan887">muss</tspan></tspan><tspan
         style="font-size:45px"
         sodipodi:role="line"
         x="435.72397"
         y="2211.0901"
         id="tspan885"> sie loswerden!</tspan></text>
    <text
       xml:space="preserve"
       style="font-style:normal;font-variant:normal;font-weight:normal;font-stretch:normal;font-size:45px;line-height:1.25;font-family:Lavi;-inkscape-font-specification:Lavi;text-align:center;letter-spacing:0px;word-spacing:0px;text-anchor:middle;fill:#000000;fill-opacity:1;stroke:none"
       x="2122.7549"
       y="2118.8071"
       id="text4246-3-2-2-3-6-2-7-2-2"><tspan
         style="font-size:45px"
         sodipodi:role="line"
         x="2122.7549"
         y="2118.8071"
         id="tspan1271">Bevor</tspan><tspan
         style="font-size:45px"
         sodipodi:role="line"
         x="2122.7549"
         y="2175.0571"
         id="tspan70885">sie uns</tspan><tspan
         style="font-size:45px"
         sodipodi:role="line"
         x="2122.7549"
         y="2231.3071"
         id="tspan72883">erwischen!</tspan></text>
    <text
       xml:space="preserve"
       style="font-style:normal;font-variant:normal;font-weight:normal;font-stretch:normal;font-size:45px;line-height:1.25;font-family:Lavi;-inkscape-font-specification:Lavi;text-align:center;letter-spacing:0px;word-spacing:0px;text-anchor:middle;fill:#000000;fill-opacity:1;stroke:none"
       x="273.79352"
       y="2629.6626"
       id="text4246-3-2-2-3-6-2-7-2-3"><tspan
         style="font-size:45px"
         sodipodi:role="line"
         x="273.79352"
         y="2629.6626"
         id="tspan74363">Aber ich</tspan><tspan
         style="font-size:45px"
         sodipodi:role="line"
         x="273.79352"
         y="2685.9126"
         id="tspan75841">bin auch...</tspan></text>
    <text
       xml:space="preserve"
       style="font-style:normal;font-variant:normal;font-weight:normal;font-stretch:normal;font-size:45px;line-height:1.25;font-family:Lavi;-inkscape-font-specification:Lavi;text-align:center;letter-spacing:0px;word-spacing:0px;text-anchor:middle;fill:#000000;fill-opacity:1;stroke:none"
       x="755.08026"
       y="2728.4822"
       id="text4246-3-2-2-3-6-2-7-2-3-3-3"><tspan
         style="font-size:45px"
         x="755.08026"
         y="2728.4822"
         id="tspan1318-9-6"
         sodipodi:role="line">...sehr...</tspan><tspan
         style="font-size:45px"
         x="755.08026"
         y="2784.7322"
         id="tspan1356-7"
         sodipodi:role="line" /></text>
    <text
       xml:space="preserve"
       style="font-style:normal;font-variant:normal;font-weight:normal;font-stretch:normal;font-size:45px;line-height:1.25;font-family:Lavi;-inkscape-font-specification:Lavi;text-align:center;letter-spacing:0px;word-spacing:0px;text-anchor:middle;fill:#000000;fill-opacity:1;stroke:none"
       x="1218.5862"
       y="2507.2249"
       id="text4246-3-2-2-3-6-2-7-2-3-3"><tspan
         style="font-size:45px"
         sodipodi:role="line"
         x="1218.5862"
         y="2507.2249"
         id="tspan1318-9" /><tspan
         style="font-size:45px"
         sodipodi:role="line"
         x="1225.6174"
         y="2563.4749"
         id="tspan1356">...müde... </tspan></text>
    <text
       xml:space="preserve"
       style="font-style:normal;font-variant:normal;font-weight:normal;font-stretch:normal;font-size:64.434px;line-height:1.25;font-family:Lavi;-inkscape-font-specification:Lavi;text-align:center;letter-spacing:0px;word-spacing:0px;text-anchor:middle;fill:#000000;fill-opacity:1;stroke:none;stroke-width:1.43187"
       x="1762.6307"
       y="2632.1682"
       id="text4246-3-2-2-3-6-2-7-2-3-3-4"><tspan
         style="font-style:normal;font-variant:normal;font-weight:bold;font-stretch:normal;font-size:64.434px;font-family:Lavi;-inkscape-font-specification:'Lavi Bold';stroke-width:1.43187"
         sodipodi:role="line"
         x="1762.6307"
         y="2632.1682"
         id="tspan1356-4">UPS!</tspan></text>
    <text
       xml:space="preserve"
       style="font-style:normal;font-variant:normal;font-weight:normal;font-stretch:normal;font-size:45px;line-height:1.25;font-family:Lavi;-inkscape-font-specification:Lavi;text-align:center;letter-spacing:0px;word-spacing:0px;text-anchor:middle;fill:#000000;fill-opacity:1;stroke:none"
       x="1905.2314"
       y="2697.1885"
       id="text4246-3-2-2-3-6-2-7-2-3-5"><tspan
         style="font-size:45px"
         sodipodi:role="line"
         x="1905.2314"
         y="2697.1885"
         id="tspan1072">Reiß dich</tspan><tspan
         style="font-size:45px"
         sodipodi:role="line"
         x="1905.2314"
         y="2753.4385"
         id="tspan89917">zusammen, </tspan><tspan
         style="font-size:45px"
         sodipodi:role="line"
         x="1905.2314"
         y="2809.6885"
         id="tspan1074">Pepper!</tspan></text>
  </g>
</svg>
