<?xml version="1.0" encoding="UTF-8" standalone="no"?>
<svg
   id="svg2"
   version="1.1"
   inkscape:version="1.1 (c4e8f9ed74, 2021-05-24)"
   width="2481"
   height="3503"
   sodipodi:docname="E35P11.svg"
   xmlns:inkscape="http://www.inkscape.org/namespaces/inkscape"
   xmlns:sodipodi="http://sodipodi.sourceforge.net/DTD/sodipodi-0.dtd"
   xmlns:xlink="http://www.w3.org/1999/xlink"
   xmlns="http://www.w3.org/2000/svg"
   xmlns:svg="http://www.w3.org/2000/svg"
   xmlns:rdf="http://www.w3.org/1999/02/22-rdf-syntax-ns#"
   xmlns:cc="http://creativecommons.org/ns#"
   xmlns:dc="http://purl.org/dc/elements/1.1/">
  <metadata
     id="metadata8">
    <rdf:RDF>
      <cc:Work
         rdf:about="">
        <dc:format>image/svg+xml</dc:format>
        <dc:type
           rdf:resource="http://purl.org/dc/dcmitype/StillImage" />
        <dc:title />
      </cc:Work>
    </rdf:RDF>
  </metadata>
  <defs
     id="defs6">
    <filter
       style="color-interpolation-filters:sRGB"
       id="filter4375-4-1-1-1-9-3-2-3-8-7-6-4-9"
       inkscape:label="deevad outline effect"
       x="-0.0020173484"
       y="-0.0088842342"
       width="1.0040347"
       height="1.0177685">
      <feFlood
         id="feFlood4377-7-9-0-8-1-6-9-6-7-5-32-7-4"
         flood-opacity="1"
         flood-color="rgb(95,141,211)"
         result="flood" />
      <feComposite
         id="feComposite4379-3-8-8-2-77-7-1-0-9-9-0-6-8"
         in2="SourceGraphic"
         in="flood"
         operator="in"
         result="composite1" />
      <feMorphology
         id="feMorphology4393-1-0-49-8-9-5-2-6-2-2-6-5-1"
         operator="dilate"
         radius="4"
         result="result3" />
      <feComposite
         id="feComposite4385-9-5-7-0-8-3-7-2-0-2-1-6-2"
         in2="result3"
         in="SourceGraphic"
         operator="over"
         result="composite2" />
    </filter>
  </defs>
  <sodipodi:namedview
     pagecolor="#ffffff"
     bordercolor="#666666"
     borderopacity="1"
     objecttolerance="10"
     gridtolerance="10"
     guidetolerance="10"
     inkscape:pageopacity="0"
     inkscape:pageshadow="2"
     inkscape:window-width="1920"
     inkscape:window-height="1011"
     id="namedview4"
     showgrid="false"
     inkscape:zoom="0.46261215"
     inkscape:cx="744.68429"
     inkscape:cy="1943.3125"
     inkscape:window-x="0"
     inkscape:window-y="0"
     inkscape:window-maximized="1"
     inkscape:current-layer="layer3"
     inkscape:document-rotation="0"
     inkscape:snap-global="false"
     inkscape:pagecheckerboard="0" />
  <g
     inkscape:groupmode="layer"
     id="layer2"
     inkscape:label="artwork"
     sodipodi:insensitive="true">
    <image
       xlink:href="../gfx_Pepper-and-Carrot_by-David-Revoy_E35P11.png"
       width="2481"
       height="3503"
       id="image10"
       x="0"
       y="0" />
  </g>
  <g
     inkscape:groupmode="layer"
     id="layer3"
     inkscape:label="speechbubbles">
    <path
       style="color:#000000;display:inline;overflow:visible;visibility:visible;fill:#ffffff;fill-opacity:1;fill-rule:nonzero;stroke:none;stroke-width:1.05826px;marker:none;enable-background:accumulate"
       d="m 692.7246,1526.6704 c 28.1693,-24.9106 272.04455,-35.5556 336.641,7.541 53.9173,35.9724 32.8807,122.5341 -15.0706,141.6334 -47.95088,19.099 -207.46599,13.6696 -277.37785,3.2265 -66.56578,-9.9423 -77.74329,-36.2614 -81.01761,-88.8787 -1.33637,-21.4761 8.65558,-38.612 36.82506,-63.5222 z"
       id="path4040-4-9-2"
       inkscape:connector-curvature="0"
       sodipodi:nodetypes="zssssz" />
    <path
       style="color:#000000;display:inline;overflow:visible;visibility:visible;fill:#ffffff;fill-opacity:1;fill-rule:nonzero;stroke:none;stroke-width:1.36564px;marker:none;enable-background:accumulate"
       d="m 672.87343,351.47617 c 33.46845,54.26318 16.77932,109.75225 -42.25383,148.97796 101.91057,-50.70471 112.5118,-145.0271 95.84592,-167.01491 -16.31806,-21.52888 -53.59209,18.03695 -53.59209,18.03695 z"
       id="path5010-4"
       inkscape:connector-curvature="0"
       sodipodi:nodetypes="ccsc" />
    <path
       style="display:inline;fill:#ffffff;stroke:none;stroke-width:0.593809"
       d="m 1186.7253,67.444344 c -37.6383,0.291165 -75.9441,5.226017 -110.6114,20.596138 -18.9707,9.035479 -34.6736,26.398278 -38.8001,47.340988 -3.9744,20.62219 -2.5171,42.19634 3.4954,62.27217 7.1845,18.83833 23.1758,33.143 41.1121,41.62797 26.4023,13.35548 56.0864,18.26676 85.3259,20.41751 39.6467,3.26547 79.5432,6.45676 119.3042,3.28382 30.4333,-2.53403 60.9347,-10.51405 86.9358,-26.93945 14.8833,-9.57802 28.8059,-21.8084 36.8096,-37.87408 6.7527,-13.08567 8.326,-28.38022 6.1478,-42.81545 -2.6598,-17.3016 -11.6926,-33.4704 -24.9835,-44.85659 -15.9119,-14.191539 -36.2871,-21.852076 -56.4207,-27.885526 -27.3936,-7.963814 -55.8576,-11.472072 -84.239,-13.544453 -21.3271,-1.406949 -42.709,-1.66886 -64.0761,-1.623047 z"
       id="path3280-8-1"
       inkscape:connector-curvature="0"
       sodipodi:nodetypes="csssc" />
    <path
       style="color:#000000;display:inline;overflow:visible;visibility:visible;fill:#ffffff;fill-opacity:1;fill-rule:nonzero;stroke:none;stroke-width:0.800146px;marker:none;enable-background:accumulate"
       d="m 1961.8832,80.042241 c -34.7191,0.406432 -70.4063,6.568789 -99.0184,22.208449 -23.8483,13.16571 -43.8184,31.61855 -51.8628,53.53875 -4.4721,13.03951 -5.9511,26.75881 -3.9259,40.16175 3.4466,21.10953 17.3002,40.74776 36.3935,56.00596 15.9185,12.70148 36.3419,22.1213 58.674,26.47524 54.2089,12.34459 110.7032,17.93543 167.095,19.84518 53.5978,1.52074 107.9814,-1.50162 159.5172,-13.43241 33.8067,-8.85512 65.7135,-24.40452 86.0652,-47.26665 16.5872,-19.38443 21.4227,-43.2101 20.4267,-65.9967 -0.6535,-21.44646 -8.3499,-43.71351 -27.3399,-60.02958 -17.9792,-15.127089 -44.4463,-22.876397 -70.657,-24.641498 -64.7305,-7.607729 -130.4027,-5.079663 -195.6245,-6.383948 -26.5797,-0.270672 -53.1603,-0.607176 -79.7431,-0.484543 z"
       id="path4546-6-7"
       inkscape:connector-curvature="0"
       sodipodi:nodetypes="cscssssc" />
    <path
       style="color:#000000;display:inline;overflow:visible;visibility:visible;fill:#ffffff;fill-opacity:1;fill-rule:nonzero;stroke:none;stroke-width:1.12702px;marker:none;enable-background:accumulate"
       d="m 565.61908,1388.2962 c 41.74205,-25.3329 403.12352,-39.6345 498.84402,2.4936 79.8964,35.164 48.7235,122.0411 -22.3318,141.8593 -71.05503,19.818 -307.42906,16.7802 -411.02647,7.3854 -98.63901,-8.9443 -115.20219,-35.0958 -120.05418,-87.6639 -1.98025,-21.4561 12.82609,-38.7418 54.56843,-64.0744 z"
       id="path4040-4-9"
       inkscape:connector-curvature="0"
       sodipodi:nodetypes="zssssz" />
    <path
       style="fill:#ffffff;fill-rule:evenodd;stroke:none;stroke-width:1.05571px;stroke-linecap:butt;stroke-linejoin:miter;stroke-opacity:1"
       d="m 1064.4695,1622.5472 c -35.993,0.7291 -71.95342,2.6221 -107.88354,4.8265 -22.36463,1.6673 -45.00811,3.6153 -66.44066,10.701 -27.60827,10.0731 -49.59141,33.0951 -60.94129,60.1924 -5.22616,12.637 -8.88594,25.9027 -11.6032,39.3039 -2.48027,13.5112 -2.1299,27.8756 3.21172,40.6757 6.15942,15.7061 16.51268,29.2899 27.57065,41.7828 20.90205,22.529 49.16034,38.451 79.58618,42.6316 26.2518,4.3722 52.78071,6.7277 79.27704,8.9811 44.153,2.9772 88.4523,3.5937 132.6809,2.3342 37.2025,-1.1622 74.4,-3.7153 111.2961,-8.7499 19.6105,-3.1773 39.6108,-8.2068 56.0712,-19.9413 15.9967,-11.6814 26.8398,-29.7966 30.9756,-49.1872 4.1676,-14.771 7.7196,-30.5115 4.2773,-45.815 -4.2889,-18.3279 -13.823,-34.7402 -22.7588,-51.0635 -9.3075,-15.9555 -21.3976,-30.9908 -37.7633,-39.9138 -19.8069,-11.4333 -42.2208,-16.7164 -63.9669,-22.9755 -34.389,-9.07 -70.0214,-11.9044 -105.443,-12.7777 -16.0413,-0.6074 -32.0909,-1.1471 -48.146,-1.0053 z"
       id="path1079"
       inkscape:connector-curvature="0" />
    <path
       style="color:#000000;display:inline;overflow:visible;visibility:visible;fill:#ffffff;fill-opacity:1;fill-rule:nonzero;stroke:none;stroke-width:0.939237px;marker:none;enable-background:accumulate"
       d="m 1404.4998,1793.8153 c -45.9909,-29.4273 -78.0349,-27.5278 -104.8526,-18.0354 -25.7868,9.1275 -19.8278,10.3608 -19.8278,10.3608 l 10.5667,-48.0852 c -3.1179,-4.3789 71.5596,-1.8389 114.1137,55.7598 z"
       id="path3072-12"
       inkscape:connector-curvature="0"
       sodipodi:nodetypes="csccc" />
    <path
       style="display:inline;fill:#ffffff;stroke:none;stroke-width:1.00437"
       d="m 1358.3715,197.26135 c -57.6237,0.71141 -115.9463,6.56567 -169.6776,23.18281 -44.0476,15.5755 -79.7472,45.87113 -92.0938,82.0756 -8.031,25.0237 -7.2674,51.00356 -6.8196,76.57747 2.0318,29.0786 21.3342,56.19505 47.9542,76.47645 15.7309,12.23074 35.1029,21.35899 55.5853,28.16258 46.1648,15.82346 96.8241,22.86993 147.1878,24.03039 37.8481,0.6584 75.6981,-0.37645 113.536,-0.94856 46.9724,-1.17898 94.2748,-3.0418 140.2224,-11.13023 25.5398,-4.70887 51.3293,-11.56473 71.6233,-24.77076 26.6467,-17.34664 43.8401,-41.96217 52.6519,-67.61578 9.0381,-26.9469 6.8268,-55.48535 -2.0196,-82.27993 -7.6268,-25.61175 -22.1336,-50.87469 -47.2459,-69.27695 -25.9781,-19.27673 -59.8598,-31.03158 -94.4523,-38.14607 -53.238,-11.44019 -108.7559,-14.37129 -163.7703,-15.94323 -17.5555,-0.39537 -35.1201,-0.42638 -52.6818,-0.39379 z"
       id="path3280-8-1-3"
       inkscape:connector-curvature="0"
       sodipodi:nodetypes="csssc" />
    <path
       style="display:inline;fill:#ffffff;stroke:none;stroke-width:0.986136"
       d="m 2011.8516,226.1866 c -58.2287,0.51905 -117.4901,9.31627 -171.1225,36.71618 -29.3487,16.1073 -53.642,47.05952 -60.026,84.39353 -6.1486,36.76262 -3.8941,75.2223 5.4076,111.01093 11.1149,33.5826 35.8544,59.08314 63.6028,74.20908 40.8459,23.80845 86.769,32.56366 132.0043,36.39776 61.3359,5.82125 123.0581,11.51027 184.5707,5.85396 47.0823,-4.51735 94.2697,-18.74311 134.495,-48.02423 23.0253,-17.07448 44.5645,-38.87726 56.9466,-67.51711 10.4469,-23.32748 12.8809,-50.59266 9.5111,-76.32597 -4.1149,-30.84309 -18.0892,-59.6668 -38.6511,-79.96465 -24.6166,-25.29889 -56.1382,-38.9551 -87.2862,-49.71079 -42.3795,-14.19688 -86.415,-20.45096 -130.3227,-24.14535 -32.9944,-2.50813 -66.0734,-2.97503 -99.1296,-2.89334 z"
       id="path3280-8-1-1"
       inkscape:connector-curvature="0"
       sodipodi:nodetypes="csssc" />
    <path
       style="display:inline;fill:#ffffff;stroke:none;stroke-width:0.878282"
       d="m 2015.7226,512.43103 c -51.1986,0.20457 -102.9726,6.99947 -150.4081,24.46273 -12.9224,4.69238 -25.3534,10.57281 -36.1505,18.4463 -26.8139,18.95948 -45.7287,46.92342 -49.6847,77.15264 -4.9447,29.59112 1.4192,61.55322 22.2161,85.73992 21.9105,25.65187 54.411,42.89866 88.6518,52.94131 36.9695,11.69095 76.4117,15.26024 115.4205,16.83953 59.0004,4.24718 118.3866,3.31175 177.3228,-1.2566 27.5611,-2.12647 55.4072,-5.13665 81.4134,-13.88075 27.4582,-9.11439 52.0812,-24.79281 70.6098,-44.79522 15.7267,-17.10189 26.8917,-37.94357 28.8949,-60.04567 4.1017,-38.55918 -14.7528,-79.06341 -50.4827,-102.2193 -30.7399,-20.64724 -68.2924,-31.22095 -105.4664,-39.02243 -62.9534,-12.85577 -127.9838,-14.55747 -192.3369,-14.36246 z"
       id="path3280-8-1-1-8"
       inkscape:connector-curvature="0"
       sodipodi:nodetypes="csssc" />
    <path
       style="fill:#ffffff;fill-rule:evenodd;stroke:none;stroke-width:1px;stroke-linecap:butt;stroke-linejoin:miter;stroke-opacity:1"
       d="m 1917.1509,703.14914 c -35.1448,34.55495 -40.918,43.76621 -48.2945,59.20991 -7.3765,15.44359 -1.4166,45.82505 15.3336,59.77726 16.7502,13.95231 20.6476,39.75145 6.4656,51.09426 -14.1819,11.34295 -70.6572,56.04997 -12.3413,98.68519 -52.1304,-50.93005 4.6214,-80.3316 15.046,-87.77901 10.4245,-7.44749 30.9525,-25.50425 13.4446,-59.50485 -17.5082,-34.00062 -21.7713,-50.818 31.7495,-83.72489 53.5207,-32.90685 -21.4035,-37.75787 -21.4035,-37.75787 z"
       id="path1081"
       inkscape:connector-curvature="0"
       sodipodi:nodetypes="ccccccssc" />
    <path
       style="color:#000000;display:inline;overflow:visible;visibility:visible;fill:#ffffff;fill-opacity:1;fill-rule:nonzero;stroke:none;stroke-width:1.4638px;marker:none;enable-background:accumulate"
       d="m 1446.9857,482.25247 c 38.5518,83.9689 2.5856,139.06018 -54.1917,168.09629 98.918,-30.2652 116.1188,-134.92733 86.7076,-167.77583 -23.1309,-25.83416 -32.5159,-0.32046 -32.5159,-0.32046 z"
       id="path5010-4-3"
       inkscape:connector-curvature="0"
       sodipodi:nodetypes="ccsc" />
    <path
       style="color:#000000;display:inline;overflow:visible;visibility:visible;fill:#ffffff;fill-opacity:1;fill-rule:nonzero;stroke:none;stroke-width:0.861506px;marker:none;enable-background:accumulate"
       d="m 1708.9341,2344.6889 c 0.1396,-105.6475 -1.9817,-81.2211 156.3841,-79.1966 68.739,0.8787 150.308,10.6222 143.7753,157.3952 -5.1637,116.0161 -130.901,110.3132 -154.2725,113.5955 -23.2236,3.2615 -117.9728,-16.6744 -138.5725,-62.3724 -12.895,-28.6062 -8.0693,-101.383 -7.3144,-129.4217 z"
       id="path4546-6-59"
       inkscape:connector-curvature="0"
       sodipodi:nodetypes="cssssc" />
    <path
       style="fill:#ffffff;stroke:none;stroke-width:1.40498"
       d="m 720.93646,74.334276 c -50.55152,3.08778 -100.03953,15.416754 -149.93195,23.909777 -31.45318,6.242517 -62.81602,17.304637 -88.87367,37.942527 -16.49827,13.20659 -29.33925,31.97773 -35.29672,53.34425 -9.54535,30.12085 -9.93681,62.865 -5.11563,94.04195 3.84814,22.99347 12.27848,45.81666 27.54972,62.71498 15.19086,17.11859 34.15817,30.07813 54.65516,38.33478 17.69799,7.8496 36.26553,13.26302 55.14052,16.50527 42.14937,7.86858 85.03779,9.8885 127.74302,9.45199 43.67122,-0.77799 87.28472,-6.16766 129.93481,-16.42186 21.26672,-4.78213 42.71551,-11.63012 60.62503,-25.42823 19.75792,-15.0267 35.44362,-36.34047 44.53157,-60.59277 3.97062,-10.73934 5.91123,-22.25046 6.27639,-33.7908 0.74213,-14.8313 0.81776,-29.69103 1.10115,-44.53743 0.10717,-44.82775 -3.44038,-89.73925 -11.72081,-133.685824 -3.09725,-3.45486 -7.93984,-1.880213 -11.78697,-3.251442 C 857.91557,82.354172 789.57167,74.056384 720.93646,74.334276 Z"
       id="path3100-2"
       inkscape:connector-curvature="0"
       sodipodi:nodetypes="cccccccccccccc" />
    <path
       style="display:inline;fill:#ffffff;fill-rule:evenodd;stroke:none;stroke-width:1.14884px;stroke-linecap:butt;stroke-linejoin:miter;stroke-opacity:1"
       d="m 1876.2442,2473.0319 c 29.6781,34.3855 -48.3918,61.0872 -32.7914,98.1006 6.1219,14.5249 50.1858,21.814 59.4409,88.3499 -23.107,-54.5774 -70.7535,-56.808 -83.5614,-79.4341 -24.3256,-42.971 15.5983,-74.4437 22.7675,-83.4264 9.5884,-12.0136 34.1444,-23.59 34.1444,-23.59 z"
       id="path4186-80"
       inkscape:connector-curvature="0"
       sodipodi:nodetypes="cscssc" />
    <path
       style="color:#000000;display:inline;overflow:visible;visibility:visible;fill:#ffffff;fill-opacity:1;fill-rule:nonzero;stroke:none;stroke-width:0.498677px;marker:none;enable-background:accumulate"
       d="m 247.03145,2086.542 c 14.89956,-13.964 143.89241,-22.406 178.05924,0.5429 28.51853,19.1552 17.39156,66.8586 -7.97118,77.8463 -25.36268,10.9877 -109.73489,9.7123 -146.71334,4.7305 -35.20858,-4.7428 -41.12069,-19.0595 -42.85256,-47.8849 -0.70688,-11.7653 4.57816,-21.2709 19.47784,-35.2348 z"
       id="path4040-4-9-3"
       inkscape:connector-curvature="0"
       sodipodi:nodetypes="zssssz" />
    <path
       style="color:#000000;display:inline;overflow:visible;visibility:visible;fill:#ffffff;fill-opacity:1;fill-rule:nonzero;stroke:none;stroke-width:0.816531px;marker:none;enable-background:accumulate"
       d="m 354.58902,2078.2586 c 35.58146,-4.2267 52.48817,-58.2989 28.13393,-95.1145 44.43236,49.6051 29.57055,64.2564 4.74971,120.5184 -6.58837,14.934 -32.88364,-25.4039 -32.88364,-25.4039 z"
       id="path5010-4-5"
       inkscape:connector-curvature="0"
       sodipodi:nodetypes="ccsc" />
  </g>
  <g
     inkscape:groupmode="layer"
     id="layer1"
     inkscape:label="txt">
    <text
       xml:space="preserve"
       style="font-style:normal;font-variant:normal;font-weight:normal;font-stretch:normal;font-size:45px;line-height:1.25;font-family:Lavi;-inkscape-font-specification:Lavi;text-align:center;letter-spacing:0px;word-spacing:0px;text-anchor:middle;fill:#000000;fill-opacity:1;stroke:none"
       x="690.90973"
       y="179.30602"
       id="text4246-3-2-2"><tspan
         style="font-size:45px"
         sodipodi:role="line"
         x="690.90973"
         y="179.30602"
         id="tspan908">Danke, dass du</tspan><tspan
         style="font-size:45px"
         sodipodi:role="line"
         x="690.90973"
         y="235.55602"
         id="tspan1622">Carrot erlaubt hast,</tspan><tspan
         style="font-size:45px"
         sodipodi:role="line"
         x="690.90973"
         y="291.80603"
         id="tspan2992">frische Kleider für</tspan><tspan
         style="font-size:45px"
         sodipodi:role="line"
         x="690.90973"
         y="348.05603"
         id="tspan5106">mich zu holen.</tspan></text>
    <text
       xml:space="preserve"
       style="font-style:normal;font-variant:normal;font-weight:normal;font-stretch:normal;font-size:45px;line-height:1.25;font-family:Lavi;-inkscape-font-specification:Lavi;text-align:center;letter-spacing:0px;word-spacing:0px;text-anchor:middle;fill:#000000;fill-opacity:1;stroke:none"
       x="1228.4615"
       y="148.09232"
       id="text4246-3-2-2-3-3-3"><tspan
         style="font-size:45px"
         sodipodi:role="line"
         x="1228.4615"
         y="148.09232"
         id="tspan876-3">War mir</tspan><tspan
         style="font-size:45px"
         sodipodi:role="line"
         x="1228.4615"
         y="204.34232"
         id="tspan8444">ein Vergnügen.</tspan></text>
    <text
       xml:space="preserve"
       style="font-style:normal;font-variant:normal;font-weight:normal;font-stretch:normal;font-size:45px;line-height:1.25;font-family:Lavi;-inkscape-font-specification:Lavi;text-align:center;letter-spacing:0px;word-spacing:0px;text-anchor:middle;fill:#000000;fill-opacity:1;stroke:none"
       x="1403.865"
       y="288.4176"
       id="text4246-3-2-2-3-3"><tspan
         style="font-size:45px"
         sodipodi:role="line"
         x="1403.865"
         y="288.4176"
         id="tspan941">Du hast unseren</tspan><tspan
         style="font-size:45px"
         sodipodi:role="line"
         x="1403.865"
         y="344.6676"
         id="tspan11337">Auftrag einfacher gemacht,</tspan><tspan
         style="font-size:45px"
         sodipodi:role="line"
         x="1403.865"
         y="400.9176"
         id="tspan13143">das ist das Mindeste</tspan><tspan
         style="font-size:45px"
         sodipodi:role="line"
         x="1403.865"
         y="457.1676"
         id="tspan15549">was ich tun kann.</tspan></text>
    <text
       xml:space="preserve"
       style="font-style:normal;font-variant:normal;font-weight:normal;font-stretch:normal;font-size:45px;line-height:1.25;font-family:Lavi;-inkscape-font-specification:Lavi;text-align:center;letter-spacing:0px;word-spacing:0px;text-anchor:middle;fill:#000000;fill-opacity:1;stroke:none"
       x="2070.6965"
       y="162.92047"
       id="text4246-3-2-2-3-3-67"><tspan
         style="font-size:45px"
         sodipodi:role="line"
         x="2070.6965"
         y="162.92047"
         id="tspan898">Aber weißt du, Wasabi</tspan><tspan
         style="font-size:45px"
         sodipodi:role="line"
         x="2070.6965"
         y="219.17047"
         id="tspan23207">ist wirklich sauer.</tspan></text>
    <text
       xml:space="preserve"
       style="font-style:normal;font-variant:normal;font-weight:normal;font-stretch:normal;font-size:45px;line-height:1.25;font-family:Lavi;-inkscape-font-specification:Lavi;text-align:center;letter-spacing:0px;word-spacing:0px;text-anchor:middle;fill:#000000;fill-opacity:1;stroke:none"
       x="2069.8462"
       y="308.0451"
       id="text4246-3-2-2-3-3-67-2"><tspan
         style="font-size:45px"
         sodipodi:role="line"
         x="2069.8462"
         y="308.0451"
         id="tspan912">Sie verlangt</tspan><tspan
         style="font-size:45px"
         sodipodi:role="line"
         x="2069.8462"
         y="364.2951"
         id="tspan29957">Perfektion. Du hast das</tspan><tspan
         style="font-size:45px"
         sodipodi:role="line"
         x="2069.8462"
         y="420.5451"
         id="tspan33335">gestört, mit deinem Dreck,</tspan><tspan
         style="font-size:45px"
         sodipodi:role="line"
         x="2069.8462"
         y="476.7951"
         id="tspan37129">deiner Kleidung und</tspan><tspan
         style="font-size:45px"
         sodipodi:role="line"
         x="2069.8462"
         y="533.0451"
         id="tspan40171">deinem Auftritt.</tspan></text>
    <text
       xml:space="preserve"
       style="font-style:normal;font-variant:normal;font-weight:normal;font-stretch:normal;font-size:45px;line-height:1.25;font-family:Lavi;-inkscape-font-specification:Lavi;text-align:center;letter-spacing:0px;word-spacing:0px;text-anchor:middle;fill:#000000;fill-opacity:1;stroke:none"
       x="2072.1318"
       y="610.4613"
       id="text4246-3-2-2-3-3-67-2-3"><tspan
         style="font-size:45px"
         sodipodi:role="line"
         x="2072.1318"
         y="610.4613"
         id="tspan63874">Und du hast sie an-</tspan><tspan
         style="font-size:45px"
         sodipodi:role="line"
         x="2072.1318"
         y="666.7113"
         id="tspan72448">gegriffen! Sie wird das</tspan><tspan
         style="font-size:45px"
         sodipodi:role="line"
         x="2072.1318"
         y="722.9613"
         id="tspan67256">nicht durchgehen lassen.</tspan></text>
    <text
       xml:space="preserve"
       style="font-style:normal;font-variant:normal;font-weight:normal;font-stretch:normal;font-size:45px;line-height:1.25;font-family:Lavi;-inkscape-font-specification:Lavi;text-align:center;letter-spacing:0px;word-spacing:0px;text-anchor:middle;fill:#000000;fill-opacity:1;stroke:none"
       x="337.77441"
       y="2140.1113"
       id="text4246-3-2-2-3-3-6-67"><tspan
         style="font-size:45px"
         sodipodi:role="line"
         x="337.77441"
         y="2140.1113"
         id="tspan1191-3">Ich weiß.</tspan></text>
    <text
       xml:space="preserve"
       style="font-style:normal;font-variant:normal;font-weight:normal;font-stretch:normal;font-size:45px;line-height:1.25;font-family:Lavi;-inkscape-font-specification:Lavi;text-align:center;letter-spacing:0px;word-spacing:0px;text-anchor:middle;fill:#000000;fill-opacity:1;stroke:none"
       x="804.12201"
       y="1440.0366"
       id="text4246-3-2-2-3-3-6"><tspan
         style="font-size:45px"
         sodipodi:role="line"
         x="804.12201"
         y="1440.0366"
         id="tspan909">Wie auch immer, ich</tspan><tspan
         style="font-size:45px"
         sodipodi:role="line"
         x="804.12201"
         y="1496.2866"
         id="tspan77158">muss eine Runde schlafen.</tspan></text>
    <text
       xml:space="preserve"
       style="font-style:normal;font-variant:normal;font-weight:normal;font-stretch:normal;font-size:45px;line-height:1.25;font-family:Lavi;-inkscape-font-specification:Lavi;text-align:center;letter-spacing:0px;word-spacing:0px;text-anchor:middle;fill:#000000;fill-opacity:1;stroke:none"
       x="863.08191"
       y="1579.2286"
       id="text4246-3-2-2-3-3-6-6"><tspan
         style="font-size:45px"
         sodipodi:role="line"
         x="863.08191"
         y="1579.2286"
         id="tspan949">Wir gehen, wenn</tspan><tspan
         style="font-size:45px"
         sodipodi:role="line"
         x="863.08191"
         y="1635.4786"
         id="tspan85840">ich aufwache.</tspan></text>
    <text
       xml:space="preserve"
       style="font-style:normal;font-variant:normal;font-weight:normal;font-stretch:normal;font-size:45px;line-height:1.25;font-family:Lavi;-inkscape-font-specification:Lavi;text-align:center;letter-spacing:0px;word-spacing:0px;text-anchor:middle;fill:#000000;fill-opacity:1;stroke:none"
       x="1076.8749"
       y="1704.7681"
       id="text4246-3-2-2-3-3-6-2"><tspan
         style="font-size:45px"
         sodipodi:role="line"
         x="1076.8749"
         y="1704.7681"
         id="tspan958">Mach inzwischen was</tspan><tspan
         style="font-size:45px"
         sodipodi:role="line"
         x="1076.8749"
         y="1761.0181"
         id="tspan93535">du willst, aber geh</tspan><tspan
         style="font-size:45px"
         sodipodi:role="line"
         x="1076.8749"
         y="1817.2681"
         id="tspan97537">nicht zu weit weg...</tspan></text>
    <text
       xml:space="preserve"
       style="font-style:normal;font-variant:normal;font-weight:normal;font-stretch:normal;line-height:0%;font-family:Lavi;-inkscape-font-specification:Lavi;letter-spacing:0px;word-spacing:0px;display:inline;fill:#ffffff;fill-opacity:1;stroke:#5f8dd3;stroke-width:0.992362;stroke-miterlimit:4;stroke-dasharray:none;stroke-opacity:1;filter:url(#filter4375-4-1-1-1-9-3-2-3-8-7-6-4-9)"
       x="787.65729"
       y="1584.5073"
       id="text4580-5-0-6-2-8-5-9-9"
       transform="matrix(0.71138619,-0.38856964,0.42362052,1.0933045,-1095.3818,1936.127)"><tspan
         sodipodi:role="line"
         id="tspan4582-6-9-1-3-9-5-3-3"
         x="787.65729"
         y="1584.5073"
         style="font-size:70px;line-height:1.25;fill:#ffffff;stroke:#5f8dd3">Pflatsch</tspan></text>
    <text
       xml:space="preserve"
       style="font-style:normal;font-variant:normal;font-weight:normal;font-stretch:normal;font-size:45px;line-height:1.25;font-family:Lavi;-inkscape-font-specification:Lavi;text-align:center;letter-spacing:0px;word-spacing:0px;text-anchor:middle;fill:#000000;fill-opacity:1;stroke:none"
       x="1861.7039"
       y="2364.5269"
       id="text4246-3-2-2-3-3-6-2-9"><tspan
         style="font-size:45px"
         sodipodi:role="line"
         x="1861.7039"
         y="2364.5269"
         id="tspan105124">Was für eine</tspan><tspan
         style="font-size:45px"
         sodipodi:role="line"
         x="1861.7039"
         y="2420.7769"
         id="tspan107612">sonderbare</tspan><tspan
         style="font-size:45px"
         sodipodi:role="line"
         x="1861.7039"
         y="2477.0269"
         id="tspan109190">Hexe.</tspan></text>
  </g>
</svg>
