<?xml version="1.0" encoding="UTF-8" standalone="no"?>
<svg
   id="svg2"
   version="1.1"
   inkscape:version="1.1 (c4e8f9ed74, 2021-05-24)"
   width="2481"
   height="3503"
   sodipodi:docname="E35P10.svg"
   xmlns:inkscape="http://www.inkscape.org/namespaces/inkscape"
   xmlns:sodipodi="http://sodipodi.sourceforge.net/DTD/sodipodi-0.dtd"
   xmlns:xlink="http://www.w3.org/1999/xlink"
   xmlns="http://www.w3.org/2000/svg"
   xmlns:svg="http://www.w3.org/2000/svg"
   xmlns:rdf="http://www.w3.org/1999/02/22-rdf-syntax-ns#"
   xmlns:cc="http://creativecommons.org/ns#"
   xmlns:dc="http://purl.org/dc/elements/1.1/">
  <metadata
     id="metadata8">
    <rdf:RDF>
      <cc:Work
         rdf:about="">
        <dc:format>image/svg+xml</dc:format>
        <dc:type
           rdf:resource="http://purl.org/dc/dcmitype/StillImage" />
        <dc:title />
      </cc:Work>
    </rdf:RDF>
  </metadata>
  <defs
     id="defs6" />
  <sodipodi:namedview
     pagecolor="#ffffff"
     bordercolor="#666666"
     borderopacity="1"
     objecttolerance="10"
     gridtolerance="10"
     guidetolerance="10"
     inkscape:pageopacity="0"
     inkscape:pageshadow="2"
     inkscape:window-width="1920"
     inkscape:window-height="1011"
     id="namedview4"
     showgrid="false"
     inkscape:zoom="0.266002"
     inkscape:cx="1009.3909"
     inkscape:cy="3026.293"
     inkscape:window-x="0"
     inkscape:window-y="0"
     inkscape:window-maximized="1"
     inkscape:current-layer="layer1"
     inkscape:document-rotation="0"
     inkscape:snap-global="false"
     inkscape:pagecheckerboard="0" />
  <g
     inkscape:groupmode="layer"
     id="layer2"
     inkscape:label="artwork"
     sodipodi:insensitive="true">
    <image
       xlink:href="../gfx_Pepper-and-Carrot_by-David-Revoy_E35P10.png"
       y="0"
       x="0"
       id="image10"
       height="3503"
       width="2481" />
  </g>
  <g
     inkscape:groupmode="layer"
     id="layer3"
     inkscape:label="speechbubbles">
    <path
       style="fill:#ffffff;stroke:none;stroke-width:0.97366"
       d="m 1263.5926,157.25391 c -55.8422,0.29098 -112.2959,-0.47467 -167.1948,10.8164 -22.8268,4.56706 -46.0595,9.98485 -66.1099,21.85547 -23.7475,14.22857 -43.45731,35.8119 -51.83186,61.71319 -6.8414,22.55228 -2.54357,47.05188 7.79411,67.98492 12.19452,25.96015 34.36745,47.72975 61.79975,58.89989 28.139,12.67802 58.0434,21.30987 88.1354,28.54857 43.709,9.60291 88.7338,11.19293 133.3977,11.97595 53.9605,1.49972 108.2095,4.40377 161.9727,-1.8898 33.2345,-3.71944 66.349,-8.70206 99.0051,-15.73301 32.6805,-7.2385 65.2493,-17.86124 92.725,-36.77391 12.6082,-8.36057 22.0772,-20.45188 28.5401,-33.6715 4.4567,-9.09672 7.6641,-18.69761 10.7899,-28.27201 5.7213,-18.74127 7.4241,-39.07366 1.652,-58.00714 -7.3183,-25.23075 -26.9085,-46.72418 -51.7712,-57.45367 -25.2297,-11.90018 -53.145,-16.87592 -80.6135,-21.5171 -39.9701,-6.08342 -80.5257,-6.88313 -120.9018,-7.90491 -48.5911,-0.70896 -97.1902,-0.54456 -145.7852,-0.58217 -0.5346,0.004 -1.069,0.007 -1.6035,0.0108 z"
       id="path3100-98"
       inkscape:connector-curvature="0"
       sodipodi:nodetypes="zsssssz" />
    <path
       style="color:#000000;display:inline;overflow:visible;visibility:visible;fill:#ffffff;fill-opacity:1;fill-rule:nonzero;stroke:none;stroke-width:0.83737px;marker:none;enable-background:accumulate"
       d="m 1448.7795,517.63055 c 2.403,-24.32977 -9.2766,-33.6163 -20.6628,-38.28253 -11.3869,-4.66626 -19.0826,-5.58729 -28.1978,-26.0826 -9.1142,-20.49521 -0.7357,-41.29642 -4.8853,-52.46499 -11.4569,-16.24953 -34.9307,-26.06627 -44.5289,-30.51513 -21.6856,-10.05119 11.3091,-23.29909 11.3091,-23.29909 8.77,-0.30545 47.7455,23.68713 57.7575,33.72157 14.4084,14.44054 -4.0636,48.20741 4.0399,65.52593 7.5675,16.17219 18.2749,17.40774 23.9472,28.63593 5.6729,11.22843 4.8219,31.66667 1.2211,42.76091 z"
       id="path4538-8"
       inkscape:connector-curvature="0"
       sodipodi:nodetypes="csscscsssc" />
    <path
       style="color:#000000;display:inline;overflow:visible;visibility:visible;fill:#ffffff;fill-opacity:1;fill-rule:nonzero;stroke:none;stroke-width:1.21196px;marker:none;enable-background:accumulate"
       d="m 128.60526,1521.6618 c 4.04686,-52.835 4.62778,-103.8757 58.15572,-134.3848 53.52782,-30.5077 147.82948,-38.1731 266.27874,-29.2988 63.44774,4.7531 143.3755,11.1057 193.97011,33.0647 50.59462,21.9591 71.8562,59.5245 66.66422,136.9162 -5.19199,77.3916 -33.21031,110.9507 -91.65593,130.2669 -58.44553,19.3177 -147.31858,24.3928 -168.71908,26.3926 -21.40048,1.9996 -87.77534,-0.5587 -153.62887,-10.1499 -65.85341,-9.5912 -110.89691,-16.2888 -130.21198,-42.4256 -30.27953,-33.1568 -42.6943,-71.9148 -40.85293,-110.3813 z"
       id="path4546-6-2-0"
       inkscape:connector-curvature="0"
       sodipodi:nodetypes="cssssssscc" />
    <path
       style="fill:#ffffff;fill-rule:evenodd;stroke:none;stroke-width:1.12465px;stroke-linecap:butt;stroke-linejoin:miter;stroke-opacity:1"
       d="m 566.83527,1651.6586 c 4.43847,-15.3188 61.8645,41.4938 43.56991,104.2767 2.42387,27.4208 22.18027,42.2423 21.12076,57.0045 -1.05963,24.2524 -9.53608,35.8508 -36.02508,55.8848 33.90594,-15.8168 54.23301,-33.7608 55.29264,-58.0121 1.05951,-24.2524 -17.71625,-25.1329 -17.14842,-60.0829 1.05952,-10.5449 25.79381,-65.3353 -26.69151,-120.7385 19.07205,-20.0341 -40.1183,21.6675 -40.1183,21.6675 z"
       id="path1303"
       inkscape:connector-curvature="0"
       sodipodi:nodetypes="cccccccc" />
    <path
       style="color:#000000;display:inline;overflow:visible;visibility:visible;fill:#ffffff;fill-opacity:1;fill-rule:nonzero;stroke:none;stroke-width:0.912013px;marker:none;enable-background:accumulate"
       d="m 1238.3355,1541.7467 c 3.2381,-37.3903 3.703,-73.5107 46.535,-95.1015 42.832,-21.5896 118.2903,-27.0143 213.0711,-20.7341 50.7698,3.3636 114.7264,7.8593 155.2113,23.3992 40.4849,15.54 57.4978,42.1243 53.3433,96.8929 -4.1542,54.7685 -26.5739,78.5176 -73.341,92.1873 -46.7672,13.6708 -117.8817,17.2623 -135.0059,18.6775 -17.1242,1.4151 -70.2364,-0.3954 -122.9311,-7.1829 -52.6948,-6.7874 -88.7375,-11.5272 -104.193,-30.0237 -24.229,-23.4644 -34.1633,-50.8927 -32.6897,-78.1147 z"
       id="path4546-6-2-0-3"
       inkscape:connector-curvature="0"
       sodipodi:nodetypes="cssssssscc" />
    <path
       style="color:#000000;display:inline;overflow:visible;visibility:visible;fill:#ffffff;fill-opacity:1;fill-rule:nonzero;stroke:none;stroke-width:0.935737px;marker:none;enable-background:accumulate"
       d="m 1288.3913,1759.375 c 3.0973,-41.1512 3.5418,-80.9047 44.5105,-104.6672 40.9684,-23.7613 113.144,-29.7316 203.8009,-22.8197 48.5609,3.702 109.7348,8.6498 148.4584,25.7529 38.7236,17.1029 54.9965,46.3614 51.0227,106.6388 -3.9738,60.2772 -25.4182,86.415 -70.1504,101.4599 -44.7322,15.0458 -112.7529,18.9986 -129.1322,20.556 -16.3792,1.5576 -67.1805,-0.4349 -117.5825,-7.9053 -50.4021,-7.4703 -84.8767,-12.6866 -99.6599,-33.0436 -23.175,-25.8245 -32.6768,-56.0116 -31.2675,-85.9718 z"
       id="path4546-6-2-0-3-6"
       inkscape:connector-curvature="0"
       sodipodi:nodetypes="cssssssscc" />
    <path
       style="color:#000000;display:inline;overflow:visible;visibility:visible;fill:#ffffff;fill-opacity:1;fill-rule:nonzero;stroke:none;stroke-width:1.47843px;marker:none;enable-background:accumulate"
       d="m 1474.8245,1844.8292 c 6.1533,73.3287 -47.1663,130.4434 -118.01,146.3855 114.7363,-9.2052 166.2605,-106.0374 160.9588,-137.1332 -5.191,-30.4467 -42.9488,-9.2523 -42.9488,-9.2523 z"
       id="path5010-4"
       inkscape:connector-curvature="0"
       sodipodi:nodetypes="ccsc" />
  </g>
  <g
     inkscape:groupmode="layer"
     id="layer1"
     inkscape:label="txt">
    <text
       xml:space="preserve"
       style="font-style:normal;font-variant:normal;font-weight:normal;font-stretch:normal;font-size:45px;line-height:1.25;font-family:Lavi;-inkscape-font-specification:Lavi;text-align:center;letter-spacing:0px;word-spacing:0px;text-anchor:middle;fill:#000000;fill-opacity:1;stroke:none"
       x="1325.0667"
       y="244.98175"
       id="text4246-3-2-2"><tspan
         style="font-size:45px"
         sodipodi:role="line"
         x="1325.0667"
         y="244.98175"
         id="tspan20039">Du weißt schon, dass es nicht</tspan><tspan
         style="font-size:45px"
         sodipodi:role="line"
         x="1325.0667"
         y="301.23175"
         id="tspan2141">gut für dich enden wird, dich</tspan><tspan
         style="font-size:45px"
         sodipodi:role="line"
         x="1325.0667"
         y="357.48175"
         id="tspan5135">Herrin Wasabi zu ergeben?</tspan></text>
    <text
       xml:space="preserve"
       style="font-style:normal;font-variant:normal;font-weight:normal;font-stretch:normal;font-size:45px;line-height:1.25;font-family:Lavi;-inkscape-font-specification:Lavi;text-align:center;letter-spacing:0px;word-spacing:0px;text-anchor:middle;fill:#000000;fill-opacity:1;stroke:none"
       x="415.41315"
       y="1452.8612"
       id="text4246-3-2-2-3"><tspan
         style="font-size:45px"
         sodipodi:role="line"
         x="415.41315"
         y="1452.8612"
         id="tspan892">Ich weiß, aber ich</tspan><tspan
         style="font-size:45px"
         sodipodi:role="line"
         x="415.41315"
         y="1509.1112"
         id="tspan10840">glaube, es ist möglich, zu</tspan><tspan
         style="font-size:45px"
         sodipodi:role="line"
         x="415.41315"
         y="1565.3612"
         id="tspan17236">ihr durchzudringen—um</tspan><tspan
         style="font-size:45px"
         sodipodi:role="line"
         x="415.41315"
         y="1621.6112"
         id="tspan17240">sie verstehen zu lassen.</tspan></text>
    <text
       xml:space="preserve"
       style="font-style:normal;font-variant:normal;font-weight:normal;font-stretch:normal;font-size:45px;line-height:1.25;font-family:Lavi;-inkscape-font-specification:Lavi;text-align:center;letter-spacing:0px;word-spacing:0px;text-anchor:middle;fill:#000000;fill-opacity:1;stroke:none"
       x="1460.6498"
       y="1492.2601"
       id="text4246-3-2-2-3-3"><tspan
         style="font-size:45px"
         sodipodi:role="line"
         x="1460.6498"
         y="1492.2601"
         id="tspan896">Schließlich lässt</tspan><tspan
         style="font-size:45px"
         sodipodi:role="line"
         x="1460.6498"
         y="1548.5101"
         id="tspan21559">sich alles</tspan><tspan
         style="font-size:45px"
         sodipodi:role="line"
         x="1460.6498"
         y="1604.7601"
         id="tspan22901">wiedergutmachen.</tspan></text>
    <text
       xml:space="preserve"
       style="font-style:normal;font-variant:normal;font-weight:normal;font-stretch:normal;font-size:45px;line-height:1.25;font-family:Lavi;-inkscape-font-specification:Lavi;text-align:center;letter-spacing:0px;word-spacing:0px;text-anchor:middle;fill:#000000;fill-opacity:1;stroke:none"
       x="1510.7936"
       y="1717.9688"
       id="text4246-3-2-2-3-3-1"><tspan
         style="font-size:45px"
         sodipodi:role="line"
         x="1510.7936"
         y="1717.9688"
         id="tspan913">Das habe ich</tspan><tspan
         style="font-size:45px"
         sodipodi:role="line"
         x="1510.7936"
         y="1774.2188"
         id="tspan27810">von einer alten</tspan><tspan
         style="font-size:45px"
         sodipodi:role="line"
         x="1510.7936"
         y="1830.4688"
         id="tspan29388">Freundin gelernt.</tspan></text>
  </g>
</svg>
