<?xml version="1.0" encoding="UTF-8" standalone="no"?>
<!-- Created with Inkscape (http://www.inkscape.org/) -->

<svg
   xmlns:dc="http://purl.org/dc/elements/1.1/"
   xmlns:cc="http://creativecommons.org/ns#"
   xmlns:rdf="http://www.w3.org/1999/02/22-rdf-syntax-ns#"
   xmlns:svg="http://www.w3.org/2000/svg"
   xmlns="http://www.w3.org/2000/svg"
   xmlns:xlink="http://www.w3.org/1999/xlink"
   xmlns:sodipodi="http://sodipodi.sourceforge.net/DTD/sodipodi-0.dtd"
   xmlns:inkscape="http://www.inkscape.org/namespaces/inkscape"
   id="svg2"
   version="1.1"
   inkscape:version="0.92.1 r15371"
   width="2481"
   height="3503"
   sodipodi:docname="E07P05.svg">
  <metadata
     id="metadata8">
    <rdf:RDF>
      <cc:Work
         rdf:about="">
        <dc:format>image/svg+xml</dc:format>
        <dc:type
           rdf:resource="http://purl.org/dc/dcmitype/StillImage" />
        <dc:title />
      </cc:Work>
    </rdf:RDF>
  </metadata>
  <defs
     id="defs6">
    <filter
       color-interpolation-filters="sRGB"
       id="filter4375-5-4-81-5-7"
       inkscape:label="deevad outline effect">
      <feFlood
         id="feFlood4377-0-3-3-6-2"
         flood-opacity="1"
         flood-color="rgb(255,255,255)"
         result="flood" />
      <feComposite
         id="feComposite4379-6-6-36-2-8"
         in2="SourceGraphic"
         in="flood"
         operator="in"
         result="composite1" />
      <feMorphology
         id="feMorphology4393-0-9-1-4-4"
         operator="dilate"
         radius="4"
         result="result3" />
      <feComposite
         id="feComposite4385-7-5-4-1-1"
         in2="result3"
         in="SourceGraphic"
         operator="over"
         result="composite2" />
    </filter>
    <filter
       color-interpolation-filters="sRGB"
       id="filter4375-5-4-81-0"
       inkscape:label="deevad outline effect">
      <feFlood
         id="feFlood4377-0-3-3-7"
         flood-opacity="1"
         flood-color="rgb(255,255,255)"
         result="flood" />
      <feComposite
         id="feComposite4379-6-6-36-8"
         in2="SourceGraphic"
         in="flood"
         operator="in"
         result="composite1" />
      <feMorphology
         id="feMorphology4393-0-9-1-3"
         operator="dilate"
         radius="4"
         result="result3" />
      <feComposite
         id="feComposite4385-7-5-4-2"
         in2="result3"
         in="SourceGraphic"
         operator="over"
         result="composite2" />
    </filter>
  </defs>
  <sodipodi:namedview
     pagecolor="#ffffff"
     bordercolor="#666666"
     borderopacity="1"
     objecttolerance="10"
     gridtolerance="10"
     guidetolerance="10"
     inkscape:pageopacity="0"
     inkscape:pageshadow="2"
     inkscape:window-width="2560"
     inkscape:window-height="1311"
     id="namedview4"
     showgrid="false"
     inkscape:zoom="0.80000002"
     inkscape:cx="1273.9724"
     inkscape:cy="496.02954"
     inkscape:window-x="0"
     inkscape:window-y="55"
     inkscape:window-maximized="1"
     inkscape:current-layer="layer1" />
  <g
     inkscape:groupmode="layer"
     id="layer2"
     inkscape:label="artwork"
     sodipodi:insensitive="true">
    <image
       sodipodi:absref="/home/rbreu/pepper_un_wuddel/webcomics/ep07_The-Wish/lang/ns/../gfx_Pepper-and-Carrot_by-David-Revoy_E07P05.png"
       xlink:href="../gfx_Pepper-and-Carrot_by-David-Revoy_E07P05.png"
       y="0"
       x="0"
       id="image10"
       height="3503"
       width="2481" />
  </g>
  <g
     inkscape:groupmode="layer"
     id="layer3"
     inkscape:label="speechbubbles">
    <path
       style="color:#000000;display:inline;overflow:visible;visibility:visible;fill:#ffffff;fill-opacity:1;fill-rule:nonzero;stroke:none;stroke-width:1px;marker:none;enable-background:accumulate"
       d="m 2027.9676,1484.5049 c -50.2315,-16.9109 -101.4758,-33.6666 -9.5905,-72.3629 -86.2084,8.705 -32.8693,-12.6528 -11.2716,-27.1724 -154.3758,26.4521 -53.6732,-19.2753 -14.9833,-47.455 -34.5811,10.8398 -90.2171,42.2328 -68.0236,-2.3497 -37.7228,13.8188 -61.2688,24.199 -28.9732,-1.5531 -34.119,19.5903 -37.851,16.4609 -30.2676,3.2316 -14.0161,10.9792 -22.9123,13.764 -22.386,1.4679 -13.2001,9.0111 -17.0407,5.7387 -20.1547,1.5134 -22.8033,19.4595 -30.8339,13.675 -39.4083,8.8187 -12.936,11.6991 -27.4536,8.6933 -43.2984,-6.6565 -17.5399,19.9882 -35.5289,18.3834 -53.7697,4.6767 -3.9728,15.8822 -14.9377,31.6451 -26.0004,-1.8321 -7.5379,2.5225 -13.0115,23.4274 -36.9259,-12.0175 -3.4854,38.3574 -90.4627,23.4715 -126.4968,3.2507 9.8125,30.0243 -9.5605,43.2253 -70.7915,12.0274 -3.7205,11.9322 -22.6818,16.4212 -55.2426,14.2691 32.915,15.1631 34.3294,23.4421 -42.97,14.5191 53.6269,12.9614 103.0126,25.8361 18.7598,35.9853 19.4546,5.1083 84.0275,-4.658 11.5288,50.2713 50.4553,-11.4206 95.9589,-13.7272 108.0537,36.8442 27.4618,-12.6746 57.5674,-18.6166 79.939,12.215 21.9339,-13.7851 51.7558,-9.7599 67.0866,-2.4808 4.7973,-15.4894 37.5383,-38.7271 79.0733,5.4617 -8.5509,-24.809 0.073,-63.8707 47.9407,1.9399 1.4163,-11.2493 -17.0079,-72.9589 120.4627,3.4192 -15.6548,-49.6818 29.8293,-20.0315 65.971,-2.5035 -17.0815,-31.2974 10.4454,-33.1292 69.7471,-13.9732 -45.1693,-30.3076 2.0969,-21.2303 31.9914,-19.5545 z"
       id="path3549-3-3-0"
       inkscape:connector-curvature="0"
       sodipodi:nodetypes="ccccccccccccccccccccccccccccc" />
    <path
       style="color:#000000;fill:#ffffff;fill-opacity:1;fill-rule:nonzero;stroke:none;stroke-width:1px;marker:none;visibility:visible;display:inline;overflow:visible;enable-background:accumulate"
       d="m 1553.1822,1675.5799 c 1.1047,-78.9063 25.3304,-147.2662 297.2186,-134.4643 271.8879,12.8022 270.6126,40.4201 264.5144,136.8561 -5.0903,80.4975 -121.2488,99.4714 -284.1153,98.5581 -166.7042,-0.9349 -273.777,-17.0996 -277.6177,-100.9499 z"
       id="path5026"
       inkscape:connector-curvature="0"
       sodipodi:nodetypes="csssc" />
    <path
       style="color:#000000;fill:#ffffff;fill-opacity:1;fill-rule:nonzero;stroke:none;stroke-width:1px;marker:none;visibility:visible;display:inline;overflow:visible;enable-background:accumulate"
       d="m 1667.6666,1599.9074 c -6.9031,32.4545 -3.5852,52.0587 -0.3875,56.8994 3.1978,4.8405 10.7873,17.717 13.4862,25.0045 2.2026,6.0554 7.1646,12.976 2.161,17.5999 -5.0037,4.6241 -38.4161,18.132 -44.1909,39.9564 -5.7748,21.8241 -0.1403,27.5491 10.4746,33.2413 10.6148,5.6925 24.344,13.4351 21.1361,29.7508 -3.208,16.316 -15.5688,27.4701 -22.2247,30.5744 -6.656,3.1043 -46.6521,14.3489 -57.1468,23.4201 -10.4947,9.0712 -39.8627,42.5729 -36.735,61.188 14.1899,-25.2101 21.7337,-36.9026 31.5274,-42.5482 9.7937,-5.6454 27.5656,-17.8856 38.2038,-16.7848 10.6383,1.1009 31.0235,5.7392 40.0561,-3.8627 9.0327,-9.6017 27.6322,-37.8115 28.8907,-54.8348 1.2586,-17.0232 -3.7351,-33.5555 -20.7923,-39.746 -10.6147,-5.6925 -15.0843,-10.0747 -13.7892,-15.1244 1.2952,-5.05 13.656,-16.2042 26.2669,-18.9873 12.6111,-2.7832 23.5931,-11.6775 25.2089,-22.1312 1.6155,-10.4537 -5.7824,-33.1186 -5.7358,-42.3016 0.047,-9.1832 -3.9006,-59.6356 -3.9006,-59.6356 z"
       id="path5058"
       inkscape:connector-curvature="0"
       sodipodi:nodetypes="cscsssssscssssccscccc" />
    <path
       inkscape:connector-curvature="0"
       id="path5208"
       d="m 1500.129,1219.4288 -23.6347,9.2241 c 13.4678,34.6216 23.7209,58.3448 36.8806,76.007 13.1598,17.6621 29.9172,28.3769 51.4769,34.5478 38.8046,11.1066 87.6095,29.6504 110.3563,63.7856 13.0544,19.5903 30.899,46.3181 40.3968,72.4104 9.4976,26.0925 10.8991,48.9765 -5.1622,67.5115 -18.3856,21.2176 -33.6353,27.9827 -49.2375,38.7459 -15.602,10.7633 -30.0776,26.7633 -37.7985,58.7242 l 24.6486,5.9701 c 6.6685,-27.6038 14.5297,-34.8223 27.5599,-43.8114 13.0304,-8.9892 32.7304,-18.4797 53.994,-43.0185 23.5881,-27.2213 20.8667,-62.4598 9.8275,-92.7869 -11.0391,-30.3271 -30.1459,-58.3231 -43.1213,-77.7948 -29.3128,-43.9883 -84.2642,-62.5983 -124.4829,-74.1097 -17.952,-5.1382 -27.8248,-11.5322 -38.1173,-25.346 -10.2925,-13.8139 -20.3066,-35.9214 -33.5862,-70.0593 z"
       style="font-size:medium;font-style:normal;font-variant:normal;font-weight:normal;font-stretch:normal;text-indent:0;text-align:start;text-decoration:none;line-height:normal;letter-spacing:normal;word-spacing:normal;text-transform:none;direction:ltr;block-progression:tb;writing-mode:lr-tb;text-anchor:start;baseline-shift:baseline;color:#000000;fill:#ffffff;fill-opacity:1;fill-rule:nonzero;stroke:none;stroke-width:31.89999962;marker:none;visibility:visible;display:inline;overflow:visible;enable-background:accumulate;font-family:Sans;-inkscape-font-specification:Sans" />
    <path
       style="color:#000000;fill:#ffffff;fill-opacity:1;fill-rule:nonzero;stroke:none;stroke-width:1px;marker:none;visibility:visible;display:inline;overflow:visible;enable-background:accumulate"
       d="m 1199.3815,1136.2586 c -62.1813,-97.5451 5.4717,-243.76783 305.2907,-229.52267 299.8188,14.24495 297.7194,47.80258 335.1527,101.17287 27.6993,39.4922 91.4188,181.6941 -142.586,218.3245 -234.0052,36.6302 -424.7308,3.6359 -497.8574,-89.9747 z"
       id="path3525"
       inkscape:connector-curvature="0"
       sodipodi:nodetypes="csssc" />
    <flowRoot
       xml:space="preserve"
       id="flowRoot2987-4-9-3"
       style="font-style:normal;font-variant:normal;font-weight:normal;font-stretch:normal;line-height:0.01%;font-family:Lavi;-inkscape-font-specification:Lavi;text-align:center;letter-spacing:0px;word-spacing:0px;text-anchor:middle;fill:#000000;fill-opacity:1;stroke:none"
       transform="translate(1235.7882,1126.5326)"><flowRegion
         id="flowRegion2989-5-4-5"><rect
           id="rect2991-7-9-6"
           width="602.40173"
           height="310.73996"
           x="120.55251"
           y="265.53046"
           style="font-style:normal;font-variant:normal;font-weight:normal;font-stretch:normal;font-family:Lavi;-inkscape-font-specification:Lavi;text-align:center;text-anchor:middle" /></flowRegion><flowPara
         style="font-size:48px;line-height:1.25;text-align:center;text-anchor:middle"
         id="flowPara3058">...aver mal <flowSpan
   style="font-style:italic;-inkscape-font-specification:'Lavi Italic'"
   id="flowSpan3058">in 'n Eernst!</flowSpan></flowPara></flowRoot>    <flowRoot
       xml:space="preserve"
       id="flowRoot2987-4-9-3-9"
       style="font-style:normal;font-variant:normal;font-weight:normal;font-stretch:normal;line-height:0.01%;font-family:Lavi;-inkscape-font-specification:Lavi;text-align:center;letter-spacing:0px;word-spacing:0px;text-anchor:middle;fill:#000000;fill-opacity:1;stroke:none"
       transform="translate(1105.2364,717.2071)"><flowRegion
         id="flowRegion2989-5-4-5-3"><rect
           id="rect2991-7-9-6-6"
           width="602.40173"
           height="310.73996"
           x="120.55251"
           y="265.53046"
           style="font-style:normal;font-variant:normal;font-weight:normal;font-stretch:normal;font-family:Lavi;-inkscape-font-specification:Lavi;text-align:center;text-anchor:middle" /></flowRegion><flowPara
         style="font-size:48px;line-height:1.25;text-align:center;text-anchor:middle"
         id="flowPara3058-5">Ik weet woll, <flowSpan
   style="font-style:italic;-inkscape-font-specification:'Lavi Italic'"
   id="flowSpan3056">männichmal</flowSpan></flowPara><flowPara
         style="font-size:48px;line-height:1.25;text-align:center;text-anchor:middle"
         id="flowPara3084">is de beste Wunsch, wat allens so blifft as dat is...</flowPara></flowRoot>    <flowRoot
       xml:space="preserve"
       id="flowRoot2987-4-9-3-9-1"
       style="font-style:normal;font-variant:normal;font-weight:normal;font-stretch:normal;line-height:0.01%;font-family:Lavi;-inkscape-font-specification:Lavi;text-align:center;letter-spacing:0px;word-spacing:0px;text-anchor:middle;fill:#000000;fill-opacity:1;stroke:none"
       transform="translate(1465.8786,1307.4961)"><flowRegion
         id="flowRegion2989-5-4-5-3-6"><rect
           id="rect2991-7-9-6-6-1"
           width="497.4017"
           height="304.48993"
           x="120.55251"
           y="265.53046"
           style="font-style:normal;font-variant:normal;font-weight:normal;font-stretch:normal;font-family:Lavi;-inkscape-font-specification:Lavi;text-align:center;text-anchor:middle" /></flowRegion><flowPara
         style="font-size:48px;line-height:1.25;text-align:center;text-anchor:middle"
         id="flowPara3060">&quot;Ik will man blots wiederslapen&quot;? Wat för 'n Verasen!</flowPara><flowPara
         style="font-size:48px;line-height:1.25;text-align:center;text-anchor:middle"
         id="flowPara94" /></flowRoot>    <flowRoot
       xml:space="preserve"
       id="flowRoot2987-7-9-9-7-4-5-16-68"
       style="font-style:normal;font-variant:normal;font-weight:normal;font-stretch:normal;line-height:0.01%;font-family:Lavi;-inkscape-font-specification:Lavi;letter-spacing:0px;word-spacing:0px;fill:#000000;fill-opacity:1;stroke:#000000;stroke-width:0.99236238;stroke-miterlimit:4;stroke-dasharray:none;stroke-opacity:1;filter:url(#filter4375-5-4-81-0)"
       transform="matrix(0.82433366,-0.36081689,0,0.88465495,667.96771,2206.9247)"><flowRegion
         id="flowRegion2989-4-5-8-7-8-5-9-9"
         style="stroke-width:5.40286207"><rect
           id="rect2991-45-1-3-3-4-3-6-1"
           width="319.66232"
           height="56.089447"
           x="120.55251"
           y="265.53046"
           style="font-style:normal;font-variant:normal;font-weight:normal;font-stretch:normal;font-family:Lavi;-inkscape-font-specification:Lavi;fill:#000000;fill-opacity:1;stroke:#000000;stroke-width:0.99236238;stroke-miterlimit:4;stroke-dasharray:none;stroke-opacity:1" /></flowRegion><flowPara
         id="flowPara2995-4-1-5-0-07-0-9-5"
         style="font-weight:normal;font-size:48px;line-height:1.25;-inkscape-font-specification:Lavi;fill:#000000;fill-opacity:1;stroke:#000000;stroke-width:0.99236238;stroke-linejoin:miter;stroke-miterlimit:4;stroke-dasharray:none;stroke-opacity:1">Zzzzz</flowPara></flowRoot>    <flowRoot
       xml:space="preserve"
       id="flowRoot2987-7-9-9-7-4-5-16-6-6"
       style="font-style:normal;font-variant:normal;font-weight:normal;font-stretch:normal;line-height:0.01%;font-family:Lavi;-inkscape-font-specification:Lavi;letter-spacing:0px;word-spacing:0px;fill:#000000;fill-opacity:1;stroke:#000000;stroke-width:0.99236238;stroke-miterlimit:4;stroke-dasharray:none;stroke-opacity:1;filter:url(#filter4375-5-4-81-5-7)"
       transform="matrix(0.89377961,-0.3912139,0,0.95918268,698.75071,2115.8028)"><flowRegion
         id="flowRegion2989-4-5-8-7-8-5-9-8-4"
         style="stroke-width:5.40286207"><rect
           id="rect2991-45-1-3-3-4-3-6-8-4"
           width="319.66232"
           height="56.089447"
           x="120.55251"
           y="265.53046"
           style="font-style:normal;font-variant:normal;font-weight:normal;font-stretch:normal;font-family:Lavi;-inkscape-font-specification:Lavi;fill:#000000;fill-opacity:1;stroke:#000000;stroke-width:0.99236238;stroke-miterlimit:4;stroke-dasharray:none;stroke-opacity:1" /></flowRegion><flowPara
         id="flowPara2995-4-1-5-0-07-0-9-3-7"
         style="font-weight:normal;font-size:48px;line-height:1.25;-inkscape-font-specification:Lavi;fill:#000000;fill-opacity:1;stroke:#000000;stroke-width:0.99236238;stroke-linejoin:miter;stroke-miterlimit:4;stroke-dasharray:none;stroke-opacity:1">Zzzzz</flowPara></flowRoot>  </g>
  <g
     inkscape:groupmode="layer"
     id="layer1"
     inkscape:label="txt">
    <flowRoot
       xml:space="preserve"
       id="flowRoot2987-4-9-3-6-3-8-7-2-7-2"
       style="font-style:normal;font-variant:normal;font-weight:normal;font-stretch:normal;line-height:0.01%;font-family:Lavi;-inkscape-font-specification:Lavi;text-align:center;letter-spacing:0px;word-spacing:0px;text-anchor:middle;opacity:0.91627909;fill:#000000;fill-opacity:1;stroke:none"
       transform="matrix(0.85571819,0,0,0.85571819,131.95415,3068.5819)"><flowRegion
         id="flowRegion2989-5-4-5-5-3-0-6-76-8-1"><rect
           id="rect2991-7-9-6-21-9-8-0-3-1-7"
           width="2350.8157"
           height="72.357925"
           x="120.55251"
           y="265.53046"
           style="font-style:normal;font-variant:normal;font-weight:normal;font-stretch:normal;font-family:Lavi;-inkscape-font-specification:Lavi;text-align:center;text-anchor:middle" /></flowRegion><flowPara
         style="font-size:48px;line-height:1.25;text-align:center;text-anchor:middle"
         id="flowPara3272-6-3-1"><flowSpan
           style="fill:#1b1b1b;fill-opacity:1"
           id="flowSpan3856-1"><flowSpan
             style="fill:#2d2d2d;fill-opacity:1"
             id="flowSpan3858-6"><flowSpan
               style="fill:#2f2f2f;fill-opacity:1"
               id="flowSpan3860-9"><flowSpan
                 style="fill:#3e3e3e;fill-opacity:1"
                 id="flowSpan3862-4"><flowSpan
                   style="fill:#3f3f3f;fill-opacity:1"
                   id="flowSpan3864-4"><flowSpan
                     style="fill:#474747;fill-opacity:1"
                     id="flowSpan3866-8"><flowSpan
                       style="fill:#4d4d4d;fill-opacity:1"
                       id="flowSpan3868-5"><flowSpan
                         style="fill:#4e4e4e;fill-opacity:1"
                         id="flowSpan3870-8"><flowSpan
                           style="fill:#585858;fill-opacity:1"
                           id="flowSpan3872-7"><flowSpan
                             style="fill:#595959;fill-opacity:1"
                             id="flowSpan3874-4"><flowSpan
                               style="fill:#6b6b6b;fill-opacity:1"
                               id="flowSpan3876-6"><flowSpan
                                 style="fill:#777777;fill-opacity:1"
                                 id="flowSpan3878-3"><flowSpan
                                   style="fill:#797979;fill-opacity:1"
                                   id="flowSpan3880-9"><flowSpan
                                   style="fill:#a0a0a0;fill-opacity:1"
                                   id="flowSpan3882-9"><flowSpan
                                   style="fill:#c7c7c7;fill-opacity:1"
                                   id="flowSpan3884-8"><flowSpan
                                   style="fill:#dddddd;fill-opacity:1"
                                   id="flowSpan3886-8"><flowSpan
                                   style="fill:#dedede;fill-opacity:1"
                                   id="flowSpan3888-6"><flowSpan
                                   style="fill:#fafafa;fill-opacity:1"
                                   id="flowSpan3890-2"><flowSpan
                                   style="fill:#ffffff;fill-opacity:1"
                                   id="flowSpan3892-9"><flowSpan
   style="font-size:40.7292366px"
   id="flowSpan3980">April 2015 - www.peppercarrot.com - Grafik un Text</flowSpan>: David Revoy , Översetten:  Rebecca Breu</flowSpan></flowSpan></flowSpan></flowSpan></flowSpan></flowSpan></flowSpan></flowSpan></flowSpan></flowSpan></flowSpan></flowSpan></flowSpan></flowSpan></flowSpan></flowSpan></flowSpan></flowSpan></flowSpan></flowPara></flowRoot>    <flowRoot
       xml:space="preserve"
       id="flowRoot2987-4-9-3-6-3-8-7-2"
       style="font-style:normal;font-variant:normal;font-weight:normal;font-stretch:normal;line-height:0.01%;font-family:Lavi;-inkscape-font-specification:Lavi;text-align:center;letter-spacing:0px;word-spacing:0px;text-anchor:middle;fill:#000000;fill-opacity:1;stroke:none"
       transform="translate(1216.7911,3156.4387)"><flowRegion
         id="flowRegion2989-5-4-5-5-3-0-6-76"><rect
           id="rect2991-7-9-6-21-9-8-0-3"
           width="1041.0548"
           height="56.977448"
           x="120.55251"
           y="265.53046"
           style="font-style:normal;font-variant:normal;font-weight:normal;font-stretch:normal;font-family:Lavi;-inkscape-font-specification:Lavi;text-align:center;text-anchor:middle" /></flowRegion><flowPara
         style="font-size:48px;line-height:1.25;text-align:center;text-anchor:middle"
         id="flowPara3272-6">Folg 7: De Wunsch</flowPara></flowRoot>    <flowRoot
       transform="matrix(0.90617713,0,-0.22078013,1.6225798,1926.7408,2974.0462)"
       style="font-style:normal;font-variant:normal;font-weight:normal;font-stretch:normal;line-height:0.01%;font-family:Lavi;-inkscape-font-specification:Lavi;text-align:center;letter-spacing:0px;word-spacing:0px;text-anchor:middle;fill:#000000;fill-opacity:1;stroke:#000000;stroke-width:4.69999981;stroke-miterlimit:4;stroke-dasharray:none;stroke-opacity:1"
       id="flowRoot4212-3-7-8-6"
       xml:space="preserve"><flowRegion
         id="flowRegion4214-6-7-8-3"><rect
           style="font-style:normal;font-variant:normal;font-weight:normal;font-stretch:normal;font-family:Lavi;-inkscape-font-specification:Lavi;text-align:center;text-anchor:middle;stroke:#000000;stroke-width:4.69999981;stroke-miterlimit:4;stroke-dasharray:none;stroke-opacity:1"
           y="265.53046"
           x="120.55251"
           height="355.03918"
           width="798.1947"
           id="rect4216-4-0-26-5" /></flowRegion><flowPara
         style="font-size:48px;line-height:1.25;text-align:center;letter-spacing:5.20896292px;text-anchor:middle;stroke:#000000;stroke-width:4.69999981;stroke-miterlimit:4;stroke-dasharray:none;stroke-opacity:1"
         id="flowPara4358-7-1">ENN</flowPara></flowRoot>  </g>
</svg>
