<?xml version="1.0" encoding="UTF-8" standalone="no"?>
<!-- Created with Inkscape (http://www.inkscape.org/) -->

<svg
   xmlns:dc="http://purl.org/dc/elements/1.1/"
   xmlns:cc="http://creativecommons.org/ns#"
   xmlns:rdf="http://www.w3.org/1999/02/22-rdf-syntax-ns#"
   xmlns:svg="http://www.w3.org/2000/svg"
   xmlns="http://www.w3.org/2000/svg"
   xmlns:xlink="http://www.w3.org/1999/xlink"
   xmlns:sodipodi="http://sodipodi.sourceforge.net/DTD/sodipodi-0.dtd"
   xmlns:inkscape="http://www.inkscape.org/namespaces/inkscape"
   id="svg2"
   version="1.1"
   inkscape:version="0.92.3 (2405546, 2018-03-11)"
   width="2481"
   height="3503"
   sodipodi:docname="E26P01.svg">
  <metadata
     id="metadata8">
    <rdf:RDF>
      <cc:Work
         rdf:about="">
        <dc:format>image/svg+xml</dc:format>
        <dc:type
           rdf:resource="http://purl.org/dc/dcmitype/StillImage" />
        <dc:title />
      </cc:Work>
    </rdf:RDF>
  </metadata>
  <defs
     id="defs6" />
  <sodipodi:namedview
     pagecolor="#ffffff"
     bordercolor="#666666"
     borderopacity="1"
     objecttolerance="10"
     gridtolerance="10"
     guidetolerance="10"
     inkscape:pageopacity="0"
     inkscape:pageshadow="2"
     inkscape:window-width="1920"
     inkscape:window-height="1017"
     id="namedview4"
     showgrid="false"
     inkscape:zoom="0.48912286"
     inkscape:cx="1509.3402"
     inkscape:cy="804.51975"
     inkscape:window-x="1912"
     inkscape:window-y="-8"
     inkscape:window-maximized="1"
     inkscape:current-layer="layer1"
     inkscape:snap-global="false" />
  <g
     inkscape:groupmode="layer"
     id="layer2"
     inkscape:label="artwork"
     sodipodi:insensitive="true">
    <image
       sodipodi:absref="G:\Min disk\Intersign Thomas\Pepper&amp;gulrot\ep26_Books-Are-Great\lang\no\../gfx_Pepper-and-Carrot_by-David-Revoy_E26P01.png"
       xlink:href="../gfx_Pepper-and-Carrot_by-David-Revoy_E26P01.png"
       width="2481"
       height="3503"
       id="image10"
       x="0"
       y="0" />
  </g>
  <g
     inkscape:groupmode="layer"
     id="layer3"
     inkscape:label="speechbubbles"
     style="display:inline;opacity:1">
    <path
       style="fill:#ffffff;fill-opacity:1;stroke:none;stroke-width:1.33979297"
       d="m 261.91033,1886.1776 c -70.25404,0.4163 -103.28886,-10.1327 -119.80262,-19.4702 -27.40102,-15.4936 -32.75993,-108.6848 22.45255,-127.2534 55.50305,-18.6663 163.74161,-14.5153 208.1649,21.3805 44.42312,35.8958 12.74043,83.1585 2.52612,92.8715 -10.21448,9.7129 -37.3362,32.099 -113.34095,32.4716 z"
       id="path3659-8"
       inkscape:connector-curvature="0"
       sodipodi:nodetypes="cssssc" />
    <path
       style="color:#000000;display:inline;overflow:visible;visibility:visible;fill:#ffffff;fill-opacity:1;fill-rule:nonzero;stroke:none;stroke-width:0.77001458px;marker:none;enable-background:accumulate"
       d="m 274.67689,1855.3732 c 11.17842,15.8247 25.32183,43.4204 25.79652,49.4209 -6.73911,-0.5556 -13.09406,0.387 -18.03883,1.0204 1.81058,10.7946 32.21158,51.6223 41.64451,56.3046 -23.83945,-10.0592 -58.27989,-45.5693 -59.88737,-63.8703 6.68489,-2.1454 10.75049,-2.4727 14.26692,-3.6967 -0.36416,-9.3034 -20.80365,-30.8908 -20.80365,-30.8908 z"
       id="path5066"
       inkscape:connector-curvature="0"
       sodipodi:nodetypes="cccccccc" />
    <path
       style="color:#000000;display:inline;overflow:visible;visibility:visible;fill:#ffffff;fill-opacity:1;fill-rule:nonzero;stroke:none;stroke-width:1.12914014px;marker:none;enable-background:accumulate"
       d="m 1746.289,1959.3191 c -40.2549,-49.7059 -38.839,-154.5338 -27.3374,-176.9014 17.9863,-41.8224 84.2097,-49.2864 138.8415,-49.2864 54.6317,0 482.3581,-15.299 510.0445,26.7951 46.2088,70.2554 26.8542,149.3892 -22.0268,210.2788 -48.8811,60.8897 -320.2658,48.4632 -320.2658,48.4632 0,0 -217.4358,4.0256 -279.256,-59.3493 z"
       id="path3992"
       inkscape:connector-curvature="0"
       sodipodi:nodetypes="ccssccc" />
    <path
       style="color:#000000;display:inline;overflow:visible;visibility:visible;fill:#ffffff;fill-opacity:1;fill-rule:nonzero;stroke:none;stroke-width:1px;marker:none;enable-background:accumulate"
       d="m 1984.9695,2224.8076 c 97.5172,-13.4683 140.8945,-73.5032 173.5649,-113.8088 15.274,-18.8437 -32.2063,-50.3843 -32.2063,-50.3843 l -20.4844,64.3961 c 4.4776,5.3732 -31.2523,71.0033 -120.8742,99.797 z"
       id="path4000"
       inkscape:connector-curvature="0"
       sodipodi:nodetypes="csccc" />
    <path
       style="color:#000000;display:inline;overflow:visible;visibility:visible;fill:#ffffff;fill-opacity:1;fill-rule:nonzero;stroke:none;stroke-width:0.83059144px;marker:none;enable-background:accumulate"
       d="m 1986.9871,2045.8133 c 16.1003,-23.0063 28.0556,-67.3113 146.6344,-51.7323 63.5172,8.3448 135.7326,7.6994 128.2439,88.2216 -7.4887,80.5222 -112.6372,70.1622 -134.1673,71.1095 -21.53,0.9474 -123.0936,0.012 -141.7025,-28.3054 -11.6488,-17.7262 -15.0761,-57.9183 0.9915,-79.2934 z"
       id="path4546-6"
       inkscape:connector-curvature="0"
       sodipodi:nodetypes="cssssc" />
    <path
       style="color:#000000;display:inline;overflow:visible;visibility:visible;opacity:1;vector-effect:none;fill:#ffffff;fill-opacity:1;fill-rule:nonzero;stroke:none;stroke-width:1.17083478;stroke-linecap:butt;stroke-linejoin:miter;stroke-miterlimit:4;stroke-dasharray:none;stroke-dashoffset:0;stroke-opacity:1;marker:none;paint-order:stroke fill markers;enable-background:accumulate"
       d="m 892.15013,2723.199 c -38.71503,-57.7438 -34.56706,-170.344 -23.50553,-196.3287 -6.48685,-38.8253 17.8463,-71.1263 78.81276,-64.9617 52.33566,5.2919 428.44094,-33.6977 482.36544,26.9332 53.9243,60.6309 49.5692,139.0968 2.5581,209.8329 -47.0112,70.7362 -306.558,89.4859 -306.558,89.4859 -0.247,0.4017 -182.98149,22.9126 -233.67277,-64.9616 z"
       id="path3992-0"
       inkscape:connector-curvature="0"
       sodipodi:nodetypes="ccscscc" />
    <path
       style="color:#000000;display:inline;overflow:visible;visibility:visible;fill:#ffffff;fill-opacity:1;fill-rule:nonzero;stroke:none;stroke-width:1.1471467px;marker:none;enable-background:accumulate"
       d="m 1107.7917,2663.674 c -41.0805,41.3971 -74.3212,126.4523 -32.6058,262.3106 -64.481,-107.4324 -40.7404,-218.5665 -31.5488,-251.0486 9.1915,-32.4819 64.1546,-11.262 64.1546,-11.262 z"
       id="path4008"
       inkscape:connector-curvature="0" />
    <path
       style="color:#000000;display:inline;overflow:visible;visibility:visible;fill:#ffffff;fill-opacity:1;fill-rule:nonzero;stroke:none;stroke-width:1.1471467px;marker:none;enable-background:accumulate"
       d="m 1891.9827,2656.832 c -40.4116,58.3597 -53.3089,167.7072 24.2468,263.2149 -108.4132,-99.3198 -82.2954,-214.0613 -72.6196,-244.9782 2.0322,-33.6961 48.3728,-18.2367 48.3728,-18.2367 z"
       id="path4008-0"
       inkscape:connector-curvature="0"
       sodipodi:nodetypes="cccc" />
    <path
       style="color:#000000;display:inline;overflow:visible;visibility:visible;opacity:1;fill:#ffffff;fill-opacity:1;fill-rule:nonzero;stroke:none;stroke-width:1.3938657px;marker:none;enable-background:accumulate"
       d="m 1845.3514,2754.6382 c -85.6293,-11.4249 -99.8946,-33.2233 -120.3181,-85.7917 -20.4236,-52.5684 17.7873,-210.0762 35.6615,-222.0442 11.3819,-4.5693 198.495,-1.6759 272.5373,10.4072 74.0423,12.0833 107.6533,4.1407 131.9719,86.3811 21.0739,71.2666 -25.7194,188.953 -123.6327,205.6811 -97.9134,16.7282 -196.2199,5.3665 -196.2199,5.3665 z"
       id="path3970"
       inkscape:connector-curvature="0"
       sodipodi:nodetypes="csccssc" />
  </g>
  <g
     inkscape:groupmode="layer"
     id="layer1"
     inkscape:label="txt">
    <text
       xml:space="preserve"
       style="font-style:normal;font-variant:normal;font-weight:normal;font-stretch:normal;line-height:0%;font-family:Lavi;-inkscape-font-specification:Lavi;text-align:center;letter-spacing:0px;word-spacing:0px;text-anchor:middle;fill:#000000;fill-opacity:1;stroke:none"
       x="253.58946"
       y="1788.8776"
       id="text4246"><tspan
         sodipodi:role="line"
         style="font-size:45px;line-height:1.25"
         x="253.58946"
         y="1788.8776"
         id="tspan825">Bøker er</tspan><tspan
         sodipodi:role="line"
         style="font-size:45px;line-height:1.25"
         x="253.58946"
         y="1845.1276"
         id="tspan848">fantastiske!</tspan></text>
    <text
       xml:space="preserve"
       style="font-style:normal;font-variant:normal;font-weight:normal;font-stretch:normal;line-height:0%;font-family:Lavi;-inkscape-font-specification:Lavi;text-align:center;letter-spacing:0px;word-spacing:0px;text-anchor:middle;fill:#000000;fill-opacity:1;stroke:none"
       x="2119.3313"
       y="2058.8501"
       id="text4246-3-5-9"><tspan
         sodipodi:role="line"
         style="font-size:45px;line-height:1.25"
         x="2119.3313"
         y="2058.8501"
         id="tspan883">Dette er</tspan><tspan
         sodipodi:role="line"
         style="font-size:45px;line-height:1.25"
         x="2119.3313"
         y="2115.1001"
         id="tspan849">gull verdt!</tspan></text>
    <text
       xml:space="preserve"
       style="font-style:normal;font-variant:normal;font-weight:normal;font-stretch:normal;line-height:0%;font-family:Lavi;-inkscape-font-specification:Lavi;text-align:center;letter-spacing:0px;word-spacing:0px;text-anchor:middle;fill:#000000;fill-opacity:1;stroke:none"
       x="2051.8813"
       y="1797.9629"
       id="text4246-3-3"><tspan
         sodipodi:role="line"
         style="font-size:45px;line-height:1.25"
         x="2051.8813"
         y="1797.9629"
         id="tspan1107">Denne sjeldne boken inneholder</tspan><tspan
         sodipodi:role="line"
         style="font-size:45px;line-height:1.25"
         x="2051.8813"
         y="1854.2129"
         id="tspan875">memoarene til en erfaren</tspan><tspan
         sodipodi:role="line"
         style="font-size:45px;line-height:1.25"
         x="2051.8813"
         y="1910.4629"
         id="tspan877">eventyrer. Den beskriver alt</tspan><tspan
         sodipodi:role="line"
         style="font-size:45px;line-height:1.25"
         x="2051.8813"
         y="1966.7129"
         id="tspan879">om dette fangehullet.</tspan></text>
    <text
       xml:space="preserve"
       style="font-style:normal;font-variant:normal;font-weight:normal;font-stretch:normal;line-height:0%;font-family:Lavi;-inkscape-font-specification:Lavi;text-align:center;letter-spacing:0px;word-spacing:0px;text-anchor:middle;fill:#000000;fill-opacity:1;stroke:none"
       x="1163.4302"
       y="2538.7097"
       id="text4246-3-3-1"><tspan
         sodipodi:role="line"
         style="font-size:45px;line-height:1.25"
         x="1163.4302"
         y="2538.7097"
         id="tspan1244">For eksempel: Dette onde</tspan><tspan
         sodipodi:role="line"
         style="font-size:45px;line-height:1.25"
         x="1163.4302"
         y="2594.9597"
         id="tspan904">øyet i inngangsdøra skyter</tspan><tspan
         sodipodi:role="line"
         style="font-size:45px;line-height:1.25"
         x="1163.4302"
         y="2651.2097"
         id="tspan906">livsfarlige ildkuler for å</tspan><tspan
         sodipodi:role="line"
         style="font-size:45px;line-height:1.25"
         x="1163.4302"
         y="2707.4597"
         id="tspan908">skremme vekk uønskede</tspan><tspan
         sodipodi:role="line"
         style="font-size:45px;line-height:1.25"
         x="1163.4302"
         y="2763.7097"
         id="tspan935">gjester.</tspan></text>
    <text
       xml:space="preserve"
       style="font-style:normal;font-variant:normal;font-weight:normal;font-stretch:normal;line-height:0%;font-family:Lavi;-inkscape-font-specification:Lavi;text-align:center;letter-spacing:0px;word-spacing:0px;text-anchor:middle;fill:#000000;fill-opacity:1;stroke:none"
       x="1943.1216"
       y="2538.2783"
       id="text4246-3-3-1-2"><tspan
         sodipodi:role="line"
         style="font-size:45px;line-height:1.25"
         x="1943.1216"
         y="2538.2783"
         id="tspan41">Men om du</tspan><tspan
         sodipodi:role="line"
         style="font-size:45px;line-height:1.25"
         x="1943.1216"
         y="2594.5283"
         id="tspan933">nærmer deg</tspan><tspan
         sodipodi:role="line"
         style="font-size:45px;line-height:1.25"
         x="1943.1216"
         y="2650.7783"
         id="tspan939">forsiktig og ute av</tspan><tspan
         sodipodi:role="line"
         style="font-size:45px;line-height:1.25"
         x="1943.1216"
         y="2707.0283"
         id="tspan957">syne fra siden...</tspan><tspan
         sodipodi:role="line"
         style="font-size:45px;line-height:1.25"
         x="1943.1216"
         y="2725.5618"
         id="tspan1230" /></text>
  </g>
</svg>
