<?xml version="1.0" encoding="UTF-8" standalone="no"?>
<svg
   xmlns:dc="http://purl.org/dc/elements/1.1/"
   xmlns:cc="http://creativecommons.org/ns#"
   xmlns:rdf="http://www.w3.org/1999/02/22-rdf-syntax-ns#"
   xmlns:svg="http://www.w3.org/2000/svg"
   xmlns="http://www.w3.org/2000/svg"
   xmlns:xlink="http://www.w3.org/1999/xlink"
   xmlns:sodipodi="http://sodipodi.sourceforge.net/DTD/sodipodi-0.dtd"
   xmlns:inkscape="http://www.inkscape.org/namespaces/inkscape"
   id="svg2"
   version="1.1"
   inkscape:version="0.92.4 (5da689c313, 2019-01-14)"
   width="2481"
   height="3503"
   sodipodi:docname="E34P10.svg">
  <metadata
     id="metadata8">
    <rdf:RDF>
      <cc:Work
         rdf:about="">
        <dc:format>image/svg+xml</dc:format>
        <dc:type
           rdf:resource="http://purl.org/dc/dcmitype/StillImage" />
        <dc:title />
      </cc:Work>
    </rdf:RDF>
  </metadata>
  <defs
     id="defs6">
    <filter
       style="color-interpolation-filters:sRGB"
       id="filter4375-4-1-1-1-9-5-8-8-5-5-3-3-3-0"
       inkscape:label="soundFX1">
      <feFlood
         id="feFlood4377-7-9-0-8-1-7-3-1-2-7-6-6-5-96"
         flood-opacity="1"
         flood-color="rgb(52,52,52)"
         result="flood" />
      <feComposite
         id="feComposite4379-3-8-8-2-77-4-1-0-6-4-7-7-6-3"
         in2="SourceGraphic"
         in="flood"
         operator="in"
         result="composite1"
         baseFrequency="0.053999999999999999 0.053999999999999999" />
      <feMorphology
         id="feMorphology4393-1-0-49-8-9-3-0-1-9-9-5-5-2-8"
         operator="dilate"
         radius="2.5856550817276021"
         result="result3" />
      <feComposite
         id="feComposite4385-9-5-7-0-8-8-7-5-4-9-3-3-9-5"
         in2="result3"
         in="SourceGraphic"
         operator="over"
         result="fbSourceGraphic" />
      <feColorMatrix
         result="fbSourceGraphicAlpha"
         in="fbSourceGraphic"
         values="0 0 0 -1 0 0 0 0 -1 0 0 0 0 -1 0 0 0 0 1 0"
         id="feColorMatrix4544-9-4-4-5-5-1-6" />
      <feTurbulence
         id="feTurbulence4546-3-6-5-6-6-2-1"
         type="fractalNoise"
         numOctaves="4"
         seed="147"
         baseFrequency="0.046080819231719368"
         result="turbulence" />
      <feDisplacementMap
         id="feDisplacementMap4548-8-0-9-2-2-7-1"
         in2="turbulence"
         in="fbSourceGraphic"
         scale="13.20326"
         yChannelSelector="G"
         xChannelSelector="R"
         result="fbSourceGraphic" />
      <feColorMatrix
         result="fbSourceGraphicAlpha"
         in="fbSourceGraphic"
         values="0 0 0 -1 0 0 0 0 -1 0 0 0 0 -1 0 0 0 0 1 0"
         id="feColorMatrix4670-7-7-3-9-9-0-5" />
      <feFlood
         id="feFlood4672-4-4-5-1-1-9-9"
         flood-opacity="1"
         flood-color="rgb(28,28,28)"
         result="flood"
         in="fbSourceGraphic" />
      <feComposite
         id="feComposite4674-8-3-7-2-2-3-8"
         in2="fbSourceGraphic"
         in="flood"
         operator="in"
         result="composite1" />
      <feGaussianBlur
         id="feGaussianBlur4676-3-7-08-7-7-6-4"
         in="composite1"
         stdDeviation="0"
         result="blur" />
      <feOffset
         id="feOffset4678-6-9-1-0-0-0-8"
         dx="-8.3919392296330813"
         dy="1.5526614972014983"
         result="offset" />
      <feComposite
         id="feComposite4680-4-0-9-9-9-6-1"
         in2="offset"
         in="fbSourceGraphic"
         operator="over"
         result="composite2" />
    </filter>
    <filter
       style="color-interpolation-filters:sRGB"
       id="filter4375-4-1-1-1-9-5-8-8-5-5-3-8"
       inkscape:label="soundFX1">
      <feFlood
         id="feFlood4377-7-9-0-8-1-7-3-1-2-7-6-7"
         flood-opacity="1"
         flood-color="rgb(255,255,255)"
         result="flood" />
      <feComposite
         id="feComposite4379-3-8-8-2-77-4-1-0-6-4-7-9"
         in2="SourceGraphic"
         in="flood"
         operator="in"
         result="composite1"
         baseFrequency="0.053999999999999999 0.053999999999999999" />
      <feMorphology
         id="feMorphology4393-1-0-49-8-9-3-0-1-9-9-5-2"
         operator="dilate"
         radius="2.9756367599225957"
         result="result3" />
      <feComposite
         id="feComposite4385-9-5-7-0-8-8-7-5-4-9-3-0"
         in2="result3"
         in="SourceGraphic"
         operator="over"
         result="fbSourceGraphic" />
      <feColorMatrix
         result="fbSourceGraphicAlpha"
         in="fbSourceGraphic"
         values="0 0 0 -1 0 0 0 0 -1 0 0 0 0 -1 0 0 0 0 1 0"
         id="feColorMatrix4544-9-4-4-5-2" />
      <feTurbulence
         id="feTurbulence4546-3-6-5-6-3"
         type="fractalNoise"
         numOctaves="5"
         seed="174"
         baseFrequency="0.053999999999999999 0.054054054054054057"
         result="turbulence" />
      <feDisplacementMap
         id="feDisplacementMap4548-8-0-9-2-7"
         in2="turbulence"
         in="fbSourceGraphic"
         scale="6.6"
         yChannelSelector="G"
         xChannelSelector="R"
         result="fbSourceGraphic" />
      <feColorMatrix
         result="fbSourceGraphicAlpha"
         in="fbSourceGraphic"
         values="0 0 0 -1 0 0 0 0 -1 0 0 0 0 -1 0 0 0 0 1 0"
         id="feColorMatrix4670-7-7-3-9-5" />
      <feFlood
         id="feFlood4672-4-4-5-1-9"
         flood-opacity="1"
         flood-color="rgb(255,255,255)"
         result="flood"
         in="fbSourceGraphic" />
      <feComposite
         id="feComposite4674-8-3-7-2-22"
         in2="fbSourceGraphic"
         in="flood"
         operator="in"
         result="composite1" />
      <feGaussianBlur
         id="feGaussianBlur4676-3-7-08-7-8"
         in="composite1"
         stdDeviation="0"
         result="blur" />
      <feOffset
         id="feOffset4678-6-9-1-0-9"
         dx="-6.3258232761971414"
         dy="6"
         result="offset" />
      <feComposite
         id="feComposite4680-4-0-9-9-7"
         in2="offset"
         in="fbSourceGraphic"
         operator="over"
         result="composite2" />
    </filter>
    <filter
       style="color-interpolation-filters:sRGB"
       id="filter5561"
       inkscape:label="deevad outline effect">
      <feFlood
         id="feFlood5563"
         flood-opacity="1"
         flood-color="rgb(0,0,0)"
         result="flood" />
      <feComposite
         id="feComposite5565"
         in2="SourceGraphic"
         in="flood"
         operator="in"
         result="composite1" />
      <feMorphology
         id="feMorphology5567"
         operator="dilate"
         radius="1.8999999999999999 6.0999999999999996"
         result="result3" />
      <feComposite
         id="feComposite5569"
         in2="result3"
         in="SourceGraphic"
         operator="over"
         result="composite2" />
    </filter>
    <filter
       style="color-interpolation-filters:sRGB"
       id="filter4375-4-1-1-1-9-5-8-8-5-5-3-8-5"
       inkscape:label="soundFX1">
      <feFlood
         id="feFlood4377-7-9-0-8-1-7-3-1-2-7-6-7-6"
         flood-opacity="1"
         flood-color="rgb(52,52,52)"
         result="flood" />
      <feComposite
         id="feComposite4379-3-8-8-2-77-4-1-0-6-4-7-9-2"
         in2="SourceGraphic"
         in="flood"
         operator="in"
         result="composite1"
         baseFrequency="0.053999999999999999 0.053999999999999999" />
      <feMorphology
         id="feMorphology4393-1-0-49-8-9-3-0-1-9-9-5-2-9"
         operator="dilate"
         radius="2.9756367599225957"
         result="result3" />
      <feComposite
         id="feComposite4385-9-5-7-0-8-8-7-5-4-9-3-0-1"
         in2="result3"
         in="SourceGraphic"
         operator="over"
         result="fbSourceGraphic" />
      <feColorMatrix
         result="fbSourceGraphicAlpha"
         in="fbSourceGraphic"
         values="0 0 0 -1 0 0 0 0 -1 0 0 0 0 -1 0 0 0 0 1 0"
         id="feColorMatrix4544-9-4-4-5-2-2" />
      <feTurbulence
         id="feTurbulence4546-3-6-5-6-3-7"
         type="fractalNoise"
         numOctaves="5"
         seed="174"
         baseFrequency="0.053999999999999999 0.054054054054054057"
         result="turbulence" />
      <feDisplacementMap
         id="feDisplacementMap4548-8-0-9-2-7-0"
         in2="turbulence"
         in="fbSourceGraphic"
         scale="6.6"
         yChannelSelector="G"
         xChannelSelector="R"
         result="fbSourceGraphic" />
      <feColorMatrix
         result="fbSourceGraphicAlpha"
         in="fbSourceGraphic"
         values="0 0 0 -1 0 0 0 0 -1 0 0 0 0 -1 0 0 0 0 1 0"
         id="feColorMatrix4670-7-7-3-9-5-9" />
      <feFlood
         id="feFlood4672-4-4-5-1-9-3"
         flood-opacity="1"
         flood-color="rgb(28,28,28)"
         result="flood"
         in="fbSourceGraphic" />
      <feComposite
         id="feComposite4674-8-3-7-2-22-6"
         in2="fbSourceGraphic"
         in="flood"
         operator="in"
         result="composite1" />
      <feGaussianBlur
         id="feGaussianBlur4676-3-7-08-7-8-0"
         in="composite1"
         stdDeviation="0"
         result="blur" />
      <feOffset
         id="feOffset4678-6-9-1-0-9-6"
         dx="-6.3258232761971414"
         dy="6"
         result="offset" />
      <feComposite
         id="feComposite4680-4-0-9-9-7-2"
         in2="offset"
         in="fbSourceGraphic"
         operator="over"
         result="composite2" />
    </filter>
  </defs>
  <sodipodi:namedview
     pagecolor="#ffffff"
     bordercolor="#666666"
     borderopacity="1"
     objecttolerance="10"
     gridtolerance="10"
     guidetolerance="10"
     inkscape:pageopacity="0"
     inkscape:pageshadow="2"
     inkscape:window-width="1858"
     inkscape:window-height="1057"
     id="namedview4"
     showgrid="false"
     inkscape:zoom="0.46000001"
     inkscape:cx="1062.561"
     inkscape:cy="1392.2696"
     inkscape:window-x="54"
     inkscape:window-y="-8"
     inkscape:window-maximized="1"
     inkscape:current-layer="layer1"
     inkscape:document-rotation="0"
     inkscape:snap-global="false"
     borderlayer="true" />
  <g
     inkscape:groupmode="layer"
     id="layer2"
     inkscape:label="artwork"
     sodipodi:insensitive="true">
    <image
       sodipodi:absref="D:\Documents\code\webcomics\new-ep34_The-Knighting-of-Shichimi\lang\id\../gfx_Pepper-and-Carrot_by-David-Revoy_E34P10.png"
       xlink:href="../gfx_Pepper-and-Carrot_by-David-Revoy_E34P10.png"
       y="0"
       x="0"
       id="image10"
       height="3503"
       width="2481" />
  </g>
  <g
     inkscape:groupmode="layer"
     id="layer3"
     inkscape:label="speechbubbles">
    <path
       style="display:inline;fill:#ffffff;stroke:none;stroke-width:0.85946935"
       d="m 2080.0118,1307.5287 c -25.5923,0.4465 -51.8931,-0.01 -76.396,6.4657 -17.6766,4.7067 -33.2587,13.7576 -43.691,25.5637 -16.5665,18.124 -23.2919,40.6976 -21.9658,62.5379 1.2123,17.338 7.9746,34.8966 22.1901,48.7273 14.2808,13.3942 35.2325,21.6237 56.6752,26.5068 47.1915,11.2109 98.1227,13.2721 146.6338,6.0052 24.6141,-3.729 48.5616,-12.5302 65.2739,-26.9851 12.8074,-11.1313 18.4658,-25.7604 22.0033,-39.9977 3.3169,-14.7541 7.0146,-29.991 2.8818,-44.8776 -4.1943,-14.9538 -17.2642,-27.5055 -32.1842,-37.3593 -22.8304,-15.182 -52.4709,-24.1256 -82.7289,-25.6018 -19.5177,-1.2456 -39.1261,-1.0237 -58.6922,-0.9851 z"
       id="path3280-5-9"
       inkscape:connector-curvature="0"
       sodipodi:nodetypes="csssc" />
    <path
       style="color:#000000;display:inline;overflow:visible;visibility:visible;fill:#ffffff;fill-opacity:1;fill-rule:nonzero;stroke:none;stroke-width:1.10069px;marker:none;enable-background:accumulate"
       d="m 445.82812,1329.7174 c 0,0 49.20979,7.2764 57.0208,11.1947 7.811,3.9179 24.16932,2.774 -30.51358,47.8158 94.64453,-31.5742 88.83678,-23.9308 105.24002,-22.2519 -7.02986,11.1947 -32.38073,31.4557 -32.38073,31.4557 0,0 74.82007,-29.5932 82.63115,-29.034 -2.34328,5.0375 -16.86403,15.9764 -16.86403,15.9764 l 55.56771,-7.4463 -38.74465,28.9462 c 0,0 119.43913,-33.4364 125.01777,-31.8789 6.34145,1.5575 -4.68649,32.4638 -4.68649,32.4638 l 35.61633,-22.9229 -2.02879,11.7288 26.55761,-19.0309 8.59208,10.6349 18.52678,-11.7679 0.21973,12.3277 29.68205,-16.2322 10.15429,1.6796 25.77653,25.7467 9.67499,-13.1813 11.41482,-19.3082 46.08534,21.2954 c -0.80929,-7.6033 0.19143,-17.8933 -1.26623,-25.3954 l 23.13715,15.8803 -2.13983,-16.7789 21.66756,3.9052 c 13.0939,6.3795 30.4564,9.4968 43.4468,16.0832 l -9.5078,-19.8669 32.3521,11.1185 -15.6587,-19.0989 c 14.0424,3.5822 32.2841,5.4922 44.6625,12.8831 l -17.166,-13.8184 c 35.9243,3.8351 62.9459,9.1136 96.861,15.0036 l -43.7644,-28.6114 -10.9353,-7.8356 39.8364,-7.8361 -22.273,-7.4097 25.6363,-18.4109 5.968,-45.8169 -15.0023,-23.2018 -669.26795,-1.3435 23.56866,22.3211 -63.45017,-19.0191 43.7723,29.4105 -89.17461,-4.0075 77.03221,32.414 -33.08334,5.9578 34.3687,8.3961 -33.58755,12.8737 21.08981,8.9552 z"
       id="path3931-4"
       inkscape:connector-curvature="0"
       sodipodi:nodetypes="cccccccccccccccccccccccccccccccccccccccccccccccccccc" />
    <path
       style="color:#000000;display:inline;overflow:visible;visibility:visible;fill:#ffffff;fill-opacity:1;fill-rule:nonzero;stroke:none;stroke-width:0.83096361px;marker:none;enable-background:accumulate"
       d="m 1915.3475,178.93355 c -26.3289,0.27643 -53.0858,4.38122 -77.2106,16.19023 -11.1068,5.76369 -21.8365,13.83599 -27.9627,25.6302 -5.3537,11.61609 -5.1373,25.22637 -2.6371,37.63133 2.6551,11.46841 9.9817,21.47917 19.6125,27.15664 14.0768,9.13914 30.4774,12.67154 46.4899,15.58414 27.328,4.71396 55.0732,5.80884 82.7115,5.76809 26.353,-0.3214 52.7979,-2.27031 78.6655,-7.88813 12.4909,-3.27908 24.8484,-9.89237 32.5567,-21.29477 8.3476,-11.89973 11.5561,-28.46738 6.2716,-42.52728 -4.7566,-13.39226 -15.1871,-23.46838 -26.5982,-30.35612 -15.6871,-9.85698 -33.0121,-16.40707 -50.6332,-20.95817 -24.7079,-5.58 -50.0956,-4.67375 -75.1924,-4.9377 -2.0245,5.1e-4 -4.0491,9.5e-4 -6.0735,0.002 z"
       id="path4040-2"
       inkscape:connector-curvature="0"
       sodipodi:nodetypes="zssssz" />
    <path
       style="display:inline;fill:#ffffff;fill-rule:evenodd;stroke:none;stroke-width:1.17076111px;stroke-linecap:butt;stroke-linejoin:miter;stroke-opacity:1"
       d="m 1710.8998,258.0949 c -80.555,-23.66588 -137.8435,-27.05183 -81.4451,24.0576 -82.0774,-51.72772 -123.3786,-41.2779 -107.0455,-13.90333 -51.2695,-26.04461 -82.4279,-17.58879 -106.6912,2.69356 -10.1827,-25.03995 -29.7693,-14.3375 -46.9849,-12.64582 -5.8844,-5.57557 13.1435,-20.2747 -65.0735,0.6448 -5.3737,-7.43925 -12.4843,-13.78375 -58.101,4.1633 -13.0431,-30.4188 -50.3147,2.97482 -88.447,38.63383 23.0232,-43.23745 12.6486,-49.00093 -18.1032,-31.89958 13.7068,-17.91223 21.7971,-31.71506 -31.5692,-0.55079 17.4943,-32.86524 -30.5946,-9.39591 -107.84541,39.12358 38.25361,-35.38988 140.85431,-95.99765 72.10991,-89.45234 9.2558,-10.38173 43.2264,-20.08104 -59.4187,-33.55209 18.8172,-7.36202 77.3516,1.2237 27.7987,-26.68244 -6.6218,-3.24106 15.075,-5.87041 -26.7861,-13.78914 24.5476,-0.008 39.5125,-2.56821 16.4562,-15.24466 44.7942,-0.41471 27.5567,-13.92166 -5.9323,-30.858188 65.6284,21.153348 66.4692,-16.069651 68.07,-25.238038 82.3391,29.019936 86.7671,19.116846 97.5094,12.36833 39.5966,-1.241915 79.3383,1.670389 117.733,-33.98028 11.1251,21.28992 32.4994,37.354536 119.615,19.898739 -37.5261,28.390327 16.6123,9.53926 58.148,-2.815818 -21.7651,34.831785 35.7238,10.881131 108.3631,-24.306557 -40.0081,38.867074 6.4553,24.018828 75.0746,-4.591818 -24.9826,37.821774 20.8842,83.56086 123.2296,82.42434 -48.4932,14.63874 -76.4556,32.22728 -24.555,61.28717 -57.6238,-7.48731 -74.429,1.24304 -32.8178,33.18515 -63.4567,-25.47793 -75.5355,10.60915 -23.2916,41.03049 z"
       id="path4508-2"
       inkscape:connector-curvature="0"
       sodipodi:nodetypes="cccccccccccccccccccccccccccc" />
    <path
       style="fill:#ffffff;fill-rule:evenodd;stroke:none;stroke-width:0.948103px;stroke-linecap:butt;stroke-linejoin:miter;stroke-opacity:1"
       d="m 1769.5044,423.01474 c 63.9612,-15.98879 63.9232,-32.79495 71.6929,-40.62661 54.4882,-5.72993 87.7448,-47.55926 77.6703,-102.20871 -3.5879,-16.85606 18.9915,-15.2184 19.391,4.83139 -1.0987,60.691 -16.1574,91.15186 -91.941,107.14119 -13.3423,25.71642 -40.0046,26.09144 -76.8132,30.86274 z"
       id="path4272-2"
       inkscape:connector-curvature="0"
       sodipodi:nodetypes="cccccc" />
    <path
       style="color:#000000;display:inline;overflow:visible;visibility:visible;fill:#ffffff;fill-opacity:1;fill-rule:nonzero;stroke:none;stroke-width:1.15076px;marker:none;enable-background:accumulate"
       d="m 451.5565,1524.1672 c 77.73068,-52.6757 108.17029,-66.4987 176.8647,-111.3306 l -5.71608,28.8704 c 60.48451,-34.1783 93.06945,-54.7177 138.95581,-81.4871 l 64.72178,-3.0505 c -49.31969,23.1577 -186.82827,93.8637 -233.75953,124.887 l 2.854,-25.9346 c -80.19296,32.7945 -87.07813,44.4174 -143.92068,68.0454 z"
       id="path4032-1"
       inkscape:connector-curvature="0"
       sodipodi:nodetypes="cccccccc" />
    <path
       style="color:#000000;display:inline;overflow:visible;visibility:visible;fill:#ffffff;fill-opacity:1;fill-rule:nonzero;stroke:none;stroke-width:0.946773px;marker:none;enable-background:accumulate"
       d="m 1953.8541,1506.2575 c 74.843,1.2486 77.07,-86.4065 88.8547,-128.5666 l 26.4517,50.7412 c 0,0 -44.075,103.6484 -115.3064,77.8254 z"
       id="path3072-56"
       inkscape:connector-curvature="0"
       sodipodi:nodetypes="cccc" />
    <path
       style="color:#000000;display:inline;overflow:visible;visibility:visible;fill:#ffffff;fill-opacity:1;fill-rule:nonzero;stroke:none;stroke-width:0.667685px;marker:none;enable-background:accumulate"
       d="m 2129.0063,1363.3613 c 5.8992,-12.3381 36.4226,-12.1191 47.5434,-9.0971 -22.0659,-14.9996 -16.1643,-25.642 14.6,-25.7162 -39.6516,-19.339 -12.9017,-18.1248 -0.6014,-18.0491 -35.4044,-9.8371 -24.498,-22.4588 -5.7932,-29.1598 -35.5357,0.8481 -37.8962,-1.2993 -27.2796,-17.1189 -13.3967,6.1177 -46.0371,20.7234 -42.2288,-10.0418 -25.712,16.0988 -50.1216,25.7346 -66.3392,-2.0817 -13.1136,17.9298 -38.6233,22.102 -59.8713,-5.6943 4.9567,29.1751 -22.7412,19.2557 -50.1674,10.0092 14.1214,15.6483 -5.92,28.809 -32.7146,18.6728 17.9445,13.4109 -5.2232,14.2513 -23.3369,16.9951 23.6839,6.1686 27.8762,11.6865 -16.7034,15.5752 33.7287,1.9644 56.78,2.4468 24.7889,22.3394 19.3743,-4.9112 64.006,-9.7222 27.8092,29.4744 34.2161,-16.5278 52.1688,-20.101 38.9736,5.3582 14.1569,-15.4509 67.3152,-23.7983 76.7344,-3.3673 4.0042,-8.375 19.3418,-10.9476 32.2707,-10.7975 4.8603,3.5964 9.8296,8.4125 14.9668,14.6651 9.2828,-12.2907 22.7599,-20.2913 47.3488,-1.9657 z"
       id="path3549-3-7-1"
       inkscape:connector-curvature="0"
       sodipodi:nodetypes="cccccccccccccccccccc" />
  </g>
  <g
     inkscape:groupmode="layer"
     id="layer1"
     inkscape:label="txt">
    <text
       xml:space="preserve"
       style="font-style:normal;font-variant:normal;font-weight:normal;font-stretch:normal;font-size:105.817px;line-height:1.25;font-family:Lavi;-inkscape-font-specification:Lavi;letter-spacing:0px;word-spacing:0px;fill:#000000;fill-opacity:1;stroke:#030303;stroke-width:0.716208;stroke-miterlimit:4;stroke-dasharray:none;stroke-opacity:1;filter:url(#filter4375-4-1-1-1-9-5-8-8-5-5-3-8)"
       x="787.65729"
       y="1584.5073"
       id="text4580-6-0-0-0-9-3-36"
       transform="matrix(1.0231031,-0.37102511,-0.35076992,1.3038401,-25.652514,-621.71416)"><tspan
         style="font-size:152.472px;fill:#000000;fill-opacity:1;stroke:#030303;stroke-width:0.716208;stroke-miterlimit:4;stroke-dasharray:none;stroke-opacity:1"
         sodipodi:role="line"
         id="tspan876-6-1"
         x="787.65729"
         y="1584.5073">?<tspan
   style="font-size:127.883px"
   id="tspan925">!</tspan></tspan></text>
    <text
       xml:space="preserve"
       style="font-style:normal;font-variant:normal;font-weight:normal;font-stretch:normal;font-size:69.03659821px;line-height:1.25;font-family:Lavi;-inkscape-font-specification:Lavi;text-align:center;letter-spacing:0px;word-spacing:0px;text-anchor:middle;fill:#000000;fill-opacity:1;stroke:none;stroke-width:1.53412998"
       x="1419.605"
       y="191.08641"
       id="text4246-3-2-2-6-3-7-9-3-3-56-9-3-20-3-3-2-7-2"
       transform="matrix(0.99725425,0,-0.12471947,1.0027533,0,0)"><tspan
         style="font-style:normal;font-variant:normal;font-weight:bold;font-stretch:normal;font-size:69.03659821px;font-family:Lavi;-inkscape-font-specification:'Lavi Bold';stroke-width:1.53412998"
         sodipodi:role="line"
         x="1419.605"
         y="191.08641"
         id="tspan1414-3">TANGKAP DIA!!!</tspan></text>
    <text
       xml:space="preserve"
       style="font-style:normal;font-variant:normal;font-weight:normal;font-stretch:normal;font-size:45px;line-height:1.25;font-family:Lavi;-inkscape-font-specification:Lavi;text-align:center;letter-spacing:0px;word-spacing:0px;text-anchor:middle;fill:#000000;fill-opacity:1;stroke:none"
       x="1943.2986"
       y="257.62378"
       id="text4246-3-2-2-6"><tspan
         style="font-size:45px"
         sodipodi:role="line"
         id="tspan1097-2"
         x="1943.2986"
         y="257.62378">Ya ampun.</tspan></text>
    <text
       xml:space="preserve"
       style="font-style:normal;font-variant:normal;font-weight:normal;font-stretch:normal;font-size:51.43560028px;line-height:1.25;font-family:Lavi;-inkscape-font-specification:Lavi;text-align:center;letter-spacing:0px;word-spacing:0px;text-anchor:middle;fill:#000000;fill-opacity:1;stroke:none;stroke-width:1.14301002"
       x="820.15143"
       y="1326.6313"
       id="text4246-3-2-2-6-3"><tspan
         style="font-size:51.43560028px;stroke-width:1.14301002"
         sodipodi:role="line"
         id="tspan1097-2-6"
         x="820.15143"
         y="1326.6313">Pepper, pakai sapuku!</tspan></text>
    <text
       xml:space="preserve"
       style="font-style:normal;font-variant:normal;font-weight:normal;font-stretch:normal;font-size:8.55136px;line-height:0%;font-family:Lavi;-inkscape-font-specification:Lavi;letter-spacing:0px;word-spacing:0px;fill:#000000;fill-opacity:1;stroke:#000000;stroke-width:8.1307;stroke-miterlimit:4;stroke-dasharray:none;stroke-opacity:1;paint-order:stroke fill markers"
       x="1769.7273"
       y="1956.4039"
       id="text4580-25"
       transform="matrix(1.0352599,-0.3538216,-0.45318147,1.1208252,0,0)"><tspan
         sodipodi:role="line"
         id="tspan4582-4"
         x="1769.7273"
         y="1956.4039"
         style="font-size:49.8829px;line-height:100%;letter-spacing:3.48001px;fill:#ffffff;stroke:#000000;stroke-width:8.1307;stroke-miterlimit:4;stroke-dasharray:none;stroke-opacity:1;paint-order:stroke fill markers"><tspan
           style="font-size:57.2942px;line-height:100%;letter-spacing:3.48001px;stroke:#000000;stroke-width:8.1307;stroke-miterlimit:4;stroke-dasharray:none;stroke-opacity:1;paint-order:stroke fill markers"
           id="tspan4617-9">Fizzz!</tspan></tspan></text>
    <text
       xml:space="preserve"
       style="font-style:normal;font-variant:normal;font-weight:normal;font-stretch:normal;font-size:53.122px;line-height:1.25;font-family:Lavi;-inkscape-font-specification:Lavi;text-align:center;letter-spacing:0px;word-spacing:0px;text-anchor:middle;fill:#000000;fill-opacity:1;stroke:none;stroke-width:1.18049"
       x="2036.292"
       y="1325.7084"
       id="text4246-3-2-2-6-0"><tspan
         style="font-size:53.122px;stroke-width:1.18049"
         sodipodi:role="line"
         x="2036.292"
         y="1325.7084"
         id="tspan1235">Oh wow!</tspan></text>
    <text
       xml:space="preserve"
       style="font-style:normal;font-variant:normal;font-weight:normal;font-stretch:normal;font-size:45px;line-height:1.25;font-family:Lavi;-inkscape-font-specification:Lavi;text-align:center;letter-spacing:0px;word-spacing:0px;text-anchor:middle;fill:#000000;fill-opacity:1;stroke:none"
       x="2103.4827"
       y="1394.8405"
       id="text4246-3-2-2-6-0-7"><tspan
         style="font-size:45px"
         sodipodi:role="line"
         x="2110.6458"
         y="1394.8405"
         id="tspan1233-9">Terima kasih, </tspan><tspan
         style="font-size:45px"
         sodipodi:role="line"
         x="2103.4827"
         y="1451.0905"
         id="tspan1235-3">Saffron!</tspan></text>
    <text
       xml:space="preserve"
       style="font-style:normal;font-variant:normal;font-weight:normal;font-stretch:normal;font-size:7.13715982px;line-height:0%;font-family:Lavi;-inkscape-font-specification:Lavi;letter-spacing:0px;word-spacing:0px;fill:#000000;fill-opacity:1;stroke:#000000;stroke-width:6.78606987;stroke-miterlimit:4;stroke-dasharray:none;stroke-opacity:1;paint-order:stroke fill markers"
       x="2509.1191"
       y="2128.6602"
       id="text4580-25-7"
       transform="matrix(0.94891997,-0.36282871,-0.2498382,1.1493577,0,0)"><tspan
         sodipodi:role="line"
         id="tspan4582-4-5"
         x="2509.1191"
         y="2128.6602"
         style="font-size:41.63339996px;line-height:100%;letter-spacing:2.90450001px;fill:#ffffff;stroke:#000000;stroke-width:6.78606987;stroke-miterlimit:4;stroke-dasharray:none;stroke-opacity:1;paint-order:stroke fill markers"><tspan
           style="font-size:47.81900024px;line-height:100%;letter-spacing:2.90450001px;stroke:#000000;stroke-width:6.78606987;stroke-miterlimit:4;stroke-dasharray:none;stroke-opacity:1;paint-order:stroke fill markers"
           id="tspan4617-9-3">Tok!</tspan></tspan></text>
    <text
       xml:space="preserve"
       style="font-style:normal;font-variant:normal;font-weight:normal;font-stretch:normal;font-size:99.1307px;line-height:1.25;font-family:Lavi;-inkscape-font-specification:Lavi;letter-spacing:0px;word-spacing:0px;fill:#ffffff;fill-opacity:1;stroke:#ffffff;stroke-width:0.716208;stroke-miterlimit:4;stroke-dasharray:none;stroke-opacity:1;filter:url(#filter4375-4-1-1-1-9-5-8-8-5-5-3-8-5)"
       id="text4580-6-0-0-0-9-3-36-6"
       transform="matrix(0.83569631,-0.05703359,0,0.91800268,450.98089,-394.64664)"><textPath
         xlink:href="#path974"
         id="textPath1153"><tspan
   style="font-size:99.1307px;fill:#ffffff;fill-opacity:1;stroke:#ffffff;stroke-width:0.716208;stroke-miterlimit:4;stroke-dasharray:none;stroke-opacity:1"
   id="tspan876-6-1-1"><tspan
     style="font-size:73.6547px;fill:#ffffff;fill-opacity:1;stroke-width:0.716208"
     id="tspan884-0-2"
     rotate="0 0 0 0 20 0"><tspan
   style="font-size:87.3025px;fill:#ffffff;stroke-width:0.716208"
   id="tspan976-9"
   rotate="0 20 20 20 0">zioo</tspan>O<tspan
   style="font-size:100.95px;fill:#ffffff;stroke-width:0.716208"
   id="tspan972-3"
   rotate="20 0">O</tspan></tspan><tspan
     id="tspan974-1"
     style="font-size:155.542px;fill:#ffffff;stroke-width:0.716208"
     rotate="20 0">O</tspan><tspan
     style="font-size:182.838px;fill:#ffffff;stroke-width:0.716208"
     id="tspan958-9"
     rotate="20 20 0">O!</tspan></tspan></textPath></text>
    <path
       style="fill:none;fill-rule:evenodd;stroke:none;stroke-width:0.989149px;stroke-linecap:butt;stroke-linejoin:miter;stroke-opacity:1"
       d="M 587.57621,4024.2799 C 1026.33,4092.146 1310.4295,3793.5377 1509.4977,3369.7215"
       id="path974"
       sodipodi:nodetypes="cc" />
    <text
       xml:space="preserve"
       style="font-style:normal;font-variant:normal;font-weight:normal;font-stretch:normal;font-size:46.97480011px;line-height:1.25;font-family:Lavi;-inkscape-font-specification:Lavi;text-align:center;letter-spacing:0px;word-spacing:0px;text-anchor:middle;fill:#000000;fill-opacity:1;stroke:none;stroke-width:1.04387999"
       x="2641.2473"
       y="3161.5713"
       id="text4246-3-2-2-6-3-8"
       transform="matrix(0.91327378,0,-0.07872707,1.0949619,0,0)"><tspan
         style="font-style:normal;font-variant:normal;font-weight:bold;font-stretch:normal;font-size:46.97480011px;font-family:Lavi;-inkscape-font-specification:'Lavi Bold';stroke-width:1.04387999"
         sodipodi:role="line"
         id="tspan1097-2-6-7"
         x="2641.2473"
         y="3161.5713">BERSAMBUNG...</tspan></text>
  </g>
</svg>
