<?xml version="1.0" encoding="UTF-8" standalone="no"?>
<!-- Created with Inkscape (http://www.inkscape.org/) -->

<svg
   xmlns:dc="http://purl.org/dc/elements/1.1/"
   xmlns:cc="http://creativecommons.org/ns#"
   xmlns:rdf="http://www.w3.org/1999/02/22-rdf-syntax-ns#"
   xmlns:svg="http://www.w3.org/2000/svg"
   xmlns="http://www.w3.org/2000/svg"
   xmlns:xlink="http://www.w3.org/1999/xlink"
   xmlns:sodipodi="http://sodipodi.sourceforge.net/DTD/sodipodi-0.dtd"
   xmlns:inkscape="http://www.inkscape.org/namespaces/inkscape"
   id="svg2"
   version="1.1"
   inkscape:version="0.92.2 2405546, 2018-03-11"
   width="2481"
   height="3503"
   sodipodi:docname="E26P01.svg">
  <metadata
     id="metadata8">
    <rdf:RDF>
      <cc:Work
         rdf:about="">
        <dc:format>image/svg+xml</dc:format>
        <dc:type
           rdf:resource="http://purl.org/dc/dcmitype/StillImage" />
        <dc:title />
      </cc:Work>
    </rdf:RDF>
  </metadata>
  <defs
     id="defs6" />
  <sodipodi:namedview
     pagecolor="#ffffff"
     bordercolor="#666666"
     borderopacity="1"
     objecttolerance="10"
     gridtolerance="10"
     guidetolerance="10"
     inkscape:pageopacity="0"
     inkscape:pageshadow="2"
     inkscape:window-width="1920"
     inkscape:window-height="1033"
     id="namedview4"
     showgrid="false"
     inkscape:zoom="0.6956522"
     inkscape:cx="1557.8037"
     inkscape:cy="905.43778"
     inkscape:window-x="0"
     inkscape:window-y="47"
     inkscape:window-maximized="0"
     inkscape:current-layer="layer3"
     inkscape:snap-global="false" />
  <g
     inkscape:groupmode="layer"
     id="layer2"
     inkscape:label="artwork"
     sodipodi:insensitive="true">
    <image
       sodipodi:absref="/home/midgard/git/peppercarrot/comics/ep26_Books-Are-Great/lang/es/../gfx_Pepper-and-Carrot_by-David-Revoy_E26P01.png"
       xlink:href="../gfx_Pepper-and-Carrot_by-David-Revoy_E26P01.png"
       y="0"
       x="0"
       id="image10"
       height="3503"
       width="2481" />
  </g>
  <g
     inkscape:groupmode="layer"
     id="layer3"
     inkscape:label="speechbubbles"
     style="display:inline;opacity:1">
    <path
       style="fill:#ffffff;fill-opacity:1;stroke:none;stroke-width:1.40839255"
       d="m 262.22763,1886.1776 c -77.63246,0.4163 -114.13676,-10.1327 -132.38488,-19.4702 -30.278804,-15.4936 -36.200533,-108.6848 24.81063,-127.2534 61.33225,-18.6663 180.93857,-14.5153 230.0274,21.3805 49.08866,35.8958 14.07851,83.1585 2.79144,92.8715 -11.28726,9.7129 -41.25744,32.099 -125.24459,32.4716 z"
       id="path3659-8"
       inkscape:connector-curvature="0"
       sodipodi:nodetypes="cssssc" />
    <path
       style="color:#000000;display:inline;overflow:visible;visibility:visible;fill:#ffffff;fill-opacity:1;fill-rule:nonzero;stroke:none;stroke-width:0.77001458px;marker:none;enable-background:accumulate"
       d="m 274.67689,1855.3732 c 11.17842,15.8247 25.32183,43.4204 25.79652,49.4209 -6.73911,-0.5556 -13.09406,0.387 -18.03883,1.0204 1.81058,10.7946 32.21158,51.6223 41.64451,56.3046 -23.83945,-10.0592 -58.27989,-45.5693 -59.88737,-63.8703 6.68489,-2.1454 10.75049,-2.4727 14.26692,-3.6967 -0.36416,-9.3034 -20.80365,-30.8908 -20.80365,-30.8908 z"
       id="path5066"
       inkscape:connector-curvature="0"
       sodipodi:nodetypes="cccccccc" />
    <path
       style="color:#000000;display:inline;overflow:visible;visibility:visible;fill:#ffffff;fill-opacity:1;fill-rule:nonzero;stroke:none;stroke-width:1.09650457px;marker:none;enable-background:accumulate"
       d="m 1769.9535,1949.1252 c -39.1964,-47.3872 -37.8177,-147.3253 -26.6186,-168.6495 17.5134,-39.8715 59.4731,-46.9873 112.6684,-46.9873 53.1951,0 430.777,-24.2115 485.3721,25.5452 54.595,49.7566 37.4093,142.4206 -10.1864,200.4699 -47.5958,58.0494 -311.8447,46.2026 -311.8447,46.2026 0,0 -189.1961,3.8378 -249.3908,-56.5809 z"
       id="path3992"
       inkscape:connector-curvature="0"
       sodipodi:nodetypes="ccscccc" />
    <path
       style="color:#000000;display:inline;overflow:visible;visibility:visible;fill:#ffffff;fill-opacity:1;fill-rule:nonzero;stroke:none;stroke-width:1px;marker:none;enable-background:accumulate"
       d="m 1984.9695,2211.7966 c 97.5172,-13.4683 140.8945,-73.5032 173.5649,-113.8088 15.274,-18.8437 -32.2063,-50.3843 -32.2063,-50.3843 l -20.4844,64.3961 c 4.4776,5.3732 -31.2523,71.0033 -120.8742,99.797 z"
       id="path4000"
       inkscape:connector-curvature="0"
       sodipodi:nodetypes="csccc" />
    <path
       style="color:#000000;display:inline;overflow:visible;visibility:visible;fill:#ffffff;fill-opacity:1;fill-rule:nonzero;stroke:none;stroke-width:0.95806623px;marker:none;enable-background:accumulate"
       d="m 1941.9612,2032.8023 c 21.4215,-23.0063 37.3281,-67.3113 195.0975,-51.7323 84.5099,8.3448 180.5929,7.6994 170.6292,88.2216 -9.9637,80.5222 -149.8642,70.1622 -178.5102,71.1095 -28.6457,0.9474 -163.7766,0.012 -188.5357,-28.3054 -15.4988,-17.7262 -20.0588,-57.9183 1.3192,-79.2934 z"
       id="path4546-6"
       inkscape:connector-curvature="0"
       sodipodi:nodetypes="cssssc" />
    <path
       style="color:#000000;display:inline;overflow:visible;visibility:visible;opacity:1;vector-effect:none;fill:#ffffff;fill-opacity:1;fill-rule:nonzero;stroke:none;stroke-width:1.13519955;stroke-linecap:butt;stroke-linejoin:miter;stroke-miterlimit:4;stroke-dasharray:none;stroke-dashoffset:0;stroke-opacity:1;marker:none;paint-order:stroke fill markers;enable-background:accumulate"
       d="m 884.84162,2689.0779 c -40.42827,-51.982 -36.09674,-153.3468 -24.5457,-176.7386 11.55089,-23.3919 27.43335,-58.4797 82.30042,-58.4797 54.86689,0 452.92116,-15.776 509.23186,38.805 56.3107,54.5811 48.3772,145.6271 -0.7142,209.305 -49.0916,63.678 -322.259,45.5879 -322.259,45.5879 -0.258,0.3616 -191.07888,20.6263 -244.01338,-58.4796 z"
       id="path3992-0"
       inkscape:connector-curvature="0"
       sodipodi:nodetypes="ccscscc" />
    <path
       style="color:#000000;display:inline;overflow:visible;visibility:visible;fill:#ffffff;fill-opacity:1;fill-rule:nonzero;stroke:none;stroke-width:1.1471467px;marker:none;enable-background:accumulate"
       d="m 1107.7917,2663.674 c -41.0805,41.3971 -74.3212,126.4523 -32.6058,262.3106 -64.481,-107.4324 -40.7404,-218.5665 -31.5488,-251.0486 9.1915,-32.4819 64.1546,-11.262 64.1546,-11.262 z"
       id="path4008"
       inkscape:connector-curvature="0" />
    <path
       style="color:#000000;display:inline;overflow:visible;visibility:visible;fill:#ffffff;fill-opacity:1;fill-rule:nonzero;stroke:none;stroke-width:1.1471467px;marker:none;enable-background:accumulate"
       d="m 1891.9827,2656.832 c -40.4116,58.3597 -53.3089,167.7072 24.2468,263.2149 -108.4132,-99.3198 -82.2954,-214.0613 -72.6196,-244.9782 2.0322,-33.6961 48.3728,-18.2367 48.3728,-18.2367 z"
       id="path4008-0"
       inkscape:connector-curvature="0"
       sodipodi:nodetypes="cccc" />
    <path
       style="color:#000000;display:inline;overflow:visible;visibility:visible;opacity:1;fill:#ffffff;fill-opacity:1;fill-rule:nonzero;stroke:none;stroke-width:1.30196857px;marker:none;enable-background:accumulate"
       d="m 1831.5354,2744.4158 c -76.2525,-11.4249 -88.9557,-33.2233 -107.1428,-85.7917 -18.187,-52.5684 15.8396,-199.8538 31.7565,-211.8218 10.1356,-4.5693 129.1268,-1.6759 195.0611,10.4072 65.9343,12.0833 143.4969,4.1407 165.1526,86.3811 18.7661,71.2666 -22.9031,178.7306 -110.0945,195.4587 -87.1914,16.7282 -174.7329,5.3665 -174.7329,5.3665 z"
       id="path3970"
       inkscape:connector-curvature="0"
       sodipodi:nodetypes="csccssc" />
  </g>
  <g
     inkscape:groupmode="layer"
     id="layer1"
     inkscape:label="txt">
    <text
       xml:space="preserve"
       style="font-style:normal;font-variant:normal;font-weight:normal;font-stretch:normal;line-height:0%;font-family:Lavi;-inkscape-font-specification:Lavi;text-align:center;letter-spacing:0px;word-spacing:0px;text-anchor:middle;fill:#000000;fill-opacity:1;stroke:none"
       x="253.58946"
       y="1788.8776"
       id="text4246"><tspan
         sodipodi:role="line"
         style="font-size:45px;line-height:1.25"
         x="253.58946"
         y="1788.8776"
         id="tspan825">¡Los libros</tspan><tspan
         sodipodi:role="line"
         style="font-size:45px;line-height:1.25"
         x="253.58946"
         y="1845.1276"
         id="tspan44">son geniales!</tspan></text>
    <text
       xml:space="preserve"
       style="font-style:normal;font-variant:normal;font-weight:normal;font-stretch:normal;line-height:0%;font-family:Lavi;-inkscape-font-specification:Lavi;text-align:center;letter-spacing:0px;word-spacing:0px;text-anchor:middle;fill:#000000;fill-opacity:1;stroke:none"
       x="2115.3066"
       y="2050.2834"
       id="text4246-3-5-9"><tspan
         sodipodi:role="line"
         style="font-size:45px;line-height:1.25"
         x="2115.3066"
         y="2050.2834"
         id="tspan958">¡Es realmente</tspan><tspan
         sodipodi:role="line"
         style="font-size:45px;line-height:1.25"
         x="2115.3066"
         y="2106.5334"
         id="tspan75">una maravilla!</tspan></text>
    <text
       xml:space="preserve"
       style="font-style:normal;font-variant:normal;font-weight:normal;font-stretch:normal;line-height:0%;font-family:Lavi;-inkscape-font-specification:Lavi;text-align:center;letter-spacing:0px;word-spacing:0px;text-anchor:middle;fill:#000000;fill-opacity:1;stroke:none"
       x="2050.2256"
       y="1804.3582"
       id="text4246-3-3"><tspan
         sodipodi:role="line"
         style="font-size:45px;line-height:1.25"
         x="2050.2256"
         y="1804.3582"
         id="tspan53">Este libro contiene las notas</tspan><tspan
         sodipodi:role="line"
         style="font-size:45px;line-height:1.25"
         x="2057.2568"
         y="1860.6082"
         id="tspan55"> de un aventurero veterano. </tspan><tspan
         sodipodi:role="line"
         style="font-size:45px;line-height:1.25"
         x="2050.2256"
         y="1916.8582"
         id="tspan47">Describe todo lo que hay</tspan><tspan
         sodipodi:role="line"
         style="font-size:45px;line-height:1.25"
         x="2050.2256"
         y="1973.1082"
         id="tspan67"> en esta mazmorra.</tspan></text>
    <text
       xml:space="preserve"
       style="font-style:normal;font-variant:normal;font-weight:normal;font-stretch:normal;line-height:0%;font-family:Lavi;-inkscape-font-specification:Lavi;text-align:center;letter-spacing:0px;word-spacing:0px;text-anchor:middle;fill:#000000;fill-opacity:1;stroke:none"
       x="1169.4302"
       y="2540.7097"
       id="text4246-3-3-1"><tspan
         sodipodi:role="line"
         style="font-size:45px;line-height:1.25"
         x="1169.4302"
         y="2540.7097"
         id="tspan102">Por ejemplo, el ojo maléfico</tspan><tspan
         sodipodi:role="line"
         style="font-size:45px;line-height:1.25"
         x="1169.4302"
         y="2596.9597"
         id="tspan84">de la puerta principal lanza</tspan><tspan
         sodipodi:role="line"
         style="font-size:45px;line-height:1.25"
         x="1169.4302"
         y="2653.2097"
         id="tspan82">bolas de fuego para</tspan><tspan
         sodipodi:role="line"
         style="font-size:45px;line-height:1.25"
         x="1169.4302"
         y="2709.4597"
         id="tspan138">rechazar a los intrusos.</tspan></text>
    <text
       xml:space="preserve"
       style="font-style:normal;font-variant:normal;font-weight:normal;font-stretch:normal;line-height:0%;font-family:Lavi;-inkscape-font-specification:Lavi;text-align:center;letter-spacing:0px;word-spacing:0px;text-anchor:middle;fill:#000000;fill-opacity:1;stroke:none"
       x="1918.9341"
       y="2536.8408"
       id="text4246-3-3-1-2"><tspan
         sodipodi:role="line"
         style="font-size:45px;line-height:1.25"
         x="1918.9341"
         y="2536.8408"
         id="tspan153">Pero, si nos</tspan><tspan
         sodipodi:role="line"
         style="font-size:45px;line-height:1.25"
         x="1918.9341"
         y="2593.0908"
         id="tspan100">acercamos por</tspan><tspan
         sodipodi:role="line"
         style="font-size:45px;line-height:1.25"
         x="1926.8442"
         y="2649.3408"
         id="tspan103">el lado, sin que </tspan><tspan
         sodipodi:role="line"
         style="font-size:45px;line-height:1.25"
         x="1918.9341"
         y="2705.5908"
         id="tspan1230">nos vea...</tspan></text>
  </g>
</svg>
