<?xml version="1.0" encoding="UTF-8" standalone="no"?>
<svg
   xmlns:dc="http://purl.org/dc/elements/1.1/"
   xmlns:cc="http://creativecommons.org/ns#"
   xmlns:rdf="http://www.w3.org/1999/02/22-rdf-syntax-ns#"
   xmlns:svg="http://www.w3.org/2000/svg"
   xmlns="http://www.w3.org/2000/svg"
   xmlns:xlink="http://www.w3.org/1999/xlink"
   xmlns:sodipodi="http://sodipodi.sourceforge.net/DTD/sodipodi-0.dtd"
   xmlns:inkscape="http://www.inkscape.org/namespaces/inkscape"
   id="svg2"
   version="1.1"
   inkscape:version="1.0.1 (3bc2e813f5, 2020-09-07)"
   width="2481"
   height="3503"
   sodipodi:docname="E14P05.svg">
  <sodipodi:namedview
     pagecolor="#ffffff"
     bordercolor="#666666"
     inkscape:pageopacity="0"
     inkscape:pageshadow="2"
     inkscape:window-width="1366"
     inkscape:window-height="768"
     id="namedview70"
     showgrid="false"
     inkscape:zoom="0.28284271"
     inkscape:cx="1471.8135"
     inkscape:cy="2994.1529"
     inkscape:current-layer="layer3"
     inkscape:document-rotation="0"
     inkscape:window-x="0"
     inkscape:window-y="0"
     inkscape:window-maximized="0" />
  <metadata
     id="metadata8">
    <rdf:RDF>
      <cc:Work
         rdf:about="">
        <dc:format>image/svg+xml</dc:format>
        <dc:type
           rdf:resource="http://purl.org/dc/dcmitype/StillImage" />
        <dc:title />
      </cc:Work>
    </rdf:RDF>
  </metadata>
  <defs
     id="defs6">
    <linearGradient
       inkscape:collect="always"
       xlink:href="#linearGradient4232"
       id="linearGradient4238"
       x1="1956.4867"
       y1="1758.8628"
       x2="1955.2883"
       y2="1705.3795"
       gradientUnits="userSpaceOnUse" />
    <linearGradient
       inkscape:collect="always"
       id="linearGradient4232">
      <stop
         style="stop-color:#2b0000;stop-opacity:1"
         offset="0"
         id="stop4234" />
      <stop
         style="stop-color:#800000;stop-opacity:1"
         offset="1"
         id="stop4236" />
    </linearGradient>
    <filter
       style="color-interpolation-filters:sRGB"
       id="filter5561-7"
       inkscape:label="Roughen">
      <feFlood
         id="feFlood5563-4"
         flood-opacity="1"
         flood-color="rgb(135,2,0)"
         result="flood" />
      <feComposite
         id="feComposite5565-6"
         in2="SourceGraphic"
         in="flood"
         operator="in"
         result="composite1" />
      <feMorphology
         id="feMorphology5567-3"
         operator="dilate"
         radius="1.3"
         result="result3"
         scale="33.299999999999997" />
      <feComposite
         id="feComposite5569-6"
         in2="result3"
         in="SourceGraphic"
         operator="over"
         result="fbSourceGraphic"
         radius="3.3999999999999999" />
      <feColorMatrix
         result="fbSourceGraphicAlpha"
         in="fbSourceGraphic"
         values="0 0 0 -1 0 0 0 0 -1 0 0 0 0 -1 0 0 0 0 1 0"
         id="feColorMatrix4681" />
      <feTurbulence
         id="feTurbulence4683"
         type="fractalNoise"
         numOctaves="1"
         seed="311"
         baseFrequency="0.002 0.032999999999999988"
         result="turbulence" />
      <feDisplacementMap
         id="feDisplacementMap4685"
         in2="turbulence"
         in="fbSourceGraphic"
         scale="33.29283110571081"
         yChannelSelector="G"
         xChannelSelector="R" />
    </filter>
    <linearGradient
       inkscape:collect="always"
       xlink:href="#linearGradient4232"
       id="linearGradient4238-1"
       x1="1956.4867"
       y1="1758.8628"
       x2="1955.2883"
       y2="1705.3795"
       gradientUnits="userSpaceOnUse" />
    <filter
       style="color-interpolation-filters:sRGB"
       id="filter5561-7-0"
       inkscape:label="Roughen">
      <feFlood
         id="feFlood5563-4-4"
         flood-opacity="1"
         flood-color="rgb(196,140,139)"
         result="flood" />
      <feComposite
         id="feComposite5565-6-8"
         in2="SourceGraphic"
         in="flood"
         operator="in"
         result="composite1" />
      <feMorphology
         id="feMorphology5567-3-1"
         operator="dilate"
         radius="2"
         result="result3" />
      <feComposite
         id="feComposite5569-6-9"
         in2="result3"
         in="SourceGraphic"
         operator="over"
         result="fbSourceGraphic"
         radius="3.3999999999999999" />
      <feColorMatrix
         result="fbSourceGraphicAlpha"
         in="fbSourceGraphic"
         values="0 0 0 -1 0 0 0 0 -1 0 0 0 0 -1 0 0 0 0 1 0"
         id="feColorMatrix4681-7" />
      <feTurbulence
         id="feTurbulence4683-1"
         type="fractalNoise"
         numOctaves="1"
         seed="20"
         baseFrequency="0.0030000000000000001 0.044999999999999998"
         result="turbulence" />
      <feDisplacementMap
         id="feDisplacementMap4685-9"
         in2="turbulence"
         in="fbSourceGraphic"
         scale="37.8"
         yChannelSelector="G"
         xChannelSelector="R" />
    </filter>
    <linearGradient
       inkscape:collect="always"
       xlink:href="#linearGradient4232"
       id="linearGradient4328"
       x1="1956.4867"
       y1="1758.8628"
       x2="1955.2883"
       y2="1705.3795"
       gradientUnits="userSpaceOnUse" />
    <linearGradient
       inkscape:collect="always"
       xlink:href="#linearGradient4232"
       id="linearGradient4336"
       x1="1956.4867"
       y1="1758.8628"
       x2="1955.2883"
       y2="1705.3795"
       gradientUnits="userSpaceOnUse" />
    <linearGradient
       inkscape:collect="always"
       xlink:href="#linearGradient4232"
       id="linearGradient4344"
       x1="1956.4867"
       y1="1758.8628"
       x2="1955.2883"
       y2="1705.3795"
       gradientUnits="userSpaceOnUse" />
    <linearGradient
       inkscape:collect="always"
       xlink:href="#linearGradient4232"
       id="linearGradient4352"
       x1="1956.4867"
       y1="1758.8628"
       x2="1955.2883"
       y2="1705.3795"
       gradientUnits="userSpaceOnUse" />
  </defs>
  <sodipodi:namedview
     pagecolor="#ffffff"
     bordercolor="#666666"
     borderopacity="1"
     objecttolerance="10"
     gridtolerance="10"
     guidetolerance="10"
     inkscape:pageopacity="0"
     inkscape:pageshadow="2"
     inkscape:window-width="1920"
     inkscape:window-height="1025"
     id="namedview4"
     showgrid="false"
     inkscape:zoom="0.46000001"
     inkscape:cx="1148.484"
     inkscape:cy="851.74008"
     inkscape:window-x="0"
     inkscape:window-y="26"
     inkscape:window-maximized="1"
     inkscape:current-layer="layer1" />
  <g
     inkscape:groupmode="layer"
     id="layer2"
     inkscape:label="artwork"
     sodipodi:insensitive="true">
    <image
       sodipodi:absref="C:\Users\quentinlipeck\Downloads\webcomics-master-ec7d62e6553c2c63bb1cf2e799ee31f9cb9ce5e2\webcomics-master-ec7d62e6553c2c63bb1cf2e799ee31f9cb9ce5e2\ep14_The-Dragon-s-Tooth\lang\gfx_Pepper-and-Carrot_by-David-Revoy_E14P05.png"
       xlink:href="../gfx_Pepper-and-Carrot_by-David-Revoy_E14P05.png"
       width="2481"
       height="3503"
       id="image10"
       x="0"
       y="0" />
  </g>
  <g
     inkscape:groupmode="layer"
     id="layer3"
     inkscape:label="speechbubbles">
    <path
       style="fill:#ffffff;fill-rule:evenodd;stroke:none;stroke-width:1.02547px;stroke-linecap:butt;stroke-linejoin:miter;stroke-opacity:1"
       d="m 311.70209,257.14707 c 0,-38.04966 -7.03076,-66.5869 28.12305,-69.7577 35.15379,-3.1708 112.49215,-5.54891 131.24084,0 24.60766,-3.1708 74.99477,3.9635 84.36912,7.92701 9.37436,3.96351 21.09228,59.45259 18.7487,72.9285 -2.34359,13.47592 -12.88973,30.91534 -31.63841,33.29346 -18.74871,2.3781 -77.33836,3.9635 -92.57169,4.7562 -15.23331,0.7927 -74.99477,3.1708 -92.57167,-3.17081 -17.57689,-6.34161 -22.26407,-17.43942 -22.26407,-17.43942 0,0 -26.95124,-6.3416 -23.43587,-28.53724 z"
       id="path4440"
       inkscape:connector-curvature="0" />
    <path
       style="fill:#ffffff;fill-rule:evenodd;stroke:none;stroke-width:1.10784px;stroke-linecap:butt;stroke-linejoin:miter;stroke-opacity:1"
       d="m 616.96578,344.56741 c 1.88558,-23.25707 2.29219,-46.43155 49.51589,-72.22051 23.09533,-7.40363 49.06459,-12.88136 95.14814,-4.87976 23.92468,-2.10241 28.49882,5.5208 37.86508,10.73548 28.86502,-2.68519 50.60877,4.17408 71.84657,11.71143 23.3774,-3.32938 31.64553,8.52913 42.71958,17.56715 18.51154,9.40182 25.06725,24.81266 28.15608,41.96597 -1.73568,18.10548 -2.26326,36.69672 -16.5053,49.77361 -16.20149,36.2181 -43.7491,41.07194 -69.90475,49.7736 -21.68263,12.9482 -50.60479,20.80236 -98.06085,15.61524 -83.95865,4.25796 -84.90455,-8.86842 -111.65346,-16.5912 -17.00483,-11.67041 -33.53967,-23.62427 -37.86507,-42.94193 -13.92452,-21.70832 -5.59315,-41.38284 8.73809,-60.50908 z"
       id="path4442"
       inkscape:connector-curvature="0"
       sodipodi:nodetypes="ccccccccccccc" />
    <path
       style="color:#000000;display:inline;overflow:visible;visibility:visible;fill:#ffffff;fill-opacity:1;fill-rule:nonzero;stroke:none;stroke-width:1px;marker:none;enable-background:accumulate"
       d="m 1029.8895,393.25938 c 14.4698,-20.18866 44.9062,-37.16548 84.8228,-44.04798 39.9165,-6.88251 113.7622,-5.0472 126.7352,-2.753 12.9728,2.29416 84.3236,10.55313 99.7913,22.02397 15.4679,11.47085 36.4239,25.69469 40.9145,40.37731 4.4907,14.68268 0.499,50.01285 -13.9707,57.81304 -14.4698,7.80017 -80.3321,24.777 -118.752,25.69463 -38.4197,0.91768 -127.7329,-6.42367 -153.1798,-11.4708 -25.4468,-5.04719 -52.3906,-11.47085 -60.3737,-27.52999 -7.9834,-16.05921 -22.9521,-37.16554 -5.9876,-60.10718 z"
       id="path3533"
       inkscape:connector-curvature="0" />
    <path
       style="fill:#ffffff;fill-rule:evenodd;stroke:none;stroke-width:1px;stroke-linecap:butt;stroke-linejoin:miter;stroke-opacity:1"
       d="m 532.85872,282.1595 c 108.46432,85.46643 201.45864,107.77733 422.76207,131.26148 70.44461,7.47541 458.14911,11.44158 478.07031,12.23835 22.2085,0.88825 103.2041,19.66336 135.2856,37.49051 -29.2751,-29.03069 -97.2656,-42.24132 -118.8317,-47.5327 -61.2168,-15.01995 -418.6614,-9.54779 -500.9663,-15.56754 -40.70969,-2.97749 -260.83615,-55.14213 -294.54908,-70.46092 -37.82328,-17.18649 -126.81478,-74.9138 -126.81478,-74.9138 z"
       id="path4460"
       inkscape:connector-curvature="0"
       sodipodi:nodetypes="csscssscc" />
    <path
       style="fill:#ffffff;fill-opacity:1;stroke:none;stroke-width:1.12018"
       d="m 326.05927,1155.9599 c 37.87477,6.3033 52.4419,12.1564 45.64374,15.7585 15.53843,1.8009 21.3654,48.6262 6.79816,57.1808 -0.97118,0.9007 -7.76922,3.602 -4.8558,4.0523 2.91342,0.4502 20.39411,-0.9005 23.30753,0.9003 2.91342,1.8012 -26.22095,27.465 -22.33647,28.3656 3.88474,0.9004 93.23021,-16.2088 105.85497,-12.1567 12.62489,4.0523 5.82696,14.4078 9.71158,14.8581 3.88436,0.4503 39.81699,-2.2512 44.67279,-1.801 4.85554,0.4503 13.5957,13.9575 18.45149,14.4078 4.85579,0.4502 27.19225,-5.8531 31.07685,-5.403 3.88462,0.4503 1.94213,11.7065 6.79791,12.1566 4.85579,0.4502 26.22095,-9.455 29.1345,-9.0049 2.91331,0.4503 13.59606,22.9626 18.45173,24.3131 4.85579,1.3508 35.93239,-24.7632 38.84595,-25.2135 2.9133,-0.4503 21.36503,30.6166 25.24976,31.0668 3.8846,0.4503 23.30737,-21.1615 26.22092,-20.7113 2.91342,0.4502 21.36514,13.0572 25.24965,13.9576 3.8846,0.9004 29.13449,-27.9151 33.01897,-27.9151 3.88471,0 36.90358,12.1566 39.81713,14.4077 2.91342,2.2513 5.82672,-11.7062 9.71134,-11.7062 3.88461,0 48.55728,8.1044 49.52857,7.6542 0.97106,-0.4503 -6.79814,-9.005 -3.88471,-9.005 2.91342,0 48.55728,11.2561 50.49976,9.005 1.94213,-2.2513 99.05691,11.2561 105.85501,9.4551 6.798,-1.801 -43.70177,-36.92 -38.8462,-39.6215 4.8558,-2.7015 22.3367,0.4502 23.3078,-0.9005 0.9711,-1.3507 -10.6827,-7.2039 -7.7694,-9.0048 2.9137,-1.8009 35.9326,-9.0049 38.8459,-11.256 2.9135,-2.2513 -14.5671,-8.1045 -10.6826,-9.4553 3.8847,-1.3507 61.1826,-9.9053 62.1535,-12.1565 0.9711,-2.2513 -29.1344,-13.057 -25.2499,-16.2088 3.8847,-3.1517 14.5674,-4.5024 13.5961,-6.7536 -0.9711,-2.2512 -19.423,-4.9527 -18.4518,-7.204 0.9712,-2.2511 10.6826,-13.5073 13.596,-15.3081 2.9135,-1.8011 -20.3941,-0.9006 -20.3941,-2.7016 0,-1.8009 1.7153,-28.8449 36.2178,-45.2079 -60.3471,10.8391 -85.7463,5.5865 -117.79396,1.9846 -32.04806,-3.6021 -19.42294,-26.1141 -24.2786,-27.465 -4.8558,-1.3506 -40.7883,7.6543 -45.6441,4.5025 -4.85567,-3.1516 -6.79791,-9.0048 -10.68265,-9.0048 -3.88435,0 -26.22094,12.6067 -31.07649,12.1566 -4.85578,-0.4503 -50.49963,-20.261 -57.2978,-20.7112 -6.7979,-0.4502 -33.01884,7.6541 -38.84582,8.1044 -5.82685,0.4502 -10.68251,-10.8059 -15.5383,-9.9053 -4.85579,0.9003 -35.93241,9.0047 -40.78795,8.1043 -4.8558,-0.9006 -8.7404,-4.5024 -12.6251,-3.6019 -3.88437,0.9004 -21.36516,4.5023 -21.36516,4.5023 0,0 -12.62489,-2.7014 -18.45173,-2.7014 -5.82685,0 -45.64374,14.8581 -50.49952,15.7585 -4.85579,0.9004 -54.70643,-15.3461 -51.79301,-18.0476 -6.18747,11.8226 -36.08544,19.2563 -42.40825,19.8486 -6.79791,1.3506 -27.19213,-2.7014 -29.13426,-1.3507 -1.94236,1.3507 -7.76922,8.5545 -13.59617,9.0049 -5.82686,0.4502 -19.42293,2.2511 -19.42293,2.2511 l 1.94224,2.7015 c 0,0 -40.78806,-7.2039 -45.64385,-9.9054 -4.85567,-2.7014 2.91355,11.7063 5.82698,15.3083 -17.48056,-3.602 -68.95138,-11.2561 -72.83575,-13.5073 -3.88474,-2.2512 6.79778,8.1044 12.62463,11.2562 -7.76909,-1.3509 -14.56724,-1.8011 -14.56724,-1.8011 l 22.33646,10.8058 -6.79815,0.9006 c 0,0 14.56725,4.9527 14.56725,7.2039 0,2.2512 -37.87454,4.9527 -37.87454,4.9527 0,0 15.53831,4.052 11.65371,6.3032 -3.88473,2.2513 -13.59618,3.6021 -13.59618,3.6021 l -1.94212,5.8531 z"
       id="path5888"
       inkscape:connector-curvature="0"
       sodipodi:nodetypes="cccsccsscccccccsccscscsccsccccccsccscscssccsccscscccccccsccccccsccccc" />
    <path
       style="color:#000000;display:inline;overflow:visible;visibility:visible;fill:#ffffff;fill-opacity:1;fill-rule:nonzero;stroke:none;stroke-width:1px;marker:none;enable-background:accumulate"
       d="m 1001.5954,1236.5662 c 42.6212,26.8313 96.2172,54.3217 109.5529,59.8583 -0.1257,-15.4 8.674,-28.8272 10.9088,-39.3494 23.8311,12.087 139.6406,63.2512 157.7592,86.2438 -42.1379,-58.18 -134.076,-99.2843 -174.7203,-116.5248 -5.904,13.2622 -7.3093,22.0583 -10.6283,28.9634 -20.7371,-7.757 -81.7976,-45.1678 -81.7976,-45.1678 z"
       id="path5066"
       inkscape:connector-curvature="0"
       sodipodi:nodetypes="cccccccc" />
    <path
       style="color:#000000;display:inline;overflow:visible;visibility:visible;fill:#ffffff;fill-opacity:1;fill-rule:nonzero;stroke:none;stroke-width:1px;marker:none;enable-background:accumulate"
       d="m 635.86075,2911.9919 c -39.55156,-35.0668 -85.65988,-65.0712 -117.59331,-106.0199 l 4.0885,44.3251 c -20.1647,-9.0852 -31.88657,-27.8044 -46.47536,-43.2525 l -2.66904,27.7953 c -47.28802,-21.9682 -76.79877,-57.0987 -114.9018,-85.8672 l -0.23637,48.752 c 42.45277,24.9963 89.04879,43.4727 126.84109,75.803 l 5.77292,-26.9299 c 14.83868,9.5053 29.26651,19.5611 41.85939,32.0767 l 3.81661,-34.3598 z"
       id="path4032"
       inkscape:connector-curvature="0"
       sodipodi:nodetypes="cccccccccccc" />
    <path
       style="fill:#ffffff;fill-rule:evenodd;stroke:none;stroke-width:1px;stroke-linecap:butt;stroke-linejoin:miter;stroke-opacity:1"
       d="m 297.48061,2585.2233 c 10.80907,28.6703 23.83712,40.1434 43.31448,1.6345 15.88805,9.3062 15.78078,38.1623 67.83212,3.269 -29.87463,44.0445 -17.34353,47.6109 0,46.5835 -25.19619,57.0601 -3.70944,48.2148 5.72078,56.3906 -30.87927,34.4658 -26.83314,50.6373 -12.25882,61.2941 -10.41151,20.8792 -17.68526,41.1308 4.08627,55.5733 -17.02673,5.6974 -41.13559,3.1323 -33.50743,37.5937 -27.03627,-21.8029 -45.90514,-15.8367 -62.11133,-0.8173 -13.98253,-19.9805 -25.33708,-45.217 -64.5631,-14.7106 21.72388,-33.8017 13.12891,-50.7597 -4.08627,-62.9286 32.34197,-32.7226 7.09452,-44.1159 -17.9796,-55.5733 45.33089,-3.9346 32.4477,-40.2104 20.43136,-76.0046 21.2249,7.1893 42.525,14.905 53.12154,-52.3043 z"
       id="path4489"
       inkscape:connector-curvature="0"
       sodipodi:nodetypes="cccccccccccccc" />
  </g>
  <g
     inkscape:groupmode="layer"
     id="layer1"
     inkscape:label="txt">
    <text
       xml:space="preserve"
       style="font-style:normal;font-variant:normal;font-weight:normal;font-stretch:normal;line-height:0%;font-family:Lavi;-inkscape-font-specification:Lavi;text-align:center;letter-spacing:0px;word-spacing:0px;text-anchor:middle;fill:#000000;fill-opacity:1;stroke:none"
       x="451.69452"
       y="263.18845"
       id="text4246"><tspan
         sodipodi:role="line"
         style="font-size:63.4465px;line-height:1.25"
         x="451.69452"
         y="263.18845"
         id="tspan4252">pakala.</tspan></text>
    <text
       xml:space="preserve"
       style="font-style:normal;font-variant:normal;font-weight:normal;font-stretch:normal;line-height:0%;font-family:Lavi;-inkscape-font-specification:Lavi;text-align:center;letter-spacing:0px;word-spacing:0px;text-anchor:middle;fill:#000000;fill-opacity:1;stroke:none"
       x="773.52966"
       y="352.78668"
       id="text4246-4"><tspan
         sodipodi:role="line"
         style="font-size:45px;line-height:1.25"
         x="773.52966"
         y="352.78668"
         id="tspan3537">pali mute la, </tspan><tspan
         sodipodi:role="line"
         style="font-size:45px;line-height:1.25"
         x="773.52966"
         y="409.03668"
         id="tspan67">mi ken ala...</tspan></text>
    <text
       xml:space="preserve"
       style="font-style:normal;font-variant:normal;font-weight:normal;font-stretch:normal;line-height:0%;font-family:Lavi;-inkscape-font-specification:Lavi;text-align:center;letter-spacing:0px;word-spacing:0px;text-anchor:middle;fill:#000000;fill-opacity:1;stroke:none"
       x="1200.1364"
       y="409.05008"
       id="text4246-4-9"><tspan
         sodipodi:role="line"
         style="font-size:45px;line-height:1.25"
         x="1200.1364"
         y="409.05008"
         id="tspan4162-1">... mi anpa. </tspan><tspan
         sodipodi:role="line"
         style="font-size:45px;line-height:1.25"
         x="1200.1364"
         y="465.30008"
         id="tspan69">mi pini.</tspan></text>
    <text
       xml:space="preserve"
       style="font-style:normal;font-variant:normal;font-weight:normal;font-stretch:normal;line-height:0%;font-family:Lavi;-inkscape-font-specification:Lavi;text-align:center;letter-spacing:0px;word-spacing:0px;text-anchor:middle;fill:#000000;fill-opacity:1;stroke:none"
       x="731.69177"
       y="1211.0106"
       id="text4246-4-9-8"><tspan
         sodipodi:role="line"
         style="font-size:45px;line-height:1.25"
         x="731.69177"
         y="1211.0106"
         id="tspan3541">jan Pepa o pini lon tenpo ala!</tspan></text>
    <text
       xml:space="preserve"
       style="font-style:normal;font-variant:normal;font-weight:normal;font-stretch:normal;line-height:0%;font-family:Lavi;-inkscape-font-specification:Lavi;text-align:center;letter-spacing:0px;word-spacing:0px;text-anchor:middle;fill:#000000;fill-opacity:1;stroke:none"
       x="727.7915"
       y="1158.7135"
       id="text4246-5"><tspan
         sodipodi:role="line"
         style="font-size:55.4416px;line-height:1.25;stroke:#000000;stroke-width:2.18458;stroke-miterlimit:4;stroke-dasharray:none;stroke-opacity:1"
         x="727.7915"
         y="1158.7135"
         id="tspan4252-1">ala !</tspan></text>
    <text
       xml:space="preserve"
       style="color:#000000;font-style:normal;font-variant:normal;font-weight:normal;font-stretch:normal;line-height:0%;font-family:Arial;-inkscape-font-specification:Arial;letter-spacing:0.0273496px;word-spacing:0px;display:inline;overflow:visible;visibility:visible;opacity:0.7;fill:url(#linearGradient4238);fill-opacity:1;fill-rule:nonzero;stroke:#854611;stroke-width:0.071215;stroke-linecap:butt;stroke-linejoin:miter;stroke-miterlimit:4;stroke-dasharray:none;stroke-dashoffset:0;stroke-opacity:1;marker:none;filter:url(#filter5561-7);enable-background:accumulate"
       x="1705.2566"
       y="1742.2045"
       id="text4251"
       transform="matrix(1.0496631,-0.00680912,-0.72183224,1.8831671,447.49009,-1337.8832)"><tspan
         sodipodi:role="line"
         id="tspan4253"
         x="1705.2566"
         y="1742.2045"
         style="font-style:normal;font-variant:normal;font-weight:normal;font-stretch:normal;font-size:160.12px;line-height:1.25;font-family:Lavi;-inkscape-font-specification:Lavi;fill:url(#linearGradient4238);fill-opacity:1;stroke:#854611;stroke-width:0.071215;stroke-miterlimit:4;stroke-dasharray:none;stroke-opacity:1"><tspan
           id="tspan4365"
           style="font-size:45.5771px;fill:url(#linearGradient4238);fill-opacity:1;stroke:#854611;stroke-width:0.071215;stroke-miterlimit:4;stroke-dasharray:none;stroke-opacity:1">MU-mu-muuu-muuuuuu ! </tspan><tspan
           id="tspan4311"
           style="font-size:55.844px;fill:url(#linearGradient4238);fill-opacity:1;stroke:#854611;stroke-width:0.071215;stroke-miterlimit:4;stroke-dasharray:none;stroke-opacity:1">! </tspan><tspan
           id="tspan4369"
           style="font-size:72.5136px;fill:url(#linearGradient4238);fill-opacity:1;stroke:#854611;stroke-width:0.071215;stroke-miterlimit:4;stroke-dasharray:none;stroke-opacity:1">!</tspan></tspan></text>
    <text
       xml:space="preserve"
       style="font-style:normal;font-variant:normal;font-weight:normal;font-stretch:normal;font-size:40px;line-height:0%;font-family:Lavi;-inkscape-font-specification:Lavi;text-align:center;letter-spacing:0px;word-spacing:0px;text-anchor:middle;fill:#000000;fill-opacity:1;stroke:none"
       x="310.95746"
       y="1886.489"
       id="text4246-4-9-8-0"><tspan
         sodipodi:role="line"
         style="font-size:40px;line-height:1.25"
         x="310.95746"
         y="1886.489"
         id="tspan4205-3">suno sin li kama...</tspan></text>
    <text
       xml:space="preserve"
       style="font-style:normal;font-variant:normal;font-weight:normal;font-stretch:normal;line-height:0%;font-family:Lavi;-inkscape-font-specification:Lavi;text-align:center;letter-spacing:0px;word-spacing:0px;text-anchor:middle;fill:#000000;fill-opacity:1;stroke:none"
       x="-376.50845"
       y="2795.0046"
       id="text4246-4-9-8-0-3"
       transform="matrix(0.9106769,-0.80340828,0.24287987,0.88381324,0,0)"><tspan
         sodipodi:role="line"
         style="font-size:141.043px;line-height:1.25"
         x="-376.50845"
         y="2795.0046"
         id="tspan4205-3-3"><tspan
   style="font-size:121.453px"
   id="tspan4438">!</tspan>!</tspan></text>
  </g>
</svg>
