<?xml version="1.0" encoding="UTF-8" standalone="no"?>
<!-- Created With Inkscape (http://www.inkscape.org/) -->

<svg
   xmlns:dc="http://purl.org/dc/elements/1.1/"
   xmlns:cc="http://creativecommons.org/ns#"
   xmlns:rdf="http://www.w3.org/1999/02/22-rdf-syntax-ns#"
   xmlns:svg="http://www.w3.org/2000/svg"
   xmlns="http://www.w3.org/2000/svg"
   xmlns:xlink="http://www.w3.org/1999/xlink"
   xmlns:sodipodi="http://sodipodi.sourceforge.net/DTD/sodipodi-0.dtd"
   xmlns:inkscape="http://www.inkscape.org/namespaces/inkscape"
   id="svg2"
   version="1.1"
   inkscape:version="0.92.3 (2405546, 2018-03-11)"
   width="2481"
   height="663"
   sodipodi:docname="E13P00.svg">
  <metadata
     id="metadata8">
    <rdf:RDF>
      <cc:Work
         rdf:about="">
        <dc:format>image/svg+xml</dc:format>
        <dc:type
           rdf:resource="http://purl.org/dc/dcmitype/StillImage" />
        <dc:title />
      </cc:Work>
    </rdf:RDF>
  </metadata>
  <defs
     id="defs6">
    <linearGradient
       inkscape:collect="always"
       id="linearGradient4389">
      <stop
         style="stop-color:#a05a2c;stop-opacity:1"
         offset="0"
         id="stop4391" />
      <stop
         style="stop-color:#ffd42a;stop-opacity:1"
         offset="1"
         id="stop4393" />
    </linearGradient>
    <linearGradient
       inkscape:collect="always"
       id="linearGradient4290">
      <stop
         style="stop-color:#e80000;stop-opacity:1"
         offset="0"
         id="stop4292" />
      <stop
         id="stop4298"
         offset="0.5"
         style="stop-color:#9e1900;stop-opacity:1;" />
      <stop
         style="stop-color:#2b0000;stop-opacity:1"
         offset="1"
         id="stop4294" />
    </linearGradient>
    <filter
       inkscape:menu-tooltip="Transparent plastic with deep colors"
       inkscape:menu="Bevels"
       inkscape:label="Pepper-title-style"
       style="color-interpolation-filters:sRGB;"
       id="filter4268">
      <feGaussianBlur
         in="SourceGraphic"
         result="result6"
         stdDeviation="0.20000000000000001"
         id="feGaussianBlur4270" />
      <feComposite
         in2="SourceGraphic"
         in="result6"
         operator="xor"
         id="feComposite4272" />
      <feGaussianBlur
         result="result2"
         stdDeviation="6.0001843317972341"
         id="feGaussianBlur4274" />
      <feComposite
         in2="SourceGraphic"
         operator="atop"
         result="result91"
         id="feComposite4276"
         stdDeviation="6" />
      <feComposite
         result="result4"
         in="result2"
         operator="xor"
         in2="result91"
         id="feComposite4278"
         stdDeviation="3.7000000000000002" />
      <feGaussianBlur
         in="result4"
         result="result3"
         stdDeviation="3.6962672811059902"
         id="feGaussianBlur4280" />
      <feSpecularLighting
         lighting-color="rgb(216,189,109)"
         in="result3"
         result="result5"
         specularExponent="35"
         specularConstant="3"
         surfaceScale="12"
         id="feSpecularLighting4282">
        <feDistantLight
           elevation="45"
           azimuth="235"
           id="feDistantLight4284" />
      </feSpecularLighting>
      <feComposite
         in2="result5"
         in="SourceGraphic"
         k3="0.7"
         k2="0.8"
         operator="arithmetic"
         result="result7"
         id="feComposite4286" />
      <feComposite
         in="result7"
         operator="in"
         in2="SourceGraphic"
         id="feComposite4288" />
    </filter>
    <linearGradient
       inkscape:collect="always"
       xlink:href="#linearGradient4290"
       id="linearGradient4327-3"
       gradientUnits="userSpaceOnUse"
       x1="1243.5789"
       y1="254.0174"
       x2="1240.9818"
       y2="421.95773"
       gradientTransform="translate(-300.09377,-152.28618)" />
    <filter
       inkscape:menu-tooltip="Transparent plastic with deep colors"
       inkscape:menu="Bevels"
       inkscape:label="Pepper-title-style"
       style="color-interpolation-filters:sRGB"
       id="filter4268-0">
      <feGaussianBlur
         in="SourceGraphic"
         result="result6"
         stdDeviation="0.20000000000000001"
         id="feGaussianBlur4270-9" />
      <feComposite
         in2="SourceGraphic"
         in="result6"
         operator="xor"
         id="feComposite4272-3" />
      <feGaussianBlur
         result="result2"
         stdDeviation="6.0001843317972341"
         id="feGaussianBlur4274-4" />
      <feComposite
         in2="SourceGraphic"
         operator="atop"
         result="result91"
         id="feComposite4276-3"
         stdDeviation="6" />
      <feComposite
         result="result4"
         in="result2"
         operator="xor"
         in2="result91"
         id="feComposite4278-2"
         stdDeviation="3.7000000000000002" />
      <feGaussianBlur
         in="result4"
         result="result3"
         stdDeviation="3.6962672811059902"
         id="feGaussianBlur4280-5" />
      <feSpecularLighting
         lighting-color="#d8bd6d"
         in="result3"
         result="result5"
         specularExponent="35"
         specularConstant="3"
         surfaceScale="12"
         id="feSpecularLighting4282-0">
        <feDistantLight
           elevation="45"
           azimuth="235"
           id="feDistantLight4284-6" />
      </feSpecularLighting>
      <feComposite
         k4="0"
         k1="0"
         in2="result5"
         in="SourceGraphic"
         k3="0.7"
         k2="0.8"
         operator="arithmetic"
         result="result7"
         id="feComposite4286-6" />
      <feComposite
         in="result7"
         operator="in"
         in2="SourceGraphic"
         id="feComposite4288-4" />
    </filter>
    <filter
       inkscape:menu-tooltip="Transparent plastic with deep colors"
       inkscape:menu="Bevels"
       inkscape:label="Pepper-title-style"
       style="color-interpolation-filters:sRGB"
       id="filter4268-5">
      <feGaussianBlur
         in="SourceGraphic"
         result="result6"
         stdDeviation="0.20000000000000001"
         id="feGaussianBlur4270-6" />
      <feComposite
         in2="SourceGraphic"
         in="result6"
         operator="xor"
         id="feComposite4272-2" />
      <feGaussianBlur
         result="result2"
         stdDeviation="6.0001843317972341"
         id="feGaussianBlur4274-9" />
      <feComposite
         in2="SourceGraphic"
         operator="atop"
         result="result91"
         id="feComposite4276-1"
         stdDeviation="6" />
      <feComposite
         result="result4"
         in="result2"
         operator="xor"
         in2="result91"
         id="feComposite4278-27"
         stdDeviation="3.7000000000000002" />
      <feGaussianBlur
         in="result4"
         result="result3"
         stdDeviation="3.6962672811059902"
         id="feGaussianBlur4280-0" />
      <feSpecularLighting
         lighting-color="#d8bd6d"
         in="result3"
         result="result5"
         specularExponent="35"
         specularConstant="3"
         surfaceScale="12"
         id="feSpecularLighting4282-9">
        <feDistantLight
           elevation="45"
           azimuth="235"
           id="feDistantLight4284-3" />
      </feSpecularLighting>
      <feComposite
         k4="0"
         k1="0"
         in2="result5"
         in="SourceGraphic"
         k3="0.7"
         k2="0.8"
         operator="arithmetic"
         result="result7"
         id="feComposite4286-60" />
      <feComposite
         in="result7"
         operator="in"
         in2="SourceGraphic"
         id="feComposite4288-6" />
    </filter>
    <filter
       inkscape:menu-tooltip="Transparent plastic with deep colors"
       inkscape:menu="Bevels"
       inkscape:label="Pepper-title-style"
       style="color-interpolation-filters:sRGB"
       id="filter4268-9">
      <feGaussianBlur
         in="SourceGraphic"
         result="result6"
         stdDeviation="0.20000000000000001"
         id="feGaussianBlur4270-2" />
      <feComposite
         in2="SourceGraphic"
         in="result6"
         operator="xor"
         id="feComposite4272-0" />
      <feGaussianBlur
         result="result2"
         stdDeviation="6.0001843317972341"
         id="feGaussianBlur4274-2" />
      <feComposite
         in2="SourceGraphic"
         operator="atop"
         result="result91"
         id="feComposite4276-37"
         stdDeviation="6" />
      <feComposite
         result="result4"
         in="result2"
         operator="xor"
         in2="result91"
         id="feComposite4278-5"
         stdDeviation="3.7000000000000002" />
      <feGaussianBlur
         in="result4"
         result="result3"
         stdDeviation="3.6962672811059902"
         id="feGaussianBlur4280-9" />
      <feSpecularLighting
         lighting-color="#d8bd6d"
         in="result3"
         result="result5"
         specularExponent="35"
         specularConstant="3"
         surfaceScale="12"
         id="feSpecularLighting4282-2">
        <feDistantLight
           elevation="45"
           azimuth="235"
           id="feDistantLight4284-2" />
      </feSpecularLighting>
      <feComposite
         k4="0"
         k1="0"
         in2="result5"
         in="SourceGraphic"
         k3="0.7"
         k2="0.8"
         operator="arithmetic"
         result="result7"
         id="feComposite4286-8" />
      <feComposite
         in="result7"
         operator="in"
         in2="SourceGraphic"
         id="feComposite4288-9" />
    </filter>
    <linearGradient
       inkscape:collect="always"
       xlink:href="#linearGradient4290"
       id="linearGradient17327"
       gradientUnits="userSpaceOnUse"
       gradientTransform="translate(112.64552,334.8133)"
       x1="1243.5789"
       y1="254.0174"
       x2="1240.9818"
       y2="421.95773" />
    <linearGradient
       inkscape:collect="always"
       xlink:href="#linearGradient4290"
       id="linearGradient17330"
       gradientUnits="userSpaceOnUse"
       gradientTransform="translate(112.64552,334.8133)"
       x1="1243.5789"
       y1="254.0174"
       x2="1240.9818"
       y2="421.95773" />
    <linearGradient
       inkscape:collect="always"
       xlink:href="#linearGradient4290"
       id="linearGradient17333"
       gradientUnits="userSpaceOnUse"
       gradientTransform="translate(112.64552,334.8133)"
       x1="1243.5789"
       y1="254.0174"
       x2="1240.9818"
       y2="421.95773" />
    <linearGradient
       inkscape:collect="always"
       xlink:href="#linearGradient4290"
       id="linearGradient17337"
       gradientUnits="userSpaceOnUse"
       gradientTransform="translate(112.64552,334.8133)"
       x1="1243.5789"
       y1="254.0174"
       x2="1240.9818"
       y2="421.95773" />
    <linearGradient
       gradientTransform="translate(-1182.3441,-324.56694)"
       inkscape:collect="always"
       xlink:href="#linearGradient4389"
       id="linearGradient4395-3"
       x1="1255.1119"
       y1="489.24805"
       x2="1260.4043"
       y2="325.1637"
       gradientUnits="userSpaceOnUse" />
    <filter
       inkscape:menu-tooltip="Transparent plastic with deep colors"
       inkscape:menu="Bevels"
       inkscape:label="Pepper-title-style"
       style="color-interpolation-filters:sRGB"
       id="filter4268-2">
      <feGaussianBlur
         in="SourceGraphic"
         result="result6"
         stdDeviation="0.20000000000000001"
         id="feGaussianBlur4270-93" />
      <feComposite
         in2="SourceGraphic"
         in="result6"
         operator="xor"
         id="feComposite4272-1" />
      <feGaussianBlur
         result="result2"
         stdDeviation="6.0001843317972341"
         id="feGaussianBlur4274-94" />
      <feComposite
         in2="SourceGraphic"
         operator="atop"
         result="result91"
         id="feComposite4276-7"
         stdDeviation="6" />
      <feComposite
         result="result4"
         in="result2"
         operator="xor"
         in2="result91"
         id="feComposite4278-8"
         stdDeviation="3.7000000000000002" />
      <feGaussianBlur
         in="result4"
         result="result3"
         stdDeviation="3.6962672811059902"
         id="feGaussianBlur4280-4" />
      <feSpecularLighting
         lighting-color="#d8bd6d"
         in="result3"
         result="result5"
         specularExponent="35"
         specularConstant="3"
         surfaceScale="12"
         id="feSpecularLighting4282-5">
        <feDistantLight
           elevation="45"
           azimuth="235"
           id="feDistantLight4284-0" />
      </feSpecularLighting>
      <feComposite
         k4="0"
         k1="0"
         in2="result5"
         in="SourceGraphic"
         k3="0.7"
         k2="0.8"
         operator="arithmetic"
         result="result7"
         id="feComposite4286-3" />
      <feComposite
         in="result7"
         operator="in"
         in2="SourceGraphic"
         id="feComposite4288-61" />
    </filter>
    <filter
       inkscape:menu-tooltip="Transparent plastic with deep colors"
       inkscape:menu="Bevels"
       inkscape:label="Pepper-title-style"
       style="color-interpolation-filters:sRGB"
       id="filter4268-06">
      <feGaussianBlur
         in="SourceGraphic"
         result="result6"
         stdDeviation="0.20000000000000001"
         id="feGaussianBlur4270-1" />
      <feComposite
         in2="SourceGraphic"
         in="result6"
         operator="xor"
         id="feComposite4272-5" />
      <feGaussianBlur
         result="result2"
         stdDeviation="6.0001843317972341"
         id="feGaussianBlur4274-5" />
      <feComposite
         in2="SourceGraphic"
         operator="atop"
         result="result91"
         id="feComposite4276-4"
         stdDeviation="6" />
      <feComposite
         result="result4"
         in="result2"
         operator="xor"
         in2="result91"
         id="feComposite4278-7"
         stdDeviation="3.7000000000000002" />
      <feGaussianBlur
         in="result4"
         result="result3"
         stdDeviation="3.6962672811059902"
         id="feGaussianBlur4280-6" />
      <feSpecularLighting
         lighting-color="#d8bd6d"
         in="result3"
         result="result5"
         specularExponent="35"
         specularConstant="3"
         surfaceScale="12"
         id="feSpecularLighting4282-56">
        <feDistantLight
           elevation="45"
           azimuth="235"
           id="feDistantLight4284-9" />
      </feSpecularLighting>
      <feComposite
         k4="0"
         k1="0"
         in2="result5"
         in="SourceGraphic"
         k3="0.7"
         k2="0.8"
         operator="arithmetic"
         result="result7"
         id="feComposite4286-37" />
      <feComposite
         in="result7"
         operator="in"
         in2="SourceGraphic"
         id="feComposite4288-45" />
    </filter>
    <linearGradient
       inkscape:collect="always"
       xlink:href="#linearGradient4290"
       id="linearGradient17455"
       gradientUnits="userSpaceOnUse"
       gradientTransform="translate(112.64552,334.8133)"
       x1="1243.5789"
       y1="254.0174"
       x2="1240.9818"
       y2="421.95773" />
    <linearGradient
       inkscape:collect="always"
       xlink:href="#linearGradient4290"
       id="linearGradient17457"
       gradientUnits="userSpaceOnUse"
       gradientTransform="translate(112.64552,334.8133)"
       x1="1243.5789"
       y1="254.0174"
       x2="1240.9818"
       y2="421.95773" />
    <linearGradient
       inkscape:collect="always"
       xlink:href="#linearGradient4290"
       id="linearGradient17459"
       gradientUnits="userSpaceOnUse"
       gradientTransform="translate(112.64552,334.8133)"
       x1="1243.5789"
       y1="254.0174"
       x2="1240.9818"
       y2="421.95773" />
    <linearGradient
       inkscape:collect="always"
       xlink:href="#linearGradient4290"
       id="linearGradient17461"
       gradientUnits="userSpaceOnUse"
       gradientTransform="translate(112.64552,334.8133)"
       x1="1243.5789"
       y1="254.0174"
       x2="1240.9818"
       y2="421.95773" />
    <linearGradient
       inkscape:collect="always"
       xlink:href="#linearGradient4290"
       id="linearGradient17463"
       gradientUnits="userSpaceOnUse"
       gradientTransform="translate(112.64552,334.8133)"
       x1="1243.5789"
       y1="254.0174"
       x2="1240.9818"
       y2="421.95773" />
    <linearGradient
       inkscape:collect="always"
       xlink:href="#linearGradient4290"
       id="linearGradient17465"
       gradientUnits="userSpaceOnUse"
       gradientTransform="translate(112.64552,334.8133)"
       x1="1243.5789"
       y1="254.0174"
       x2="1240.9818"
       y2="421.95773" />
    <linearGradient
       inkscape:collect="always"
       xlink:href="#linearGradient4290"
       id="linearGradient17467"
       gradientUnits="userSpaceOnUse"
       gradientTransform="translate(112.64552,334.8133)"
       x1="1243.5789"
       y1="254.0174"
       x2="1240.9818"
       y2="421.95773" />
    <linearGradient
       inkscape:collect="always"
       xlink:href="#linearGradient4389"
       id="linearGradient17471"
       gradientUnits="userSpaceOnUse"
       x1="1255.1119"
       y1="489.24805"
       x2="1260.4043"
       y2="325.1637"
       gradientTransform="translate(106.93824,337.66694)" />
    <linearGradient
       inkscape:collect="always"
       xlink:href="#linearGradient4290"
       id="linearGradient17473"
       gradientUnits="userSpaceOnUse"
       gradientTransform="translate(112.64552,334.8133)"
       x1="1243.5789"
       y1="254.0174"
       x2="1240.9818"
       y2="421.95773" />
    <linearGradient
       inkscape:collect="always"
       xlink:href="#linearGradient4290"
       id="linearGradient17475"
       gradientUnits="userSpaceOnUse"
       gradientTransform="translate(112.64552,334.8133)"
       x1="1243.5789"
       y1="254.0174"
       x2="1240.9818"
       y2="421.95773" />
    <linearGradient
       inkscape:collect="always"
       xlink:href="#linearGradient4290"
       id="linearGradient17477"
       gradientUnits="userSpaceOnUse"
       gradientTransform="translate(112.64552,334.8133)"
       x1="1243.5789"
       y1="254.0174"
       x2="1240.9818"
       y2="421.95773" />
    <linearGradient
       inkscape:collect="always"
       xlink:href="#linearGradient4290"
       id="linearGradient17479"
       gradientUnits="userSpaceOnUse"
       gradientTransform="translate(112.64552,334.8133)"
       x1="1243.5789"
       y1="254.0174"
       x2="1240.9818"
       y2="421.95773" />
    <linearGradient
       inkscape:collect="always"
       xlink:href="#linearGradient4290"
       id="linearGradient17481"
       gradientUnits="userSpaceOnUse"
       gradientTransform="translate(112.64552,334.8133)"
       x1="1243.5789"
       y1="254.0174"
       x2="1240.9818"
       y2="421.95773" />
  </defs>
  <sodipodi:namedview
     pagecolor="#ffffff"
     bordercolor="#666666"
     borderopacity="1"
     objecttolerance="10"
     gridtolerance="10"
     guidetolerance="10"
     inkscape:pageopacity="0"
     inkscape:pageshadow="2"
     inkscape:window-width="1920"
     inkscape:window-height="935"
     id="namedview4"
     showgrid="false"
     inkscape:zoom="0.40071843"
     inkscape:cx="1166.4263"
     inkscape:cy="157.25838"
     inkscape:window-x="0"
     inkscape:window-y="118"
     inkscape:window-maximized="1"
     inkscape:current-layer="layer1" />
  <g
     inkscape:groupmode="layer"
     id="layer2"
     inkscape:label="artwork"
     sodipodi:insensitive="true">
    <image
       sodipodi:absref="/home/deevad/peppercarrot/webcomics/ep13_The-Pyjama-Party/lang/ja/../gfx_Pepper-and-Carrot_by-David-Revoy_E13P00.png"
       xlink:href="../gfx_Pepper-and-Carrot_by-David-Revoy_E13P00.png"
       y="0"
       x="0"
       id="image10"
       height="663"
       width="2481" />
  </g>
  <g
     inkscape:groupmode="layer"
     id="layer1"
     inkscape:label="txt"
     style="display:inline">
    <text
       xml:space="preserve"
       style="font-style:normal;font-variant:normal;font-weight:500;font-stretch:normal;line-height:0%;font-family:'Rounded M+ 1c';-inkscape-font-specification:'Rounded M+ 1c, Medium';text-align:start;letter-spacing:0px;word-spacing:0px;writing-mode:lr-tb;text-anchor:start;display:inline;fill:#2b1100;fill-opacity:1;stroke:none;stroke-width:2;stroke-miterlimit:4;stroke-dasharray:none;stroke-opacity:1"
       x="748.98328"
       y="582.47577"
       id="episode-title"><tspan
         sodipodi:role="line"
         id="tspan3372"
         x="748.98328"
         y="582.47577"
         style="font-size:72.5px;line-height:1.25">エピソード 13: パジャマパーティー</tspan></text>
    <path
       style="color:#000000;display:inline;overflow:visible;visibility:visible;opacity:1;vector-effect:none;fill:url(#linearGradient17330);fill-opacity:1;fill-rule:nonzero;stroke:#552200;stroke-width:5.4000001;stroke-linecap:butt;stroke-linejoin:miter;stroke-miterlimit:4;stroke-dasharray:none;stroke-dashoffset:0;stroke-opacity:1;marker:none;filter:url(#filter4268);enable-background:accumulate"
       d="m 1980.528,259.69624 c -0.7787,0.0139 -1.5574,0.24505 -2.3164,0.78125 -3.8331,-1.65169 -8.2816,1.1294 -11.1757,4.45117 -3.6268,4.16258 -2.7174,10.28253 -3.2207,20.25 -2.4207,47.945 -3.1416,36.97184 2.8007,104.41211 0.6285,1.14165 1.7489,-5.53933 2.7461,-5.93945 -0.5736,10.84991 5.6602,37.16538 8.4219,39.24804 1.062,0.80086 2.0462,-6.14878 3.6074,-7.38476 0.4479,2.66237 0.6656,9.06166 4.3242,5.98632 0.9633,12.08184 6.7597,10.97679 6.3575,5.15821 -2.6331,-38.09899 -4.725,-57.6368 -3.3379,-83.92383 10.5785,10.96327 24.1284,20.8436 30.1211,19.93555 1.9151,1.51546 5.5598,3.7962 7.1035,3.5664 1.364,-0.20305 0.1473,-1.42473 -4.8906,-7.32617 4.3839,1.99199 16.7194,4.55168 16.8144,-1.40039 3.6185,0.14086 4.7982,1.48415 6.082,0.0801 1.4417,-1.57677 -1.8974,-3.91787 -4.9472,-7.33203 5.9615,5.10993 20.11,4.87028 5.9511,-0.75391 -21.6133,-8.58523 -34.7736,-14.4749 -53.9667,-32.875 0.9728,-8.47462 2.2139,-17.82758 3.832,-28.68945 1.179,-7.91438 6.4272,-7.08666 7.0312,-10.83203 0.1884,-1.16813 -0.6105,-5.64803 -2.6582,-7.57813 -3.5178,-3.31587 -5.1155,-7.86233 -12.3574,-6.52734 -1.6658,-1.44203 -3.9861,-3.34837 -6.3223,-3.30664 z"
       id="path2985-3-0"
       inkscape:connector-curvature="0" />
    <path
       sodipodi:nodetypes="sssssccscssssssccs"
       inkscape:connector-curvature="0"
       id="path3137-7-3"
       d="m 509.91842,300.6428 c 14.06855,-7.60684 26.9629,-33.90668 53.57277,-25.77388 50.60155,15.4654 32.49423,91.92934 85.60564,122.06993 12.69951,7.20691 23.71159,15.21576 34.87729,17.85323 4.75531,1.12323 3.70178,3.16961 -0.2125,3.02837 -1.84167,-0.0665 -0.85969,4.39296 -20.39707,-4.31265 2.1277,7.52801 -10.57322,-1.39836 -19.78011,-4.63247 2.91342,3.97466 11.78447,9.03088 12.47173,10.798 2.72797,7.01469 -20.17677,-7.38148 -21.68724,-8.92701 -0.45201,11.03145 -8.08308,0.95911 -21.17138,-11.04598 -24.67135,-22.62948 -33.97888,-97.24552 -57.42345,-97.92082 -15.44191,-0.4448 -23.00339,17.547 -34.13584,28.54251 -3.38714,3.3455 -5.57618,5.77568 -9.8435,7.58444 -1.3405,0.56818 -5.05413,0.0629 -6.47388,-0.82757 -1.43071,-0.89734 -0.57128,-2.18224 -2.88939,-2.219 -4.615,-0.0732 -9.31436,-8.04769 -6.15293,-12.53844 -2.42655,-3.68684 -4.85103,-12.17759 0.8392,-15.8973 -1.69618,-4.17236 8.4903,-3.45076 12.80066,-5.78136 z"
       style="color:#000000;display:inline;overflow:visible;visibility:visible;opacity:1;vector-effect:none;fill:url(#linearGradient17481);fill-opacity:1;fill-rule:nonzero;stroke:#552200;stroke-width:5.4000001;stroke-linecap:butt;stroke-linejoin:miter;stroke-miterlimit:4;stroke-dasharray:none;stroke-dashoffset:0;stroke-opacity:1;marker:none;filter:url(#filter4268);enable-background:accumulate" />
    <path
       sodipodi:nodetypes="ssssscsccsscssccscss"
       inkscape:connector-curvature="0"
       id="path3141-5-7"
       d="m 947.05409,282.26869 c -1.23482,6.56404 -3.79715,9.75103 -3.20348,14.42423 5.04581,39.71887 28.29273,94.18268 69.66639,125.47204 5.4443,4.11738 -6.0294,0.86265 -11.7649,-2.27667 0.059,0.60504 -5.17697,-3.26375 -1.86559,0.76174 1.03109,1.25345 1.20989,2.92586 -0.69257,2.57443 -3.33342,-0.61567 -9.133,-4.07382 -13.01431,-10.17196 0.50463,1.69222 1.20534,3.60774 -1.48528,2.63336 -2.93495,1.81609 2.21373,6.11943 0.13746,6.19449 -2.19167,0.0792 -7.84074,-5.31625 -13.20186,-12.12175 -0.42182,0.73817 -0.28038,1.96655 -0.79841,1.96333 -0.69159,-0.006 -2.1085,-1.39495 -3.27172,-1.27046 -2.39822,0.25664 -2.64916,0.76007 -4.2335,-0.61729 -12.42247,-10.7996 -50.89498,-80.46553 -53.11131,-126.1693 -0.2822,-5.81941 -1.317,-18.08636 5.01772,-17.80322 2.68279,-2.79461 5.72272,-3.61371 10.26823,-3.61371 3.15421,-3.57935 8.71374,0.79004 11.80133,4.48492 1.70561,2.04106 3.10917,2.29335 1.86734,4.62752 2.94841,-1.66792 2.7407,2.77032 5.02458,4.79805 1.99228,1.76883 3.13693,4.63752 2.85988,6.11025 z"
       style="color:#000000;display:inline;overflow:visible;visibility:visible;opacity:1;vector-effect:none;fill:url(#linearGradient17479);fill-opacity:1;fill-rule:nonzero;stroke:#552200;stroke-width:5.4000001;stroke-linecap:butt;stroke-linejoin:miter;stroke-miterlimit:4;stroke-dasharray:none;stroke-dashoffset:0;stroke-opacity:1;marker:none;filter:url(#filter4268);enable-background:accumulate" />
    <path
       sodipodi:nodetypes="ssscscssssscscscs"
       inkscape:connector-curvature="0"
       id="path3143-3-5"
       d="m 844.93673,401.98739 c 20.51128,-24.19758 43.5641,-66.30053 48.26747,-96.3095 1.13716,-7.25549 2.50347,-12.50522 1.20009,-20.35498 -1.12895,-6.79924 -4.97539,-9.29813 -9.16111,-10.38694 -0.33907,-2.02499 -0.26383,-3.83478 -1.98572,-5.21007 -3.03934,-2.42755 -8.75674,-3.50131 -11.36571,-2.01513 -1.31591,-1.10778 -4.33899,-3.31138 -6.14535,-2.95607 -4.83628,0.95129 -8.98048,8.20092 -8.88801,13.03363 0.10908,5.70142 6.79538,10.8397 6.62867,17.62336 -1.07403,43.70485 -29.52632,83.58038 -58.25456,111.13194 -4.3303,4.15288 -15.17653,12.43974 -14.67899,15.77011 0.34006,2.27628 6.16227,-1.03463 12.45991,-5.00033 -1.13748,0.91059 -3.35375,6.6824 -2.19748,7.87708 1.48045,1.52949 9.55887,-4.44451 13.22669,-7.8582 -0.14007,2.07725 -0.10348,3.81821 3.94839,3.29036 3.40808,-0.44396 13.68094,-11.70202 20.24618,-19.92746 -3.25094,7.45802 -4.84742,14.91437 6.69953,1.2922 z"
       style="color:#000000;display:inline;overflow:visible;visibility:visible;opacity:1;vector-effect:none;fill:url(#linearGradient17477);fill-opacity:1;fill-rule:nonzero;stroke:#552200;stroke-width:5.4000001;stroke-linecap:butt;stroke-linejoin:miter;stroke-miterlimit:4;stroke-dasharray:none;stroke-dashoffset:0;stroke-opacity:1;marker:none;filter:url(#filter4268);enable-background:accumulate" />
    <path
       style="color:#000000;display:inline;overflow:visible;visibility:visible;opacity:1;vector-effect:none;fill:url(#linearGradient17475);fill-opacity:1;fill-rule:nonzero;stroke:#552200;stroke-width:5.4000001;stroke-linecap:butt;stroke-linejoin:miter;stroke-miterlimit:4;stroke-dasharray:none;stroke-dashoffset:0;stroke-opacity:1;marker:none;filter:url(#filter4268);enable-background:accumulate"
       d="m 635.60143,298.80915 c -6.91397,-0.11006 -11.00976,-6.17159 -8.4278,-15.02339 3.13778,-2.35334 7.0962,-6.08661 7.32848,-10.25988 0.0503,-0.90726 -1.16897,-1.65139 -1.33908,-3.23546 -0.25986,-2.41996 0.24118,-5.72588 -1.78381,-6.13985 0.712,-2.29897 0.9979,-4.65663 -0.67354,-5.30237 -2.83403,-1.09487 -10.15104,0.6982 -13.36575,4.18401 -1.91629,2.07795 -1.29327,5.53725 -2.13312,6.7393 -3.25833,4.66364 -5.50446,9.53784 -5.61104,14.76227 -0.23112,11.32773 8.0528,28.3949 24.53997,28.22553 14.56411,-0.14962 26.93113,-11.02251 27.76853,-22.09039 1.09751,-14.50664 -9.73087,-26.12204 -13.1115,-25.20437 -2.50007,-2.31454 -7.84235,-3.75421 -8.02477,-1.96076 -5.42617,-1.73082 -11.0858,0.2404 -13.22793,1.96076 -2.97121,2.38623 4.12969,-0.97513 10.42257,0.001 -1.95656,0.44263 -2.65896,1.40795 -1.93787,1.65424 1.6889,0.57687 3.31923,1.35111 4.29799,2.33545 -1.03231,0.0745 -3.76859,0.0948 -2.66708,0.59998 1.1557,0.53003 5.17514,1.30065 7.96806,3.80147 1.69044,1.51368 5.45594,5.67398 5.44467,8.78085 -1.61615,-4.38785 -6.12588,-6.37688 -4.55618,-3.28945 1.45822,2.86839 1.81635,5.76008 1.69876,8.21442 -0.30716,6.40826 -6.13387,11.34953 -12.60956,11.24644 z"
       id="path3147-5-9"
       inkscape:connector-curvature="0"
       sodipodi:nodetypes="cssscssssssccscscsscsssc" />
    <path
       sodipodi:nodetypes="sssscssscsscscsss"
       inkscape:connector-curvature="0"
       id="path3158-6-2"
       d="m 1123.8634,347.45349 c -23.7927,0.28428 -42.4003,0.37831 -78.7023,4.14222 -5.3329,0.55293 -20.2147,8.93093 -25.5088,5.92072 -6.6717,-3.79347 -12.4046,-8.33603 -14.1438,-12.3946 -0.946,-2.2076 0.55,-4.95947 0.8235,-5.79027 -3.2138,-1.83817 -4.4346,-3.15816 -4.2327,-4.03352 0.4539,-1.96773 3.5649,-4.35992 5.8757,-6.31845 2.6773,-2.26919 12.2994,-4.63264 16.249,-3.73803 2.5946,0.58769 4.1006,1.52111 6.3012,2.60536 48.0099,-6.0702 86.1906,-4.56221 112.3005,-5.06273 14.7752,-0.28323 24.7857,-0.18227 18.1407,2.67521 -1.7912,0.7703 -12.1666,1.42403 -14.919,2.34149 2.1306,0.61718 4.4357,3.806 0.5699,5.65907 -1.6965,0.81321 2.0659,4.66176 -4.0218,4.92664 0.4906,4.08041 -21.9399,1.54901 -21.8823,2.62926 0.066,1.23914 3.4469,1.94568 5.9129,2.24685 2.8314,0.34577 1.3529,4.14161 -2.7627,4.19078 z"
       style="color:#000000;display:inline;overflow:visible;visibility:visible;opacity:1;vector-effect:none;fill:url(#linearGradient17473);fill-opacity:1;fill-rule:nonzero;stroke:#552200;stroke-width:5.4000001;stroke-linecap:butt;stroke-linejoin:miter;stroke-miterlimit:4;stroke-dasharray:none;stroke-dashoffset:0;stroke-opacity:1;marker:none;filter:url(#filter4268);enable-background:accumulate" />
    <path
       style="color:#000000;display:inline;overflow:visible;visibility:visible;opacity:1;vector-effect:none;fill:url(#linearGradient17471);fill-opacity:1;fill-rule:nonzero;stroke:#552200;stroke-width:5.4000001;stroke-linecap:butt;stroke-linejoin:miter;stroke-miterlimit:4;stroke-dasharray:none;stroke-dashoffset:0;stroke-opacity:1;marker:none;filter:url(#filter4268);enable-background:accumulate"
       d="M 1240.8594 299.44922 C 1239.9206 299.42132 1239.1183 299.83604 1238.5352 300.28125 C 1237.7918 299.86277 1236.5683 299.79101 1235.8496 300.16016 C 1233.9835 301.11866 1232.2327 302.85866 1230.7637 305.61328 C 1229.9174 305.69728 1228.1492 306.38372 1227.2559 307.51367 C 1225.4627 309.78193 1224.6502 314.92868 1226.4863 318.62109 C 1227.0817 319.81846 1232.8078 321.27241 1233.793 322.82812 C 1239.4225 326.83963 1245.2526 332.50985 1248.8672 337.00586 C 1250.9037 339.53901 1249.6965 334.4293 1249.0977 332.63281 C 1251.2025 334.45224 1252.8094 336.83106 1254.1348 339.4375 C 1233.5714 350.83247 1199.8614 362.27452 1201.3281 388.76758 C 1203.1636 421.92485 1237.0672 424.64528 1270.3848 424.91211 C 1271.8293 424.92377 1276.7468 424.58694 1278.3652 423.54883 C 1279.2693 422.96892 1277.6399 422.09055 1277.4316 421.125 C 1282.9586 421.25 1283.643 419.42311 1281.8984 418.04492 C 1284.0687 417.65032 1289.4877 417.58172 1291.5156 416.33594 C 1293.8664 414.89177 1292.9305 412.78061 1295.0645 411.99805 C 1300.5851 409.97358 1300.9261 405.40257 1299.6113 404.08398 C 1299.0557 403.52681 1296.7704 403.67351 1296.0137 403.1543 C 1295.4281 402.75254 1302.2637 400.74153 1306.2871 398.73828 C 1312.0909 395.84859 1314.9458 393.01934 1315.4082 391.21875 C 1316.0757 388.62037 1311.0016 392.28398 1308.4316 393.43164 C 1291.9539 400.79006 1270.6802 402.876 1259.9141 402.8457 C 1245.1156 402.80409 1231.099 400.37948 1226.8672 393.02344 C 1214.3408 371.24906 1274.7454 364.20954 1294.1133 345.85352 C 1298.8412 341.3726 1308.3396 334.14754 1309.6445 323.89062 C 1309.8042 322.6358 1311.6217 319.19274 1308.9707 316.73633 C 1307.9366 315.77811 1306.903 314.96718 1305.957 314.89648 C 1307.1036 310.56487 1298.1945 309.68985 1296.4102 309.875 C 1292.876 310.24174 1292.0785 313.05466 1291.1406 315.95898 C 1290.1207 314.29256 1288.2123 312.3538 1286.918 311.83789 C 1284.1359 310.72894 1281.7429 310.9923 1279.0879 313.35938 C 1277.8543 314.45914 1277.5528 317.09555 1277.0137 318.30469 C 1274.7991 323.27197 1269.783 328.33343 1265.0586 332.17383 C 1260.2693 316.93057 1252.8873 306.77945 1248.0938 302.68164 C 1246.0459 300.93103 1243.2517 299.52028 1240.8594 299.44922 z "
       id="path3160-2-2" />
    <path
       sodipodi:nodetypes="cssscssssssccscscsscsssc"
       inkscape:connector-curvature="0"
       id="path3164-1-9"
       d="m 989.53214,305.25262 c -6.91397,-0.11006 -11.00976,-6.17158 -8.4278,-15.02339 3.13778,-2.35333 7.09619,-6.0866 7.32848,-10.25987 0.0503,-0.90726 -1.16897,-1.65139 -1.33908,-3.23546 -0.25987,-2.41997 0.24118,-5.72589 -1.78381,-6.13986 0.712,-2.29897 0.9979,-4.65663 -0.67354,-5.30237 -2.83403,-1.09487 -10.15104,0.6982 -13.36576,4.18402 -1.91628,2.07794 -1.29326,5.53724 -2.13311,6.73929 -3.25833,4.66364 -5.50446,9.53784 -5.61104,14.76227 -0.23112,11.32773 8.0528,28.3949 24.53997,28.22553 14.56415,-0.14962 26.93115,-11.0225 27.76855,-22.09039 1.0975,-14.50664 -9.7309,-26.12204 -13.1115,-25.20436 -2.5001,-2.31455 -7.84237,-3.75422 -8.02479,-1.96077 -5.42617,-1.73082 -11.0858,0.2404 -13.22793,1.96077 -2.97121,2.38622 4.12969,-0.97514 10.42257,10e-4 -1.95656,0.44262 -2.65896,1.40795 -1.93787,1.65423 1.6889,0.57687 3.31922,1.35111 4.29799,2.33545 -1.03231,0.0745 -3.7686,0.0948 -2.66708,0.59998 1.1557,0.53003 5.17514,1.30065 7.96806,3.80148 1.69045,1.51367 5.45595,5.67397 5.44465,8.78084 -1.6161,-4.38785 -6.12586,-6.37688 -4.5562,-3.28945 1.4583,2.86839 1.8164,5.76008 1.6988,8.21442 -0.3072,6.40826 -6.13387,11.34953 -12.60956,11.24644 z"
       style="color:#000000;display:inline;overflow:visible;visibility:visible;opacity:1;vector-effect:none;fill:url(#linearGradient17467);fill-opacity:1;fill-rule:nonzero;stroke:#552200;stroke-width:5.4000001;stroke-linecap:butt;stroke-linejoin:miter;stroke-miterlimit:4;stroke-dasharray:none;stroke-dashoffset:0;stroke-opacity:1;marker:none;filter:url(#filter4268);enable-background:accumulate" />
    <path
       style="color:#000000;display:inline;overflow:visible;visibility:visible;opacity:1;vector-effect:none;fill:url(#linearGradient17465);fill-opacity:1;fill-rule:nonzero;stroke:#552200;stroke-width:5.4000001;stroke-linecap:butt;stroke-linejoin:miter;stroke-miterlimit:4;stroke-dasharray:none;stroke-dashoffset:0;stroke-opacity:1;marker:none;filter:url(#filter4268);enable-background:accumulate"
       d="m 1837.8047,319.41193 c 7.3332,9.78343 13.83,24.58955 15.338,35.96161 0.7307,5.51055 0.1912,13.06555 2.4295,11.40362 1.5495,-1.15043 1.7082,-3.15534 1.8222,-5.73434 0.8709,-0.32114 0.2302,-3.39789 0.1483,-4.29044 0.4648,0.16669 2.2029,4.66862 3.3648,3.63807 0.8164,-0.72417 0.089,-6.72841 -0.6473,-10.01132 1.5822,1.74785 1.9985,8.81063 3.355,6.90021 1.0096,-1.42192 -0.344,-14.18072 -0.5638,-16.42197 0.9421,1.23468 1.8741,8.32348 2.909,7.53947 2.4637,-1.8663 2.0109,-12.65709 1.7454,-14.94219 -0.7299,-6.28334 -3.2191,-15.64125 -4.4652,-19.04284 -2.2424,-6.12145 -5.4214,-9.59735 -10.9937,-7.33463 -1.9803,0.80418 -5.7828,0.89712 -4.5656,3.76602 -1.5497,-0.13918 -8.9647,0.50504 -10.2141,1.22101 -3.482,1.99537 -3.1184,6.10533 0.3375,7.34772 z"
       id="path3166-2-7"
       inkscape:connector-curvature="0"
       sodipodi:nodetypes="cssccscscsssscsc" />
    <path
       style="color:#000000;display:inline;overflow:visible;visibility:visible;opacity:1;vector-effect:none;fill:url(#linearGradient17463);fill-opacity:1;fill-rule:nonzero;stroke:#552200;stroke-width:5.4000001;stroke-linecap:butt;stroke-linejoin:miter;stroke-miterlimit:4;stroke-dasharray:none;stroke-dashoffset:0;stroke-opacity:1;marker:none;filter:url(#filter4268);enable-background:accumulate"
       d="m 1868.6827,313.87937 c 6.9087,8.96667 11.1513,17.32627 13.3432,27.01189 0.2158,0.95333 1.6654,7.58474 2.7096,8.06546 1.1633,0.5356 1.9018,-5.30714 1.4991,-9.07016 0.5732,1.2322 3.637,6.51492 4.1766,0.96455 1.6298,3.24257 2.5476,1.13143 2.5544,-0.56998 0.01,-1.87473 -0.7567,-4.79199 -2.3476,-9.12664 0.9002,1.7624 3.4723,1.24968 2.4944,-4.2781 1.6972,1.18948 3.3289,3.66712 3.003,1.79237 -1.767,-10.16106 -1.3703,-17.5788 -7.5278,-24.60377 -2.5585,-2.91888 -11.4756,-3.94639 -12.3896,0.97277 -4.3468,-1.67419 -7.801,1.85139 -8.7721,2.45717 -3.2657,2.03722 -0.6995,4.23041 1.2568,6.38444 z"
       id="path3168-7-3"
       inkscape:connector-curvature="0"
       sodipodi:nodetypes="cssccsccsscsc" />
    <path
       style="color:#000000;display:inline;overflow:visible;visibility:visible;opacity:1;vector-effect:none;fill:url(#linearGradient17461);fill-opacity:1;fill-rule:nonzero;stroke:#552200;stroke-width:5.4000001;stroke-linecap:butt;stroke-linejoin:miter;stroke-miterlimit:4;stroke-dasharray:none;stroke-dashoffset:0;stroke-opacity:1;marker:none;filter:url(#filter4268);enable-background:accumulate"
       d="m 1886.5576,398.16612 c 25.0384,-16.85144 54.0445,-44.06177 50.6717,-76.35779 -0.3344,-3.20099 -0.4601,-6.23482 -3.2518,-7.12014 0.3303,-2.61841 -1.9366,-3.93045 -4.5618,-5.71412 -1.162,-0.78954 -5.2543,-2.73654 -6.1637,-1.30406 -5.4729,-4.14482 -7.2231,-6.24311 -13.538,-1.94943 -0.8412,-0.76334 -7.3156,0.99589 -8.2631,4.16615 -2.8579,1.45835 -3.3853,4.131 -1.3908,6.71838 4.5541,5.90765 7.5863,5.38961 7.6201,9.283 0.3718,42.89574 -44.002,68.5367 -63.2122,79.17217 -0.5495,0.30426 -1.8588,1.70333 -2.2628,2.57178 -0.4676,1.00564 -1.3128,1.87202 -0.2233,2.38331 -1.9452,1.29012 5.301,-2.00862 9.6829,-3.61002 -1.5681,1.72524 -1.1866,2.42636 -0.3915,2.38409 4.2688,-0.22688 16.5657,-6.30959 27.5954,-13.93163 -0.586,0.46457 -0.9313,1.3475 -2.8362,2.87183 -1.9124,1.53032 -1.6399,2.07473 -1.287,2.4942 0.7008,0.83282 7.0686,-1.70997 8.1239,-2.17899 -1.583,2.67398 2.7278,0.76765 3.6882,0.12127 z"
       id="path3170-0-6"
       inkscape:connector-curvature="0"
       sodipodi:nodetypes="sscscccssssccscsscs" />
    <path
       style="color:#000000;display:inline;overflow:visible;visibility:visible;opacity:1;vector-effect:none;fill:url(#linearGradient17327);fill-opacity:1;fill-rule:nonzero;stroke:#552200;stroke-width:5.4000001;stroke-linecap:butt;stroke-linejoin:miter;stroke-miterlimit:4;stroke-dasharray:none;stroke-dashoffset:0;stroke-opacity:1;marker:none;filter:url(#filter4268);enable-background:accumulate"
       d="m 1501.5944,255.0771 c -0.1706,-0.0254 -0.5933,0.1717 -1.3183,0.64257 -23.5485,16.19562 -43.9466,27.75292 -64.6484,37.20118 -0.7263,-3.0319 -1.4397,-6.06309 -2.1583,-9.12696 -1.2369,-5.27476 3.6604,-15.85795 -3.3496,-16.1914 -1.456,-1.93019 -4.3487,-5.76056 -6.082,-7.13672 -3.1313,-2.48597 -5.2257,-1.59625 -7.7226,0.12305 -2.9322,-2.92205 -8.8079,-1.86984 -13.2618,-0.55274 -2.1022,0.62167 -3.4638,4.60871 -4.1738,6.4043 -1.3665,3.45536 4.6163,13.72766 7.6914,17.99414 1.3546,6.6051 2.7677,12.85465 4.25,18.8125 -5.3591,2.03762 -10.8096,4.01423 -16.4297,5.94922 -4.5818,1.57748 -13.1838,0.96512 -18.6172,1.23242 -3.7357,0.18379 -6.9503,4.36213 -5.3515,6.375 -1.2731,-0.2019 -3.5023,1.75773 -2.668,3.96094 0.3477,0.91811 -0.4703,7.5675 1.9531,7.95117 -0.1421,2.25407 3.7271,3.65738 5.7871,3.64062 -1.3903,2.1186 -0.2785,3.61564 0.918,4.95313 3.0357,3.39326 6.3365,4.34142 8.3516,2.26953 1.0974,1.73678 2.8769,0.96397 4.705,0.51562 4.0616,-0.99603 12.9966,-5.38115 15.293,-6.20312 4.8246,-1.72687 9.2602,-3.3849 13.4375,-5.01758 4.1233,12.43823 8.7588,23.74616 14.0508,34.76953 -6.9224,2.69257 -14.0421,5.19867 -21.4473,7.57617 -4.5052,1.44642 -9.3187,1.41923 -15.4726,1.3086 -2.3965,-0.0431 -4.6808,1.32113 -4.6328,2.48828 -2.3188,-0.92422 -3.1185,2.87596 -4.4258,5.88867 -0.4183,0.96416 1.7361,2.79633 2.709,3.51172 -2.3183,2.25679 -0.3513,4.31464 1.6425,6.59961 0.6553,0.75088 2.6156,2.17745 3.6133,1.85352 1.0648,1.70353 1.3231,4.18769 3.4746,4.99023 0.927,0.34578 3.3983,-0.28268 4.4668,-0.32617 -1.47,10.11022 23.4122,-3.47085 30.2129,-6.32422 4.1566,-1.74398 7.9528,-3.30435 11.8028,-4.89649 3.7362,6.55626 7.7333,13.21157 12.0527,20.1543 3.8961,6.26235 11.3604,17.53947 12.9297,17.0332 1.7013,-0.54885 -3.6546,-10.58372 -2.375,-11.04101 1.8812,0.32765 5.136,6.62655 8.7246,11.70703 1.9581,2.77211 4.9802,6.50323 5.7012,5.98047 0.8881,-0.64396 0.1938,-4.83058 -2.5332,-9.00195 -2.68,-4.0994 -0.3957,-4.1184 -2.7793,-7.27735 2.9572,2.10576 8.4026,15.64766 10.5898,14.03711 1.0225,-0.75305 0.7369,-1.8774 1.2285,-2.12109 1.6396,-0.81291 2.6384,2.73072 2.0078,-4.03125 1.5486,2.95987 5.3268,6.95933 7.3125,9.57422 1.876,2.47029 3.6526,2.9266 2.7325,1.43945 -13.8077,-22.3172 -24.3671,-40.83233 -32.6192,-56.70703 10.6881,-5.32745 22.4846,-12.18216 37.832,-22.8711 2.2944,-1.59795 9.0026,-6.23132 8.3829,-7.92382 -0.7803,-2.13062 -3.4873,1.78581 -10.0606,4.2539 4.8067,-4.34857 0.9802,-5.91809 3.7383,-8.03906 1.8134,-1.39449 2.0504,-3.86798 1.3594,-5.35156 1.4626,-1.84749 7.1722,-6.6091 7.4726,-9.42188 0.1031,-0.96476 -0.5737,-2.66987 -2.9726,-1.51953 0.6564,-2.38866 3.5744,-6.35346 -1.9942,-3.8789 2.0754,-0.99837 4.6125,-4.07253 6.416,-5.82032 4.8499,-4.70005 5.7638,-8.52304 3.1133,-6.20898 -22.2359,19.41409 -42.7562,33.18923 -64.4472,43.92969 -6.0675,-13.39401 -10.2787,-24.70421 -13.5293,-35.03125 13.4058,-6.75849 24.8956,-14.23438 39.6464,-24.68164 2.796,-1.98025 8.711,-5.23738 4.1954,-6.69141 -1.0577,-0.34059 7.7057,-5.46905 6.289,-8.69141 1.7992,-1.70488 3.9704,-2.51968 3.1485,-3.6582 -1.3571,-1.8799 -4.8019,0.4139 -5.9766,-0.37109 -0.8564,-0.57239 -0.4899,-1.39155 0.793,-2.29493 1.0159,-0.7154 -2.7223,-0.82837 -4.5,-0.81054 5.6005,-4.62747 16.7161,-15.72233 15.5214,-15.90039 z"
       id="path3172-9-1"
       inkscape:connector-curvature="0" />
    <path
       style="color:#000000;display:inline;overflow:visible;visibility:visible;opacity:1;vector-effect:none;fill:url(#linearGradient17337);fill-opacity:1;fill-rule:nonzero;stroke:#552200;stroke-width:5.4000001;stroke-linecap:butt;stroke-linejoin:miter;stroke-miterlimit:4;stroke-dasharray:none;stroke-dashoffset:0;stroke-opacity:1;marker:none;filter:url(#filter4268);enable-background:accumulate"
       d="m 1566.6804,295.47163 c -0.4085,-0.0102 -0.8493,0.0114 -1.3301,0.0703 -2.4488,0.29993 -10.8047,3.79318 -10.1465,6.01758 -4.5319,-1.58419 -6.729,3.69429 -7.6797,5.90625 -1.2623,2.93688 -4.8851,11.08821 -2.7793,13.53906 2.2389,2.60564 6.0092,2.64119 9.2793,5.09375 2.9626,7.45342 5.5919,14.40939 8.1348,21.03711 -6.0465,3.51056 -12.1143,6.6939 -18.2617,9.22266 -5.2965,2.17874 -15.1085,5.33613 -15.0215,7.55078 0.042,1.0576 -1.6706,3.59456 0.3887,5.54297 1.1725,2.92562 6.6094,8.53111 9.6855,6.8125 -1.2387,2.42408 0.7191,3.29115 2.0156,3.52539 -2.2855,4.14154 6.1187,3.66703 11.0606,1.82422 2.4197,-0.90228 5.4616,-5.05967 7.5195,-6.73047 3.1501,-2.55753 6.726,-5.21374 10.5664,-7.89258 5.185,12.08954 11.0076,23.54717 19.3496,35.62305 3.5939,5.20258 3.6047,-3.08857 5.6387,-4.83204 9.4601,6.50424 11.2754,18.92927 11.2754,3.22071 2.7225,6.43122 14.3877,14.67992 11.2773,8.85937 -11.4451,-21.41748 -20.0667,-39.71959 -26.7324,-56.07422 10.6876,-6.22125 21.5984,-11.81032 30.6446,-15.60937 -0.2422,2.66444 -5.8834,10.95864 -5.1211,13.98633 -5.9377,10.18077 -2.277,9.27749 0.6074,6.34179 3.103,-3.15797 4.3985,0.97707 5.9219,0.86719 0.07,6.04235 10.4897,-7.02312 8.371,-2.55469 -3.3436,7.05188 -5.487,8.60685 -6.33,11.43164 -0.5912,1.98148 1.1242,0.43792 2.8672,-2.47656 0.7171,1.22188 2.8641,0.75415 3.4628,-0.21094 7.9825,-12.86666 18.9836,-32.59388 17.836,-47.05859 -0.3246,-4.09138 -10.6036,-11.47081 -13.9238,-10.70117 -18.4196,4.75115 -35.3028,15.41661 -51.8516,26.07812 -1.6909,-4.89207 -3.208,-9.62721 -4.584,-14.24414 -1.9543,-6.557 0.033,-20.20027 -5.4863,-21.7832 -2.508,-0.71927 -3.7952,-2.31165 -6.6543,-2.38281 z"
       id="path3178-0-3"
       inkscape:connector-curvature="0" />
    <path
       style="color:#000000;display:inline;overflow:visible;visibility:visible;opacity:1;vector-effect:none;fill:url(#linearGradient17333);fill-opacity:1;fill-rule:nonzero;stroke:#552200;stroke-width:5.4000001;stroke-linecap:butt;stroke-linejoin:miter;stroke-miterlimit:4;stroke-dasharray:none;stroke-dashoffset:0;stroke-opacity:1;marker:none;filter:url(#filter4268);enable-background:accumulate"
       d="m 1685.3249,265.03999 c -1.4887,-0.0616 -2.9103,0.46781 -2.584,2.31054 -2.6142,-1.45371 -6.3831,-0.58412 -7.3418,0.56055 -2.3172,2.76678 -8.0782,6.33774 -6.5468,11.51953 1.0633,3.59783 3.4626,8.619 6.6914,12.71875 -4.0565,42.2431 -4.2104,55.00202 -0.8516,97.31836 0.2156,2.71514 1.431,11.29273 1.7285,12.10156 0.6543,1.77915 2.1376,-5.2411 1.4668,-12.35351 0.8615,-0.36622 4.8955,23.39188 7.3379,23.25586 5.2138,-0.29041 3.8313,11.72635 4.6582,7.83984 3.4828,6.34315 5.5756,-4.09881 6.3359,-1.45312 2.2976,7.99499 4.3623,9.3914 3.8418,5.40625 -0.6859,-5.2507 -1.2561,-10.26229 -1.7695,-15.16602 40.2089,-2.20111 74.3531,-3.79804 102.9121,-7.21484 0.5412,-0.0648 5.2574,-0.76086 6.4551,-1.70703 1.6014,-1.26529 -0.5453,-2.95162 -2.9687,-4.04688 3.6909,-1.57177 6.4997,-2.50865 7.164,-4.32812 1.0137,-2.77664 -3.8073,-4.27965 -1.3398,-5.50196 4.9797,-2.46678 13.1071,-5.49494 4.4609,-6.08203 7.6128,-2.15443 14.3517,-5.15747 11.832,-4.86914 -7.373,0.84372 -15.481,1.89589 -24.0703,2.97461 0.958,-35.83619 6.7719,-60.8749 10.6035,-87.46289 0.1537,-1.06614 2.1129,-3.41422 2.0489,-5.26758 -0.1176,-3.38339 -2.5189,-6.64887 -3.3477,-8.27734 -0.8957,-1.75995 -1.1005,-2.3351 -2.4082,-3.00391 -0.1647,-0.92037 -1.3521,-2.29941 -1.8808,-3.14062 -2.369,-3.76967 -7.8515,-5.21786 -11.6172,-4.92774 -32.4594,2.50077 -56.4102,7.39707 -97.0215,6.32422 -1.1169,-1.6403 -6.5143,-4.34299 -11.4004,-6.93359 -0.5785,-0.30674 -1.4954,-0.55679 -2.3887,-0.59375 z m 104.0176,28.28711 c -3.1871,10.22426 -6.5126,43.74795 -7.0625,78.97265 -0.098,6.26109 3.2177,7.19521 3.8242,0.41211 0.6501,0.73237 1.1108,4.17747 1.6524,7.42578 -26.6772,3.0897 -57.7551,5.70275 -91.4532,3.83594 -1.4981,-29.28151 0.2496,-54.36862 3.9004,-84.69726 27.396,-0.28866 62.1977,-1.80624 89.1387,-5.94922 z"
       id="path3184-2-9"
       inkscape:connector-curvature="0" />
    <path
       sodipodi:nodetypes="cssccscscsssscsc"
       inkscape:connector-curvature="0"
       id="path4062-8-8"
       d="m 701.17622,319.41193 c 7.33319,9.78343 13.82995,24.58955 15.33798,35.96161 0.73075,5.51055 0.19118,13.06555 2.42951,11.40362 1.54946,-1.15043 1.70816,-3.15534 1.82215,-5.73434 0.87096,-0.32114 0.23029,-3.39789 0.14833,-4.29044 0.46483,0.16669 2.20289,4.66862 3.36478,3.63807 0.81645,-0.72417 0.0886,-6.72841 -0.64725,-10.01132 1.5822,1.74785 1.99851,8.81063 3.35499,6.90021 1.00963,-1.42192 -0.34395,-14.18072 -0.5638,-16.42197 0.9421,1.23468 1.87408,8.32348 2.90903,7.53947 2.46366,-1.8663 2.01088,-12.65709 1.74541,-14.94219 -0.72998,-6.28334 -3.21916,-15.64125 -4.4652,-19.04284 -2.24239,-6.12145 -5.42147,-9.59735 -10.99372,-7.33463 -1.98034,0.80418 -5.78283,0.89712 -4.56559,3.76602 -1.54972,-0.13918 -8.96474,0.50504 -10.21413,1.22101 -3.48198,1.99537 -3.11844,6.10533 0.33751,7.34772 z"
       style="color:#000000;display:inline;overflow:visible;visibility:visible;opacity:1;vector-effect:none;fill:url(#linearGradient17459);fill-opacity:1;fill-rule:nonzero;stroke:#552200;stroke-width:5.4000001;stroke-linecap:butt;stroke-linejoin:miter;stroke-miterlimit:4;stroke-dasharray:none;stroke-dashoffset:0;stroke-opacity:1;marker:none;filter:url(#filter4268);enable-background:accumulate" />
    <path
       sodipodi:nodetypes="cssccsccsscsc"
       inkscape:connector-curvature="0"
       id="path4064-7-4"
       d="m 732.05418,313.87937 c 6.90869,8.96667 11.15133,17.32627 13.3432,27.01189 0.2158,0.95333 1.66545,7.58474 2.70961,8.06546 1.16331,0.5356 1.90179,-5.30714 1.49908,-9.07016 0.57321,1.2322 3.63708,6.51492 4.17666,0.96455 1.62974,3.24257 2.54762,1.13143 2.55438,-0.56998 0.008,-1.87473 -0.75672,-4.79199 -2.34761,-9.12664 0.90021,1.7624 3.47232,1.24968 2.49446,-4.2781 1.69714,1.18948 3.32889,3.66712 3.00291,1.79237 -1.76693,-10.16106 -1.37027,-17.5788 -7.52778,-24.60377 -2.55844,-2.91888 -11.47556,-3.94639 -12.38957,0.97277 -4.34676,-1.67419 -7.80105,1.85139 -8.77214,2.45717 -3.26568,2.03722 -0.6995,4.23041 1.2568,6.38444 z"
       style="color:#000000;display:inline;overflow:visible;visibility:visible;opacity:1;vector-effect:none;fill:url(#linearGradient17457);fill-opacity:1;fill-rule:nonzero;stroke:#552200;stroke-width:5.4000001;stroke-linecap:butt;stroke-linejoin:miter;stroke-miterlimit:4;stroke-dasharray:none;stroke-dashoffset:0;stroke-opacity:1;marker:none;filter:url(#filter4268);enable-background:accumulate" />
    <path
       sodipodi:nodetypes="sscscccssssccscsscs"
       inkscape:connector-curvature="0"
       id="path4066-9-5"
       d="m 749.92908,398.16612 c 25.03843,-16.85144 54.04456,-44.06177 50.67172,-76.35779 -0.33435,-3.20099 -0.46013,-6.23482 -3.25176,-7.12014 0.33023,-2.61841 -1.93665,-3.93045 -4.56179,-5.71412 -1.16201,-0.78954 -5.25433,-2.73654 -6.16376,-1.30406 -5.47289,-4.14482 -7.22313,-6.24311 -13.53799,-1.94943 -0.8412,-0.76334 -7.3156,0.99589 -8.26304,4.16615 -2.85794,1.45835 -3.38534,4.131 -1.39083,6.71838 4.55412,5.90765 7.58629,5.38961 7.62005,9.283 0.37185,42.89574 -44.00195,68.5367 -63.21213,79.17217 -0.5495,0.30426 -1.85888,1.70333 -2.26282,2.57178 -0.46767,1.00564 -1.31286,1.87202 -0.22333,2.38331 -1.94516,1.29012 5.30104,-2.00862 9.68286,-3.61002 -1.56802,1.72524 -1.18657,2.42636 -0.39144,2.38409 4.2688,-0.22688 16.56565,-6.30959 27.59539,-13.93163 -0.58597,0.46457 -0.93127,1.3475 -2.83616,2.87183 -1.91242,1.53032 -1.63999,2.07473 -1.28702,2.4942 0.70073,0.83282 7.06862,-1.70997 8.12387,-2.17899 -1.58303,2.67398 2.72778,0.76765 3.68818,0.12127 z"
       style="color:#000000;display:inline;overflow:visible;visibility:visible;opacity:1;vector-effect:none;fill:url(#linearGradient17455);fill-opacity:1;fill-rule:nonzero;stroke:#552200;stroke-width:5.4000001;stroke-linecap:butt;stroke-linejoin:miter;stroke-miterlimit:4;stroke-dasharray:none;stroke-dashoffset:0;stroke-opacity:1;marker:none;filter:url(#filter4268);enable-background:accumulate" />
  </g>
</svg>
