<?xml version="1.0" encoding="UTF-8" standalone="no"?>
<svg
   xmlns:dc="http://purl.org/dc/elements/1.1/"
   xmlns:cc="http://creativecommons.org/ns#"
   xmlns:rdf="http://www.w3.org/1999/02/22-rdf-syntax-ns#"
   xmlns:svg="http://www.w3.org/2000/svg"
   xmlns="http://www.w3.org/2000/svg"
   xmlns:xlink="http://www.w3.org/1999/xlink"
   xmlns:sodipodi="http://sodipodi.sourceforge.net/DTD/sodipodi-0.dtd"
   xmlns:inkscape="http://www.inkscape.org/namespaces/inkscape"
   sodipodi:docname="E05P04.svg"
   height="3503"
   width="2481"
   inkscape:version="1.0 (4035a4f, 2020-05-01)"
   version="1.1"
   id="svg2">
  <sodipodi:namedview
     inkscape:window-maximized="0"
     inkscape:window-y="23"
     inkscape:window-x="0"
     inkscape:document-rotation="0"
     inkscape:current-layer="svg2"
     inkscape:cy="2618.6204"
     inkscape:cx="1284.4231"
     inkscape:zoom="0.38651685"
     showgrid="false"
     id="namedview70"
     inkscape:window-height="790"
     inkscape:window-width="1440"
     inkscape:pageshadow="2"
     inkscape:pageopacity="0"
     bordercolor="#666666"
     pagecolor="#ffffff" />
  <metadata
     id="metadata8">
    <rdf:RDF>
      <cc:Work
         rdf:about="">
        <dc:format>image/svg+xml</dc:format>
        <dc:type
           rdf:resource="http://purl.org/dc/dcmitype/StillImage" />
        <dc:title />
      </cc:Work>
    </rdf:RDF>
  </metadata>
  <defs
     id="defs6">
    <filter
       inkscape:label="Drop Shadow"
       style="color-interpolation-filters:sRGB;"
       id="filter3980">
      <feFlood
         result="flood"
         flood-color="rgb(255,255,255)"
         flood-opacity="0.228"
         id="feFlood3982" />
      <feComposite
         result="composite1"
         operator="in"
         in="flood"
         in2="SourceGraphic"
         id="feComposite3984" />
      <feGaussianBlur
         result="blur"
         stdDeviation="0.2"
         in="composite"
         id="feGaussianBlur3986" />
      <feOffset
         result="offset"
         dy="-3.3"
         dx="1.2"
         id="feOffset3988" />
      <feComposite
         result="composite2"
         operator="over"
         in="SourceGraphic"
         in2="offset"
         id="feComposite3990" />
    </filter>
  </defs>
  <sodipodi:namedview
     inkscape:current-layer="svg2"
     inkscape:window-maximized="1"
     inkscape:window-y="26"
     inkscape:window-x="0"
     inkscape:cy="1969.9493"
     inkscape:cx="900.24632"
     inkscape:zoom="0.22266629"
     showgrid="false"
     id="namedview4"
     inkscape:window-height="1025"
     inkscape:window-width="1920"
     inkscape:pageshadow="2"
     inkscape:pageopacity="0"
     guidetolerance="10"
     gridtolerance="10"
     objecttolerance="10"
     borderopacity="1"
     bordercolor="#666666"
     pagecolor="#ffffff" />
  <image
     sodipodi:absref="/Users/julienj-mauduit/Downloads/lang-2/gfx_Pepper-and-Carrot_by-David-Revoy_E05P04.png"
     xlink:href="../gfx_Pepper-and-Carrot_by-David-Revoy_E05P04.png"
     y="0"
     x="0"
     id="image10"
     height="3503"
     width="2481" />
  <flowRoot
     transform="matrix(0.95112257,-0.14803231,-0.24361406,0.77336902,765.87569,1939.3312)"
     style="font-style:normal;font-variant:normal;font-weight:normal;font-stretch:normal;line-height:0.01%;font-family:Arial;-inkscape-font-specification:Arial;letter-spacing:0px;word-spacing:0px;fill:#483c2b;fill-opacity:1;stroke:#413727;stroke-width:1.37842;stroke-miterlimit:4;stroke-dasharray:none;stroke-opacity:1;filter:url(#filter3980)"
     id="flowRoot2987"
     xml:space="preserve"><flowRegion
       id="flowRegion2989"><rect
         style="fill:#483c2b;fill-opacity:1;stroke:#413727;stroke-width:1.37842441;stroke-miterlimit:4;stroke-dasharray:none;stroke-opacity:1"
         y="1627.8433"
         x="916.97449"
         height="97.826324"
         width="693.03467"
         id="rect2991" /></flowRegion><flowPara
       style="font-style:normal;font-variant:normal;font-weight:bold;font-stretch:normal;font-size:72px;line-height:1.25;font-family:Cursivah;-inkscape-font-specification:'Cursivah Bold';fill:#483c2b;fill-opacity:1;stroke:#413727;stroke-width:1.37842;stroke-miterlimit:4;stroke-dasharray:none;stroke-opacity:1"
       id="flowPara2993">Noué</flowPara></flowRoot>
  <flowRoot
     xml:space="preserve"
     id="flowRoot2995"
     style="font-style:normal;font-variant:normal;font-weight:normal;font-stretch:normal;line-height:0.01%;font-family:Arial;-inkscape-font-specification:Arial;letter-spacing:0px;word-spacing:0px;fill:#413727;fill-opacity:1;stroke:#483c2b;stroke-width:1.22156;stroke-miterlimit:4;stroke-dasharray:none;stroke-opacity:1;filter:url(#filter3980)"
     transform="matrix(0.97674365,0.06278897,-0.48754073,0.69338377,917.28812,1868.1515)"><flowRegion
       id="flowRegion2997"><rect
         style="fill:#413727;fill-opacity:1;stroke:#483c2b;stroke-width:1.22155571;stroke-miterlimit:4;stroke-dasharray:none;stroke-opacity:1"
         id="rect2999"
         width="693.03467"
         height="97.826324"
         x="916.97449"
         y="1627.8433" /></flowRegion><flowPara
       id="flowPara3001"
       style="font-style:normal;font-variant:normal;font-weight:bold;font-stretch:normal;font-size:72px;line-height:1.25;font-family:Cursivah;-inkscape-font-specification:'Cursivah Bold';fill:#413727;fill-opacity:1;stroke:#483c2b;stroke-width:1.22156;stroke-miterlimit:4;stroke-dasharray:none;stroke-opacity:1">Jostous</flowPara></flowRoot>
</svg>
