<?xml version="1.0" encoding="UTF-8" standalone="no"?>
<svg
   xmlns:dc="http://purl.org/dc/elements/1.1/"
   xmlns:cc="http://creativecommons.org/ns#"
   xmlns:rdf="http://www.w3.org/1999/02/22-rdf-syntax-ns#"
   xmlns:svg="http://www.w3.org/2000/svg"
   xmlns="http://www.w3.org/2000/svg"
   xmlns:xlink="http://www.w3.org/1999/xlink"
   xmlns:sodipodi="http://sodipodi.sourceforge.net/DTD/sodipodi-0.dtd"
   xmlns:inkscape="http://www.inkscape.org/namespaces/inkscape"
   id="svg2"
   version="1.1"
   inkscape:version="1.0.1 (3bc2e813f5, 2020-09-07)"
   width="2481"
   height="3503"
   sodipodi:docname="E35P02.svg">
  <metadata
     id="metadata8">
    <rdf:RDF>
      <cc:Work
         rdf:about="">
        <dc:format>image/svg+xml</dc:format>
        <dc:type
           rdf:resource="http://purl.org/dc/dcmitype/StillImage" />
        <dc:title />
      </cc:Work>
    </rdf:RDF>
  </metadata>
  <defs
     id="defs6" />
  <sodipodi:namedview
     pagecolor="#ffffff"
     bordercolor="#666666"
     borderopacity="1"
     objecttolerance="10"
     gridtolerance="10"
     guidetolerance="10"
     inkscape:pageopacity="0"
     inkscape:pageshadow="2"
     inkscape:window-width="1366"
     inkscape:window-height="715"
     id="namedview4"
     showgrid="false"
     inkscape:window-x="-8"
     inkscape:window-y="-8"
     inkscape:window-maximized="1"
     inkscape:document-rotation="0"
     inkscape:snap-global="false"
     inkscape:pagecheckerboard="0"
     inkscape:zoom="0.44247161"
     inkscape:cx="1359.0467"
     inkscape:cy="2731.6552"
     inkscape:current-layer="layer1" />
  <g
     inkscape:groupmode="layer"
     id="layer2"
     inkscape:label="artwork"
     sodipodi:insensitive="true">
    <image
       sodipodi:absref="D:\Projects\lang\gfx_Pepper-and-Carrot_by-David-Revoy_E35P02.png"
       xlink:href="../gfx_Pepper-and-Carrot_by-David-Revoy_E35P02.png"
       y="0"
       x="0"
       id="image10"
       height="3503"
       width="2481" />
  </g>
  <g
     inkscape:groupmode="layer"
     id="layer3"
     inkscape:label="speechbubbles">
    <path
       style="color:#000000;display:inline;overflow:visible;visibility:visible;fill:#ffffff;fill-opacity:1;fill-rule:nonzero;stroke:none;stroke-width:1.04438px;marker:none;enable-background:accumulate"
       d="m 304.05483,2060.6861 c -6.79342,17.214 -45.10939,18.658 -59.21454,15.159 28.43271,19.257 27.44145,31.222 -11.16214,33.079 64.739,34.707 11.83512,29.455 1.40028,38.255 50.83203,11.961 33.98368,30.089 1.35601,38.422 58.42648,0.509 44.28227,12.725 22.16208,30.304 25.86883,-11.509 65.7741,-19.785 67.18998,10.306 37.48188,-26.287 56.82071,-25.775 70.37483,3.95 11.32193,-25.632 49.87371,-30.565 64.61509,-2.922 12.69876,-37.411 58.00938,-32.144 84.98117,-14.013 -15.1407,-12.796 -4.81614,-33.866 46.8039,-29.605 -4.15493,-11.73 2.37911,-26.535 28.44667,-24.58 -30.0266,-7.085 -35.56033,-14.394 20.19222,-22.259 -42.42443,-0.76 -81.98553,-2.319 -32.21243,-29.141 -15.61517,-0.649 -52.66388,21.732 -35.39036,-43.765 -45.7335,19.313 -93.79048,29.186 -91.4261,-11.382 -17.00247,21.943 -46.49287,32.801 -59.32274,5.393 -10.59102,25.603 -42.76005,14.882 -59.47129,-2.593 -11.04194,17.342 -27.55958,29.055 -59.32263,5.392 z"
       id="path3549-3-7-8"
       inkscape:connector-curvature="0"
       sodipodi:nodetypes="ccccccccccccccccccc" />
    <path
       style="fill:#ffffff;stroke:none;stroke-width:1.11747"
       d="m 402.95155,2014.2181 c 26.97915,-1.1151 157.35896,-6.3967 155.33108,101.0997 -2.54084,134.6965 -3.821,196.2482 -143.43924,194.1791 -149.95773,-2.2225 -119.77638,-83.4609 -120.95054,-185.257 -1.03953,-90.1215 36.66343,-106.7644 109.0587,-110.0218 z"
       id="path3280-8-6"
       inkscape:connector-curvature="0"
       sodipodi:nodetypes="csssc" />
    <path
       style="color:#000000;display:inline;overflow:visible;visibility:visible;fill:#ffffff;fill-opacity:1;fill-rule:nonzero;stroke:none;stroke-width:1px;marker:none;enable-background:accumulate"
       d="m 596.40058,2341.6788 c -54.36956,-1.3158 -66.37353,-18.0831 -76.5499,-29.227 3.41593,-3.9672 8.07344,-11.8668 8.07344,-11.8668 0,0 -22.49109,-20.0802 -27.87182,-30.4304 -5.38071,-10.3501 9.28192,-17.9731 9.28192,-17.9731 0,0 44.94813,37.9871 57.64264,43.4391 -9.83295,10.5902 -13.21387,16.7305 -18.38931,19.4211 3.1733,8.211 28.66645,25.6349 47.81303,26.6371 z"
       id="path4456-3"
       inkscape:connector-curvature="0" />
    <path
       style="color:#000000;display:inline;overflow:visible;visibility:visible;fill:#ffffff;fill-opacity:1;fill-rule:nonzero;stroke:none;stroke-width:0.803733px;marker:none;enable-background:accumulate"
       d="m 1983.6307,2169.1943 c -4.3305,-56.497 5.9266,-125.335 143.5229,-109.0086 131.1888,15.5659 122.995,36.9633 124.3842,108.6937 1.4636,75.5745 -52.0802,112.1707 -146.0786,104.9253 -55.0849,-4.2457 -109.9759,-8.2642 -121.8285,-104.6104 z"
       id="path5026-4"
       inkscape:connector-curvature="0"
       sodipodi:nodetypes="csssc" />
    <path
       style="color:#000000;display:inline;overflow:visible;visibility:visible;fill:#ffffff;fill-opacity:1;fill-rule:nonzero;stroke:none;stroke-width:1.63768px;marker:none;enable-background:accumulate"
       d="m 2065.086,2229.8886 c -4.2272,-2.5286 -41.7209,44.7549 -41.7209,44.7549 l -35.4466,3.459 1.2502,26.926 -53.4012,-4.5662 35.1739,-8.2914 -1.9242,-26.5703 33.0101,-11.5413 29.8178,-33.9388 z"
       id="path4448"
       inkscape:connector-curvature="0"
       sodipodi:nodetypes="cccccccccc" />
    <path
       style="color:#000000;display:inline;overflow:visible;visibility:visible;fill:#ffffff;fill-opacity:1;fill-rule:nonzero;stroke:none;stroke-width:1.02797px;marker:none;enable-background:accumulate"
       d="m 143.97883,2684.6791 c -5.5616,-32.5464 9.26932,-120.1003 123.28255,-117.1841 114.01312,2.916 132.55194,43.1669 135.33269,55.3459 2.78084,12.1789 26.88118,80.8817 -62.1047,102.6218 -88.98596,21.7398 -168.70243,5.263 -196.51054,-40.7836 z"
       id="path3525"
       inkscape:connector-curvature="0" />
    <path
       style="color:#000000;display:inline;overflow:visible;visibility:visible;fill:#ffffff;fill-opacity:1;fill-rule:nonzero;stroke:none;stroke-width:0.8273px;marker:none;enable-background:accumulate"
       d="m 1199.0011,2492.4237 c -18.073,0.8182 -36.4351,1.788 -53.7422,6.9827 -23.1207,7.5173 -41.4321,26.7389 -45.336,48.8922 -1.8974,13.8942 5.745,28.0441 17.9675,36.2747 14.0237,9.8699 31.1232,15.2118 48.16,19.0219 25.6015,5.4774 52.1565,5.2221 78.2486,3.7345 20.7598,-1.3088 41.6527,-4.9224 60.4769,-13.2573 8.3672,-3.5602 16.6877,-8.4478 21.0883,-16.0968 5.8373,-9.7255 6.2569,-21.3487 4.2218,-32.0561 -2.5188,-13.2028 -10.1184,-25.8753 -22.2073,-33.7852 -13.3465,-9.089 -29.8268,-13.2462 -46.0584,-15.6624 -15.1524,-2.2129 -30.4753,-3.2505 -45.7716,-4.2311 -5.6869,-0.2852 -11.3671,-0.132 -17.0476,0.1829 z"
       id="path3525-3"
       inkscape:connector-curvature="0" />
    <path
       style="color:#000000;display:inline;overflow:visible;visibility:visible;fill:#ffffff;fill-opacity:1;fill-rule:nonzero;stroke:none;stroke-width:0.850812px;marker:none;enable-background:accumulate"
       d="m 378.31396,2800.4734 c -21.81603,-6.0365 -24.7236,-21.3438 -23.81085,-34.7307 0.91307,-13.3879 3.43731,-21.6544 -10.14803,-38.2382 -13.58559,-16.5829 -43.44749,-17.8668 -26.36893,-33.9071 2.07754,-10.3968 3.18888,-19.4098 8.63924,-29.73 6.0118,-11.3839 -30.60834,-11.6128 -30.60834,-11.6128 0,0 -9.2601,36.4069 -8.60393,58.2554 0.65624,21.8486 37.98578,15.4181 49.29264,29.8458 10.55851,13.4728 3.54145,36.8172 10.69223,46.6028 7.15061,9.7866 19.89022,13.3481 30.91597,13.5148 z"
       id="path4538-8"
       inkscape:connector-curvature="0"
       sodipodi:nodetypes="csscscsssc" />
    <path
       style="fill:#ffffff;fill-rule:evenodd;stroke:none;stroke-width:1.00018px;stroke-linecap:butt;stroke-linejoin:miter;stroke-opacity:1"
       d="m 683.3565,2839.4097 c 22.47948,-7.6888 8.18259,-27.2917 13.56572,-36.5201 5.55722,-9.5269 47.07364,3.0903 52.88651,-5.37 5.81286,-8.4604 -12.6074,-31.2018 -3.16551,-44.2198 9.44226,-13.0187 37.29048,-1.0958 25.77916,13.6924 -11.51166,14.7889 6.85876,28.7751 -4.63767,39.1332 -19.17293,17.274 -46.18634,1.6002 -58.07288,2.8253 -7.86988,0.8115 -1.86593,15.6117 -9.63373,23.71 -7.76824,8.099 -16.7216,6.749 -16.7216,6.749 z"
       id="path4272-2"
       inkscape:connector-curvature="0"
       sodipodi:nodetypes="csssssssc" />
    <path
       style="fill:#ffffff;stroke:none;stroke-width:1.07142"
       d="m 1739.6093,2734.7823 c -1.3394,-33.7766 22.678,-118.3324 139.8338,-111.9727 117.1558,6.3597 153.8235,43.5131 157.2569,103.5506 5.4311,94.9786 -56.2046,120.3608 -144.7075,127.3953 -91.2372,7.2524 -153.7992,-57.9436 -152.3832,-118.9732 z"
       id="path3280-8-90"
       inkscape:connector-curvature="0"
       sodipodi:nodetypes="csssc" />
    <path
       style="color:#000000;display:inline;overflow:visible;visibility:visible;fill:#ffffff;fill-opacity:1;fill-rule:nonzero;stroke:none;stroke-width:1px;marker:none;enable-background:accumulate"
       d="m 1981.8954,2716.5742 c 21.7602,57.3157 81.8906,99.8161 102.9782,111.0989 -62.8332,-18.8149 -116.4083,-51.6111 -129.2847,-90.9766 -12.8765,-39.3656 26.3065,-20.1223 26.3065,-20.1223 z"
       id="path4480"
       inkscape:connector-curvature="0" />
    <path
       style="fill:#ffffff;fill-rule:evenodd;stroke:none;stroke-width:0.965492px;stroke-linecap:butt;stroke-linejoin:miter;stroke-opacity:1"
       d="m 1141.4813,1150.3226 c -26.9077,0.2294 -53.9231,3.07 -80.0918,10.6948 -9.8252,2.9711 -19.5892,6.4313 -28.9038,11.1966 -12.1931,6.7799 -21.4219,19.1636 -28.327,32.5309 -7.84042,15.3373 -12.82149,32.5586 -15.27784,50.1937 -1.96403,13.7802 -2.93218,27.74 -3.44177,41.6912 -0.50818,19.2219 1.31258,38.6741 6.68459,56.9017 6.30883,22.6544 16.83682,44.1914 32.33542,59.8123 14.8727,14.3816 33.2083,22.5682 51.55,28.573 30.2242,9.4719 61.7151,10.909 92.8304,10.8912 23.4371,-0.2928 46.7053,-4.8294 69.3737,-11.662 17.4481,-4.9354 34.852,-10.5672 51.3524,-18.9756 12.3069,-6.715 23.6695,-16.9398 30.4493,-31.0182 9.0399,-17.6596 12.9955,-38.0539 16.2955,-58.0826 3.5786,-22.9651 5.3632,-46.8449 1.127,-69.8669 -4.1,-21.8181 -14.1074,-41.3124 -25.363,-59.0046 -14.4287,-21.231 -35.0625,-35.6888 -56.9499,-43.62 -23.5733,-8.581 -48.4564,-9.8544 -72.9557,-10.209 -13.562,-0.1088 -27.1253,-0.1026 -40.6875,-0.046 z"
       id="path1353"
       inkscape:connector-curvature="0"
       sodipodi:nodetypes="cssscscssccc" />
    <path
       style="color:#000000;display:inline;overflow:visible;visibility:visible;fill:#ffffff;fill-opacity:1;fill-rule:nonzero;stroke:none;stroke-width:1.32704px;marker:none;enable-background:accumulate"
       d="m 1567.2167,1263.2749 c -23.3951,-13.5874 -47.4345,-27.8488 -80.2438,-37.3029 -9.419,-2.6108 -19.456,-5.052 -29.7275,-6.2777 -10.8699,-0.2589 -18.5833,3.1803 -21.2691,7.3616 -4.9062,5.8321 -4.0751,13.3543 -14.8239,17.5815 -8.0334,2.9766 -20.4058,1.2285 -30.8948,0.151 -55.5613,-5.5966 -116.4529,-16.3815 -168.9125,-7.1839 -10.3316,2.0201 -20.2049,4.8402 -25.0559,9.4641 -13.7945,11.5007 -11.0257,28.0336 10.0671,40.719 14.9737,7.6682 42.5542,10.484 56.687,4.5569 7.5899,-3.0688 8.1735,-8.3583 5.5139,-13.1861 -1.2458,-8.9607 7.6217,0.022 24.0822,-3.6677 37.2334,-5.6014 77.5291,-14.6477 110.5037,-9.7254 10.0809,1.4739 25.6582,0.1256 35.3315,-0.599 12.5832,-2.5592 14.9137,-9.3886 15.3033,-15.3984 0.7726,-6.1637 0.047,-13.4883 11.1891,-17.2514 6.7172,-3.1499 17.8965,0.5337 26.5328,1.8753 27.2211,5.8451 51.5565,15.088 70.9679,25.6439 1.7031,1.0526 3.2274,2.1441 4.749,3.2392 z"
       id="path4496-9"
       inkscape:connector-curvature="0"
       inkscape:transform-center-x="43.812193"
       inkscape:transform-center-y="17.777857"
       sodipodi:nodetypes="ccccccccccccccccccc" />
    <path
       style="fill:#ffffff;stroke:none;stroke-width:0.841401"
       d="m 879.25529,506.62465 c 3.91526,-77.14254 22.89217,-105.74611 253.08181,-108.68799 318.5822,-4.0721 340.872,61.52451 334.8198,152.01488 -6.53,97.63333 -194.4243,97.90722 -348.0172,94.89116 C 854.08934,639.6383 881.64503,585.7852 879.25529,506.62465 Z"
       id="path3280-8-0"
       inkscape:connector-curvature="0"
       sodipodi:nodetypes="csssc" />
    <path
       style="display:inline;fill:#ffffff;stroke:none;stroke-width:0.760991"
       d="m 846.25597,318.63754 c 2.51728,-62.9498 16.90873,-145.15068 149.80284,-146.44194 132.89389,-1.29222 177.61179,38.50078 185.01359,107.2676 14.1784,131.72583 -53.3341,121.41139 -152.8999,135.97035 -102.64159,15.00816 -185.80637,-4.53008 -181.91653,-96.79601 z"
       id="path3280-8-2"
       inkscape:connector-curvature="0"
       sodipodi:nodetypes="csssc" />
    <path
       style="color:#000000;display:inline;overflow:visible;visibility:visible;fill:#ffffff;fill-opacity:1;fill-rule:nonzero;stroke:none;stroke-width:1.23762px;marker:none;enable-background:accumulate"
       d="m 1044.806,659.00474 c 27.1234,-35.95572 361.7128,-61.56195 439.0068,19.7567 53.8661,56.67029 33.0861,165.34776 -13.0839,193.6375 -46.1703,28.29115 -269.0769,36.25941 -332.4307,21.85129 -56.971,-12.95496 -116.7709,-40.84167 -119.9236,-115.06339 -1.2866,-30.2921 -0.6919,-84.2278 26.4314,-120.1821 z"
       id="path4040-5"
       inkscape:connector-curvature="0"
       sodipodi:nodetypes="zssssz" />
    <path
       style="color:#000000;display:inline;overflow:visible;visibility:visible;fill:#ffffff;fill-opacity:1;fill-rule:nonzero;stroke:none;stroke-width:1px;marker:none;enable-background:accumulate"
       d="m 880.35523,328.5815 c -13.93862,-43.79995 -75.39205,-33.32608 -131.42892,10.54697 35.43843,-36.41055 76.35778,-76.93843 143.98747,-47.05147 49.32789,21.79901 14.57754,15.53221 14.57754,15.53221 z"
       id="path4035-4"
       inkscape:connector-curvature="0"
       sodipodi:nodetypes="ccscc" />
    <path
       style="display:inline;fill:#ffffff;fill-rule:evenodd;stroke:none;stroke-width:1.42026px;stroke-linecap:butt;stroke-linejoin:miter;stroke-opacity:1"
       d="m 1548.4515,72.315249 c 28.5318,6.050735 27.8698,19.801635 14.5054,18.422541 8.5669,23.9671 34.8033,78.36204 12.015,85.0836 0.3671,66.81748 15.3192,101.2997 -1.79,139.30501 63.0516,-16.9433 65.5065,11.84869 60.7662,39.02091 23.2595,-36.17981 41.0453,-12.61224 34.0714,20.66417 23.9011,-36.38444 51.6004,-52.94493 47.1618,-13.95089 27.0088,-28.17688 28.3904,-41.20763 51.0781,-29.01433 41.2432,-33.80476 58.4447,13.38905 83.4165,34.40305 9.3118,-38.37017 26.6249,-30.913 56.9409,-11.35907 10.3722,-16.15624 -13.7626,-44.81877 14.5661,-9.59768 -11.4071,-40.39081 46.4593,-20.90954 58.2664,-14.96005 -14.4609,-18.16957 10.3983,-22.97894 80.4856,-12.42355 -27.1418,-9.72164 -38.7912,-41.82194 15.6633,-64.57037 -71.4126,9.22909 -44.8005,-9.87625 -22.8812,-30.76341 -46.7038,-32.07822 -0.2441,-61.98247 22.9692,-92.42874 -47.1675,14.10416 -64.3364,-46.479063 -73.0349,-60.92569 -71.5917,11.01163 -60.9724,4.884911 -54.1017,-0.46048 -44.3551,13.39432 -41.8693,1.51073 -53.3322,-2.845518 -121.8871,16.310177 -117.5708,-0.719087 -142.7789,-9.94869 -9.9866,19.49845 -35.6639,11.921983 -61.4064,4.233832 0.9649,16.501661 -14.582,11.676818 -29.7837,7.298018 -1.9475,7.115223 -17.0453,9.165229 -49.8738,4.385485 23.4443,5.873312 8.9662,6.855328 -62.9231,0.431852 z"
       id="path4289-9-2"
       inkscape:connector-curvature="0"
       sodipodi:nodetypes="cccccccccccccccccccccccc" />
    <path
       style="fill:#ffffff;fill-opacity:1;fill-rule:evenodd;stroke:none;stroke-width:1.05214px;stroke-linecap:butt;stroke-linejoin:miter;stroke-opacity:1"
       d="m 2392.4423,806.39029 c -1.2982,6.87794 -60.0073,60.37911 -23.3454,13.30759 l -34.3024,13.14962 c -66.4898,-28.54161 -284.0204,-11.11137 -356.7832,4.63452 l -19.9604,-28.30773 3.9813,23.76349 -23.1421,-35.19593 12.9694,47.39668 -12.2156,-16.09056 5.1305,17.7667 -11.8655,-8.63921 2.007,15.20736 c -27.5873,14.12104 -43.273,41.9641 -49.4872,70.69036 l -22.2787,-2.60243 20.6957,11.23242 c -0.2633,1.74384 -0.5007,3.48769 -0.6965,5.2264 -0.012,0.11899 -0.027,0.24106 -0.037,0.36005 l -23.4169,-4.10316 22.4855,15.29762 c -0.049,0.81756 -0.098,1.63306 -0.1404,2.4578 l -44.8033,-9.58089 44.4245,26.03561 c -0.011,29.24324 3.2138,59.2527 4.8829,72.3706 1.1573,9.0946 2.4011,25.9598 9.1621,29.5749 l -41.7286,10.9202 55.2958,-5.9578 c 1.1745,0.133 2.3735,0.2656 3.5776,0.3986 l -14.2853,3.7137 24.8692,-2.5865 c 2.5448,0.2615 5.1453,0.5216 7.7959,0.7802 l -25.7541,8.3196 38.4148,-7.1345 c 92.4645,8.3036 290.1293,16.5691 428.0225,-3.5201 l 20.3805,4.3305 -7.8313,-6.249 c 2.6923,-0.4317 6.1481,-0.8731 6.2909,-1.3259 l 0.4837,0.1825 -0.3204,-1.3858 c 0.03,-0.2291 0.061,-0.4586 0.091,-0.6901 l 1.6479,3.0476 -1.2385,-16.2588 c 0.7806,-18.8818 0.9813,-40.3065 0.8848,-62.00391 l 1.4945,-13.0553 c -2.5832,6.75484 -1.6605,-8.10786 -0.036,-15.75205 l -1.4592,1.05759 c 0.1413,-17.56565 -0.3809,-49.78268 -1.0648,-66.59745 l 0.068,-12.74956 c -1.1973,1.22172 -0.4263,-9.7481 -0.015,-19.30027 -1.3147,8.5951 -1.1534,4.98432 -0.6363,-11.72582 -2.2139,4.76173 1.1854,-39.35858 1.7872,-50.40944 z"
       id="path4212-3"
       inkscape:connector-curvature="0"
       sodipodi:nodetypes="ccccccccccccccccccccccsccccccccccccccccccccccccccc" />
    <path
       style="display:inline;fill:#ffffff;fill-rule:evenodd;stroke:none;stroke-width:1.44912px;stroke-linecap:butt;stroke-linejoin:miter;stroke-opacity:1"
       d="m 2102.6149,751.43806 c 0.6806,41.31231 13.5699,99.33289 8.1415,118.1885 4.1542,65.56524 102.9122,-3.97588 46.8489,-17.72263 -23.7511,-36.29813 -38.7836,-65.39219 -54.9904,-100.46587 z"
       id="path4667-2"
       inkscape:connector-curvature="0"
       sodipodi:nodetypes="cccc" />
    <path
       style="color:#000000;display:inline;overflow:visible;visibility:visible;fill:#ffffff;fill-opacity:1;fill-rule:nonzero;stroke:none;stroke-width:0.931227px;marker:none;enable-background:accumulate"
       d="m 715.75217,2654.7503 c -29.94323,2.3348 -60.47169,10.0617 -83.96203,26.3998 -16.19789,11.2099 -27.24854,28.5804 -24.92832,45.9159 1.84771,14.1438 13.96894,25.9755 28.92376,32.3954 17.05463,7.3357 36.77336,9.173 55.91129,10.2384 33.0418,1.4272 66.1396,-2.019 99.19811,-3.1426 20.85826,-1.0536 42.25035,-2.4411 61.89333,-9.1564 17.482,-7.4861 27.27143,-23.8064 27.70978,-39.3449 0.48944,-15.669 -3.57857,-32.2839 -16.61057,-44.0261 -12.22222,-10.5894 -30.11007,-15.0109 -47.31413,-17.589 -33.08638,-4.7306 -67.24527,-4.7983 -100.82122,-1.6905 z"
       id="path3525-3-5"
       inkscape:connector-curvature="0" />
    <path
       style="fill:#ffffff;fill-rule:evenodd;stroke:none;stroke-width:1.00018px;stroke-linecap:butt;stroke-linejoin:miter;stroke-opacity:1"
       d="m 1223.463,2688.0374 c 17.4992,-16.0693 -3.4666,-28.2803 -2.2428,-38.8936 1.2634,-10.9567 44.3518,-16.0746 46.2777,-26.1572 1.9258,-10.0826 -24.0767,-23.5119 -20.6577,-39.2259 3.4191,-15.7147 33.7111,-15.9794 29.1078,2.1868 -4.6033,18.167 17.8374,23.5982 11.4686,37.7013 -10.6216,23.5196 -41.6554,20.0139 -52.0494,25.9095 -6.8814,3.9037 4.5609,15.0468 0.6993,25.5829 -3.8618,10.5369 -12.6035,12.8962 -12.6035,12.8962 z"
       id="path4272-2-3"
       inkscape:connector-curvature="0"
       sodipodi:nodetypes="csssssssc" />
    <path
       style="color:#000000;display:inline;overflow:visible;visibility:visible;fill:#ffffff;fill-opacity:1;fill-rule:nonzero;stroke:none;stroke-width:1.00989px;marker:none;enable-background:accumulate"
       d="m 1555.8755,2522.3224 c -7.2641,19.7338 -49.9991,21.9845 -65.8052,18.2182 32.0867,21.5056 31.201,35.1623 -11.8474,37.8903 72.8902,38.545 13.7513,33.3934 2.268,43.5918 56.9502,12.8342 31.8432,30.1632 22.0165,47.2005 65.2147,-0.3425 44.314,27.0397 47.411,48.5677 5.3642,-10.1977 31.1272,-41.3812 33.2621,-7.0964 0.014,-6.488 42.0303,-60.8477 106.6414,-9.4692 -1.9757,-26.8993 19.7511,-32.7435 41.0685,4.1555 -7.5742,-40.161 66.0961,-29.5513 105.2215,-17.4684 -20.0617,-24.1109 10.8603,-34.3802 44.011,-29.9904 -4.8532,-13.3079 6.1646,-22.6579 31.294,-28.4736 -33.641,-7.6032 -39.9516,-15.8481 22.125,-25.6962 -47.361,-0.1964 -91.541,-1.3483 -36.4875,-32.7151 -17.4388,-0.492 -58.3734,25.6094 -40.3033,-49.338 -29.5802,24.3307 -61.3385,37.9775 -102.2437,-11.5311 -18.5708,25.285 -51.2826,38.132 -66.1064,7.0859 -4.9308,13.3936 -26.189,18.707 -44.2948,19.5706 -7.0909,-5.1921 -14.4322,-12.2772 -22.1244,-21.587 -12.0033,19.9474 -30.2215,33.5613 -66.1063,7.0849 z"
       id="path3549-3-7-9-6"
       inkscape:connector-curvature="0"
       sodipodi:nodetypes="cccccccccccccccccccc" />
    <path
       style="color:#000000;display:inline;overflow:visible;visibility:visible;fill:#ffffff;fill-opacity:1;fill-rule:nonzero;stroke:none;stroke-width:1.22149px;marker:none;enable-background:accumulate"
       d="m 1834.6942,302.71538 c 13.3969,25.86728 33.5213,54.90113 39.2123,61.39746 7.9957,-8.63868 17.0744,-15.33555 24.0331,-20.64544 9.0197,12.83333 45.9509,74.58787 45.5696,92.05922 3.355,-43.2627 -19.8328,-91.86712 -36.9856,-111.86967 -10.7606,5.90497 -16.2791,10.46235 -22.0396,13.47435 -9.2965,-9.62452 -29.0289,-46.10687 -29.0289,-46.10687 z"
       id="path5066-8"
       inkscape:connector-curvature="0" />
  </g>
  <g
     inkscape:groupmode="layer"
     id="layer1"
     inkscape:label="txt">
    <text
       xml:space="preserve"
       style="font-style:normal;font-variant:normal;font-weight:normal;font-stretch:normal;font-size:45px;line-height:1.25;font-family:Lavi;-inkscape-font-specification:Lavi;text-align:center;letter-spacing:0px;word-spacing:0px;text-anchor:middle;fill:#000000;fill-opacity:1;stroke:none"
       x="1018.2072"
       y="250.12212"
       id="text4246-3-2-2"><tspan
         style="font-size:45px"
         sodipodi:role="line"
         x="1018.2072"
         y="250.12212"
         id="tspan911">Kecepatan</tspan><tspan
         style="font-size:45px"
         sodipodi:role="line"
         x="1018.2072"
         y="306.37213"
         id="tspan88">hiperku</tspan><tspan
         style="font-size:45px"
         sodipodi:role="line"
         x="1018.2072"
         y="362.62213"
         id="tspan90">akan hilang,</tspan></text>
    <text
       xml:space="preserve"
       style="font-style:normal;font-variant:normal;font-weight:normal;font-stretch:normal;font-size:45px;line-height:1.25;font-family:Lavi;-inkscape-font-specification:Lavi;text-align:center;letter-spacing:0px;word-spacing:0px;text-anchor:middle;fill:#000000;fill-opacity:1;stroke:none"
       x="1167.5723"
       y="475.56839"
       id="text4246-3-2-2-3"><tspan
         style="font-size:45px"
         sodipodi:role="line"
         x="1167.5723"
         y="475.56839"
         id="tspan928">dan pilot juga naga itu</tspan><tspan
         style="font-size:45px"
         sodipodi:role="line"
         x="1167.5723"
         y="531.81836"
         id="tspan97">sudah mengimbangi kita</tspan><tspan
         style="font-size:45px"
         sodipodi:role="line"
         x="1167.5723"
         y="588.06836"
         id="tspan99">selama berjam-jam.</tspan></text>
    <text
       xml:space="preserve"
       style="font-style:normal;font-variant:normal;font-weight:normal;font-stretch:normal;font-size:45px;line-height:1.25;font-family:Lavi;-inkscape-font-specification:Lavi;text-align:center;letter-spacing:0px;word-spacing:0px;text-anchor:middle;fill:#000000;fill-opacity:1;stroke:none"
       x="1263.569"
       y="697.07538"
       id="text4246-3-2-2-3-6"><tspan
         style="font-size:45px"
         sodipodi:role="line"
         x="1263.569"
         y="697.07538"
         id="tspan956">Mereka akan</tspan><tspan
         style="font-size:45px"
         sodipodi:role="line"
         x="1263.569"
         y="753.32538"
         id="tspan108">langsung menangkap</tspan><tspan
         style="font-size:45px"
         sodipodi:role="line"
         x="1263.569"
         y="809.57538"
         id="tspan110">kita saat kita </tspan><tspan
         style="font-size:45px"
         sodipodi:role="line"
         x="1263.569"
         y="865.82538"
         id="tspan112">melambat.</tspan></text>
    <text
       xml:space="preserve"
       style="font-style:normal;font-variant:normal;font-weight:normal;font-stretch:normal;font-size:59.5686px;line-height:1.25;font-family:Lavi;-inkscape-font-specification:Lavi;text-align:center;letter-spacing:0px;word-spacing:0px;text-anchor:middle;fill:#000000;fill-opacity:1;stroke:none;stroke-width:1.32375"
       x="1812.4822"
       y="187.38168"
       id="text4246-3-2-2-3-6-3"><tspan
         style="font-size:59.5686px;stroke-width:1.32375"
         sodipodi:role="line"
         x="1812.4822"
         y="187.38168"
         id="tspan1079">Betapa</tspan><tspan
         style="font-size:59.5686px;stroke-width:1.32375"
         sodipodi:role="line"
         x="1812.4822"
         y="261.84244"
         id="tspan118">bodohnya aku!</tspan></text>
    <text
       xml:space="preserve"
       style="font-style:normal;font-variant:normal;font-weight:normal;font-stretch:normal;font-size:45px;line-height:1.25;font-family:Lavi;-inkscape-font-specification:Lavi;text-align:center;letter-spacing:0px;word-spacing:0px;text-anchor:middle;fill:#000000;fill-opacity:1;stroke:none"
       x="2138.0317"
       y="910.36279"
       id="text4246-3-2-2-3-6-2"><tspan
         style="font-size:45px"
         sodipodi:role="line"
         x="2138.0317"
         y="910.36279"
         id="tspan966">Aku sempat yakin</tspan><tspan
         style="font-size:45px"
         sodipodi:role="line"
         x="2138.0317"
         y="966.61279"
         id="tspan125">mereka akan menyerah</tspan><tspan
         style="font-size:45px"
         sodipodi:role="line"
         x="2138.0317"
         y="1022.8628"
         id="tspan127">berjam-jam yang lalu!</tspan></text>
    <text
       xml:space="preserve"
       style="font-style:normal;font-variant:normal;font-weight:normal;font-stretch:normal;font-size:45px;line-height:1.25;font-family:Lavi;-inkscape-font-specification:Lavi;text-align:center;letter-spacing:0px;word-spacing:0px;text-anchor:middle;fill:#000000;fill-opacity:1;stroke:none"
       x="1160.7565"
       y="1236.7683"
       id="text4246-3-2-2-3-6-2-7"><tspan
         style="font-size:45px"
         sodipodi:role="line"
         x="1160.7565"
         y="1236.7683"
         id="tspan979">Andai bisa</tspan><tspan
         style="font-size:45px"
         sodipodi:role="line"
         x="1160.7565"
         y="1293.0183"
         id="tspan134">kulepaskan kita</tspan><tspan
         style="font-size:45px"
         sodipodi:role="line"
         x="1160.7565"
         y="1349.2683"
         id="tspan136">dari kejaran</tspan><tspan
         style="font-size:45px"
         sodipodi:role="line"
         x="1160.7565"
         y="1405.5183"
         id="tspan138">mereka.</tspan></text>
    <text
       xml:space="preserve"
       style="font-style:normal;font-variant:normal;font-weight:normal;font-stretch:normal;font-size:45px;line-height:1.25;font-family:Lavi;-inkscape-font-specification:Lavi;text-align:center;letter-spacing:0px;word-spacing:0px;text-anchor:middle;fill:#000000;fill-opacity:1;stroke:none"
       x="424.16843"
       y="2096.4697"
       id="text4246-3-2-2-3-6-2-7-2"><tspan
         style="font-style:normal;font-variant:normal;font-weight:bold;font-stretch:normal;font-size:45px;font-family:Lavi;-inkscape-font-specification:'Lavi Bold'"
         sodipodi:role="line"
         x="424.16843"
         y="2096.4697"
         id="tspan885">TIDAK.</tspan><tspan
         style="font-size:45px"
         sodipodi:role="line"
         x="424.16843"
         y="2152.7197"
         id="tspan154">Aku <tspan
   style="font-style:normal;font-variant:normal;font-weight:bold;font-stretch:normal;font-family:Lavi;-inkscape-font-specification:'Lavi Bold'"
   id="tspan160">harus</tspan></tspan><tspan
         style="font-size:45px"
         sodipodi:role="line"
         x="424.16843"
         y="2208.9697"
         id="tspan156">singkirkan</tspan><tspan
         style="font-size:45px"
         sodipodi:role="line"
         x="424.16843"
         y="2265.2197"
         id="tspan158">mereka!</tspan></text>
    <text
       xml:space="preserve"
       style="font-style:normal;font-variant:normal;font-weight:normal;font-stretch:normal;font-size:45px;line-height:1.25;font-family:Lavi;-inkscape-font-specification:Lavi;text-align:center;letter-spacing:0px;word-spacing:0px;text-anchor:middle;fill:#000000;fill-opacity:1;stroke:none"
       x="2119.0225"
       y="2149.4734"
       id="text4246-3-2-2-3-6-2-7-2-2"><tspan
         style="font-size:45px"
         sodipodi:role="line"
         x="2119.0225"
         y="2149.4734"
         id="tspan1271">Sebelum</tspan><tspan
         style="font-size:45px"
         sodipodi:role="line"
         x="2119.0225"
         y="2205.7234"
         id="tspan167">terlambat!</tspan></text>
    <text
       xml:space="preserve"
       style="font-style:normal;font-variant:normal;font-weight:normal;font-stretch:normal;font-size:45px;line-height:1.25;font-family:Lavi;-inkscape-font-specification:Lavi;text-align:center;letter-spacing:0px;word-spacing:0px;text-anchor:middle;fill:#000000;fill-opacity:1;stroke:none"
       x="273.79352"
       y="2629.6626"
       id="text4246-3-2-2-3-6-2-7-2-3"><tspan
         style="font-size:45px"
         sodipodi:role="line"
         x="273.79352"
         y="2629.6626"
         id="tspan903">Tapi</tspan><tspan
         style="font-size:45px"
         sodipodi:role="line"
         x="273.79352"
         y="2685.9126"
         id="tspan171">aku juga...</tspan></text>
    <text
       xml:space="preserve"
       style="font-style:normal;font-variant:normal;font-weight:normal;font-stretch:normal;font-size:45px;line-height:1.25;font-family:Lavi;-inkscape-font-specification:Lavi;text-align:center;letter-spacing:0px;word-spacing:0px;text-anchor:middle;fill:#000000;fill-opacity:1;stroke:none"
       x="746.94037"
       y="2726.3162"
       id="text4246-3-2-2-3-6-2-7-2-3-3-3"><tspan
         style="font-size:45px"
         x="746.94037"
         y="2726.3162"
         id="tspan1356-7"
         sodipodi:role="line">...sangat...</tspan></text>
    <text
       xml:space="preserve"
       style="font-style:normal;font-variant:normal;font-weight:normal;font-stretch:normal;font-size:45px;line-height:1.25;font-family:Lavi;-inkscape-font-specification:Lavi;text-align:center;letter-spacing:0px;word-spacing:0px;text-anchor:middle;fill:#000000;fill-opacity:1;stroke:none"
       x="1218.5862"
       y="2507.2249"
       id="text4246-3-2-2-3-6-2-7-2-3-3"><tspan
         style="font-size:45px"
         sodipodi:role="line"
         x="1218.5862"
         y="2507.2249"
         id="tspan1318-9" /><tspan
         style="font-size:45px"
         sodipodi:role="line"
         x="1225.6174"
         y="2563.4749"
         id="tspan1356">...lelah... </tspan></text>
    <text
       xml:space="preserve"
       style="font-style:normal;font-variant:normal;font-weight:normal;font-stretch:normal;font-size:64.434px;line-height:1.25;font-family:Lavi;-inkscape-font-specification:Lavi;text-align:center;letter-spacing:0px;word-spacing:0px;text-anchor:middle;fill:#000000;fill-opacity:1;stroke:none;stroke-width:1.43187"
       x="1696.2407"
       y="2630.5286"
       id="text4246-3-2-2-3-6-2-7-2-3-3-4"><tspan
         style="font-style:normal;font-variant:normal;font-weight:bold;font-stretch:normal;font-size:64.434px;font-family:Lavi;-inkscape-font-specification:'Lavi Bold';stroke-width:1.43187"
         sodipodi:role="line"
         x="1696.2407"
         y="2630.5286"
         id="tspan1356-4">WHUUPS!</tspan></text>
    <text
       xml:space="preserve"
       style="font-style:normal;font-variant:normal;font-weight:normal;font-stretch:normal;font-size:45px;line-height:1.25;font-family:Lavi;-inkscape-font-specification:Lavi;text-align:center;letter-spacing:0px;word-spacing:0px;text-anchor:middle;fill:#000000;fill-opacity:1;stroke:none"
       x="1895.2314"
       y="2731.1885"
       id="text4246-3-2-2-3-6-2-7-2-3-5"><tspan
         style="font-size:45px"
         sodipodi:role="line"
         x="1895.2314"
         y="2731.1885"
         id="tspan1074">Bertahanlah,</tspan><tspan
         style="font-size:45px"
         sodipodi:role="line"
         x="1895.2314"
         y="2787.4385"
         id="tspan180">Pepper!</tspan></text>
  </g>
</svg>
