<?xml version="1.0" encoding="UTF-8" standalone="no"?>
<svg
   xmlns:dc="http://purl.org/dc/elements/1.1/"
   xmlns:cc="http://creativecommons.org/ns#"
   xmlns:rdf="http://www.w3.org/1999/02/22-rdf-syntax-ns#"
   xmlns:svg="http://www.w3.org/2000/svg"
   xmlns="http://www.w3.org/2000/svg"
   xmlns:xlink="http://www.w3.org/1999/xlink"
   xmlns:sodipodi="http://sodipodi.sourceforge.net/DTD/sodipodi-0.dtd"
   xmlns:inkscape="http://www.inkscape.org/namespaces/inkscape"
   sodipodi:docname="E22P01.svg"
   height="3503"
   width="2481"
   inkscape:version="1.0 (4035a4fb49, 2020-05-01)"
   version="1.1"
   id="svg2">
  <sodipodi:namedview
     inkscape:window-maximized="0"
     inkscape:window-y="0"
     inkscape:window-x="0"
     inkscape:document-rotation="0"
     inkscape:current-layer="layer1"
     inkscape:cy="2558.8479"
     inkscape:cx="1256.2303"
     inkscape:zoom="0.4"
     showgrid="false"
     id="namedview70"
     inkscape:window-height="955"
     inkscape:window-width="1139"
     inkscape:pageshadow="2"
     inkscape:pageopacity="0"
     bordercolor="#666666"
     pagecolor="#ffffff" />
  <metadata
     id="metadata8">
    <rdf:RDF>
      <cc:Work
         rdf:about="">
        <dc:format>image/svg+xml</dc:format>
        <dc:type
           rdf:resource="http://purl.org/dc/dcmitype/StillImage" />
        <dc:title />
      </cc:Work>
    </rdf:RDF>
  </metadata>
  <defs
     id="defs6">
    <filter
       height="1.0029159"
       y="-0.0014578935"
       width="1.0020597"
       x="-0.0010298714"
       id="filter4213"
       style="color-interpolation-filters:sRGB"
       inkscape:collect="always">
      <feGaussianBlur
         id="feGaussianBlur4215"
         stdDeviation="0.24308766"
         inkscape:collect="always" />
    </filter>
    <filter
       id="filter4348"
       inkscape:label="Drop Shadow"
       style="color-interpolation-filters:sRGB">
      <feFlood
         id="feFlood4350"
         result="flood"
         flood-color="rgb(70,103,83)"
         flood-opacity="0.498039" />
      <feComposite
         id="feComposite4352"
         result="composite1"
         operator="in"
         in2="SourceGraphic"
         in="flood" />
      <feGaussianBlur
         id="feGaussianBlur4354"
         result="blur"
         stdDeviation="3"
         in="composite1" />
      <feOffset
         id="feOffset4356"
         result="offset"
         dy="6"
         dx="6" />
      <feComposite
         id="feComposite4358"
         result="composite2"
         operator="over"
         in2="offset"
         in="SourceGraphic" />
    </filter>
    <filter
       id="filter4105"
       inkscape:label="Drop Shadow"
       style="color-interpolation-filters:sRGB">
      <feFlood
         id="feFlood4107"
         result="flood"
         flood-color="rgb(70,103,83)"
         flood-opacity="0.498039" />
      <feComposite
         id="feComposite4109"
         result="composite1"
         operator="in"
         in2="SourceGraphic"
         in="flood" />
      <feGaussianBlur
         id="feGaussianBlur4111"
         result="blur"
         stdDeviation="3"
         in="composite1" />
      <feOffset
         id="feOffset4113"
         result="offset"
         dy="6"
         dx="6" />
      <feComposite
         id="feComposite4115"
         result="composite2"
         operator="over"
         in2="offset"
         in="SourceGraphic" />
    </filter>
  </defs>
  <sodipodi:namedview
     inkscape:current-layer="layer3"
     inkscape:window-maximized="1"
     inkscape:window-y="26"
     inkscape:window-x="0"
     inkscape:cy="477.65474"
     inkscape:cx="1201.6662"
     inkscape:zoom="0.50655138"
     showgrid="false"
     id="namedview4"
     inkscape:window-height="1025"
     inkscape:window-width="1920"
     inkscape:pageshadow="2"
     inkscape:pageopacity="0"
     guidetolerance="10"
     gridtolerance="10"
     objecttolerance="10"
     borderopacity="1"
     bordercolor="#666666"
     pagecolor="#ffffff" />
  <g
     sodipodi:insensitive="true"
     inkscape:label="artwork"
     id="layer2"
     inkscape:groupmode="layer">
    <image
       sodipodi:absref="C:\Users\stero\Documents\Kernewek\Pepper and Carrot\webcomics\ep22_The-Voting-System\lang\gfx_Pepper-and-Carrot_by-David-Revoy_E22P01.png"
       xlink:href="../gfx_Pepper-and-Carrot_by-David-Revoy_E22P01.png"
       width="2481"
       height="3503"
       id="image10"
       x="0"
       y="0" />
  </g>
  <g
     inkscape:label="speechbubbles"
     id="layer3"
     inkscape:groupmode="layer">
    <rect
       rx="29.55051"
       ry="40"
       y="1895.1671"
       x="294.42093"
       height="251.66743"
       width="349.94952"
       id="rect4632-8-6-1"
       style="color:#000000;display:inline;overflow:visible;visibility:visible;fill:#fff6d5;fill-opacity:1;fill-rule:nonzero;stroke:none;stroke-width:2.5999999;marker:none;enable-background:accumulate" />
    <path
       sodipodi:nodetypes="cccccccccccc"
       inkscape:connector-curvature="0"
       id="path4032"
       d="m 993.15181,2171.014 c -43.09438,-29.8746 -125.30019,-80.5305 -146.24629,-103.1479 l -16.54791,22.8126 c -12.29225,-2.4407 -54.74882,-38.6572 -63.03221,-47.2104 l -19.9425,20.6691 c -25.27418,-16.7783 -111.94735,-63.5086 -130.92572,-85.0896 l -4.55774,47.94 c 23.60285,20.2117 114.08408,55.1051 140.32099,64.1208 l 21.87133,-20.701 c 8.70491,10.4888 58.41082,38.7682 65.61721,45.5247 l 13.72027,-23.6602 z"
       style="color:#000000;fill:#fff6d5;fill-opacity:1;fill-rule:nonzero;stroke:none;stroke-width:1px;marker:none;visibility:visible;display:inline;overflow:visible;enable-background:accumulate" />
  </g>
  <g
     inkscape:label="txt"
     id="layer1"
     inkscape:groupmode="layer">
    <text
       id="text4246-2-3-1"
       y="1949.4454"
       x="471.49268"
       style="font-style:normal;font-variant:normal;font-weight:normal;font-stretch:normal;line-height:0%;font-family:Lavi;-inkscape-font-specification:'Lavi, Normal';text-align:center;letter-spacing:0px;word-spacing:0px;writing-mode:lr-tb;text-anchor:middle;display:inline;fill:#000000;fill-opacity:1;stroke:none"
       xml:space="preserve"><tspan
         id="tspan4158"
         style="font-size:45px;line-height:1.25"
         y="1949.4454"
         x="471.49268"
         sodipodi:role="line">Wortiwedh, </tspan><tspan
         id="tspan43"
         style="font-size:45px;line-height:1.25"
         y="2005.6954"
         x="471.49268"
         sodipodi:role="line">agan kesstrif </tspan><tspan
         id="tspan45"
         style="font-size:45px;line-height:1.25"
         y="2061.9453"
         x="471.49268"
         sodipodi:role="line">pystri meur </tspan><tspan
         id="tspan47"
         style="font-size:45px;line-height:1.25"
         y="2118.1953"
         x="471.49268"
         sodipodi:role="line">a yll dalleth!</tspan></text>
    <text
       transform="matrix(0.49197812,-0.17439938,-0.0864419,0.68586428,2224.6757,842.8289)"
       id="text4246"
       y="2872.5061"
       x="-447.29675"
       style="font-style:normal;font-variant:normal;font-weight:normal;font-stretch:normal;line-height:0%;font-family:Lavi;-inkscape-font-specification:Lavi;text-align:center;letter-spacing:0px;word-spacing:0px;text-anchor:middle;display:inline;opacity:0.6;fill:#000000;fill-opacity:1;stroke:none;filter:url(#filter4213)"
       xml:space="preserve"><tspan
         id="tspan4172"
         y="2872.5061"
         x="-447.29675"
         style="font-style:normal;font-variant:normal;font-weight:normal;font-stretch:normal;font-size:68.8156px;line-height:1.27;font-family:Fondamento;-inkscape-font-specification:Fondamento;stroke:#000000;stroke-width:1.67631;stroke-opacity:1"
         sodipodi:role="line">Kesstrif Pystri</tspan></text>
  </g>
</svg>
