<?xml version="1.0" encoding="UTF-8" standalone="no"?>
<!-- Created with Inkscape (http://www.inkscape.org/) -->

<svg
   xmlns:dc="http://purl.org/dc/elements/1.1/"
   xmlns:cc="http://creativecommons.org/ns#"
   xmlns:rdf="http://www.w3.org/1999/02/22-rdf-syntax-ns#"
   xmlns:svg="http://www.w3.org/2000/svg"
   xmlns="http://www.w3.org/2000/svg"
   xmlns:xlink="http://www.w3.org/1999/xlink"
   xmlns:sodipodi="http://sodipodi.sourceforge.net/DTD/sodipodi-0.dtd"
   xmlns:inkscape="http://www.inkscape.org/namespaces/inkscape"
   id="svg2"
   version="1.1"
   inkscape:version="0.92.4 5da689c313, 2019-01-14"
   width="2481"
   height="3503"
   sodipodi:docname="E31P01.svg">
  <metadata
     id="metadata8">
    <rdf:RDF>
      <cc:Work
         rdf:about="">
        <dc:format>image/svg+xml</dc:format>
        <dc:type
           rdf:resource="http://purl.org/dc/dcmitype/StillImage" />
        <dc:title />
      </cc:Work>
    </rdf:RDF>
  </metadata>
  <defs
     id="defs6">
    <filter
       style="color-interpolation-filters:sRGB"
       id="filter4375-4-1-1-1-9-5-8-3-4"
       inkscape:label="Drop Shadow">
      <feFlood
         id="feFlood4377-7-9-0-8-1-7-3-6"
         flood-opacity="1"
         flood-color="rgb(240,109,14)"
         result="flood" />
      <feComposite
         id="feComposite4379-3-8-8-2-77-4-1-7"
         in2="SourceGraphic"
         in="flood"
         operator="in"
         result="composite1" />
      <feMorphology
         id="feMorphology4393-1-0-49-8-9-3-0-5"
         operator="dilate"
         radius="6.2000000000000002"
         result="result3" />
      <feComposite
         id="feComposite4385-9-5-7-0-8-8-7-3"
         in2="result3"
         in="SourceGraphic"
         operator="over"
         result="fbSourceGraphic" />
      <feColorMatrix
         result="fbSourceGraphicAlpha"
         in="fbSourceGraphic"
         values="0 0 0 -1 0 0 0 0 -1 0 0 0 0 -1 0 0 0 0 1 0"
         id="feColorMatrix4544-5" />
      <feTurbulence
         id="feTurbulence4546-6"
         type="fractalNoise"
         numOctaves="3"
         seed="37"
         baseFrequency="0.129 0.0050000000000000001"
         result="turbulence" />
      <feDisplacementMap
         id="feDisplacementMap4548-2"
         in2="turbulence"
         in="fbSourceGraphic"
         scale="6.6"
         yChannelSelector="G"
         xChannelSelector="R"
         result="fbSourceGraphic" />
      <feColorMatrix
         result="fbSourceGraphicAlpha"
         in="fbSourceGraphic"
         values="0 0 0 -1 0 0 0 0 -1 0 0 0 0 -1 0 0 0 0 1 0"
         id="feColorMatrix4670-9-3" />
      <feFlood
         id="feFlood4672-1-0"
         flood-opacity="0.40999999999999998"
         flood-color="rgb(0,0,0)"
         result="flood"
         in="fbSourceGraphic" />
      <feComposite
         id="feComposite4674-2-3"
         in2="fbSourceGraphic"
         in="flood"
         operator="in"
         result="composite1" />
      <feGaussianBlur
         id="feGaussianBlur4676-7"
         in="composite1"
         stdDeviation="0"
         result="blur" />
      <feOffset
         id="feOffset4678-0-0"
         dx="6"
         dy="6"
         result="offset" />
      <feComposite
         id="feComposite4680-9"
         in2="offset"
         in="fbSourceGraphic"
         operator="over"
         result="composite2" />
    </filter>
    <filter
       style="color-interpolation-filters:sRGB"
       id="filter4375-4-1-1-1-9-5-8-3-4-3"
       inkscape:label="Drop Shadow">
      <feFlood
         id="feFlood4377-7-9-0-8-1-7-3-6-6"
         flood-opacity="1"
         flood-color="rgb(240,109,14)"
         result="flood" />
      <feComposite
         id="feComposite4379-3-8-8-2-77-4-1-7-7"
         in2="SourceGraphic"
         in="flood"
         operator="in"
         result="composite1" />
      <feMorphology
         id="feMorphology4393-1-0-49-8-9-3-0-5-5"
         operator="dilate"
         radius="6.2000000000000002"
         result="result3" />
      <feComposite
         id="feComposite4385-9-5-7-0-8-8-7-3-3"
         in2="result3"
         in="SourceGraphic"
         operator="over"
         result="fbSourceGraphic" />
      <feColorMatrix
         result="fbSourceGraphicAlpha"
         in="fbSourceGraphic"
         values="0 0 0 -1 0 0 0 0 -1 0 0 0 0 -1 0 0 0 0 1 0"
         id="feColorMatrix4544-5-5" />
      <feTurbulence
         id="feTurbulence4546-6-6"
         type="fractalNoise"
         numOctaves="3"
         seed="37"
         baseFrequency="0.129 0.0050000000000000001"
         result="turbulence" />
      <feDisplacementMap
         id="feDisplacementMap4548-2-2"
         in2="turbulence"
         in="fbSourceGraphic"
         scale="6.6"
         yChannelSelector="G"
         xChannelSelector="R"
         result="fbSourceGraphic" />
      <feColorMatrix
         result="fbSourceGraphicAlpha"
         in="fbSourceGraphic"
         values="0 0 0 -1 0 0 0 0 -1 0 0 0 0 -1 0 0 0 0 1 0"
         id="feColorMatrix4670-9-3-9" />
      <feFlood
         id="feFlood4672-1-0-1"
         flood-opacity="0.40999999999999998"
         flood-color="rgb(0,0,0)"
         result="flood"
         in="fbSourceGraphic" />
      <feComposite
         id="feComposite4674-2-3-2"
         in2="fbSourceGraphic"
         in="flood"
         operator="in"
         result="composite1" />
      <feGaussianBlur
         id="feGaussianBlur4676-7-7"
         in="composite1"
         stdDeviation="0"
         result="blur" />
      <feOffset
         id="feOffset4678-0-0-0"
         dx="6"
         dy="6"
         result="offset" />
      <feComposite
         id="feComposite4680-9-9"
         in2="offset"
         in="fbSourceGraphic"
         operator="over"
         result="composite2" />
    </filter>
    <filter
       style="color-interpolation-filters:sRGB"
       id="filter4375-4-1-1-1-9-6-9-2-1-5-4"
       inkscape:label="deevad outline effect">
      <feFlood
         id="feFlood4377-7-9-0-8-1-0-2-2-06-5-3"
         flood-opacity="1"
         flood-color="rgb(0,0,0)"
         result="flood" />
      <feComposite
         id="feComposite4379-3-8-8-2-77-6-0-8-3-8-64"
         in2="SourceGraphic"
         in="flood"
         operator="in"
         result="composite1" />
      <feMorphology
         id="feMorphology4393-1-0-49-8-9-2-2-9-2-7-3"
         operator="dilate"
         radius="4"
         result="result3" />
      <feComposite
         id="feComposite4385-9-5-7-0-8-6-3-7-0-1-1"
         in2="result3"
         in="SourceGraphic"
         operator="over"
         result="composite2" />
    </filter>
    <filter
       style="color-interpolation-filters:sRGB"
       id="filter5561-7-8"
       inkscape:label="Roughen">
      <feFlood
         id="feFlood5563-4-9"
         flood-opacity="1"
         flood-color="rgb(162,21,39)"
         result="flood" />
      <feComposite
         id="feComposite5565-6-3-4"
         in2="SourceGraphic"
         in="flood"
         operator="in"
         result="composite1" />
      <feMorphology
         id="feMorphology5567-3-48"
         operator="dilate"
         radius="5.5"
         result="result3" />
      <feComposite
         id="feComposite5569-6-6-8"
         in2="result3"
         in="SourceGraphic"
         operator="over"
         result="fbSourceGraphic" />
      <feColorMatrix
         result="fbSourceGraphicAlpha"
         in="fbSourceGraphic"
         values="0 0 0 -1 0 0 0 0 -1 0 0 0 0 -1 0 0 0 0 1 0"
         id="feColorMatrix4681-5" />
      <feTurbulence
         id="feTurbulence4683-3"
         type="fractalNoise"
         numOctaves="1"
         seed="33"
         baseFrequency="0.001 0.0199"
         result="turbulence" />
      <feDisplacementMap
         id="feDisplacementMap4685-0"
         in2="turbulence"
         in="fbSourceGraphic"
         scale="37.8"
         yChannelSelector="G"
         xChannelSelector="R" />
    </filter>
    <filter
       style="color-interpolation-filters:sRGB"
       id="filter5561"
       inkscape:label="deevad outline effect">
      <feFlood
         id="feFlood5563"
         flood-opacity="1"
         flood-color="rgb(0,0,0)"
         result="flood" />
      <feComposite
         id="feComposite5565"
         in2="SourceGraphic"
         in="flood"
         operator="in"
         result="composite1" />
      <feMorphology
         id="feMorphology5567"
         operator="dilate"
         radius="1.8999999999999999 6.0999999999999996"
         result="result3" />
      <feComposite
         id="feComposite5569"
         in2="result3"
         in="SourceGraphic"
         operator="over"
         result="composite2" />
    </filter>
    <filter
       style="color-interpolation-filters:sRGB"
       id="filter4375-4-1-1-1-9-5-8-3-4-6"
       inkscape:label="Drop Shadow">
      <feFlood
         id="feFlood4377-7-9-0-8-1-7-3-6-1"
         flood-opacity="1"
         flood-color="rgb(240,109,14)"
         result="flood" />
      <feComposite
         id="feComposite4379-3-8-8-2-77-4-1-7-8"
         in2="SourceGraphic"
         in="flood"
         operator="in"
         result="composite1" />
      <feMorphology
         id="feMorphology4393-1-0-49-8-9-3-0-5-7"
         operator="dilate"
         radius="6.2000000000000002"
         result="result3" />
      <feComposite
         id="feComposite4385-9-5-7-0-8-8-7-3-9"
         in2="result3"
         in="SourceGraphic"
         operator="over"
         result="fbSourceGraphic" />
      <feColorMatrix
         result="fbSourceGraphicAlpha"
         in="fbSourceGraphic"
         values="0 0 0 -1 0 0 0 0 -1 0 0 0 0 -1 0 0 0 0 1 0"
         id="feColorMatrix4544-5-2" />
      <feTurbulence
         id="feTurbulence4546-6-0"
         type="fractalNoise"
         numOctaves="3"
         seed="37"
         baseFrequency="0.129 0.0050000000000000001"
         result="turbulence" />
      <feDisplacementMap
         id="feDisplacementMap4548-2-23"
         in2="turbulence"
         in="fbSourceGraphic"
         scale="6.6"
         yChannelSelector="G"
         xChannelSelector="R"
         result="fbSourceGraphic" />
      <feColorMatrix
         result="fbSourceGraphicAlpha"
         in="fbSourceGraphic"
         values="0 0 0 -1 0 0 0 0 -1 0 0 0 0 -1 0 0 0 0 1 0"
         id="feColorMatrix4670-9-3-7" />
      <feFlood
         id="feFlood4672-1-0-5"
         flood-opacity="0.40999999999999998"
         flood-color="rgb(0,0,0)"
         result="flood"
         in="fbSourceGraphic" />
      <feComposite
         id="feComposite4674-2-3-9"
         in2="fbSourceGraphic"
         in="flood"
         operator="in"
         result="composite1" />
      <feGaussianBlur
         id="feGaussianBlur4676-7-2"
         in="composite1"
         stdDeviation="0"
         result="blur" />
      <feOffset
         id="feOffset4678-0-0-2"
         dx="6"
         dy="6"
         result="offset" />
      <feComposite
         id="feComposite4680-9-8"
         in2="offset"
         in="fbSourceGraphic"
         operator="over"
         result="composite2" />
    </filter>
    <filter
       style="color-interpolation-filters:sRGB"
       id="filter4375-4-1-1-1-9-5-8-3-4-3-3"
       inkscape:label="Drop Shadow">
      <feFlood
         id="feFlood4377-7-9-0-8-1-7-3-6-6-6"
         flood-opacity="1"
         flood-color="rgb(246,17,56)"
         result="flood" />
      <feComposite
         id="feComposite4379-3-8-8-2-77-4-1-7-7-7"
         in2="SourceGraphic"
         in="flood"
         operator="in"
         result="composite1" />
      <feMorphology
         id="feMorphology4393-1-0-49-8-9-3-0-5-5-5"
         operator="dilate"
         radius="6.2000000000000002"
         result="result3" />
      <feComposite
         id="feComposite4385-9-5-7-0-8-8-7-3-3-3"
         in2="result3"
         in="SourceGraphic"
         operator="over"
         result="fbSourceGraphic" />
      <feColorMatrix
         result="fbSourceGraphicAlpha"
         in="fbSourceGraphic"
         values="0 0 0 -1 0 0 0 0 -1 0 0 0 0 -1 0 0 0 0 1 0"
         id="feColorMatrix4544-5-5-5" />
      <feTurbulence
         id="feTurbulence4546-6-6-6"
         type="fractalNoise"
         numOctaves="3"
         seed="37"
         baseFrequency="0.129 0.0050000000000000001"
         result="turbulence" />
      <feDisplacementMap
         id="feDisplacementMap4548-2-2-2"
         in2="turbulence"
         in="fbSourceGraphic"
         scale="6.6"
         yChannelSelector="G"
         xChannelSelector="R"
         result="fbSourceGraphic" />
      <feColorMatrix
         result="fbSourceGraphicAlpha"
         in="fbSourceGraphic"
         values="0 0 0 -1 0 0 0 0 -1 0 0 0 0 -1 0 0 0 0 1 0"
         id="feColorMatrix4670-9-3-9-9" />
      <feFlood
         id="feFlood4672-1-0-1-1"
         flood-opacity="0.40999999999999998"
         flood-color="rgb(0,0,0)"
         result="flood"
         in="fbSourceGraphic" />
      <feComposite
         id="feComposite4674-2-3-2-2"
         in2="fbSourceGraphic"
         in="flood"
         operator="in"
         result="composite1" />
      <feGaussianBlur
         id="feGaussianBlur4676-7-7-7"
         in="composite1"
         stdDeviation="0"
         result="blur" />
      <feOffset
         id="feOffset4678-0-0-0-0"
         dx="6"
         dy="6"
         result="offset" />
      <feComposite
         id="feComposite4680-9-9-9"
         in2="offset"
         in="fbSourceGraphic"
         operator="over"
         result="composite2" />
    </filter>
  </defs>
  <sodipodi:namedview
     pagecolor="#ffffff"
     bordercolor="#666666"
     borderopacity="1"
     objecttolerance="10"
     gridtolerance="10"
     guidetolerance="10"
     inkscape:pageopacity="0"
     inkscape:pageshadow="2"
     inkscape:window-width="1920"
     inkscape:window-height="1009"
     id="namedview4"
     showgrid="false"
     inkscape:zoom="0.49469371"
     inkscape:cx="1060.7332"
     inkscape:cy="893.28562"
     inkscape:window-x="0"
     inkscape:window-y="38"
     inkscape:window-maximized="1"
     inkscape:current-layer="layer1"
     inkscape:snap-global="false" />
  <g
     inkscape:groupmode="layer"
     id="layer2"
     inkscape:label="artwork"
     sodipodi:insensitive="true">
    <image
       sodipodi:absref="/home/ambernite/peppercarrot/webcomics/ep31_The-Fight/lang/kr/../gfx_Pepper-and-Carrot_by-David-Revoy_E31P01.png"
       xlink:href="../gfx_Pepper-and-Carrot_by-David-Revoy_E31P01.png"
       y="0"
       x="0"
       id="image10"
       height="3503"
       width="2481" />
  </g>
  <g
     inkscape:groupmode="layer"
     id="layer3"
     inkscape:label="speechbubbles">
    <g
       id="g987"
       transform="matrix(0.90135571,0,0,0.9739352,-132.84725,-18.587919)"
       style="stroke-width:1.0394454">
      <rect
         y="159.5106"
         x="231.95651"
         height="141.97903"
         width="558.58698"
         id="rect965"
         style="color:#000000;clip-rule:nonzero;display:inline;overflow:visible;visibility:visible;opacity:0.75;isolation:auto;mix-blend-mode:normal;color-interpolation:sRGB;color-interpolation-filters:linearRGB;solid-color:#000000;solid-opacity:1;vector-effect:none;fill:#ffffff;fill-opacity:1;fill-rule:nonzero;stroke:none;stroke-width:1.5352608;stroke-linecap:butt;stroke-linejoin:miter;stroke-miterlimit:4;stroke-dasharray:none;stroke-dashoffset:0;stroke-opacity:1;marker:none;paint-order:stroke fill markers;color-rendering:auto;image-rendering:auto;shape-rendering:auto;text-rendering:auto;enable-background:accumulate" />
      <rect
         y="152.22754"
         x="224.4621"
         height="155.94391"
         width="572.68457"
         id="rect965-3"
         style="color:#000000;clip-rule:nonzero;display:inline;overflow:visible;visibility:visible;opacity:0.75;isolation:auto;mix-blend-mode:normal;color-interpolation:sRGB;color-interpolation-filters:linearRGB;solid-color:#000000;solid-opacity:1;vector-effect:none;fill:none;fill-opacity:1;fill-rule:nonzero;stroke:#f9f9f9;stroke-width:4.5496521;stroke-linecap:butt;stroke-linejoin:miter;stroke-miterlimit:4;stroke-dasharray:none;stroke-dashoffset:0;stroke-opacity:1;marker:none;paint-order:stroke fill markers;color-rendering:auto;image-rendering:auto;shape-rendering:auto;text-rendering:auto;enable-background:accumulate" />
    </g>
    <path
       style="color:#000000;display:inline;overflow:visible;visibility:visible;fill:#ffffff;fill-opacity:1;fill-rule:nonzero;stroke:none;stroke-width:1px;marker:none;enable-background:accumulate"
       d="m 629.17163,1774.9461 c 35.5569,-14.5366 41.67626,-31.6471 47.18634,-43.5618 -2.65923,-2.5035 -6.54732,-8.0178 -6.54732,-8.0178 0,0 12.65658,-22.4957 15.10184,-32.5562 2.44525,-10.0606 -7.9819,-12.8713 -7.9819,-12.8713 0,0 -25.51886,43.1486 -33.28059,50.8828 7.56813,6.5068 10.43323,10.8522 14.11349,11.8438 -1.22076,7.7115 -16.12683,28.7066 -28.59186,34.2805 z"
       id="path4456-8"
       inkscape:connector-curvature="0" />
    <path
       style="color:#000000;display:inline;overflow:visible;visibility:visible;fill:#ffffff;fill-opacity:1;fill-rule:nonzero;stroke:none;stroke-width:0.92672938px;marker:none;enable-background:accumulate"
       d="m 638.44259,1728.3238 c 3.78249,-5.7389 20.12978,-22.5632 17.7253,-1.7093 26.26384,-24.0626 44.58379,-11.6681 63.35521,-1.3461 6.50541,-7.4543 9.07136,-19.9016 25.57259,-14.6854 -1.12443,-8.4054 5.44828,-13.1946 18.88914,-14.7579 -16.42408,-7.1942 -18.79608,-12.6571 13.94552,-13.7909 -24.19382,-3.7867 -46.67913,-7.9096 -15.33378,-22.573 -8.86564,-1.6479 -32.45499,10.9331 -15.57395,-32.8937 -17.60418,12.3908 -35.22678,18.1653 -51.09173,-14.8794 -8.1709,11.1074 -18.86537,17.9114 -34.51211,-0.8454 -5.72615,11.3454 -27.80926,9.3796 -35.50637,5.8825 14.2118,15.4634 12.37499,23.6344 -9.91226,21.946 33.33558,28.907 3.62315,21.2305 -3.28779,26.4946 27.80803,12.1553 13.2062,20.6551 6.44484,30.1747 33.37695,4.8444 19.89731,19.7519 19.28539,32.9833 z"
       id="path3549-3-3"
       inkscape:connector-curvature="0"
       sodipodi:nodetypes="ccccccccccccccc" />
    <path
       style="fill:#ffffff;fill-rule:evenodd;stroke:none;stroke-width:1px;stroke-linecap:butt;stroke-linejoin:miter;stroke-opacity:1"
       d="m 1307.4854,2602.0637 c -31.2075,-49.718 -57.6867,-99.436 -69.0349,-134.022 18.4436,2.9618 26.7085,2.9317 37.3517,15.2501 -6.6197,-51.879 -58.8324,-144.9481 -75.8547,-180.6151 23.642,67.011 45.933,126.4555 49.7157,146.9915 -20.3995,-8.647 -30.1264,-11.8895 -47.1487,-11.8895 12.2939,29.182 49.1756,139.426 50.1212,168.608 0.9457,29.182 54.8497,-4.323 54.8497,-4.323 z"
       id="path1305"
       inkscape:connector-curvature="0"
       inkscape:transform-center-x="-76.559845"
       inkscape:transform-center-y="-165"
       sodipodi:nodetypes="cccccccc" />
    <path
       style="fill:#ffffff;fill-rule:evenodd;stroke:none;stroke-width:0.94369966px;stroke-linecap:butt;stroke-linejoin:miter;stroke-opacity:1"
       d="m 1751.6337,2648.2438 c -37.0295,110.498 234.4739,65.4497 257.3564,60.5103 18.6855,-3.0136 31.6973,-43.4872 7.2566,-73.9632 -12.8946,-17.7601 -228.662,-45.2611 -264.613,13.4529 z"
       id="path4430-0"
       inkscape:connector-curvature="0"
       sodipodi:nodetypes="cccc" />
    <path
       style="color:#000000;display:inline;overflow:visible;visibility:visible;fill:#ffffff;fill-opacity:1;fill-rule:nonzero;stroke:none;stroke-width:1px;marker:none;enable-background:accumulate"
       d="m 1784.1622,2630.2265 c -46.8802,-59.9992 -98.8995,-156.6325 -31.3673,-206.3578 -4.5282,-49.7516 -28.3011,-87.1868 24.4603,-157.6171 -23.1965,52.224 -30.3543,103.8456 -3.9747,167.0512 -52.672,28.328 -38.7464,100.0612 37.0538,175.6255 63.0326,62.8365 48.7653,39.6069 48.7653,39.6069 l -56.4955,0.5477 z"
       id="path5074-8"
       inkscape:connector-curvature="0"
       sodipodi:nodetypes="ccccsccc" />
    <path
       style="fill:#ffffff;fill-rule:evenodd;stroke:none;stroke-width:1px;stroke-linecap:butt;stroke-linejoin:miter;stroke-opacity:1"
       d="m 2246.4302,2469.2243 c 10.8091,28.67 23.8371,40.143 43.3145,1.635 15.888,9.306 15.7808,38.162 67.8321,3.269 -29.8746,44.044 -17.3435,47.61 0,46.583 -25.1962,57.06 -3.7094,48.215 5.7208,56.391 -30.8793,34.465 -26.8332,50.637 -12.2588,61.294 -10.4115,20.879 -17.6853,41.13 4.0862,55.573 -17.0267,5.697 -41.1356,3.132 -33.5074,37.594 -27.0363,-21.803 -45.9051,-15.837 -62.1113,-0.818 -13.9826,-19.98 -25.3371,-45.217 -64.5631,-14.71 21.7239,-33.802 13.1289,-50.76 -4.0863,-62.929 32.342,-32.722 7.0945,-44.116 -17.9796,-55.573 45.3309,-3.935 32.4477,-40.21 20.4314,-76.005 21.2249,7.19 42.525,14.905 53.1215,-52.304 z"
       id="path4489"
       inkscape:connector-curvature="0"
       sodipodi:nodetypes="cccccccccccccc" />
    <path
       style="color:#000000;display:inline;overflow:visible;visibility:visible;fill:#ffffff;fill-opacity:1;fill-rule:nonzero;stroke:none;stroke-width:1px;marker:none;enable-background:accumulate"
       d="m 2289.8945,2516.5804 c -8.018,-28.8131 -21.1087,-65.6141 -27.8785,-69.8583 9.7815,1.1772 18.6352,0.4194 25.549,-0.043 -1.8459,-14.8181 -24.8055,-57.3272 -37.1358,-81.7061 34.1168,30.0506 62.2825,80.9654 68.2074,103.5062 -9.7235,-3.4686 -18.2501,-4.2731 -22.9717,-2.9591 -2.5719,11.5641 19.8692,47.8689 20.5932,47.9117 z"
       id="path5066-6"
       inkscape:connector-curvature="0"
       sodipodi:nodetypes="cccccccc" />
    <path
       style="display:inline;fill:#ffffff;fill-rule:evenodd;stroke:none;stroke-width:0.87333298px;stroke-linecap:butt;stroke-linejoin:miter;stroke-opacity:1"
       d="m 1164.8635,2552.4944 c 32.4466,23.694 39.3307,16.7115 31.0416,-33.46 23.2122,54.6125 54.2222,56.8871 60.5931,27.5631 20.4946,25.205 26.4742,19.3709 36.6371,1.2359 3.7879,23.322 11.9112,13.911 18.9414,12.752 2.3156,5.277 23.1853,16.957 55.3144,-0.509 2.0813,6.984 4.8849,12.998 23.7043,-2.486 4.8757,28.348 20.5188,-1.571 36.5444,-33.56 -9.9846,39.327 -5.8443,44.882 6.9138,29.831 -5.8329,16.195 -9.3216,28.732 12.8396,1.243 -7.5868,29.893 12.3174,9.374 44.4458,-33.56 -16.0711,31.737 -58.6879,85.226 -30.618,80.792 -3.9146,9.356 -17.8775,17.507 23.7042,32.316 -7.7627,6.349 -31.4622,-2.929 -11.6926,23.952 2.6489,3.143 -6.2184,5.061 10.705,13.336 -9.9902,-0.563 -16.1169,1.449 -6.9138,13.673 -18.2357,-0.661 -11.4127,12.193 1.9753,28.587 -26.4077,-21.029 -27.861,-13.386 -28.6428,-4.971 -33.0966,-28.671 -44.1413,-18.215 -37.2318,4.909 -14.6149,-31.222 -48.9509,-14.822 -50.6719,10.006 -5.0996,-24.009 -61.8893,-28.973 -74.9432,-2.548 8.0906,-28.159 -8.9005,-14.899 -25.9799,-4.475 9.353,-31.606 -14.3837,-22.298 -44.4457,8.452 16.8346,-34.902 -2.2856,-22.294 -30.6182,2.486 10.705,-34.287 -6.7292,-50.869 -48.3963,-52.203 19.9432,-12.368 31.573,-27.933 10.8645,-55.933 23.3444,8.245 17.4134,-15.136 0.9333,-45.554 25.4624,24.967 24.9314,11.625 14.9964,-21.875 z"
       id="path4508-6"
       inkscape:connector-curvature="0"
       sodipodi:nodetypes="cccccccccccccccccccccccccccc" />
  </g>
  <g
     inkscape:groupmode="layer"
     id="layer1"
     inkscape:label="txt">
    <text
       transform="matrix(1.5019069,-1.2612259,-0.02780836,3.3462171,-775.61315,-1563.8483)"
       id="text1021"
       y="1584.5073"
       x="787.65729"
       style="font-style:normal;font-variant:normal;font-weight:normal;font-stretch:normal;line-height:0%;font-family:'Nanum Pen Script OTF';-inkscape-font-specification:'Nanum Pen Script OTF';letter-spacing:0px;word-spacing:0px;display:inline;fill:#ffffff;fill-opacity:1;stroke:none;stroke-width:0.47429675;stroke-miterlimit:4;stroke-dasharray:none;stroke-opacity:1;filter:url(#filter4375-4-1-1-1-9-5-8-3-4-3)"
       xml:space="preserve"><tspan
         style="font-style:normal;font-variant:normal;font-weight:normal;font-stretch:normal;font-size:70px;line-height:1.25;font-family:'Nanum Pen Script OTF';-inkscape-font-specification:'Nanum Pen Script OTF';fill:#ffffff;fill-opacity:1;stroke:none;stroke-width:0.47429675;stroke-opacity:1"
         y="1584.5073"
         x="787.65729"
         id="tspan1019"
         sodipodi:role="line"><tspan
           id="tspan1017"
           style="font-style:normal;font-variant:normal;font-weight:normal;font-stretch:normal;font-size:93.14950562px;font-family:'Nanum Pen Script OTF';-inkscape-font-specification:'Nanum Pen Script OTF';fill:#ffffff;fill-opacity:1;stroke:none;stroke-width:0.47429675;stroke-opacity:1">부우우우<tspan
   id="tspan1015"
   style="font-style:normal;font-variant:normal;font-weight:normal;font-stretch:normal;font-size:79.43728638px;font-family:'Nanum Pen Script OTF';-inkscape-font-specification:'Nanum Pen Script OTF';stroke:none;stroke-width:0.47429675">우우웅</tspan></tspan></tspan></text>
    <text
       transform="matrix(1.5380645,-0.23458023,-1.1648226,2.1229599,1686.1359,-1437.3298)"
       id="text1027"
       y="1584.5073"
       x="787.65729"
       style="font-style:normal;font-variant:normal;font-weight:normal;font-stretch:normal;line-height:0%;font-family:'Nanum Pen Script OTF';-inkscape-font-specification:'Nanum Pen Script OTF';letter-spacing:0px;word-spacing:0px;display:inline;fill:#ffffff;fill-opacity:1;stroke:none;stroke-width:0.63537186;stroke-miterlimit:4;stroke-dasharray:none;stroke-opacity:1;filter:url(#filter4375-4-1-1-1-9-5-8-3-4-3-3)"
       xml:space="preserve"><tspan
         style="font-style:normal;font-variant:normal;font-weight:normal;font-stretch:normal;font-size:70px;line-height:1.25;font-family:'Nanum Pen Script OTF';-inkscape-font-specification:'Nanum Pen Script OTF';fill:#ffffff;fill-opacity:1;stroke:none;stroke-width:0.63537186;stroke-opacity:1"
         y="1584.5073"
         x="787.65729"
         id="tspan1025"
         sodipodi:role="line"><tspan
           id="tspan1023"
           style="font-style:normal;font-variant:normal;font-weight:normal;font-stretch:normal;font-size:95.32473755px;font-family:'Nanum Pen Script OTF';-inkscape-font-specification:'Nanum Pen Script OTF';fill:#ffffff;fill-opacity:1;stroke:none;stroke-width:0.63537186;stroke-opacity:1">피슈우우웅!</tspan></tspan></text>
    <text
       transform="matrix(1.1038105,-0.44864174,-0.51644806,1.8806343,901.00972,-646.58696)"
       x="1705.2566"
       y="1742.2045"
       inkscape:transform-center-y="205.61302"
       inkscape:transform-center-x="-213.75434"
       id="text1035"
       style="color:#000000;font-style:normal;font-variant:normal;font-weight:normal;font-stretch:normal;line-height:0%;font-family:'Nanum Pen Script OTF';-inkscape-font-specification:'Nanum Pen Script OTF';letter-spacing:0.02734961px;word-spacing:0px;clip-rule:nonzero;display:inline;overflow:visible;visibility:visible;opacity:1;isolation:auto;mix-blend-mode:normal;color-interpolation:sRGB;color-interpolation-filters:linearRGB;solid-color:#000000;solid-opacity:1;fill:#ffffff;fill-opacity:1;fill-rule:nonzero;stroke:#ffffff;stroke-width:1.02114785;stroke-linecap:butt;stroke-linejoin:miter;stroke-miterlimit:4;stroke-dasharray:none;stroke-dashoffset:0;stroke-opacity:1;marker:none;filter:url(#filter5561);color-rendering:auto;image-rendering:auto;shape-rendering:auto;text-rendering:auto;enable-background:accumulate"
       xml:space="preserve"><tspan
         style="font-style:normal;font-variant:normal;font-weight:normal;font-stretch:normal;font-size:45.57711792px;line-height:1.25;font-family:'Nanum Pen Script OTF';-inkscape-font-specification:'Nanum Pen Script OTF';letter-spacing:8.21055126px;stroke-width:1.02114785"
         y="1742.2045"
         x="1705.2566"
         id="tspan1033"
         sodipodi:role="line">쉬이이익!</tspan></text>
    <text
       transform="matrix(0.83492136,-0.87630452,0.22267567,0.96400493,0,0)"
       id="text1045"
       y="4214.8433"
       x="1613.7064"
       style="font-style:normal;font-variant:normal;font-weight:normal;font-stretch:normal;font-size:12.64126205px;line-height:0%;font-family:'Nanum Pen Script OTF';-inkscape-font-specification:'Nanum Pen Script OTF';text-align:center;letter-spacing:0px;word-spacing:0px;text-anchor:middle;fill:#000000;fill-opacity:1;stroke:none;stroke-width:1.05343843"
       xml:space="preserve"><tspan
         id="tspan1043"
         y="4214.8433"
         x="1613.7064"
         style="font-style:normal;font-variant:normal;font-weight:normal;font-stretch:normal;font-size:148.5796051px;line-height:1.25;font-family:'Nanum Pen Script OTF';-inkscape-font-specification:'Nanum Pen Script OTF';stroke-width:1.05343843"
         sodipodi:role="line"><tspan
   id="tspan1041"
   style="font-style:normal;font-variant:normal;font-weight:normal;font-stretch:normal;font-size:127.94355774px;font-family:'Nanum Pen Script OTF';-inkscape-font-specification:'Nanum Pen Script OTF';stroke-width:1.05343843">!</tspan>!</tspan></text>
    <text
       id="text999"
       y="197.43004"
       x="101.04859"
       style="font-style:normal;font-variant:normal;font-weight:normal;font-stretch:normal;font-size:13.84135628px;line-height:1;font-family:'Nanum Pen Script OTF';-inkscape-font-specification:'Nanum Pen Script OTF';text-align:center;letter-spacing:0px;word-spacing:0px;text-anchor:middle;display:inline;fill:#000000;fill-opacity:1;stroke:none;stroke-width:1.3180927"
       xml:space="preserve"><tspan
         id="tspan997"
         y="197.43004"
         x="101.04859"
         style="font-style:normal;font-variant:normal;font-weight:normal;font-stretch:normal;font-size:52.72370911px;line-height:1;font-family:'Nanum Pen Script OTF';-inkscape-font-specification:'Nanum Pen Script OTF';text-align:start;text-anchor:start;fill:#000000;stroke-width:1.3180927"
         sodipodi:role="line">테네부룸,</tspan><tspan
         y="250.15375"
         x="101.04859"
         style="font-style:normal;font-variant:normal;font-weight:normal;font-stretch:normal;font-size:52.72370911px;line-height:1;font-family:'Nanum Pen Script OTF';-inkscape-font-specification:'Nanum Pen Script OTF';text-align:start;text-anchor:start;fill:#000000;stroke-width:1.3180927"
         sodipodi:role="line"
         id="tspan1060">카오사의 성스러운 봉우리.</tspan></text>
    <text
       transform="matrix(1.2754414,-0.65637015,-0.4442858,2.1817166,1518.3288,-2355.9385)"
       id="text1009"
       y="1584.5073"
       x="787.65729"
       style="font-style:normal;font-variant:normal;font-weight:normal;font-stretch:normal;line-height:0%;font-family:'Nanum Pen Script OTF';-inkscape-font-specification:'Nanum Pen Script OTF';letter-spacing:0px;word-spacing:0px;display:inline;fill:#ffffff;fill-opacity:1;stroke:none;stroke-width:1.13454751;stroke-miterlimit:4;stroke-dasharray:none;stroke-opacity:1;filter:url(#filter4375-4-1-1-1-9-5-8-3-4);"
       xml:space="preserve"><tspan
         style="font-style:normal;font-variant:normal;font-weight:normal;font-stretch:normal;font-size:70px;line-height:1.25;font-family:'Nanum Pen Script OTF';-inkscape-font-specification:'Nanum Pen Script OTF';fill:#ffffff;fill-opacity:1;stroke:none;stroke-width:1.13454751;stroke-opacity:1;"
         y="1584.5073"
         x="787.65729"
         id="tspan1007"
         sodipodi:role="line"><tspan
           id="tspan1003"
           style="font-style:normal;font-variant:normal;font-weight:normal;font-stretch:normal;font-size:79.43728638px;font-family:'Nanum Pen Script OTF';-inkscape-font-specification:'Nanum Pen Script OTF';fill:#ffffff;fill-opacity:1;stroke:none;stroke-width:1.13454751;stroke-opacity:1;">부우우우우웅</tspan><tspan
           id="tspan1005"
           style="font-style:normal;font-variant:normal;font-weight:normal;font-stretch:normal;font-size:95.32473755px;font-family:'Nanum Pen Script OTF';-inkscape-font-specification:'Nanum Pen Script OTF';fill:#ffffff;fill-opacity:1;stroke:none;stroke-width:1.13454751;stroke-opacity:1;">!</tspan></tspan></text>
    <text
       transform="matrix(0.96249446,0,-0.17681032,1.038967,0,0)"
       id="text1013"
       y="1628.063"
       x="1008.4934"
       style="font-style:normal;font-variant:normal;font-weight:normal;font-stretch:normal;font-size:14.67074966px;line-height:0%;font-family:'Nanum Pen Script OTF';-inkscape-font-specification:'Nanum Pen Script OTF';text-align:center;letter-spacing:0px;word-spacing:0px;text-anchor:middle;display:inline;fill:#000000;fill-opacity:1;stroke:none;stroke-width:1"
       xml:space="preserve"><tspan
         id="tspan1011"
         y="1628.063"
         x="1008.4934"
         style="font-style:normal;font-variant:normal;font-weight:normal;font-stretch:normal;font-size:55.01531219px;line-height:1.25;font-family:'Nanum Pen Script OTF';-inkscape-font-specification:'Nanum Pen Script OTF';stroke-width:1"
         sodipodi:role="line">쯧!</tspan></text>
    <text
       id="text1031"
       y="2658.999"
       x="1308.3956"
       style="font-style:normal;font-variant:normal;font-weight:normal;font-stretch:normal;font-size:14.04664707px;line-height:0%;font-family:'Nanum Pen Script OTF';-inkscape-font-specification:'Nanum Pen Script OTF';text-align:center;letter-spacing:0px;word-spacing:0px;text-anchor:middle;fill:#000000;fill-opacity:1;stroke:none;stroke-width:1.22322547"
       xml:space="preserve"><tspan
         id="tspan1029"
         y="2658.999"
         x="1308.3956"
         style="font-style:normal;font-variant:normal;font-weight:normal;font-stretch:normal;font-size:74.91545868px;line-height:1.20000005;font-family:'Nanum Pen Script OTF';-inkscape-font-specification:'Nanum Pen Script OTF';stroke-width:1.22322547"
         sodipodi:role="line">받아라!</tspan></text>
    <text
       id="text1039"
       y="2690.3625"
       x="1893.2633"
       style="font-style:normal;font-variant:normal;font-weight:normal;font-stretch:normal;font-size:16.02053452px;line-height:0%;font-family:'Nanum Pen Script OTF';-inkscape-font-specification:'Nanum Pen Script OTF';text-align:center;letter-spacing:0px;word-spacing:0px;text-anchor:middle;fill:#000000;fill-opacity:1;stroke:none;stroke-width:1.3350445"
       xml:space="preserve"><tspan
         id="tspan1037"
         y="2690.3625"
         x="1893.2633"
         style="font-style:normal;font-variant:normal;font-weight:normal;font-stretch:normal;font-size:60.07700348px;line-height:1.25;font-family:'Nanum Pen Script OTF';-inkscape-font-specification:'Nanum Pen Script OTF';stroke-width:1.3350445"
         sodipodi:role="line">어이 초짜!</tspan></text>
    <text
       transform="matrix(1.6853779,-1.887072,0.57669374,3.9387304,-314.23269,-1480.5251)"
       id="text1053"
       y="1584.5073"
       x="787.65729"
       style="font-style:normal;font-variant:normal;font-weight:normal;font-stretch:normal;line-height:0%;font-family:'Nanum Pen Script OTF';-inkscape-font-specification:'Nanum Pen Script OTF';letter-spacing:0px;word-spacing:0px;display:inline;fill:#ffffff;fill-opacity:1;stroke:none;stroke-width:0.44155571;stroke-miterlimit:4;stroke-dasharray:none;stroke-opacity:1;filter:url(#filter4375-4-1-1-1-9-5-8-3-4-6)"
       xml:space="preserve"><tspan
         style="font-style:normal;font-variant:normal;font-weight:normal;font-stretch:normal;font-size:70px;line-height:1.25;font-family:'Nanum Pen Script OTF';-inkscape-font-specification:'Nanum Pen Script OTF';fill:#ffffff;fill-opacity:1;stroke:none;stroke-width:0.44155571;stroke-opacity:1"
         y="1584.5073"
         x="787.65729"
         id="tspan1051"
         sodipodi:role="line"><tspan
           id="tspan1049"
           style="font-style:normal;font-variant:normal;font-weight:normal;font-stretch:normal;font-size:95.32473755px;font-family:'Nanum Pen Script OTF';-inkscape-font-specification:'Nanum Pen Script OTF';fill:#ffffff;fill-opacity:1;stroke:none;stroke-width:0.44155571;stroke-opacity:1">쾅!</tspan></tspan></text>
  </g>
</svg>
