<?xml version="1.0" encoding="UTF-8" standalone="no"?>
<svg
   xmlns:dc="http://purl.org/dc/elements/1.1/"
   xmlns:cc="http://creativecommons.org/ns#"
   xmlns:rdf="http://www.w3.org/1999/02/22-rdf-syntax-ns#"
   xmlns:svg="http://www.w3.org/2000/svg"
   xmlns="http://www.w3.org/2000/svg"
   xmlns:xlink="http://www.w3.org/1999/xlink"
   xmlns:sodipodi="http://sodipodi.sourceforge.net/DTD/sodipodi-0.dtd"
   xmlns:inkscape="http://www.inkscape.org/namespaces/inkscape"
   id="svg2"
   version="1.1"
   inkscape:version="1.0 (4035a4fb49, 2020-05-01)"
   width="2481"
   height="3503"
   sodipodi:docname="E31P05.svg">
  <metadata
     id="metadata8">
    <rdf:RDF>
      <cc:Work
         rdf:about="">
        <dc:format>image/svg+xml</dc:format>
        <dc:type
           rdf:resource="http://purl.org/dc/dcmitype/StillImage" />
        <dc:title />
      </cc:Work>
    </rdf:RDF>
  </metadata>
  <defs
     id="defs6">
    <filter
       style="color-interpolation-filters:sRGB"
       id="filter4375-4-1-1-1-9-5-8-86"
       inkscape:label="Drop Shadow">
      <feFlood
         id="feFlood4377-7-9-0-8-1-7-3-2"
         flood-opacity="1"
         flood-color="rgb(162,101,216)"
         result="flood" />
      <feComposite
         id="feComposite4379-3-8-8-2-77-4-1-84"
         in2="SourceGraphic"
         in="flood"
         operator="in"
         result="composite1" />
      <feMorphology
         id="feMorphology4393-1-0-49-8-9-3-0-7"
         operator="dilate"
         radius="6.2000000000000002"
         result="result3" />
      <feComposite
         id="feComposite4385-9-5-7-0-8-8-7-24"
         in2="result3"
         in="SourceGraphic"
         operator="over"
         result="fbSourceGraphic" />
      <feColorMatrix
         result="fbSourceGraphicAlpha"
         in="fbSourceGraphic"
         values="0 0 0 -1 0 0 0 0 -1 0 0 0 0 -1 0 0 0 0 1 0"
         id="feColorMatrix4544-0" />
      <feTurbulence
         id="feTurbulence4546-62"
         type="fractalNoise"
         numOctaves="3"
         seed="37"
         baseFrequency="0.129 0.0050000000000000001"
         result="turbulence" />
      <feDisplacementMap
         id="feDisplacementMap4548-9"
         in2="turbulence"
         in="fbSourceGraphic"
         scale="6.6"
         yChannelSelector="G"
         xChannelSelector="R"
         result="fbSourceGraphic" />
      <feColorMatrix
         result="fbSourceGraphicAlpha"
         in="fbSourceGraphic"
         values="0 0 0 -1 0 0 0 0 -1 0 0 0 0 -1 0 0 0 0 1 0"
         id="feColorMatrix4670-90" />
      <feFlood
         id="feFlood4672-81"
         flood-opacity="1"
         flood-color="rgb(37,37,37)"
         result="flood"
         in="fbSourceGraphic" />
      <feComposite
         id="feComposite4674-3"
         in2="fbSourceGraphic"
         in="flood"
         operator="in"
         result="composite1" />
      <feGaussianBlur
         id="feGaussianBlur4676-1"
         in="composite1"
         stdDeviation="0"
         result="blur" />
      <feOffset
         id="feOffset4678-1"
         dx="6"
         dy="6"
         result="offset" />
      <feComposite
         id="feComposite4680-0"
         in2="offset"
         in="fbSourceGraphic"
         operator="over"
         result="composite2" />
    </filter>
    <filter
       style="color-interpolation-filters:sRGB"
       id="filter3018-9-9"
       inkscape:label="Lapping"
       inkscape:menu="Distort"
       inkscape:menu-tooltip="Something like a water noise"
       height="1.3"
       y="-0.15000001"
       width="1.3"
       x="-0.15000001">
      <feTurbulence
         id="feTurbulence3020-3-0"
         numOctaves="5"
         seed="0"
         type="fractalNoise"
         baseFrequency="0.045999999999999999"
         result="result1" />
      <feGaussianBlur
         id="feGaussianBlur3022-77-9"
         stdDeviation="2"
         result="result2" />
      <feDisplacementMap
         id="feDisplacementMap3024-6-9"
         in2="result2"
         scale="50"
         yChannelSelector="B"
         xChannelSelector="R"
         in="SourceGraphic" />
    </filter>
    <filter
       style="color-interpolation-filters:sRGB"
       id="filter3018-9-9-8"
       inkscape:label="Lapping"
       inkscape:menu="Distort"
       inkscape:menu-tooltip="Something like a water noise"
       height="1.3"
       y="-0.15000001"
       width="1.3"
       x="-0.15000001">
      <feTurbulence
         id="feTurbulence3020-3-0-7"
         numOctaves="5"
         seed="0"
         type="fractalNoise"
         baseFrequency="0.045999999999999999"
         result="result1" />
      <feGaussianBlur
         id="feGaussianBlur3022-77-9-9"
         stdDeviation="2"
         result="result2" />
      <feDisplacementMap
         id="feDisplacementMap3024-6-9-2"
         in2="result2"
         scale="50"
         yChannelSelector="B"
         xChannelSelector="R"
         in="SourceGraphic" />
    </filter>
    <filter
       style="color-interpolation-filters:sRGB"
       id="filter4375-4-1-1-15-1-3-0"
       inkscape:label="deevad outline effect">
      <feFlood
         id="feFlood4377-7-9-0-4-4-4-0"
         flood-opacity="1"
         flood-color="rgb(0,0,0)"
         result="flood" />
      <feComposite
         id="feComposite4379-3-8-8-6-0-7-3"
         in2="SourceGraphic"
         in="flood"
         operator="in"
         result="composite1" />
      <feMorphology
         id="feMorphology4393-1-0-49-8-2-7-4"
         operator="dilate"
         radius="0.90000000000000002"
         result="result3" />
      <feComposite
         id="feComposite4385-9-5-7-2-1-2-6-7"
         in2="result3"
         in="SourceGraphic"
         operator="over"
         result="composite2" />
    </filter>
    <filter
       style="color-interpolation-filters:sRGB"
       id="filter4375-4-1-1-1-9-5-8-3-8"
       inkscape:label="Drop Shadow">
      <feFlood
         id="feFlood4377-7-9-0-8-1-7-3-8-3"
         flood-opacity="1"
         flood-color="rgb(32,32,32)"
         result="flood" />
      <feComposite
         id="feComposite4379-3-8-8-2-77-4-1-8-7"
         in2="SourceGraphic"
         in="flood"
         operator="in"
         result="composite1" />
      <feMorphology
         id="feMorphology4393-1-0-49-8-9-3-0-31-8"
         operator="dilate"
         radius="6.2000000000000002"
         result="result3" />
      <feComposite
         id="feComposite4385-9-5-7-0-8-8-7-8-2"
         in2="result3"
         in="SourceGraphic"
         operator="over"
         result="fbSourceGraphic" />
      <feColorMatrix
         result="fbSourceGraphicAlpha"
         in="fbSourceGraphic"
         values="0 0 0 -1 0 0 0 0 -1 0 0 0 0 -1 0 0 0 0 1 0"
         id="feColorMatrix4544-96-1" />
      <feTurbulence
         id="feTurbulence4546-4-0"
         type="fractalNoise"
         numOctaves="3"
         seed="37"
         baseFrequency="0.129 0.0050000000000000001"
         result="turbulence" />
      <feDisplacementMap
         id="feDisplacementMap4548-3-5"
         in2="turbulence"
         in="fbSourceGraphic"
         scale="6.6"
         yChannelSelector="G"
         xChannelSelector="R"
         result="fbSourceGraphic" />
      <feColorMatrix
         result="fbSourceGraphicAlpha"
         in="fbSourceGraphic"
         values="0 0 0 -1 0 0 0 0 -1 0 0 0 0 -1 0 0 0 0 1 0"
         id="feColorMatrix4670-33-8" />
      <feFlood
         id="feFlood4672-8-5"
         flood-opacity="0.40999999999999998"
         flood-color="rgb(41,41,41)"
         result="flood"
         in="fbSourceGraphic" />
      <feComposite
         id="feComposite4674-6-5"
         in2="fbSourceGraphic"
         in="flood"
         operator="in"
         result="composite1" />
      <feGaussianBlur
         id="feGaussianBlur4676-0-0"
         in="composite1"
         stdDeviation="0"
         result="blur" />
      <feOffset
         id="feOffset4678-4-7"
         dx="6"
         dy="6"
         result="offset" />
      <feComposite
         id="feComposite4680-8-3"
         in2="offset"
         in="fbSourceGraphic"
         operator="over"
         result="composite2" />
    </filter>
  </defs>
  <sodipodi:namedview
     pagecolor="#ffffff"
     bordercolor="#666666"
     borderopacity="1"
     objecttolerance="10"
     gridtolerance="10"
     guidetolerance="10"
     inkscape:pageopacity="0"
     inkscape:pageshadow="2"
     inkscape:window-width="962"
     inkscape:window-height="1003"
     id="namedview4"
     showgrid="false"
     inkscape:zoom="0.56568545"
     inkscape:cx="2061.4381"
     inkscape:cy="2635.9748"
     inkscape:window-x="0"
     inkscape:window-y="44"
     inkscape:window-maximized="0"
     inkscape:current-layer="layer1"
     inkscape:snap-global="false"
     inkscape:document-rotation="0" />
  <g
     inkscape:groupmode="layer"
     id="layer2"
     inkscape:label="artwork"
     sodipodi:insensitive="true">
    <image
       sodipodi:absref="/home/cherry/peppercarrot/webcomics/ep31_The-Fight/lang/gfx_Pepper-and-Carrot_by-David-Revoy_E31P05.png"
       xlink:href="../gfx_Pepper-and-Carrot_by-David-Revoy_E31P05.png"
       width="2481"
       height="3503"
       id="image10"
       x="0"
       y="0" />
  </g>
  <g
     inkscape:groupmode="layer"
     id="layer3"
     inkscape:label="speechbubbles">
    <path
       style="display:inline;fill:#ffffff;stroke:none;stroke-width:1"
       d="m 382.49566,1179.2358 c -2.01062,-17.6243 12.0717,-67.9969 90.08514,-68.7361 78.01344,-0.7392 103.59741,17.4259 107.8701,48.7172 6.75943,49.5031 -33.32995,64.9214 -91.87056,71.674 -60.34906,6.9619 -99.1075,-7.2308 -106.08468,-51.6551 z"
       id="path3280-9"
       inkscape:connector-curvature="0"
       sodipodi:nodetypes="csssc" />
    <path
       style="display:inline;fill:#ffffff;stroke:none;stroke-width:0.99999994"
       d="m 838.74219,1343.1008 c 5.14046,-12.1801 -5.32637,-23.7674 -18.08678,-28.0133 -12.76108,-4.2447 -17.11873,-5.8511 -32.46479,-5.5922 -15.34651,0.2588 -33.87645,-18.63 -39.83871,-26.5569 -5.96336,-7.9256 -57.72306,-32.5688 -57.72306,-32.5688 0,0 2.85238,31.2418 7.85563,42.0344 5.00412,10.7938 5.65455,6.0882 9.89238,10.0535 4.23783,3.964 26.45958,14.3405 40.45236,18.6892 10.98819,3.4161 24.49176,7.9704 43.02369,5.8983 12.31041,-1.3778 27.85053,9.2829 21.92175,18.3747 -6.57944,10.0897 0.64735,15.6711 22.40302,23.6778 20.17992,7.4261 56.16383,14.0502 56.16383,14.0502 -66.35709,-27.7338 -59.36137,-26.3947 -53.59932,-40.0469 z"
       id="path3023-0"
       inkscape:connector-curvature="0"
       sodipodi:nodetypes="sssscsssssscs" />
    <path
       style="color:#000000;display:inline;overflow:visible;visibility:visible;fill:#ffffff;fill-opacity:1;fill-rule:nonzero;stroke:none;stroke-width:1px;marker:none;enable-background:accumulate"
       d="m 944.57883,1605.1703 c -30.33271,27.8223 -40.63193,41.7036 -32.65289,89.1503 7.9795,47.4457 -10.38684,49.099 -10.38684,49.099 l -22.6221,-25.0848 c 0,0 -10.78332,-87.9521 65.66183,-113.1645 z"
       id="path3072-56"
       inkscape:connector-curvature="0"
       sodipodi:nodetypes="ccccc" />
    <path
       style="fill:#ffffff;fill-rule:evenodd;stroke:none;stroke-width:1px;stroke-linecap:butt;stroke-linejoin:miter;stroke-opacity:1"
       d="m 2355.6287,3352.3735 -62.4863,-105.9956 -20.7592,1.1293 0.9846,29.7863 c -198.2559,-209.0923 -141.9506,-96.6792 1.661,30.8425 l 12.9698,3.243 3.2425,-25.94 z"
       id="path1111"
       inkscape:connector-curvature="0"
       sodipodi:nodetypes="cccccccc" />
    <path
       style="color:#000000;display:inline;overflow:visible;visibility:visible;fill:#ffffff;fill-opacity:1;fill-rule:nonzero;stroke:none;stroke-width:1px;marker:none;enable-background:accumulate"
       d="m 1973.4346,3088.3103 c -6.6531,20.3024 -47.5476,23.2223 -62.7438,19.5956 31.0622,21.5486 30.4245,35.5404 -10.7628,38.9533 70.4042,38.401 13.6849,33.9812 2.844,44.5847 54.7415,12.3148 30.9625,30.4145 21.8136,47.9943 62.4537,-1.2914 42.8582,27.0365 46.1562,49.0272 4.9803,-10.5156 29.174,-42.8045 31.7471,-7.7438 -0.086,-6.6401 39.3164,-62.8859 101.9892,-11.2294 -2.3069,-27.504 18.4118,-33.7993 39.397,3.6613 -7.873,-40.9976 62.8476,-31.2003 100.506,-19.3973 -19.5855,-24.3894 9.8715,-35.3463 41.689,-31.3315 -4.8533,-13.5507 5.5549,-23.2798 29.5328,-29.5951 -32.3366,-7.2968 -38.5076,-15.6446 20.7939,-26.6198 -45.3626,0.4822 -87.6934,-0.06 -35.4497,-32.9585 -16.7095,-0.2525 -55.5121,27.0535 -39.3607,-49.9183 -27.9552,25.3302 -58.1611,39.7556 -98.1009,-10.328 -17.3963,26.1482 -48.5278,39.7685 -63.2036,8.2059 -4.5161,13.7803 -24.7942,19.5247 -42.1215,20.6697 -6.8713,-5.2119 -14.0116,-12.358 -21.5222,-21.7761 -11.1887,20.59 -28.4272,34.7875 -63.2036,8.2058 z"
       id="path3549-3-7-9"
       inkscape:connector-curvature="0"
       sodipodi:nodetypes="cccccccccccccccccccc" />
    <path
       style="color:#000000;display:inline;overflow:visible;visibility:visible;opacity:1;vector-effect:none;fill:#000000;fill-opacity:1;fill-rule:nonzero;stroke:none;stroke-width:0.89139485px;stroke-linecap:butt;stroke-linejoin:miter;stroke-miterlimit:4;stroke-dasharray:none;stroke-dashoffset:0;stroke-opacity:1;marker:none;filter:url(#filter3018-9-9);enable-background:accumulate"
       d="m 568.82556,2217.9956 c 20.35374,-58.0159 71.84002,-99.3668 204.06836,-127.8459 84.78944,-18.2616 135.87813,-13.5537 178.25372,3.7865 20.01567,8.1908 47.17519,73.4649 36.6338,132.3857 -10.54149,58.921 -61.62983,129.2861 -191.63016,151.7389 -130.00027,22.4519 -130.37727,20.4609 -151.08113,13.2133 -39.33514,-13.7704 -96.59841,-115.2625 -76.24459,-173.2785 z"
       id="path4530-1"
       inkscape:connector-curvature="0"
       sodipodi:nodetypes="zsssssz"
       transform="matrix(1.1166522,-0.10874592,0.09629405,0.93917904,-297.05103,223.44816)" />
    <path
       style="color:#000000;display:inline;overflow:visible;visibility:visible;fill:#ffffff;fill-opacity:1;fill-rule:nonzero;stroke:none;stroke-width:1.07144px;marker:none;enable-background:accumulate"
       d="m 737.50081,1695.0861 c 13.74023,-23.0816 35.89075,-29.5539 124.06771,-27.0798 47.36868,1.3288 105.92859,0.7611 104.20673,61.8168 -1.4199,50.3481 -56.69446,58.7464 -109.76091,59.9714 -35.56923,0.8214 -91.23791,-3.2365 -107.76382,-24.081 -19.91123,-25.1146 -20.14303,-49.9632 -10.74971,-70.6274 z"
       id="path4546-6-5-5"
       inkscape:connector-curvature="0"
       sodipodi:nodetypes="cssssc" />
    <path
       style="color:#000000;display:inline;overflow:visible;visibility:visible;fill:#ffffff;fill-opacity:1;fill-rule:nonzero;stroke:none;stroke-width:0.92472911px;marker:none;enable-background:accumulate"
       d="m 401.6675,1277.0228 c 2.82974,-19.8648 4.34785,-45.2143 37.43135,-56.4263 33.08355,-11.2127 103.07996,-13.275 175.79226,-9.3377 38.94884,2.1085 103.36765,-0.075 133.21943,11.3336 19.50385,7.4537 40.73615,21.5672 37.04346,50.6682 -3.69286,29.1018 -32.59177,47.5454 -68.62379,54.5209 -36.0321,6.9755 -72.14972,6.739 -103.60281,6.4151 -30.36904,-0.3126 -53.92172,-0.6528 -94.31693,-4.5946 -40.39518,-3.9425 -85.77182,-5.5429 -97.46831,-15.4775 -7.3217,-6.219 -12.38259,-12.4178 -15.51693,-18.6001 -3.13442,-6.1824 -4.34218,-12.3484 -3.95773,-18.5016 z"
       id="path4546-6-8"
       inkscape:connector-curvature="0"
       sodipodi:nodetypes="csssssssssc" />
    <path
       style="fill:#ffffff;stroke:none;stroke-width:0.862848"
       d="m 2066.5307,892.13907 c -2.721,49.02125 -53.8423,63.68466 -90.385,64.74626 -62.0793,5.37658 -125.1651,0.98528 -186.0694,-13.04186 -39.3909,-12.47334 -59.5552,-74.8966 -27.652,-107.51026 32.8637,-25.61637 75.6878,-24.66797 114.0415,-30.47416 54.3224,-3.99428 110.7178,-0.97757 162.0413,20.51076 22.905,11.82935 31.2634,39.30223 28.0236,65.76926 z"
       id="path3100-2-3"
       inkscape:connector-curvature="0" />
    <path
       style="fill:#ffffff;stroke:none;stroke-width:0.99194"
       d="m 1938.0524,738.96364 c -3.4117,60.75983 -67.5152,78.93453 -113.3375,80.25033 -77.8439,6.66406 -156.95,1.22122 -233.3207,-16.16485 -49.3941,-15.46019 -74.6787,-92.83126 -34.6738,-133.25456 41.2091,-31.75045 94.9082,-30.57494 143.0015,-37.77148 68.1172,-4.95075 138.8337,-1.21165 203.1907,25.42225 28.7216,14.66199 39.2027,48.71351 35.1398,81.51831 z"
       id="path3100-2"
       inkscape:connector-curvature="0" />
    <path
       style="color:#000000;display:inline;overflow:visible;visibility:visible;fill:#ffffff;fill-opacity:1;fill-rule:nonzero;stroke:none;stroke-width:1px;marker:none;enable-background:accumulate"
       d="m 366.93185,765.16568 c -14.52106,25.38401 -14.12226,29.37216 -3.84683,39.71783 10.27644,10.34571 28.24694,21.81722 28.294,48.35038 0.048,26.53331 -11.40014,37.63007 -18.43834,45.4423 17.99392,4.59778 43.67647,28.43441 55.52347,21.32581 11.84699,-7.10861 -12.77868,22.26186 -12.77868,22.26186 0,0 -48.39781,1.76058 -63.31887,-17.12444 -14.92107,-18.88493 12.55046,-52.19852 15.22453,-70.47392 2.67404,-18.2753 -21.32605,-35.54142 -22.10024,-50.39147 -0.77516,-14.85029 12.05701,-28.6919 21.44096,-39.10835 z"
       id="path4538-7"
       inkscape:connector-curvature="0"
       sodipodi:nodetypes="ccscccsscc" />
    <path
       style="fill:#ffffff;fill-rule:evenodd;stroke:none;stroke-width:0.92614px;stroke-linecap:butt;stroke-linejoin:miter;stroke-opacity:1"
       d="m 293.77893,949.8856 c 1.11585,-19.455 14.50604,-55.122 34.59142,-61.607 20.08528,-6.485 75.87782,-6.485 87.03634,-3.242 11.15853,3.242 29.01215,27.02 33.47558,36.748 4.46344,9.727 16.73778,44.313 -3.3475,58.364 -20.08539,14.05101 -40.17067,24.859 -61.37189,23.778 -21.20122,-1.081 -63.60356,-8.64699 -73.64615,-21.616 -10.0427,-12.97 -16.7378,-32.425 -16.7378,-32.425 z"
       id="path1355"
       inkscape:connector-curvature="0" />
    <path
       style="color:#000000;display:inline;overflow:visible;visibility:visible;fill:#ffffff;fill-opacity:1;fill-rule:nonzero;stroke:none;stroke-width:0.86172825px;marker:none;enable-background:accumulate"
       d="m 1970.8269,562.44869 c -37.9175,4.25331 -75.7593,39.09104 -74.742,73.98841 -9.2637,38.72473 -17.7448,26.50086 -17.7448,26.50086 l -22.7264,-25.55892 c 0,0 34.1381,-81.95988 115.2132,-74.93035 z"
       id="path3072-5-5"
       inkscape:connector-curvature="0"
       sodipodi:nodetypes="ccccc" />
    <path
       style="display:inline;fill:#ffffff;fill-opacity:1;fill-rule:evenodd;stroke:none;stroke-width:1px;stroke-linecap:butt;stroke-linejoin:miter;stroke-opacity:1"
       d="m 94.626144,1930.8268 2.131968,119.7971 c 16.626358,9.4264 52.381138,32.2807 27.394228,59.1906 44.7032,-30.512 69.18377,-28.1575 42.62207,5.4721 31.58553,-28.9239 71.87987,-49.9947 57.12277,-16.7662 11.33998,-20.8712 73.0613,-39.2613 64.2175,-13.7209 35.60728,-29.9149 61.56903,-2.5326 68.23493,21.9544 25.35251,-39.2139 49.07895,-32.9302 74.43136,-33.1676 4.3067,3.798 13.02238,7.2039 24.262,14.8024 0.88518,-7.436 18.46268,-13.6692 30.90205,-7.43 l 1.42131,-151.5532 z"
       id="path4508-2"
       inkscape:connector-curvature="0"
       sodipodi:nodetypes="cccccccccccc" />
    <path
       style="color:#000000;display:inline;overflow:visible;visibility:visible;fill:#ffffff;fill-opacity:1;fill-rule:nonzero;stroke:none;stroke-width:0.99999988px;marker:none;enable-background:accumulate"
       d="m 418.73536,2055.1489 c 3.84838,34.7867 6.74214,80.4189 3.34466,87.8991 6.54891,-5.4068 13.08002,-8.3131 18.13766,-10.723 3.59478,16.93 1.37715,72.9444 0.69916,104.7157 14.25523,-47.1378 17.38386,-114.509 14.12659,-141.5765 -5.74943,7.8798 -11.53154,12.3511 -15.31572,12.9092 -5.65161,-11.5208 -1.74846,-60.5538 -1.24906,-60.9055 z"
       id="path5066-6"
       inkscape:connector-curvature="0"
       sodipodi:nodetypes="cccccccc" />
    <path
       style="color:#000000;display:inline;overflow:visible;visibility:visible;fill:#000000;fill-opacity:1;fill-rule:nonzero;stroke:none;stroke-width:1.25845px;marker:none;filter:url(#filter3018-9-9);enable-background:accumulate"
       d="m 242.72907,238.4265 c 0,-43.16665 41.77313,-75.34884 127.54615,-85.0916 88.07104,-10.00379 249.70116,-15.35559 288.45226,4.24531 38.751,19.601 30.81374,42.98675 32.80104,82.18855 1.9872,39.2018 -70.66992,79.95433 -157.5944,97.0713 -119.00792,23.43477 -209.10789,37.33253 -256.80149,23.33183 -47.6936,-14.0007 -30.42906,-74.14319 -34.40356,-121.74539 z"
       id="path3986-45"
       inkscape:connector-curvature="0"
       sodipodi:nodetypes="csssssc"
       transform="matrix(0.66141851,0.08583495,-0.05837056,0.71262215,-8.131048,2542.1791)" />
    <path
       style="color:#000000;display:inline;overflow:visible;visibility:visible;fill:#000000;fill-opacity:1;fill-rule:nonzero;stroke:none;stroke-width:1px;marker:none;enable-background:accumulate"
       d="m 320.34575,2699.3541 c -2.27872,-20.874 -3.1096,-48.2508 0.63297,-52.729 -6.80567,3.2268 -13.4802,4.9539 -18.65609,6.3868 -2.83396,-10.1632 1.92623,-43.7544 4.0453,-62.8087 -16.41704,28.2374 -22.60454,68.6381 -20.56814,84.8808 6.11684,-4.712 12.11193,-7.3796 15.92818,-7.7049 5.13961,6.9238 -0.99272,36.3236 -1.50894,36.5333 z"
       id="path5066-6-2"
       inkscape:connector-curvature="0"
       sodipodi:nodetypes="cccccccc" />
    <path
       style="display:inline;opacity:1;vector-effect:none;fill:#000000;fill-opacity:1;stroke:none;stroke-width:0.99999994;stroke-linecap:butt;stroke-linejoin:miter;stroke-miterlimit:4;stroke-dasharray:none;stroke-dashoffset:0;stroke-opacity:1"
       d="m 738.50838,2535.2565 c -48.6175,-23.276 -83.2149,-109.492 -49.7683,-157.706 19.7334,-28.446 29.6777,-45.463 29.6777,-45.463 l -35.9455,-11.844 c -83.024,107.754 -0.6527,193.212 56.0361,215.013 z"
       id="path3063-1-0"
       inkscape:connector-curvature="0"
       sodipodi:nodetypes="csccc" />
    <path
       style="fill:none;fill-rule:evenodd;stroke:none;stroke-width:1px;stroke-linecap:butt;stroke-linejoin:miter;stroke-opacity:1"
       d="m 1229.6739,2517.2391 c 52.5,-95 140.1801,-194.321 260.0423,-201.3276 69.5344,-4.0647 215.7486,1.3167 289.9577,158.8276 57.9405,122.9803 48.8135,180.5223 25.1694,276.5394"
       id="path1304"
       inkscape:connector-curvature="0"
       sodipodi:nodetypes="cssc" />
  </g>
  <g
     inkscape:groupmode="layer"
     id="layer1"
     inkscape:label="txt">
    <text
       id="text210"
       y="965.36206"
       x="379.35098"
       style="font-style:normal;font-variant:normal;font-weight:normal;font-stretch:normal;font-size:15.7702px;line-height:0%;font-family:'Nanum Pen Script OTF';-inkscape-font-specification:'Nanum Pen Script OTF';text-align:center;letter-spacing:0px;word-spacing:0px;text-anchor:middle;fill:#000000;fill-opacity:1;stroke:none;stroke-width:1.31419"
       xml:space="preserve"><tspan
         id="tspan208"
         y="965.36206"
         x="379.35098"
         style="font-style:normal;font-variant:normal;font-weight:normal;font-stretch:normal;font-size:59.1383px;line-height:1.2;font-family:'Nanum Pen Script OTF';-inkscape-font-specification:'Nanum Pen Script OTF';stroke-width:1.31419"
         sodipodi:role="line">풋...</tspan></text>
    <text
       id="text220"
       y="692.46808"
       x="1735.8273"
       style="font-style:normal;font-variant:normal;font-weight:normal;font-stretch:normal;font-size:16.3313px;line-height:0.9;font-family:'Nanum Pen Script OTF';-inkscape-font-specification:'Nanum Pen Script OTF';text-align:center;letter-spacing:0px;word-spacing:0px;text-anchor:middle;fill:#000000;fill-opacity:1;stroke:none;stroke-width:1.36094"
       xml:space="preserve"><tspan
         id="tspan218"
         y="692.46808"
         x="1735.8273"
         style="font-style:normal;font-variant:normal;font-weight:normal;font-stretch:normal;font-size:54.4375px;font-family:'Nanum Pen Script OTF';-inkscape-font-specification:'Nanum Pen Script OTF';stroke-width:1.36094"
         sodipodi:role="line"><tspan
   rotate="0 0 0 0 0 0 0"
   style="stroke:#000000;stroke-width:0.892402;stroke-opacity:1"
   id="tspan1131"><tspan
   id="tspan937"
   style="stroke:none">그 나이에 </tspan>미공</tspan>으로</tspan><tspan
         y="741.46185"
         x="1735.8273"
         style="font-style:normal;font-variant:normal;font-weight:normal;font-stretch:normal;font-size:54.4375px;font-family:'Nanum Pen Script OTF';-inkscape-font-specification:'Nanum Pen Script OTF';stroke-width:1.36094"
         sodipodi:role="line"
         id="tspan304">삼십육계 줄행랑을</tspan><tspan
         y="790.45557"
         x="1735.8273"
         style="font-style:normal;font-variant:normal;font-weight:normal;font-stretch:normal;font-size:54.4375px;font-family:'Nanum Pen Script OTF';-inkscape-font-specification:'Nanum Pen Script OTF';stroke-width:1.36094"
         sodipodi:role="line"
         id="tspan306">치시겠다?</tspan></text>
    <text
       id="text228"
       y="879.00928"
       x="1908.8131"
       style="font-style:normal;font-variant:normal;font-weight:normal;font-stretch:normal;font-size:14.7709px;line-height:0.9;font-family:'Nanum Pen Script OTF';-inkscape-font-specification:'Nanum Pen Script OTF';text-align:center;letter-spacing:0px;word-spacing:0px;text-anchor:middle;fill:#000000;fill-opacity:1;stroke:none;stroke-width:1.23091"
       xml:space="preserve"><tspan
         id="tspan226"
         y="879.00928"
         x="1908.8131"
         style="font-style:normal;font-variant:normal;font-weight:normal;font-stretch:normal;font-size:49.2364px;font-family:'Nanum Pen Script OTF';-inkscape-font-specification:'Nanum Pen Script OTF';stroke-width:1.23091"
         sodipodi:role="line">참말로 한심한</tspan><tspan
         y="923.32202"
         x="1908.8131"
         style="font-style:normal;font-variant:normal;font-weight:normal;font-stretch:normal;font-size:49.2364px;font-family:'Nanum Pen Script OTF';-inkscape-font-specification:'Nanum Pen Script OTF';stroke-width:1.23091"
         sodipodi:role="line"
         id="tspan1173">패배로구만...</tspan></text>
    <text
       id="text232"
       y="1187.1747"
       x="482.62735"
       style="font-style:normal;font-variant:normal;font-weight:normal;font-stretch:normal;font-size:16.6492px;line-height:0%;font-family:'Nanum Pen Script OTF';-inkscape-font-specification:'Nanum Pen Script OTF';text-align:center;letter-spacing:0px;word-spacing:0px;text-anchor:middle;fill:#000000;fill-opacity:1;stroke:#000000;stroke-width:0.138744;stroke-miterlimit:4;stroke-dasharray:none;stroke-opacity:1"
       xml:space="preserve"><tspan
         id="tspan230"
         y="1187.1747"
         x="482.62735"
         style="font-style:normal;font-variant:normal;font-weight:normal;font-stretch:normal;font-size:62.4346px;line-height:1.25;font-family:'Nanum Pen Script OTF';-inkscape-font-specification:'Nanum Pen Script OTF';stroke:#000000;stroke-width:0.138744;stroke-miterlimit:4;stroke-dasharray:none;stroke-opacity:1"
         sodipodi:role="line">땡이요!</tspan></text>
    <text
       transform="skewX(-4.4463202)"
       id="text236"
       y="1295.0502"
       x="689.35791"
       style="font-style:normal;font-variant:normal;font-weight:normal;font-stretch:normal;font-size:17.8764px;line-height:0%;font-family:'Nanum Pen Script OTF';-inkscape-font-specification:'Nanum Pen Script OTF';text-align:center;letter-spacing:0px;word-spacing:0px;text-anchor:middle;fill:#000000;fill-opacity:1;stroke:#000000;stroke-width:1.30401;stroke-opacity:1"
       xml:space="preserve"><tspan
         id="tspan234"
         y="1295.0502"
         x="689.35791"
         style="font-style:normal;font-variant:normal;font-weight:normal;font-stretch:normal;font-size:67.0366px;line-height:1.2;font-family:'Nanum Pen Script OTF';-inkscape-font-specification:'Nanum Pen Script OTF';stroke:#000000;stroke-width:1.14146;stroke-opacity:1"
         sodipodi:role="line">웜홀이었습니다!</tspan></text>
    <text
       transform="matrix(0.4331166,-0.21871311,-0.05129295,0.63253782,427.71161,636.78502)"
       id="text244"
       y="1584.5073"
       x="787.65729"
       style="font-style:normal;font-variant:normal;font-weight:normal;font-stretch:normal;line-height:0%;font-family:'Nanum Pen Script OTF';-inkscape-font-specification:'Nanum Pen Script OTF';letter-spacing:0px;word-spacing:0px;display:inline;fill:#ffffff;fill-opacity:1;stroke:none;stroke-width:1.92738;stroke-miterlimit:4;stroke-dasharray:none;stroke-opacity:1;filter:url(#filter4375-4-1-1-1-9-5-8-86)"
       xml:space="preserve"><tspan
         style="font-style:normal;font-variant:normal;font-weight:normal;font-stretch:normal;font-size:70px;line-height:1.25;font-family:'Nanum Pen Script OTF';-inkscape-font-specification:'Nanum Pen Script OTF';fill:#ffffff;fill-opacity:1;stroke:none;stroke-width:1.92738;stroke-opacity:1"
         y="1584.5073"
         x="787.65729"
         id="tspan242"
         sodipodi:role="line"><tspan
           id="tspan238"
           style="font-style:normal;font-variant:normal;font-weight:normal;font-stretch:normal;font-size:93.1495px;font-family:'Nanum Pen Script OTF';-inkscape-font-specification:'Nanum Pen Script OTF';fill:#ffffff;fill-opacity:1;stroke:none;stroke-width:1.92738;stroke-opacity:1">파직!</tspan><tspan
           id="tspan240"
           style="font-style:normal;font-variant:normal;font-weight:normal;font-stretch:normal;font-size:114.732px;font-family:'Nanum Pen Script OTF';-inkscape-font-specification:'Nanum Pen Script OTF';fill:#ffffff;fill-opacity:1;stroke:none;stroke-width:1.92738;stroke-opacity:1">!</tspan></tspan></text>
    <text
       id="text252"
       y="1725.8905"
       x="851.92505"
       style="font-style:normal;font-variant:normal;font-weight:normal;font-stretch:normal;font-size:12.3px;line-height:0.9;font-family:'Nanum Pen Script OTF';-inkscape-font-specification:'Nanum Pen Script OTF';text-align:center;letter-spacing:0px;word-spacing:0px;text-anchor:middle;fill:#000000;fill-opacity:1;stroke:none;stroke-width:1.26011"
       xml:space="preserve"><tspan
         id="tspan250"
         y="1725.8905"
         x="851.92505"
         style="font-style:normal;font-variant:normal;font-weight:normal;font-stretch:normal;font-size:40.9999px;font-family:'Nanum Pen Script OTF';-inkscape-font-specification:'Nanum Pen Script OTF';stroke-width:1.26011"
         sodipodi:role="line">출구 내줘서</tspan><tspan
         y="1762.7904"
         x="857.66504"
         style="font-style:normal;font-variant:normal;font-weight:normal;font-stretch:normal;font-size:40.9999px;font-family:'Nanum Pen Script OTF';-inkscape-font-specification:'Nanum Pen Script OTF';stroke-width:1.26011"
         sodipodi:role="line"
         id="tspan1179">고마워, 당근! </tspan></text>
    <text
       transform="skewX(-8.884909)"
       id="text258"
       y="1996.1514"
       x="606.44983"
       style="font-style:normal;font-variant:normal;font-weight:normal;font-stretch:normal;font-size:16.1537px;line-height:0.9;font-family:'Nanum Pen Script OTF';-inkscape-font-specification:'Nanum Pen Script OTF';text-align:center;letter-spacing:0px;word-spacing:0px;text-anchor:middle;fill:#000000;fill-opacity:1;stroke:none;stroke-width:1.43129"
       xml:space="preserve"><tspan
         id="tspan256"
         y="1996.1514"
         x="606.44983"
         style="font-style:normal;font-variant:normal;font-weight:normal;font-stretch:normal;font-size:60.5759px;font-family:'Nanum Pen Script OTF';-inkscape-font-specification:'Nanum Pen Script OTF';fill:#000000;stroke-width:1.25287"
         sodipodi:role="line">체크메이트입니다,</tspan><tspan
         y="2050.6697"
         x="606.44983"
         style="font-style:normal;font-variant:normal;font-weight:normal;font-stretch:normal;font-size:60.5759px;font-family:'Nanum Pen Script OTF';-inkscape-font-specification:'Nanum Pen Script OTF';fill:#000000;stroke-width:1.25287"
         sodipodi:role="line"
         id="tspan1183">카옌 스승님!</tspan></text>
    <text
       transform="matrix(1.0535905,0,-0.21172876,0.94913536,0,0)"
       id="text262"
       y="2934.7786"
       x="864.66382"
       style="font-style:normal;font-variant:normal;font-weight:normal;font-stretch:normal;font-size:20.5495px;line-height:0%;font-family:'Nanum Pen Script OTF';-inkscape-font-specification:'Nanum Pen Script OTF';text-align:center;letter-spacing:0px;word-spacing:0px;text-anchor:middle;opacity:1;fill:#ffffff;fill-opacity:1;stroke:none;stroke-width:1.22874"
       xml:space="preserve"><tspan
         style="font-style:normal;font-variant:normal;font-weight:normal;font-stretch:normal;font-size:86.3882px;line-height:1.25;font-family:'Nanum Pen Script OTF';-inkscape-font-specification:'Nanum Pen Script OTF';stroke-width:1.22874"
         y="2934.7786"
         x="864.66382"
         id="tspan260"
         sodipodi:role="line">구르게스...</tspan></text>
    <text
       inkscape:transform-center-y="-8.1465905"
       inkscape:transform-center-x="-0.04247785"
       transform="matrix(0.96407587,-0.24261882,-0.00953047,1.0396612,0,0)"
       id="text268"
       y="2392.1582"
       x="845.0343"
       style="font-style:normal;font-variant:normal;font-weight:normal;font-stretch:normal;font-size:31.9188px;line-height:0%;font-family:'Nanum Pen Script OTF';-inkscape-font-specification:'Nanum Pen Script OTF';text-align:center;letter-spacing:0px;word-spacing:0px;text-anchor:middle;opacity:1;fill:#ffffff;fill-opacity:1;stroke:none;stroke-width:1.27768"
       xml:space="preserve"><tspan
         style="font-style:normal;font-variant:normal;font-weight:normal;font-stretch:normal;font-size:134.184px;line-height:1.25;font-family:'Nanum Pen Script OTF';-inkscape-font-specification:'Nanum Pen Script OTF';stroke-width:1.27768"
         y="2392.1582"
         x="845.0343"
         id="tspan264"
         sodipodi:role="line">...아테르!</tspan><tspan
         style="font-style:normal;font-variant:normal;font-weight:normal;font-stretch:normal;font-size:134.184px;line-height:1.25;font-family:'Nanum Pen Script OTF';-inkscape-font-specification:'Nanum Pen Script OTF';stroke-width:1.27768"
         id="tspan266"
         y="2452.781"
         x="845.0343"
         sodipodi:role="line" /></text>
    <text
       transform="matrix(0.98154839,0,-0.00560868,1,25.472084,-13.109641)"
       y="-10"
       x="-15"
       id="text272"
       style="color:#000000;font-style:normal;font-variant:normal;font-weight:normal;font-stretch:normal;font-size:59.0451px;line-height:0.01%;font-family:'Nanum Pen Script OTF';-inkscape-font-specification:'Nanum Pen Script OTF';font-variant-ligatures:normal;font-variant-caps:normal;font-variant-numeric:normal;font-feature-settings:normal;text-align:start;letter-spacing:0.0100853px;word-spacing:0px;writing-mode:lr-tb;text-anchor:start;display:inline;overflow:visible;visibility:visible;opacity:0.6;fill:#ffffff;fill-opacity:1;fill-rule:nonzero;stroke:#ffffff;stroke-width:2.65057;stroke-linecap:butt;stroke-linejoin:miter;stroke-miterlimit:4;stroke-dasharray:none;stroke-dashoffset:0;stroke-opacity:1;marker:none;filter:url(#filter4375-4-1-1-15-1-3-0);enable-background:accumulate"
       xml:space="preserve"><textPath
         style="font-style:normal;font-variant:normal;font-weight:normal;font-stretch:normal;font-size:66.6667px;font-family:'Nanum Pen Script OTF';-inkscape-font-specification:'Nanum Pen Script OTF';letter-spacing:8px;stroke:#ffffff;stroke-width:2.65057;stroke-miterlimit:4;stroke-dasharray:none;stroke-opacity:1"
         id="textPath270"
         xlink:href="#path1304">쉬이이이이이이이우우우우우우우우우욱!!!</textPath></text>
    <text
       transform="matrix(1.2769034,1.453931,-0.72257457,3.0446376,1803.8114,-3768.1994)"
       id="text288"
       y="1584.5073"
       x="787.65729"
       style="font-style:normal;font-variant:normal;font-weight:normal;font-stretch:normal;line-height:0%;font-family:'Nanum Pen Script OTF';-inkscape-font-specification:'Nanum Pen Script OTF';letter-spacing:0px;word-spacing:0px;display:inline;fill:#637cab;fill-opacity:1;stroke:#000000;stroke-width:0.522203;stroke-miterlimit:4;stroke-dasharray:none;stroke-opacity:1;filter:url(#filter4375-4-1-1-1-9-5-8-3-8)"
       xml:space="preserve"><tspan
         style="font-style:normal;font-variant:normal;font-weight:normal;font-stretch:normal;font-size:70px;line-height:1.25;font-family:'Nanum Pen Script OTF';-inkscape-font-specification:'Nanum Pen Script OTF';letter-spacing:5.87611px;fill:#637cab;fill-opacity:1;stroke:#000000;stroke-width:0.522203;stroke-opacity:1"
         y="1584.5073"
         x="787.65729"
         id="tspan286"
         sodipodi:role="line"><tspan
           dy="0 0"
           id="tspan282"
           style="font-style:normal;font-variant:normal;font-weight:normal;font-stretch:normal;font-size:93.1495px;font-family:'Nanum Pen Script OTF';-inkscape-font-specification:'Nanum Pen Script OTF';letter-spacing:5.87611px;fill:#637cab;fill-opacity:1;stroke:#000000;stroke-width:0.522203;stroke-opacity:1"><tspan
   id="tspan274"
   style="font-style:normal;font-variant:normal;font-weight:normal;font-stretch:normal;font-size:105.357px;font-family:'Nanum Pen Script OTF';-inkscape-font-specification:'Nanum Pen Script OTF';fill:#637cab;fill-opacity:1;stroke-width:0.522203">부</tspan><tspan
   id="tspan276"
   style="font-style:normal;font-variant:normal;font-weight:normal;font-stretch:normal;font-size:96.6374px;font-family:'Nanum Pen Script OTF';-inkscape-font-specification:'Nanum Pen Script OTF';fill:#637cab;fill-opacity:1;stroke-width:0.522203">우</tspan><tspan
   id="tspan278"
   style="font-style:normal;font-variant:normal;font-weight:normal;font-stretch:normal;font-size:87.9176px;font-family:'Nanum Pen Script OTF';-inkscape-font-specification:'Nanum Pen Script OTF';fill:#637cab;fill-opacity:1;stroke-width:0.522203">우</tspan><tspan
   style="font-style:normal;font-variant:normal;font-weight:normal;font-stretch:normal;font-size:79.1978px;font-family:'Nanum Pen Script OTF';-inkscape-font-specification:'Nanum Pen Script OTF';fill:#637cab;fill-opacity:1;stroke-width:0.522203"
   id="tspan280">우웅</tspan>!</tspan><tspan
           id="tspan284"
           style="font-style:normal;font-variant:normal;font-weight:normal;font-stretch:normal;font-size:114.732px;font-family:'Nanum Pen Script OTF';-inkscape-font-specification:'Nanum Pen Script OTF';letter-spacing:5.87611px;fill:#637cab;fill-opacity:1;stroke:#000000;stroke-width:0.522203;stroke-opacity:1">!!</tspan></tspan></text>
    <text
       transform="matrix(0.96784555,0,-0.20410544,1.0332227,0,0)"
       id="text298"
       y="3116.5911"
       x="2824.7776"
       style="font-style:normal;font-variant:normal;font-weight:normal;font-stretch:normal;font-size:24.52px;line-height:0%;font-family:'Nanum Pen Script OTF';-inkscape-font-specification:'Nanum Pen Script OTF';text-align:center;letter-spacing:0px;word-spacing:0px;text-anchor:middle;fill:#000000;fill-opacity:1;stroke:#000000;stroke-width:2.90476;stroke-opacity:1;"
       xml:space="preserve"><tspan
         id="tspan296"
         y="3116.5911"
         x="2824.7776"
         style="font-style:normal;font-variant:normal;font-weight:normal;font-stretch:normal;font-size:91.9499px;line-height:1.25;font-family:'Nanum Pen Script OTF';-inkscape-font-specification:'Nanum Pen Script OTF';stroke-width:2.90476;stroke:#000000;stroke-opacity:1;"
         sodipodi:role="line"><tspan
           id="tspan290"
           style="font-style:normal;font-variant:normal;font-weight:normal;font-stretch:normal;font-size:121.388px;font-family:'Nanum Pen Script OTF';-inkscape-font-specification:'Nanum Pen Script OTF';stroke-width:2.90476;stroke:#000000;stroke-opacity:1;">그만!!!</tspan><tspan
           style="font-style:normal;font-variant:normal;font-weight:normal;font-stretch:normal;font-size:178.887px;font-family:'Nanum Pen Script OTF';-inkscape-font-specification:'Nanum Pen Script OTF';stroke-width:2.90476;stroke:#000000;stroke-opacity:1;"
           id="tspan294"><tspan
             id="tspan292"
             style="font-style:normal;font-variant:normal;font-weight:normal;font-stretch:normal;font-size:188.777px;font-family:'Nanum Pen Script OTF';-inkscape-font-specification:'Nanum Pen Script OTF';stroke-width:2.90476;stroke:#000000;stroke-opacity:1;" /></tspan></tspan></text>
  </g>
</svg>
