<?xml version="1.0" encoding="UTF-8" standalone="no"?>
<!-- Created with Inkscape (http://www.inkscape.org/) -->

<svg
   xmlns:dc="http://purl.org/dc/elements/1.1/"
   xmlns:cc="http://creativecommons.org/ns#"
   xmlns:rdf="http://www.w3.org/1999/02/22-rdf-syntax-ns#"
   xmlns:svg="http://www.w3.org/2000/svg"
   xmlns="http://www.w3.org/2000/svg"
   xmlns:xlink="http://www.w3.org/1999/xlink"
   xmlns:sodipodi="http://sodipodi.sourceforge.net/DTD/sodipodi-0.dtd"
   xmlns:inkscape="http://www.inkscape.org/namespaces/inkscape"
   id="svg2"
   version="1.1"
   inkscape:version="0.92.3 (2405546, 2018-03-11)"
   width="2481"
   height="3503"
   sodipodi:docname="E29P02.svg"
   inkscape:export-filename="C:\Users\ruden\Desktop\E29P02.png"
   inkscape:export-xdpi="96"
   inkscape:export-ydpi="96">
  <metadata
     id="metadata8">
    <rdf:RDF>
      <cc:Work
         rdf:about="">
        <dc:format>image/svg+xml</dc:format>
        <dc:type
           rdf:resource="http://purl.org/dc/dcmitype/StillImage" />
        <dc:title />
      </cc:Work>
    </rdf:RDF>
  </metadata>
  <defs
     id="defs6">
    <filter
       style="color-interpolation-filters:sRGB"
       id="filter3018-3-2-2-2"
       inkscape:label="Lapping"
       inkscape:menu="Distort"
       inkscape:menu-tooltip="Something like a water noise"
       height="1.3"
       y="-0.15000001"
       width="1.3"
       x="-0.15000001">
      <feTurbulence
         id="feTurbulence3020-6-9-0-9"
         numOctaves="5"
         seed="0"
         type="fractalNoise"
         baseFrequency="0.1"
         result="result1" />
      <feGaussianBlur
         id="feGaussianBlur3022-7-1-2-3"
         stdDeviation="2"
         result="result2" />
      <feDisplacementMap
         id="feDisplacementMap3024-5-2-3-1"
         in2="result2"
         scale="50"
         yChannelSelector="B"
         xChannelSelector="R"
         in="SourceGraphic" />
    </filter>
    <filter
       style="color-interpolation-filters:sRGB"
       id="filter3018-3-2-2-2-0"
       inkscape:label="Lapping"
       inkscape:menu="Distort"
       inkscape:menu-tooltip="Something like a water noise"
       height="1.3"
       y="-0.15000001"
       width="1.3"
       x="-0.15000001">
      <feTurbulence
         id="feTurbulence3020-6-9-0-9-9"
         numOctaves="5"
         seed="0"
         type="fractalNoise"
         baseFrequency="0.1"
         result="result1" />
      <feGaussianBlur
         id="feGaussianBlur3022-7-1-2-3-3"
         stdDeviation="2"
         result="result2" />
      <feDisplacementMap
         id="feDisplacementMap3024-5-2-3-1-6"
         in2="result2"
         scale="50"
         yChannelSelector="B"
         xChannelSelector="R"
         in="SourceGraphic" />
    </filter>
    <filter
       style="color-interpolation-filters:sRGB"
       id="filter3018-3-2-2-2-0-0"
       inkscape:label="Lapping"
       inkscape:menu="Distort"
       inkscape:menu-tooltip="Something like a water noise"
       height="1.3"
       y="-0.15000001"
       width="1.3"
       x="-0.15000001">
      <feTurbulence
         id="feTurbulence3020-6-9-0-9-9-6"
         numOctaves="5"
         seed="0"
         type="fractalNoise"
         baseFrequency="0.1"
         result="result1" />
      <feGaussianBlur
         id="feGaussianBlur3022-7-1-2-3-3-2"
         stdDeviation="2"
         result="result2" />
      <feDisplacementMap
         id="feDisplacementMap3024-5-2-3-1-6-6"
         in2="result2"
         scale="50"
         yChannelSelector="B"
         xChannelSelector="R"
         in="SourceGraphic" />
    </filter>
    <filter
       style="color-interpolation-filters:sRGB"
       id="filter3018-3-2-2-2-0-0-8"
       inkscape:label="Lapping"
       inkscape:menu="Distort"
       inkscape:menu-tooltip="Something like a water noise"
       height="1.3"
       y="-0.15000001"
       width="1.3"
       x="-0.15000001">
      <feTurbulence
         id="feTurbulence3020-6-9-0-9-9-6-7"
         numOctaves="5"
         seed="0"
         type="fractalNoise"
         baseFrequency="0.1"
         result="result1" />
      <feGaussianBlur
         id="feGaussianBlur3022-7-1-2-3-3-2-9"
         stdDeviation="2"
         result="result2" />
      <feDisplacementMap
         id="feDisplacementMap3024-5-2-3-1-6-6-2"
         in2="result2"
         scale="50"
         yChannelSelector="B"
         xChannelSelector="R"
         in="SourceGraphic" />
    </filter>
  </defs>
  <sodipodi:namedview
     pagecolor="#ffffff"
     bordercolor="#666666"
     borderopacity="1"
     objecttolerance="10"
     gridtolerance="10"
     guidetolerance="10"
     inkscape:pageopacity="0"
     inkscape:pageshadow="2"
     inkscape:window-width="1920"
     inkscape:window-height="1017"
     id="namedview4"
     showgrid="false"
     inkscape:zoom="0.42158006"
     inkscape:cx="1000.6259"
     inkscape:cy="329.0652"
     inkscape:window-x="-8"
     inkscape:window-y="-8"
     inkscape:window-maximized="1"
     inkscape:current-layer="layer3" />
  <g
     inkscape:groupmode="layer"
     id="layer2"
     inkscape:label="artwork"
     sodipodi:insensitive="true">
    <image
       sodipodi:absref="C:\Users\ruden\Desktop\lang\ru\../gfx_Pepper-and-Carrot_by-David-Revoy_E29P02.png"
       xlink:href="../gfx_Pepper-and-Carrot_by-David-Revoy_E29P02.png"
       width="2481"
       height="3503"
       id="image10"
       x="0"
       y="0" />
  </g>
  <g
     inkscape:groupmode="layer"
     id="layer3"
     inkscape:label="speechbubbles"
     style="display:inline">
    <path
       style="fill:#0f0f0f;fill-rule:evenodd;stroke:none;stroke-width:1px;stroke-linecap:butt;stroke-linejoin:miter;stroke-opacity:1;fill-opacity:1"
       d="m 488.9121,345.00815 c 15.83997,34.15222 3.09046,31.71823 27.6126,60.42777 5.21873,6.10988 8.43941,3.94116 8.76059,-3.02201 1.43823,-4.56779 13.37218,-34.80654 18.77166,-21.56572 10.6774,26.18351 18.65996,53.7966 34.40867,77.58824 7.86136,-4.40544 5.03281,-15.37916 6.94369,-22.80834 -0.84207,-6.64725 9.75028,-18.52953 12.68566,-8.07544 8.18504,16.89427 11.36804,35.647 18.81718,52.84015 23.88604,67.34079 47.40203,134.81199 71.17857,202.1914 -30.87587,-72.46377 -61.75173,-144.92753 -92.6276,-217.3913 -0.97521,11.1719 -2.30418,23.47807 -9.80057,32.38362 -6.86048,7.46262 -16.26374,0.22456 -17.22187,-8.09298 -2.96134,-9.17345 -7.31873,-14.44764 -11.25861,-23.23507 -1.87481,-7.00924 -11.70105,-30.2524 -18.86766,-32.88191 -8.3941,0.80069 -11.06529,19.41466 -12.65272,25.32005 -0.98388,9.63821 -9.97218,8.64734 -16.1837,1.06156 -32.02398,-39.1091 -25.30976,-56.37592 -50.12072,-100.41538 8.82167,-12.6024 20.73316,-1.72224 29.55483,-14.32464 z"
       id="path1004"
       inkscape:connector-curvature="0"
       sodipodi:nodetypes="cscscccccccccccscc" />
    <path
       style="color:#000000;display:inline;overflow:visible;visibility:visible;opacity:1;fill:#0f0f0f;fill-opacity:1;fill-rule:nonzero;stroke:none;stroke-width:1.03416967px;marker:none;filter:url(#filter3018-3-2-2-2-0);enable-background:accumulate"
       d="m 554.0544,256.72568 c 12.84005,5.76932 45.97315,22.49499 45.97315,22.49499 0,0 45.31867,3.3779 49.27782,12.26168 3.95916,8.88379 10.65342,63.40398 13.92408,72.15116 0,0 -12.13274,63.8555 -11.73931,72.84422 0.39343,8.98873 -1.4198,34.9043 -3.27476,54.24225 -1.85495,19.33795 4.82313,27.09341 9.77811,49.3613 4.14934,18.6473 -16.12198,27.02438 -14.97751,46.94346 1.14447,19.91907 8.1079,50.74278 2.87248,59.40898 -10.47085,17.3324 -35.90425,14.97634 -52.7426,19.95396 -25.42763,7.51671 -20.02733,19.83405 -48.5075,19.8518 -16.69239,0.0104 -20.94604,-29.49422 -43.21155,-22.6689 -22.26551,6.82532 -37.74777,27.21742 -54.85728,26.86342 -34.21904,-0.70801 -23.21538,-21.86233 -51.60241,-26.99392 -28.38702,-5.13159 -37.82737,33.22706 -53.56392,23.4644 -10.80008,-6.70016 -28.67097,-37.14799 -35.50419,-51.16532 -6.83321,-14.01734 7.96889,-57.34254 4.12684,-74.50138 -1.30943,-24.37621 10.94735,-26.73836 -5.34222,-64.02172 -8.17882,-18.71958 -11.50496,-53.88376 3.99386,-57.27487 26.78278,-5.86002 -9.37168,-52.71812 -9.37168,-52.71812 -7.69628,-11.53918 -9.3352,-21.86795 -9.32862,-33.39451 0.0132,-23.05312 7.1106,-10.17566 10.69594,-23.86091 3.58535,-13.68525 1.26294,-35.45878 9.92459,-42.09736 8.66164,-6.63858 17.5364,-11.33825 32.77847,-13.25136 15.24207,-1.9131 9.01498,-18.18923 32.34158,-17.69805 11.6633,0.24559 24.42641,21.40808 38.39287,21.81951 13.96645,0.41144 18.65642,-31.47864 35.11405,-31.1915 16.45763,0.28713 36.30286,21.21151 55.43968,21.0842 19.13681,-0.12732 27.38602,-11.07549 49.39003,-11.90741 z"
       id="path3986-3-7-9"
       inkscape:connector-curvature="0"
       sodipodi:nodetypes="ccsssssssssssssscsssssssssssc"
       transform="matrix(1.0376604,0,0,0.88163258,-145.43583,-21.035036)" />
    <path
       style="color:#000000;display:inline;overflow:visible;visibility:visible;opacity:1;fill:#0f0f0f;fill-opacity:1;fill-rule:nonzero;stroke:none;stroke-width:1.03416967px;marker:none;filter:url(#filter3018-3-2-2-2-0-0);enable-background:accumulate"
       d="m 532.59977,286.95358 c 11.67974,4.74935 38.1752,30.55971 38.1752,30.55971 0,0 35.75809,-25.3166 39.35947,-18.00341 3.60137,7.31318 6.04721,52.19454 9.0223,59.39526 6.79873,71.55445 -9.41706,24.06531 -8.04385,86.96588 1.04105,16.39749 9.03234,28.55468 4.27003,35.68874 -9.52464,14.26814 -32.6597,12.32861 -47.97641,16.42621 -23.1298,6.18781 -18.21752,16.32751 -44.12402,16.34213 -15.18394,0.008 -19.0532,-24.27982 -39.30664,-18.66118 -20.25345,5.61865 -34.33662,22.40555 -49.9,22.11413 -31.12676,-0.58283 -21.11746,-17.99719 -46.93924,-22.22156 -25.82177,-4.22435 -34.40902,27.35271 -48.72351,19.31604 -9.82411,-5.51561 -26.08006,-30.58044 -32.29577,-42.1196 -6.21572,-11.53915 5.59164,-33.98763 2.09678,-48.1129 12.04051,-65.46234 -15.43254,8.64896 -15.82765,-57.75378 0.0119,-18.97747 6.46803,-8.37666 9.72938,-19.64244 3.26136,-11.26578 1.14881,-29.18988 9.02773,-34.6548 7.87891,-5.46491 15.95169,-9.33371 29.81637,-10.90859 13.86469,-1.57488 8.20033,-14.97348 29.41897,-14.56915 10.60932,0.20218 22.21907,17.62326 34.92343,17.96195 12.70433,0.3387 16.97049,-25.9134 31.94089,-25.67702 14.9704,0.23637 33.02227,17.46144 50.42975,17.35664 17.40747,-0.10486 24.91123,-9.11741 44.92679,-9.80226 z"
       id="path3986-3-7-9-1"
       inkscape:connector-curvature="0"
       sodipodi:nodetypes="ccsccssssssssccsssssssc"
       transform="matrix(1.3294277,0,0,0.90622228,-271.00808,462.53647)" />
    <path
       style="fill:#0f0f0f;fill-rule:evenodd;stroke:none;stroke-width:1px;stroke-linecap:butt;stroke-linejoin:miter;stroke-opacity:1;fill-opacity:1"
       d="m 698.52284,995.17499 c -39.9989,-66.84748 -67.206,-118.77119 -107.2049,-185.61867 -18.00515,-25.19428 -22.44383,8.78461 -28.0158,20.5724 -13.446,-17.13534 -32.60185,-46.51962 -46.95791,-62.71017 -14.99329,0.99809 -5.17855,32.81064 0.27751,43.8626 8.87253,19.6137 11.44129,17.72452 36.86709,39.41397 13.48616,12.16198 15.85284,14.47069 26.3398,5.43868 0.51669,-8.91942 2.75372,-19.96731 16.51835,-6.08556 28.8947,41.86867 72.93359,103.50263 102.17586,145.12675 z"
       id="path1019"
       inkscape:connector-curvature="0"
       sodipodi:nodetypes="ccccccccc" />
    <path
       style="color:#000000;display:inline;overflow:visible;visibility:visible;opacity:1;fill:#0f0f0f;fill-opacity:1;fill-rule:nonzero;stroke:none;stroke-width:1.12275064px;marker:none;filter:url(#filter3018-3-2-2-2-0-0-8);enable-background:accumulate"
       d="m 617.92931,477.39305 c -4.84011,11.21122 -27.80905,26.86141 -27.80905,26.86141 0,0 17.82612,34.85033 10.37318,38.30725 -7.45293,3.4569 -44.05091,17.756 -50.76895,20.4002 -25.0013,-1.8909 -95.82722,-1.57521 -122.81277,-1.57933 -16.71083,0.99928 -44.97539,-10.01041 -51.63124,-14.24306 -13.3117,-8.46534 -37.28178,-7.55838 -41.45768,-22.26067 -6.30605,-22.20196 10.89954,-18.05989 10.8859,-41.08514 -0.007,-13.49522 -2.79653,-19.55774 -8.52252,-38.99872 -5.72602,-19.441 5.02915,-44.9656 5.30104,-58.79807 0.54375,-27.66493 -9.49666,-9.37055 -5.19157,-34.15649 4.30507,-24.78595 1.68623,-33.09098 8.86107,-45.95202 4.92413,-8.82661 2.61858,-25.85083 14.37824,-31.8172 11.75966,-5.96638 34.35934,0.13645 47.45615,-3.21786 19.57329,2.93418 46.89088,-5.6162 69.71279,-11.28445 19.31099,-0.90716 40.59109,6.53954 60.94144,9.35328 17.50815,2.42077 47.03971,-1.08657 52.60907,6.47629 5.56933,7.56285 11.36272,15.71619 15.50653,24.59213 4.74151,10.15617 10.87011,11.89955 10.45805,32.267 -0.20604,10.18374 -12.1476,13.67086 -12.17833,24.96555 -0.0308,11.29466 20.28173,24.84667 20.04084,39.21654 -0.24089,14.36986 -14.69301,18.48369 -14.59523,33.95515 0.0979,15.47147 7.74509,27.78557 8.44304,46.99821 z"
       id="path3986-3-7-9-1-0"
       inkscape:connector-curvature="0"
       sodipodi:nodetypes="ccsccssssssssccasassssc"
       transform="matrix(0.99706504,0,0,0.90563797,-120.27196,942.92507)" />
    <path
       style="fill:#0f0f0f;fill-rule:evenodd;stroke:none;stroke-width:1px;stroke-linecap:butt;stroke-linejoin:miter;stroke-opacity:1;fill-opacity:1"
       d="m 678.85763,1204.864 -114.83325,-2.027 c 3.2336,9.1321 25.20262,17.5409 17.76234,26.3466 -11.82777,0.2536 -22.66933,-4.9747 -34.54754,-5.8871 -7.65286,-0.2616 -21.21951,-6.6593 -24.97134,-2.8737 -0.71254,10.692 16.21575,29.3632 0.97144,37.0873 -3.05497,9.2333 -22.55219,13.3116 -48.63318,9.7318 -7.68526,2.7619 -30.78993,3.5108 -14.62139,9.5087 12.08285,7.2347 9.63335,34.365 24.86522,27.4847 13.65248,-4.4896 49.99529,-17.1492 62.94257,-32.2512 16.6875,-6.7134 18.84565,-18.0953 9.37378,-27.1532 6.56252,-4.5855 19.42988,0.4561 27.63811,3.7058 9.97427,2.746 22.38425,-0.904 18.96174,-13.6212 -5.01827,-6.8059 -2.07916,-7.1565 -11.96915,-21.2934 16.06046,-6.044 39.38067,-1.8471 56.10253,-5.7082 10.28332,-1.2658 20.6527,-1.9333 30.95812,-3.0499 z"
       id="path1064"
       inkscape:connector-curvature="0"
       sodipodi:nodetypes="cccccccccccccccc" />
    <path
       style="color:#000000;display:inline;overflow:visible;visibility:visible;fill:#ffffff;fill-opacity:1;fill-rule:nonzero;stroke:none;stroke-width:0.77767509px;marker:none;enable-background:accumulate"
       d="m 1758.877,3158.0682 c 5.9681,-63.2811 74.8285,-109.3026 253.1437,-96.6278 95.5154,6.7894 203.9917,11.439 196.3574,104.1463 -7.6344,92.7071 -163.5723,89.6544 -195.7806,91.685 -32.2081,2.0306 -199.8321,-8.4136 -228.967,-40.0854 -18.2378,-19.8258 -25.3969,-39.5144 -24.7535,-59.1181 z"
       id="path4546-6"
       inkscape:connector-curvature="0"
       sodipodi:nodetypes="cssssc" />
    <path
       style="fill:#ffffff;fill-opacity:1;stroke:none;stroke-width:0.94291687"
       d="m 128.40864,3111.8895 c 13.49781,-70.7504 73.72705,-132.6456 314.77603,-127.2448 241.04895,5.4007 271.19065,62.1072 288.53233,103.9632 17.34167,41.8559 28.12323,186.8059 -141.57263,191.7277 -167.64014,19.559 -378.30042,5.9808 -425.96151,-26.3102 -57.93996,-45.465 -41.46273,-111.3742 -35.77422,-142.1359 z"
       id="path3238"
       inkscape:connector-curvature="0"
       sodipodi:nodetypes="cssccc" />
    <path
       style="color:#000000;display:inline;overflow:visible;visibility:visible;fill:#ffffff;fill-opacity:1;fill-rule:nonzero;stroke:none;stroke-width:0.99193698px;marker:none;enable-background:accumulate"
       d="m 504.80554,2092.5511 c 24.87096,-41.0992 60.36324,-31.4392 98.37671,-36.8585 39.10682,-5.8459 78.31523,2.5921 115.54698,16.7691 30.44621,12.3779 60.62525,31.8251 81.09011,65.5149 10.18505,17.303 18.52793,39.218 16.37175,62.4073 -4.04313,23.3679 -17.27127,41.3869 -30.1439,56.8949 -10.80859,12.7866 -23.781,22.9115 -38.02165,25.3122 -46.89639,17.5608 -80.85632,20.0559 -124.11474,19.9311 -32.48738,-0.6644 -71.1746,-12.1978 -101.37641,-29.3851 -17.63861,-10.8614 -36.94019,-29.5639 -39.93451,-54.8268 -6.80063,-57.3769 -9.92368,-72.6654 22.20566,-125.7591 z"
       id="path3365"
       inkscape:connector-curvature="0"
       sodipodi:nodetypes="sccccccccss" />
    <path
       style="color:#000000;display:inline;overflow:visible;visibility:visible;fill:#ffffff;fill-opacity:1;fill-rule:nonzero;stroke:none;stroke-width:0.8850255px;marker:none;enable-background:accumulate"
       d="m 412.64778,2053.0976 c -0.80193,-27.1273 32.07707,-54.2547 86.60815,-56.1255 54.53101,-1.8709 101.04281,19.6439 105.85434,47.7066 4.81159,28.0628 -48.11558,55.1901 -95.42929,56.1255 -47.31372,0.9355 -92.22167,-6.548 -97.0332,-47.7066 z"
       id="path3565"
       inkscape:connector-curvature="0" />
    <path
       style="fill:#ffffff;stroke:none;stroke-width:1"
       d="m 991.94736,2179.9675 c -85.35547,-53.3438 -129.05672,-66.0231 -198.58525,18.28 -69.52862,84.303 -44.40146,-3.9533 -44.40146,-3.9533 0,0 87.01205,-167.772 242.98671,-14.3267 z"
       id="path3067"
       inkscape:connector-curvature="0"
       sodipodi:nodetypes="cccc" />
    <path
       style="display:inline;fill:#ffffff;stroke:none;stroke-width:1"
       d="m 806.39831,2982.5071 c -55.1154,-17.2597 -122.06272,-16.0175 -133.36871,49.6531 -5.22834,30.3687 -25.07,18.2714 -25.07,18.2714 l -28.18383,-31.7939 c 0,0 -8.60459,18.7717 19.4148,-16.4725 28.01939,-35.2442 84.8376,-75.3344 167.20774,-19.6581 z"
       id="path3063-1"
       inkscape:connector-curvature="0"
       sodipodi:nodetypes="cscczc" />
    <path
       style="display:inline;fill:#ffffff;stroke:none;stroke-width:1"
       d="m 1824.0017,3315.0686 c 55.6913,15.3001 128.7675,2.9909 137.7444,-63.0383 4.1512,-30.5346 2.0352,-34.0618 2.0352,-34.0618 l 14.3752,-12.7254 c 0,0 66.403,3.6416 28.4117,66.8664 -37.9913,63.2248 -91.2637,83.9959 -182.5665,42.9591 z"
       id="path3063-1-2"
       inkscape:connector-curvature="0"
       sodipodi:nodetypes="cscczc" />
    <path
       style="display:inline;opacity:1;fill:#0f0f0f;fill-opacity:1;stroke:none"
       d="m 195.36295,565.79395 c 2.8076,36.5266 -11.3531,47.358 -7.5295,55.3048 3.8237,7.9469 15.8815,11.5559 18.3467,1.8286 2.4651,-9.7273 -8.7342,-30.033 -4.1662,-54.2007"
       id="path3060-5-7-4-8-6"
       inkscape:connector-curvature="0" />
    <path
       style="display:inline;opacity:1;fill:#0f0f0f;fill-opacity:1;stroke:none"
       d="m 452.5156,880.41705 c 2.8076,36.5266 -11.3531,47.358 -7.5295,55.3048 3.8237,7.9469 15.8815,11.5559 18.3467,1.8286 2.4651,-9.7273 -8.7342,-30.033 -4.1662,-54.2007"
       id="path3060-5-7-4-8-6-3"
       inkscape:connector-curvature="0" />
    <path
       style="display:inline;opacity:1;fill:#0f0f0f;fill-opacity:1;stroke:none"
       d="m 274.38327,854.06166 c 2.8076,36.5266 -11.3531,47.358 -7.5295,55.3048 3.8237,7.9469 15.8815,11.5559 18.3467,1.8286 2.4651,-9.7273 -8.7342,-30.033 -4.1662,-54.2007"
       id="path3060-5-7-4-8-6-3-6"
       inkscape:connector-curvature="0" />
    <path
       style="display:inline;opacity:1;fill:#0f0f0f;fill-opacity:1;stroke:none"
       d="m 278.18765,1416.3798 c 2.8076,36.5266 -11.3531,47.358 -7.5295,55.3048 3.8237,7.9469 15.8815,11.5559 18.3467,1.8286 2.4651,-9.7273 -8.7342,-30.033 -4.1662,-54.2007"
       id="path3060-5-7-4-8-6-3-7"
       inkscape:connector-curvature="0" />
    <text
       xml:space="preserve"
       style="font-style:normal;font-weight:normal;font-size:40px;line-height:1.25;font-family:sans-serif;letter-spacing:0px;word-spacing:0px;fill:#000000;fill-opacity:1;stroke:none"
       x="419.84909"
       y="3109.2432"
       id="text144"><tspan
         sodipodi:role="line"
         id="tspan142"
         x="419.84909"
         y="3109.2432"> </tspan></text>
  </g>
  <g
     inkscape:groupmode="layer"
     id="layer1"
     inkscape:label="txt"
     style="display:inline">
    <flowRoot
       xml:space="preserve"
       id="flowRoot2987-4-9-3-6-6-2-8"
       style="font-style:normal;font-variant:normal;font-weight:normal;font-stretch:normal;line-height:0.01%;font-family:Lavi;-inkscape-font-specification:Lavi;text-align:center;letter-spacing:0px;word-spacing:0px;text-anchor:middle;opacity:1;fill:#000000;fill-opacity:1;stroke:none"
       transform="matrix(1.1000385,0,0,1.1857741,-122.62001,-64.754225)"><flowRegion
         id="flowRegion2989-5-4-5-0-1-8-4"><rect
           id="rect2991-7-9-6-6-8-9-5"
           width="615.85046"
           height="407.77811"
           x="120.55251"
           y="265.53046"
           style="font-style:normal;font-variant:normal;font-weight:normal;font-stretch:normal;font-family:Lavi;-inkscape-font-specification:Lavi;text-align:center;text-anchor:middle" /></flowRegion><flowPara
         style="font-style:normal;font-variant:normal;font-weight:normal;font-stretch:normal;font-size:48px;line-height:1.25;font-family:Lavi;-inkscape-font-specification:Lavi;text-align:center;text-anchor:middle;fill:#ffffff;fill-opacity:1"
         id="flowPara7220">Измерение</flowPara><flowPara
         style="font-style:normal;font-variant:normal;font-weight:normal;font-stretch:normal;font-size:48px;line-height:1.25;font-family:Lavi;-inkscape-font-specification:Lavi;text-align:center;text-anchor:middle;fill:#ffffff;fill-opacity:1"
         id="flowPara86"> населённое</flowPara><flowPara
         style="font-style:normal;font-variant:normal;font-weight:normal;font-stretch:normal;font-size:48px;line-height:1.25;font-family:Lavi;-inkscape-font-specification:Lavi;text-align:center;text-anchor:middle;fill:#ffffff;fill-opacity:1"
         id="flowPara88">разумными</flowPara><flowPara
         style="font-style:normal;font-variant:normal;font-weight:normal;font-stretch:normal;font-size:48px;line-height:1.25;font-family:Lavi;-inkscape-font-specification:Lavi;text-align:center;text-anchor:middle;fill:#ffffff;fill-opacity:1"
         id="flowPara90">существами!</flowPara></flowRoot>    <flowRoot
       xml:space="preserve"
       id="flowRoot2987-4-9-3-6-6-2-8-3"
       style="font-style:normal;font-variant:normal;font-weight:normal;font-stretch:normal;line-height:0.01%;font-family:Lavi;-inkscape-font-specification:Lavi;text-align:center;letter-spacing:0px;word-spacing:0px;text-anchor:middle;opacity:1;fill:#000000;fill-opacity:1;stroke:none"
       transform="matrix(1.1000385,0,0,1.1857741,-132.35177,434.74186)"><flowRegion
         id="flowRegion2989-5-4-5-0-1-8-4-6"><rect
           id="rect2991-7-9-6-6-8-9-5-7"
           width="615.85046"
           height="407.77811"
           x="120.55251"
           y="265.53046"
           style="font-style:normal;font-variant:normal;font-weight:normal;font-stretch:normal;font-family:Lavi;-inkscape-font-specification:Lavi;text-align:center;text-anchor:middle" /></flowRegion><flowPara
         style="font-style:normal;font-variant:normal;font-weight:normal;font-stretch:normal;font-size:48px;line-height:1.25;font-family:Lavi;-inkscape-font-specification:Lavi;text-align:center;text-anchor:middle;fill:#ffffff;fill-opacity:1"
         id="flowPara904">Скорее,</flowPara><flowPara
         style="font-style:normal;font-variant:normal;font-weight:normal;font-stretch:normal;font-size:48px;line-height:1.25;font-family:Lavi;-inkscape-font-specification:Lavi;text-align:center;text-anchor:middle;fill:#ffffff;fill-opacity:1"
         id="flowPara94">крошка разрыв!</flowPara></flowRoot>    <flowRoot
       xml:space="preserve"
       id="flowRoot2987-4-9-3-6-6-2-8-3-2"
       style="font-style:normal;font-variant:normal;font-weight:normal;font-stretch:normal;line-height:0.01%;font-family:Lavi;-inkscape-font-specification:Lavi;text-align:center;letter-spacing:0px;word-spacing:0px;text-anchor:middle;opacity:1;fill:#000000;fill-opacity:1;stroke:none"
       transform="matrix(1.1000385,0,0,1.1857741,-116.69968,898.61203)"><flowRegion
         id="flowRegion2989-5-4-5-0-1-8-4-6-9"><rect
           id="rect2991-7-9-6-6-8-9-5-7-1"
           width="615.85046"
           height="407.77811"
           x="120.55251"
           y="265.53046"
           style="font-style:normal;font-variant:normal;font-weight:normal;font-stretch:normal;font-family:Lavi;-inkscape-font-specification:Lavi;text-align:center;text-anchor:middle" /></flowRegion><flowPara
         style="font-style:normal;font-variant:normal;font-weight:normal;font-stretch:normal;font-size:48px;line-height:1.25;font-family:Lavi;-inkscape-font-specification:Lavi;text-align:center;text-anchor:middle;fill:#ffffff;fill-opacity:1"
         id="flowPara926">Расти!</flowPara><flowPara
         style="font-style:normal;font-variant:normal;font-weight:normal;font-stretch:normal;font-size:48px;line-height:1.25;font-family:Lavi;-inkscape-font-specification:Lavi;text-align:center;text-anchor:middle;fill:#ffffff;fill-opacity:1"
         id="flowPara103">Муахаха </flowPara><flowPara
         style="font-style:normal;font-variant:normal;font-weight:normal;font-stretch:normal;font-size:48px;line-height:1.25;font-family:Lavi;-inkscape-font-specification:Lavi;text-align:center;text-anchor:middle;fill:#ffffff;fill-opacity:1"
         id="flowPara101">хахаха!</flowPara></flowRoot>    <text
       xml:space="preserve"
       style="font-style:normal;font-variant:normal;font-weight:normal;font-stretch:normal;line-height:0%;font-family:Lavi;-inkscape-font-specification:Lavi;text-align:center;letter-spacing:0px;word-spacing:0px;text-anchor:middle;fill:#000000;fill-opacity:1;stroke:none"
       x="507.61423"
       y="2063.5315"
       id="text4246"><tspan
         sodipodi:role="line"
         style="font-size:45px;line-height:1.20000005"
         x="514.64551"
         y="2063.5315"
         id="tspan4252">Ух! </tspan></text>
    <text
       xml:space="preserve"
       style="font-style:normal;font-variant:normal;font-weight:normal;font-stretch:normal;line-height:0%;font-family:Lavi;-inkscape-font-specification:Lavi;text-align:center;letter-spacing:0px;word-spacing:0px;text-anchor:middle;fill:#000000;fill-opacity:1;stroke:none"
       x="647.98169"
       y="2112.6382"
       id="text4246-2"><tspan
         sodipodi:role="line"
         style="font-size:45px;line-height:1.20000005"
         x="647.98169"
         y="2112.6382"
         id="tspan83">Друзья,</tspan><tspan
         sodipodi:role="line"
         style="font-size:45px;line-height:1.20000005"
         x="647.98169"
         y="2166.6382"
         id="tspan110">какой</tspan><tspan
         sodipodi:role="line"
         style="font-size:45px;line-height:1.20000005"
         x="647.98169"
         y="2220.6382"
         id="tspan112"> прекрасный</tspan><tspan
         sodipodi:role="line"
         style="font-size:45px;line-height:1.20000005"
         x="647.98169"
         y="2274.6382"
         id="tspan114">вечер!</tspan></text>
    <text
       xml:space="preserve"
       style="font-style:normal;font-variant:normal;font-weight:normal;font-stretch:normal;line-height:0%;font-family:Lavi;-inkscape-font-specification:Lavi;text-align:center;letter-spacing:0px;word-spacing:0px;text-anchor:middle;fill:#000000;fill-opacity:1;stroke:none"
       x="434.24774"
       y="3052.292"
       id="text4246-2-7"
       inkscape:transform-center-y="14.232172"><tspan
         sodipodi:role="line"
         style="font-size:45px;line-height:1.20000005"
         x="434.24774"
         y="3052.292"
         id="tspan945">Слушай, Перчинка,</tspan><tspan
         sodipodi:role="line"
         style="font-size:45px;line-height:1.20000005"
         x="434.24774"
         y="3106.292"
         id="tspan130">мы с Шафран только поняли,</tspan><tspan
         sodipodi:role="line"
         style="font-size:45px;line-height:1.20000005"
         x="434.24774"
         y="3160.292"
         id="tspan132"> что не имеем представления</tspan><tspan
         sodipodi:role="line"
         style="font-size:45px;line-height:1.20000005"
         x="434.24774"
         y="3214.292"
         id="tspan134"> как работает</tspan><tspan
         sodipodi:role="line"
         style="font-size:45px;line-height:1.20000005"
         x="434.24774"
         y="3268.292"
         id="tspan136"> ваша Магия Хаоса.</tspan></text>
    <text
       xml:space="preserve"
       style="font-style:normal;font-variant:normal;font-weight:normal;font-stretch:normal;line-height:0%;font-family:Lavi;-inkscape-font-specification:Lavi;text-align:center;letter-spacing:0px;word-spacing:0px;text-anchor:middle;fill:#000000;fill-opacity:1;stroke:none"
       x="1995.3525"
       y="3122.4683"
       id="text4246-2-7-2"><tspan
         sodipodi:role="line"
         style="font-size:45px;line-height:1.20000005"
         x="1995.3525"
         y="3122.4683"
         id="tspan956">Так таинственно.</tspan><tspan
         sodipodi:role="line"
         style="font-size:45px;line-height:1.20000005"
         x="1995.3525"
         y="3176.4683"
         id="tspan151"> Не расскажешь</tspan><tspan
         sodipodi:role="line"
         style="font-size:45px;line-height:1.20000005"
         x="1995.3525"
         y="3230.4683"
         id="tspan153"> нам об этом?</tspan></text>
  </g>
</svg>
