<?xml version="1.0" encoding="UTF-8" standalone="no"?>
<svg
   xmlns:dc="http://purl.org/dc/elements/1.1/"
   xmlns:cc="http://creativecommons.org/ns#"
   xmlns:rdf="http://www.w3.org/1999/02/22-rdf-syntax-ns#"
   xmlns:svg="http://www.w3.org/2000/svg"
   xmlns="http://www.w3.org/2000/svg"
   xmlns:xlink="http://www.w3.org/1999/xlink"
   xmlns:sodipodi="http://sodipodi.sourceforge.net/DTD/sodipodi-0.dtd"
   xmlns:inkscape="http://www.inkscape.org/namespaces/inkscape"
   sodipodi:docname="E32P02.svg"
   height="3503"
   width="2481"
   inkscape:version="1.0 (4035a4fb49, 2020-05-01)"
   version="1.1"
   id="svg2">
  <metadata
     id="metadata8">
    <rdf:RDF>
      <cc:Work
         rdf:about="">
        <dc:format>image/svg+xml</dc:format>
        <dc:type
           rdf:resource="http://purl.org/dc/dcmitype/StillImage" />
        <dc:title />
      </cc:Work>
    </rdf:RDF>
  </metadata>
  <defs
     id="defs6" />
  <sodipodi:namedview
     inkscape:document-rotation="0"
     inkscape:snap-global="false"
     inkscape:current-layer="layer1"
     inkscape:window-maximized="1"
     inkscape:window-y="-8"
     inkscape:window-x="1912"
     inkscape:cy="2829.9584"
     inkscape:cx="1240.5"
     inkscape:zoom="0.46000001"
     showgrid="false"
     id="namedview4"
     inkscape:window-height="1057"
     inkscape:window-width="1920"
     inkscape:pageshadow="2"
     inkscape:pageopacity="0"
     guidetolerance="10"
     gridtolerance="10"
     objecttolerance="10"
     borderopacity="1"
     bordercolor="#666666"
     pagecolor="#ffffff" />
  <g
     sodipodi:insensitive="true"
     inkscape:label="artwork"
     id="layer2"
     inkscape:groupmode="layer">
    <image
       sodipodi:absref="C:\Users\stero\Documents\Kernewek\Pepper and Carrot\webcomics\ep32_The-Battlefield\lang\gfx_Pepper-and-Carrot_by-David-Revoy_E32P02.png"
       xlink:href="../gfx_Pepper-and-Carrot_by-David-Revoy_E32P02.png"
       width="2481"
       height="3503"
       id="image10"
       x="0"
       y="0" />
  </g>
  <g
     style="display:inline"
     inkscape:label="speechbubbles"
     id="layer3"
     inkscape:groupmode="layer">
    <path
       sodipodi:nodetypes="cccccccccccccccccccc"
       inkscape:connector-curvature="0"
       id="path3549-3-7-5"
       d="m 297.26962,231.7097 c 5.69731,-11.91191 29.72345,-10.35714 38.22648,-6.88777 -16.10573,-15.76338 -14.47312,-24.29557 9.76762,-23.01859 -37.4462,-29.32322 -4.88683,-21.96956 2.36915,-27.58853 -30.69834,-12.03499 -15.24827,-21.19366 -8.34635,-31.23081 -36.40688,-4.31913 -22.46504,-20.09598 -22.39785,-33.85861 -3.84248,6.04503 -20.81334,23.87538 -19.14605,2.15371 -26.54291,18.01788 -57.15412,28.19627 -55.20142,-8.16064 -11.85648,17.11068 -22.44688,23.73765 -19.14611,2.1537 -27.39189,25.56728 -47.8246,13.0793 -68.64244,2.75558 -6.71746,7.88519 -8.92428,20.87834 -27.05057,15.81142 1.59794,8.71095 -5.32763,13.82885 -19.8303,15.74111 18.13184,7.12336 20.9647,12.74994 -14.483869,14.63056 26.402519,3.41721 50.951029,7.21359 17.626009,23.12231 9.68664,1.52313 34.69703,-12.05491 18.36885,33.84865 18.52879,-13.25277 37.38209,-19.63185 56.07244,14.36509 12.46716,-14.61943 31.78546,-20.42829 37.46624,0.13771 3.86722,-8.08563 16.16844,-9.94983 26.34024,-9.23486 3.52255,3.76064 7.02707,8.7291 10.54174,15.12224 8.35872,-11.71675 19.65621,-19.01709 37.46619,0.13773 z"
       style="color:#000000;display:inline;overflow:visible;visibility:visible;fill:#ffffff;fill-opacity:1;fill-rule:nonzero;stroke:none;stroke-width:0.99999994px;marker:none;enable-background:accumulate" />
    <path
       sodipodi:nodetypes="cccscsc"
       inkscape:connector-curvature="0"
       id="path3970-3"
       d="m 489.27527,106.17438 c -48.46242,1.37509 -97.31054,9.43187 -141.2466,28.12628 -30.35851,13.8649 -50.75049,42.14687 -54.86903,71.95036 -4.92081,27.98912 -0.13441,57.88442 16.64058,82.27345 11.42559,13.71995 28.85395,21.77278 45.0502,30.25352 26.70436,14.18335 55.53466,26.39154 86.63854,30.2882 35.1766,5.15436 71.00079,3.98021 106.4643,2.56695 31.93136,-2.12189 64.25409,-8.94597 91.38986,-24.55549 29.58363,-16.64051 53.04822,-42.79201 61.48624,-73.21793 7.56745,-26.73187 4.62555,-56.40131 -11.44793,-80.31592 -12.94784,-18.98915 -34.67085,-31.97761 -57.61695,-39.93712 -39.08071,-14.09391 -80.1399,-25.21733 -122.49991,-27.22207 -6.65549,-0.31437 -13.32754,-0.42335 -19.9893,-0.21023 z"
       style="color:#000000;display:inline;overflow:visible;visibility:visible;fill:#ffffff;fill-opacity:1;fill-rule:nonzero;stroke:none;stroke-width:0.947648px;marker:none;enable-background:accumulate" />
    <path
       inkscape:connector-curvature="0"
       id="path4456-8"
       d="m 577.63531,468.51204 c 24.15675,-46.43871 15.15598,-67.79787 10.19676,-83.83511 -5.04081,0.18752 -14.08073,-1.23448 -14.08073,-1.23448 0,0 -7.00281,-32.37916 -13.50272,-43.8635 -6.49993,-11.48435 -19.9552,-4.33851 -19.9552,-4.33851 0,0 12.13026,63.2638 10.96525,77.57434 13.78917,-1.09946 20.70461,0.20644 25.45323,-2.31613 5.66701,8.19382 8.96155,41.29633 0.92341,58.01339 z"
       style="color:#000000;display:inline;overflow:visible;visibility:visible;fill:#ffffff;fill-opacity:1;fill-rule:nonzero;stroke:none;stroke-width:1px;marker:none;enable-background:accumulate" />
    <path
       sodipodi:nodetypes="zssssz"
       inkscape:connector-curvature="0"
       id="path4040-5"
       d="m 874.18326,625.23467 c 24.6088,-45.16756 173.27014,-59.34939 213.30484,13.30349 27.9001,50.6312 20.6895,130.36782 -6.7769,173.00242 -26.6149,41.31286 -139.36916,32.39541 -172.18352,19.52271 -29.50844,-11.57441 -60.48189,-36.48936 -62.11487,-102.80163 -0.66641,-27.064 3.16165,-57.85944 27.77045,-103.02699 z"
       style="color:#000000;display:inline;overflow:visible;visibility:visible;opacity:1;fill:#ffffff;fill-opacity:1;fill-rule:nonzero;stroke:none;stroke-width:0.84135px;marker:none;enable-background:accumulate" />
    <path
       sodipodi:nodetypes="ccccccc"
       inkscape:connector-curvature="0"
       id="path4538-0"
       d="m 1172.2087,638.16525 c -22.426,10.78245 -21.9205,17.27525 -23.5228,31.76828 -1.6032,14.49315 -6.5002,31.6111 -27.1248,48.30404 -30.1996,17.58679 -94.1328,69.98654 -71.7029,5.83439 5.3345,-23.46958 48.5109,-22.99772 64.4153,-32.38817 15.9045,-9.39055 14.6245,-34.55514 25.6984,-44.48017 11.0738,-9.92492 18.2375,-9.80409 32.2368,-9.03837 z"
       style="color:#000000;display:inline;overflow:visible;visibility:visible;fill:#ffffff;fill-opacity:1;fill-rule:nonzero;stroke:none;stroke-width:1px;marker:none;enable-background:accumulate" />
    <path
       sodipodi:nodetypes="csssc"
       inkscape:connector-curvature="0"
       id="path3280-10"
       d="m 741.04696,530.38172 c -9.60492,-38.80164 16.5275,-88.11058 133.80407,-88.14796 123.16326,-0.0389 145.90787,25.32295 147.32077,89.39769 1.8023,81.72984 -67.63766,84.82282 -140.37413,86.44662 -111.7481,2.49471 -140.14896,-30.03767 -140.75071,-87.69635 z"
       style="fill:#ffffff;stroke:none;stroke-width:1.06313" />
    <path
       sodipodi:nodetypes="ccccccccccccccccccccccccccccccccccccccccccccccccccc"
       inkscape:connector-curvature="0"
       id="path4508-2"
       d="m 1431.4885,2558.7383 c 1.2051,83.556 -38.7813,98.1743 -108.9801,62.2285 21.4943,50.8236 46.541,105.7613 -8.5475,67.8848 35.6551,46.1464 20.5899,57.7631 -29.9161,45.2558 44.8032,42.4785 19.642,66.0928 -23.5055,84.8555 28.9234,0.6495 52.44,3.6856 70.2901,9.2207 -29.9638,12.3695 -55.1671,11.9323 -55.1671,11.9323 0,0 28.8325,9.4949 41.9009,21.61 4.9769,8.6293 -1.2408,19.5993 -27.5991,2.4279 0,0 7.4567,10.8395 10.6004,16.8816 -8.4306,-1.392 -15.4169,-6.5084 -38.757,-22.5706 26.6854,27.9782 39.8982,49.5137 1.6819,46.461 18.2612,20.7761 5.2279,23.3642 -15.691,21.3652 34.8058,15.2284 16.029,17.3687 21.3172,22.7402 39.1749,45.6384 -9.7658,28.0498 -26.6058,37.4766 85.9953,28.4818 55.9865,40.1481 46.9636,54.8574 59.296,-4.1188 -13.9685,49.8315 -33.1097,87.9182 45.145,-34.7278 76.5617,-57.5369 58.0604,-10.0041 48.8833,-42.059 40.4793,-22.1564 26.8405,3.4082 28.0747,-22.9597 36.2848,-13.5217 11.9381,49.0117 36.3932,-50.0042 71.8046,-96.7046 79.5931,-50.3144 40.8341,-23.0015 46.2013,-12.9656 49.9671,-1.4414 68.9394,-24.759 51.1168,-4.4182 55.5215,4.3711 14.8551,-1.1098 32.7161,-15.4504 38.655,22.6914 22.8939,-28.2308 50.369,-38.275 91.21,4.7304 15.9001,-46.7456 30.3677,-37.1935 55.9928,21.3223 3.5803,-89.1587 43.2036,-102.7342 109.2601,-60.8731 -17.9627,-55.2759 -30.4752,-62.5172 20.8128,-19.3574 -31.9658,-51.0007 -16.6907,-62.6312 31.5939,-46.7539 -41.0489,-47.5497 -15.2989,-71.4639 27.6249,-89.3008 -22.2197,-1.7028 -41.053,-4.8342 -56.38,-9.4472 -0.9236,-2.69 6.5154,-10.5879 29.0792,-13.5832 -31.6528,0 -28.3282,-4.1096 -26.6623,-14.0612 2.5275,-9.9516 14.6521,-7.4757 53.1475,-0.9377 -22.4543,-14.4681 -65.4069,-30.8829 -18.1251,-33.9063 -24.7031,-12.7672 -15.8381,-37.4375 41.2954,-5.5331 -28.9652,-24.8715 -43.7268,-44.3728 -4.2737,-43.3711 -19.9109,-18.5446 -6.6558,-21.5953 14.9581,-20.7402 -36.6143,-12.554 -17.4292,-15.4673 -23.1598,-20.2344 -42.7719,-40.7819 8.5019,-26.7052 25.2966,-36.3379 -89.9627,-22.4665 -59.7539,-34.8334 -51.2847,-49.0273 -60.7296,6.7273 31.4726,-74.4218 66.2427,-122.5704 -69.5102,65.1359 -112.5731,96.2647 -96.1588,50.9141 -47.9464,41.7047 -40.3989,22.6848 -27.7793,-1.8848 -27.6022,22.8335 -36.5594,14.4049 -14.9581,-45.2578 -34.6715,48.5294 -68.5156,93.9211 -79.0639,50.9141 -40.7166,23.4915 -46.7821,14.3665 -51.2848,3.7715 -69.5117,26.498 -52.3049,6.6097 -57.3145,-1.3965 -15.2101,1.7582 -32.7862,16.037 -40.9813,-19.3457 -21.9875,27.512 -49.6817,38.2388 -94.022,0 -13.7837,44.4881 -37.0251,24.2932 -70.5166,-66 z"
       style="display:inline;fill:#ffffff;fill-rule:evenodd;stroke:none;stroke-width:1.02666px;stroke-linecap:butt;stroke-linejoin:miter;stroke-opacity:1" />
    <path
       sodipodi:nodetypes="cccccccccccc"
       inkscape:connector-curvature="0"
       id="path4032-7"
       d="m 1159.215,2912.3636 c 24.9289,15.9696 53.0046,32.3355 73.7186,51.7212 l -4.4671,-22.5612 c 12.3017,3.6243 20.5576,9.2984 29.8695,16.4802 l 0.282,-14.4184 c 28.8782,8.8394 47.895,25.3613 71.6781,38.17 l -1.1627,-32.9839 c -26.1704,-10.6456 -58.8089,-18.5611 -82.5747,-33.2158 l 0.2558,18.7223 c -9.1838,-4.1156 -21.518,-9.7867 -29.518,-15.5652 l 2.2339,19.9359 z"
       style="color:#000000;display:inline;overflow:visible;visibility:visible;fill:#ffffff;fill-opacity:1;fill-rule:nonzero;stroke:none;stroke-width:0.99999988px;marker:none;enable-background:accumulate" />
    <path
       inkscape:connector-curvature="0"
       id="path1355"
       d="m 1753.7087,204.34351 c 1.185,-20.50278 15.4056,-58.09068 36.7365,-64.92493 21.3308,-6.83426 80.5831,-6.83426 92.4336,-3.41661 11.8505,3.41661 30.8112,28.4752 35.5515,38.72712 4.7402,10.25086 17.7757,46.69954 -3.5551,61.50728 -21.3309,14.80774 -42.6617,26.19782 -65.1777,25.0586 -22.5159,-1.13922 -67.5477,-9.1127 -78.2131,-22.78016 -10.6654,-13.66852 -17.7757,-34.1713 -17.7757,-34.1713 z"
       style="fill:#ffffff;fill-rule:evenodd;stroke:none;stroke-width:1px;stroke-linecap:butt;stroke-linejoin:miter;stroke-opacity:1" />
    <path
       sodipodi:nodetypes="csssscssssssc"
       inkscape:connector-curvature="0"
       id="path3023-4"
       d="m 1847.3696,354.09054 c -13.8328,-28.3217 -7.9502,-36.13851 -0.501,-44.49778 7.4497,-8.36018 15.1632,-15.13458 14.5125,-22.36198 -0.6506,-7.22728 -5.6372,-15.60621 -10.1839,-21.34253 -4.5468,-5.73632 4.0413,-9.66514 7.9076,-16.31667 3.8657,-6.6508 10.7042,-47.80659 10.7042,-47.80659 0,0 -26.0852,17.5715 -32.236,25.43439 -6.1509,7.86277 -8.4405,10.70667 -10.0173,14.51431 -1.5759,3.80696 -4.0646,13.75357 -0.9533,20.82655 3.1118,7.07218 9.494,12.21912 13.0595,17.0376 3.5649,4.81933 -1.3116,12.15392 -5.5827,19.6909 -4.2712,7.53691 -6.1414,13.7099 -2.3508,27.83912 3.2494,12.11102 15.6412,26.98268 15.6412,26.98268 z"
       style="fill:#ffffff;stroke:none" />
    <path
       sodipodi:nodetypes="ccccccccccccccc"
       inkscape:connector-curvature="0"
       id="path3549-3-8"
       d="m 1776.3464,1315.529 c 3.2527,-11.321 20.627,-46.387 25.7118,-9.291 37.4381,-49.672 83.6395,-32.169 93.8806,-24.931 -4.7258,-14.705 4.8022,-41.137 32.0153,-34.638 -5.1706,-14.206 2.6362,-24.873 22.022,-32.381 -27.4731,-6.646 -33.2796,-15.291 15.0553,-28.938 -37.6389,2.046 -72.8702,2.901 -32.2408,-33.757 -13.9008,0.297 -43.8343,30.571 -36.8893,-51.608 -21.0909,27.809 -44.9596,44.128 -82.345,-7.637 -7.5628,22.215 -20.6761,37.852 -51.7969,10.837 -3.8196,21.757 -37.5549,26.216 -50.4824,22.884 27.6128,21.802 28.2717,36.657 -5.6527,41.671 61.708,38.345 14.2263,35.6 6.113,47.213 46.5049,11.207 28.2717,31.183 22.1502,50.136 51.7672,-3.483 37.8708,27.229 42.4589,50.44 z"
       style="color:#000000;display:inline;overflow:visible;visibility:visible;fill:#ffffff;fill-opacity:1;fill-rule:nonzero;stroke:none;stroke-width:1px;marker:none;enable-background:accumulate" />
    <path
       sodipodi:nodetypes="cccccccc"
       inkscape:connector-curvature="0"
       id="path5066-8"
       d="m 1862.3291,1246.0499 c 14.3861,24.2296 28.6134,53.9163 31.3484,61.3263 -9.104,1.8541 -16.3446,4.7584 -22.9617,5.3139 6.2417,13.3724 31.8119,68.3466 45.0873,79.3414 -33.7825,-25.8525 -61.563,-70.2493 -70.1237,-92.8544 8.499,-2.3387 14.007,-2.5569 18.4447,-3.9047 -3.7254,-11.4708 -23.6989,-46.1206 -23.6989,-46.1206 z"
       style="color:#000000;display:inline;overflow:visible;visibility:visible;fill:#ffffff;fill-opacity:1;fill-rule:nonzero;stroke:none;stroke-width:1px;marker:none;enable-background:accumulate" />
    <path
       sodipodi:nodetypes="csssc"
       inkscape:connector-curvature="0"
       id="path3280-7"
       d="m 585.04713,1483.669 c -1.37338,-27.1718 23.25103,-95.1953 143.36788,-90.0791 120.11691,5.1162 157.71158,35.0056 161.23156,83.3044 5.56834,76.4076 -57.625,96.826 -148.365,102.4861 -93.54306,5.8339 -157.68622,-46.6144 -156.23444,-95.7114 z"
       style="fill:#ffffff;stroke:none;stroke-width:0.99999988" />
    <path
       sodipodi:nodetypes="csccc"
       inkscape:connector-curvature="0"
       id="path3072-12"
       d="m 869.08895,1636.9955 c -67.24677,1.2844 -93.00504,-48.0053 -100.0269,-87.4546 -9.92573,-55.7646 -2.09042,-31.0329 -2.09042,-31.0329 l -33.99104,26.0816 c -4.43616,0.2077 36.58553,127.7062 136.10836,92.4059 z"
       style="color:#000000;display:inline;overflow:visible;visibility:visible;fill:#ffffff;fill-opacity:1;fill-rule:nonzero;stroke:none;stroke-width:1px;marker:none;enable-background:accumulate" />
    <path
       inkscape:connector-curvature="0"
       id="path1355-3"
       d="m 542.83913,1378.9971 c 1.0808,-19.455 14.0506,-55.122 33.5054,-61.607 19.4547,-6.485 73.4956,-6.485 84.3038,-3.242 10.8082,3.242 28.1013,27.02 32.4246,36.748 4.3233,9.727 16.2123,44.313 -3.2424,58.364 -19.4548,14.051 -38.9095,24.859 -59.4451,23.778 -20.5356,-1.081 -61.6067,-8.647 -71.334,-21.616 -9.7274,-12.97 -16.2123,-32.425 -16.2123,-32.425 z"
       style="fill:#ffffff;fill-rule:evenodd;stroke:none;stroke-width:1px;stroke-linecap:butt;stroke-linejoin:miter;stroke-opacity:1" />
  </g>
  <g
     inkscape:label="txt"
     id="layer1"
     inkscape:groupmode="layer">
    <text
       id="text4246-3-3"
       y="182.54718"
       x="224.22099"
       style="font-style:normal;font-variant:normal;font-weight:normal;font-stretch:normal;line-height:0%;font-family:Lavi;-inkscape-font-specification:Lavi;text-align:center;letter-spacing:0px;word-spacing:0px;text-anchor:middle;fill:#000000;fill-opacity:1;stroke:none"
       xml:space="preserve"><tspan
         id="tspan67"
         y="182.54718"
         x="224.22099"
         style="font-style:normal;font-variant:normal;font-weight:bold;font-stretch:normal;font-size:45px;line-height:1.25;font-family:Lavi;-inkscape-font-specification:'Lavi Bold'"
         sodipodi:role="line">Sodhek!</tspan><tspan
         id="tspan852"
         y="201.05417"
         x="224.22099"
         sodipodi:role="line" /></text>
    <text
       id="text4246-3-5-9"
       y="200.7603"
       x="498.49622"
       style="font-style:normal;font-variant:normal;font-weight:normal;font-stretch:normal;line-height:0%;font-family:Lavi;-inkscape-font-specification:Lavi;text-align:center;letter-spacing:0px;word-spacing:0px;text-anchor:middle;fill:#000000;fill-opacity:1;stroke:none"
       xml:space="preserve"><tspan
         id="tspan868"
         y="200.7603"
         x="498.49622"
         style="font-size:45px;line-height:1.25"
         sodipodi:role="line">A wruss'ta arveth</tspan><tspan
         id="tspan62"
         y="257.01031"
         x="498.49622"
         style="font-size:45px;line-height:1.25"
         sodipodi:role="line">gwragh par dell</tspan><tspan
         id="tspan64"
         y="313.26031"
         x="498.49622"
         style="font-size:45px;line-height:1.25"
         sodipodi:role="line">wovynnis?</tspan></text>
    <text
       id="text4246-1-6"
       y="509.67288"
       x="883.4093"
       style="font-style:normal;font-variant:normal;font-weight:normal;font-stretch:normal;line-height:0%;font-family:Lavi;-inkscape-font-specification:Lavi;text-align:center;letter-spacing:0px;word-spacing:0px;text-anchor:middle;fill:#000000;fill-opacity:1;stroke:none"
       xml:space="preserve"><tspan
         id="tspan915"
         y="509.67288"
         x="883.4093"
         style="font-style:normal;font-variant:normal;font-weight:normal;font-stretch:normal;font-size:45px;line-height:1.25;font-family:Lavi;-inkscape-font-specification:Lavi"
         sodipodi:role="line">Gwrug,</tspan><tspan
         id="tspan68"
         y="565.92285"
         x="883.4093"
         style="font-style:normal;font-variant:normal;font-weight:normal;font-stretch:normal;font-size:45px;line-height:1.25;font-family:Lavi;-inkscape-font-specification:Lavi"
         sodipodi:role="line">ow arlodh!</tspan></text>
    <text
       id="text4246-7-6-1-7-6-3-5"
       y="675.86267"
       x="976.25171"
       style="font-style:normal;font-variant:normal;font-weight:normal;font-stretch:normal;line-height:0%;font-family:Lavi;-inkscape-font-specification:Lavi;text-align:center;letter-spacing:0px;word-spacing:0px;text-anchor:middle;display:inline;fill:#000000;fill-opacity:1;stroke:none"
       xml:space="preserve"><tspan
         id="tspan931"
         y="675.86267"
         x="976.25171"
         style="font-size:45px;line-height:1.25"
         sodipodi:role="line">Yma hi</tspan><tspan
         id="tspan75"
         y="732.11267"
         x="976.25171"
         style="font-size:45px;line-height:1.25"
         sodipodi:role="line">ow sevel</tspan><tspan
         id="tspan77"
         y="788.36267"
         x="976.25171"
         style="font-size:45px;line-height:1.25"
         sodipodi:role="line">rybos.</tspan></text>
    <text
       transform="scale(0.98795945,1.0121873)"
       id="text4246-86-3-3"
       y="214.15907"
       x="1859.6963"
       style="font-style:normal;font-variant:normal;font-weight:normal;font-stretch:normal;font-size:15.9075px;line-height:0%;font-family:Lavi;-inkscape-font-specification:Lavi;text-align:center;letter-spacing:0px;word-spacing:0px;text-anchor:middle;fill:#000000;fill-opacity:1;stroke:none;stroke-width:1"
       xml:space="preserve"><tspan
         id="tspan1044-3"
         y="214.15907"
         x="1859.6963"
         style="font-size:59.6531px;line-height:1.2;stroke-width:1"
         sodipodi:role="line"><tspan
           id="tspan1046-9"
           style="font-style:normal;font-variant:normal;font-weight:bold;font-stretch:normal;font-family:Lavi;-inkscape-font-specification:'Lavi Bold';stroke-width:1">...?</tspan></tspan></text>
    <text
       id="text4246-3-7-7-6-7-2-9-6-1-4"
       y="1389.9771"
       x="622.40643"
       style="font-style:normal;font-variant:normal;font-weight:normal;font-stretch:normal;line-height:0%;font-family:Lavi;-inkscape-font-specification:Lavi;text-align:center;letter-spacing:0px;word-spacing:0px;text-anchor:middle;fill:#000000;fill-opacity:1;stroke:none"
       xml:space="preserve"><tspan
         id="tspan1183-0"
         y="1389.9771"
         x="622.40643"
         style="font-size:45px;line-height:1.2"
         sodipodi:role="line">Hou!</tspan></text>
    <text
       id="text4246-7-5"
       y="1470.2469"
       x="736.13556"
       style="font-style:normal;font-variant:normal;font-weight:normal;font-stretch:normal;line-height:0%;font-family:Lavi;-inkscape-font-specification:Lavi;text-align:center;letter-spacing:0px;word-spacing:0px;text-anchor:middle;fill:#000000;fill-opacity:1;stroke:none"
       xml:space="preserve"><tspan
         id="tspan1089"
         y="1470.2469"
         x="736.13556"
         style="font-size:45px;line-height:1.25"
         sodipodi:role="line">Ow hanow</tspan><tspan
         id="tspan81"
         y="1526.4969"
         x="736.13556"
         style="font-size:45px;line-height:1.25"
         sodipodi:role="line">yw Pepp...</tspan></text>
    <text
       transform="matrix(0.89365154,0,-0.19329856,1.1190044,0,0)"
       id="text4246-2-3-1-3-9-9-7"
       y="1112.7358"
       x="2271.7188"
       style="font-style:normal;font-variant:normal;font-weight:normal;font-stretch:normal;line-height:0%;font-family:Lavi;-inkscape-font-specification:Lavi;text-align:center;letter-spacing:0px;word-spacing:0px;text-anchor:middle;display:inline;fill:#000000;fill-opacity:1;stroke:none"
       xml:space="preserve"><tspan
         id="tspan4161-6"
         y="1112.7358"
         x="2269.2188"
         style="font-size:104.296px;line-height:1.25;letter-spacing:-5px"
         sodipodi:role="line">?!!</tspan></text>
    <text
       transform="matrix(0.94427779,0,-0.21829887,1.0590104,0,0)"
       id="text4246-6-6-3-6"
       y="2623.665"
       x="2291.2227"
       style="font-style:normal;font-variant:normal;font-weight:normal;font-stretch:normal;font-size:28.7317px;line-height:0%;font-family:Lavi;-inkscape-font-specification:Lavi;text-align:center;letter-spacing:29.109px;word-spacing:0px;text-anchor:middle;fill:#000000;fill-opacity:1;stroke:none;stroke-width:1"
       xml:space="preserve"><tspan
         id="tspan4252-00-4-7-3"
         y="2623.665"
         x="2293.2227"
         style="font-style:normal;font-variant:normal;font-weight:bold;font-stretch:normal;font-size:107.744px;line-height:1.2;font-family:Lavi;-inkscape-font-specification:'Lavi Bold';letter-spacing:4px;stroke-width:1"
         sodipodi:role="line">BOBBA!!!</tspan></text>
    <text
       transform="scale(0.94973823,1.0529217)"
       id="text4246-6-3"
       y="2708.2817"
       x="1677.3098"
       style="font-style:normal;font-variant:normal;font-weight:normal;font-stretch:normal;font-size:14.1147px;line-height:0%;font-family:Lavi;-inkscape-font-specification:Lavi;text-align:center;letter-spacing:14.3px;word-spacing:0px;text-anchor:middle;fill:#000000;fill-opacity:1;stroke:none;stroke-width:1"
       xml:space="preserve"><tspan
         id="tspan1117"
         y="2708.2817"
         x="1677.3098"
         style="font-style:normal;font-variant:normal;font-weight:bold;font-stretch:normal;font-size:52.9302px;line-height:1.2;font-family:Lavi;-inkscape-font-specification:'Lavi Bold';letter-spacing:0.9px;stroke-width:1"
         sodipodi:role="line">Prag y hwruss'ta</tspan><tspan
         id="tspan85"
         y="2771.7981"
         x="1677.7598"
         style="font-style:normal;font-variant:normal;font-weight:bold;font-stretch:normal;font-size:52.9302px;line-height:1.2;font-family:Lavi;-inkscape-font-specification:'Lavi Bold';letter-spacing:0.9px;stroke-width:1"
         sodipodi:role="line">arveth an flogh ma?!</tspan></text>
    <text
       transform="scale(0.94973823,1.0529217)"
       id="text4246-6-3-4"
       y="2836.3613"
       x="1654.8108"
       style="font-style:normal;font-variant:normal;font-weight:normal;font-stretch:normal;font-size:14.1147px;line-height:0%;font-family:Lavi;-inkscape-font-specification:Lavi;text-align:center;letter-spacing:14.3px;word-spacing:0px;text-anchor:middle;fill:#000000;fill-opacity:1;stroke:none;stroke-width:1"
       xml:space="preserve"><tspan
         id="tspan1142"
         y="2836.3613"
         x="1654.8108"
         style="font-style:normal;font-variant:normal;font-weight:bold;font-stretch:normal;font-size:52.9302px;line-height:1.2;font-family:Lavi;-inkscape-font-specification:'Lavi Bold';letter-spacing:0.9px;stroke-width:1"
         sodipodi:role="line">Yma edhom dhymm a </tspan><tspan
         id="tspan89"
         y="2899.8777"
         x="1655.2607"
         style="font-style:normal;font-variant:normal;font-weight:bold;font-stretch:normal;font-size:52.9302px;line-height:1.2;font-family:Lavi;-inkscape-font-specification:'Lavi Bold';letter-spacing:0.9px;stroke-width:1"
         sodipodi:role="line">wragh an gaslan wir!</tspan></text>
  </g>
</svg>
