<?xml version="1.0" encoding="UTF-8" standalone="no"?>
<svg
   xmlns:dc="http://purl.org/dc/elements/1.1/"
   xmlns:cc="http://creativecommons.org/ns#"
   xmlns:rdf="http://www.w3.org/1999/02/22-rdf-syntax-ns#"
   xmlns:svg="http://www.w3.org/2000/svg"
   xmlns="http://www.w3.org/2000/svg"
   xmlns:xlink="http://www.w3.org/1999/xlink"
   xmlns:sodipodi="http://sodipodi.sourceforge.net/DTD/sodipodi-0.dtd"
   xmlns:inkscape="http://www.inkscape.org/namespaces/inkscape"
   sodipodi:docname="E32P07.svg"
   height="3503"
   width="2481"
   inkscape:version="1.0 (4035a4fb49, 2020-05-01)"
   version="1.1"
   id="svg2">
  <metadata
     id="metadata8">
    <rdf:RDF>
      <cc:Work
         rdf:about="">
        <dc:format>image/svg+xml</dc:format>
        <dc:type
           rdf:resource="http://purl.org/dc/dcmitype/StillImage" />
        <dc:title />
      </cc:Work>
    </rdf:RDF>
  </metadata>
  <defs
     id="defs6" />
  <sodipodi:namedview
     inkscape:document-rotation="0"
     inkscape:current-layer="layer1"
     inkscape:window-maximized="1"
     inkscape:window-y="32"
     inkscape:window-x="0"
     inkscape:cy="2648.8809"
     inkscape:cx="1226.2147"
     inkscape:zoom="0.46000002"
     showgrid="false"
     id="namedview4"
     inkscape:window-height="1381"
     inkscape:window-width="2560"
     inkscape:pageshadow="2"
     inkscape:pageopacity="0"
     guidetolerance="10"
     gridtolerance="10"
     objecttolerance="10"
     borderopacity="1"
     bordercolor="#666666"
     pagecolor="#ffffff" />
  <g
     sodipodi:insensitive="true"
     inkscape:label="artwork"
     id="layer2"
     inkscape:groupmode="layer">
    <image
       sodipodi:absref="C:\Users\stero\Documents\Kernewek\Pepper and Carrot\webcomics\ep32_The-Battlefield\lang\gfx_Pepper-and-Carrot_by-David-Revoy_E32P07.png"
       xlink:href="../gfx_Pepper-and-Carrot_by-David-Revoy_E32P07.png"
       y="0"
       x="0"
       id="image10"
       height="3503"
       width="2481" />
  </g>
  <g
     inkscape:label="speechbubbles"
     id="layer3"
     inkscape:groupmode="layer" />
  <g
     inkscape:label="txt"
     id="layer1"
     inkscape:groupmode="layer">
    <path
       sodipodi:nodetypes="ccccccccccccccccccccccccccccccc"
       inkscape:connector-curvature="0"
       id="path4496-04"
       d="m 1056.8386,2202.0169 c -10.399,3.1097 -19.0647,10.6359 -24.862,19.6711 -4.6138,7.2893 -17.2509,15.4965 -15.9508,24.1556 0.9045,6.2645 3.4885,12.2114 7.0602,17.4088 4.9823,4.1786 10.7717,7.2309 16.4747,10.2898 13.956,7.1808 39.0329,12.0634 54.1262,16.1118 11.6919,3.244 23.3837,6.488 35.0756,9.732 5.0949,3.3041 6.8782,10.3837 4.7324,15.9258 -2.5523,8.028 -5.7927,15.981 -6.4238,24.4649 0.469,8.3691 7.2362,15.6672 15.3278,17.4183 23.1263,6.8834 46.95,10.9935 70.7295,14.8666 16.8553,2.5917 33.8211,4.4192 50.6435,7.2326 8.6937,1.344 17.4528,2.335 26.2503,2.6075 -14.7027,-2.9835 -29.0454,-7.4415 -43.6031,-11.0191 -17.5491,-3.9894 -35.2233,-7.6141 -52.357,-13.1989 -12.1385,-3.8263 -24.3458,-7.4273 -36.5828,-10.9238 -2.1361,-0.6181 -4.2722,-1.2362 -6.4082,-1.8543 -3.8086,-2.8565 -4.791,-8.4047 -3.0215,-12.6797 3.1112,-10.0301 7.2356,-19.7537 9.5683,-30.0176 0.1907,-7.1989 -5.0046,-13.8258 -11.6328,-16.2568 -8.1859,-3.2713 -16.7215,-5.5386 -25.1516,-8.0754 -10.6728,-3.1009 -17.6074,-6.3044 -28.2511,-9.5031 -1.634,-0.5123 -3.3158,-0.9349 -4.8985,-1.5745 -6.4463,-4.0275 -11.4798,-10.04 -14.9988,-16.7269 -0.6308,-10.1283 2.4237,-19.9428 4.0156,-29.8414 0.7111,-3.8042 0.5769,-8.0798 -1.8053,-11.3085 -2.8415,-4.4602 -11.7784,-7.3612 -17.0919,-7.1782 -0.3216,0.091 -0.6432,0.1823 -0.9649,0.2734 z m 241.4961,179.3652 c 1.4323,-0.5267 2.8646,-1.0533 4.2969,-1.58 -1.4323,0.5267 -2.8646,1.0533 -4.2969,1.58 z"
       style="color:#000000;display:inline;overflow:visible;visibility:visible;opacity:1;fill:#ffffff;fill-opacity:1;fill-rule:nonzero;stroke:none;stroke-width:1px;marker:none;enable-background:accumulate" />
    <path
       sodipodi:nodetypes="csssc"
       inkscape:connector-curvature="0"
       id="path3280-8-1"
       d="m 686.49897,1905.4084 c -77.43052,0.4851 -155.8275,2.9094 -230.5821,15.6629 -36.49632,6.1993 -72.15756,17.1851 -95.65078,35.1226 -17.25647,13.3565 -21.71805,30.7454 -20.85289,47.087 0.69856,14.0961 2.98329,28.9064 15.99654,41.1707 9.87398,9.5805 25.46167,16.6296 41.6971,22.256 30.22014,10.0838 64.66985,14.3581 98.32585,18.6164 84.52823,10.0046 171.13406,11.1488 257.08764,11.3469 87.43023,-0.024 175.0159,-1.1172 262.02787,-6.4498 45.0358,-3.1604 90.7798,-9.1854 129.5432,-23.561 29.3069,-11.1137 51.5341,-29.5186 55.0905,-50.132 2.7246,-14.4123 -0.3868,-29.1985 -8.5271,-42.8774 -11.0146,-17.8759 -33.0097,-33.6263 -62.1815,-42.2612 -34.4108,-10.8018 -73.7028,-14.1093 -111.9653,-16.8109 -51.69678,-3.3086 -103.72292,-4.1394 -155.58425,-6.1746 -58.08909,-1.7991 -116.24547,-3.09 -174.42478,-2.9956 z"
       style="display:inline;fill:#ffffff;stroke:none;stroke-width:1.20687" />
    <path
       sodipodi:nodetypes="cssssc"
       inkscape:connector-curvature="0"
       id="path4546-1"
       d="m 980.49465,2056.7867 c -53.18465,0.6184 -106.88816,8.3971 -156.90928,29.5156 -16.70156,7.2532 -33.57176,16.4141 -45.34525,32.1133 -21.43366,28.1998 -27.37486,70.7418 -13.09264,104.4826 13.29503,32.9051 41.6834,56.7945 72.9666,63.7178 51.65196,16.1702 105.51892,21.6373 158.99153,20.9116 32.89059,0.1055 66.44269,-0.1253 98.15949,-11.1871 22.3754,-7.6969 44.0569,-19.9699 60.6318,-38.8975 22.5725,-26.15 34.6351,-64.1832 29.7183,-100.5067 -2.5546,-18.2469 -10.8673,-35.3376 -23.1492,-47.5673 -12.7318,-13.2032 -28.7963,-21.3941 -45.1015,-27.3161 -30.702,-11.8539 -62.758,-18.6848 -94.9216,-23.0468 -13.9328,-1.6129 -27.94309,-2.3368 -41.94825,-2.2194 z"
       style="color:#000000;display:inline;overflow:visible;visibility:visible;fill:#ffffff;fill-opacity:1;fill-rule:nonzero;stroke:none;stroke-width:1.0465px;marker:none;enable-background:accumulate" />
    <text
       id="text4246-7-6-1-7-6-3-5-6"
       y="1980.6964"
       x="778.37128"
       style="font-style:normal;font-variant:normal;font-weight:normal;font-stretch:normal;line-height:0%;font-family:Lavi;-inkscape-font-specification:Lavi;text-align:center;letter-spacing:0px;word-spacing:0px;text-anchor:middle;display:inline;fill:#000000;fill-opacity:1;stroke:none"
       xml:space="preserve"><tspan
         id="tspan848"
         y="1980.6964"
         x="778.37128"
         style="font-size:45px;line-height:1.25"
         sodipodi:role="line">Wosa dasprederi,</tspan><tspan
         id="tspan31"
         y="2036.9464"
         x="778.37128"
         style="font-size:45px;line-height:1.25"
         sodipodi:role="line">gorhemmyn an flogh na a dhehweles.</tspan></text>
    <text
       id="text4246-7-6-1-7-6-3-5-6-4"
       y="2139.1262"
       x="969.6701"
       style="font-style:normal;font-variant:normal;font-weight:normal;font-stretch:normal;line-height:0%;font-family:Lavi;-inkscape-font-specification:Lavi;text-align:center;letter-spacing:0px;word-spacing:0px;text-anchor:middle;display:inline;fill:#000000;fill-opacity:1;stroke:none"
       xml:space="preserve"><tspan
         id="tspan836"
         y="2139.1262"
         x="969.6701"
         style="font-size:45px;line-height:1.25"
         sodipodi:role="line">Dell hevel pris</tspan><tspan
         id="tspan40"
         y="2195.3762"
         x="969.6701"
         style="font-size:45px;line-height:1.25"
         sodipodi:role="line">an huni ma</tspan><tspan
         id="tspan38"
         y="2251.6262"
         x="969.6701"
         style="font-size:45px;line-height:1.25"
         sodipodi:role="line">a vydh re ughel.</tspan></text>
    <text
       transform="matrix(0.96049651,0,-0.32716292,1.0411282,0,0)"
       id="text4213"
       y="3317.343"
       x="3371.9126"
       style="font-style:normal;font-variant:normal;font-weight:normal;font-stretch:normal;font-size:43.8573px;line-height:0%;font-family:Lavi;-inkscape-font-specification:'Lavi, Normal';font-variant-ligatures:normal;font-variant-caps:normal;font-variant-numeric:normal;font-feature-settings:normal;text-align:center;letter-spacing:0px;word-spacing:0px;writing-mode:lr-tb;text-anchor:middle;display:inline;fill:#241c1c;fill-opacity:1;stroke:#000000;stroke-width:0.822;stroke-miterlimit:4;stroke-dasharray:none;stroke-opacity:1"
       xml:space="preserve"><tspan
         id="tspan858"
         y="3317.343"
         x="3371.9126"
         sodipodi:role="line">DHE VOS YSTYNNYS...</tspan></text>
  </g>
</svg>
