<?xml version="1.0" encoding="UTF-8" standalone="no"?>
<!-- Created with Inkscape (http://www.inkscape.org/) -->

<svg
   xmlns:dc="http://purl.org/dc/elements/1.1/"
   xmlns:cc="http://creativecommons.org/ns#"
   xmlns:rdf="http://www.w3.org/1999/02/22-rdf-syntax-ns#"
   xmlns:svg="http://www.w3.org/2000/svg"
   xmlns="http://www.w3.org/2000/svg"
   xmlns:xlink="http://www.w3.org/1999/xlink"
   xmlns:sodipodi="http://sodipodi.sourceforge.net/DTD/sodipodi-0.dtd"
   xmlns:inkscape="http://www.inkscape.org/namespaces/inkscape"
   id="svg2"
   version="1.1"
   inkscape:version="0.48.5 r10040"
   width="2481"
   height="3503"
   sodipodi:docname="E24P02.svg"
   inkscape:export-filename="/home/calimero/peppercarrot/webcomics/ep24_The-Unity-Tree/lang/en/E24P02.svg.png"
   inkscape:export-xdpi="45"
   inkscape:export-ydpi="45">
  <metadata
     id="metadata8">
    <rdf:RDF>
      <cc:Work
         rdf:about="">
        <dc:format>image/svg+xml</dc:format>
        <dc:type
           rdf:resource="http://purl.org/dc/dcmitype/StillImage" />
        <dc:title />
      </cc:Work>
    </rdf:RDF>
  </metadata>
  <defs
     id="defs6">
    <filter
       style="color-interpolation-filters:sRGB"
       id="filter4375-4-1-1-1-9"
       inkscape:label="deevad outline effect">
      <feFlood
         id="feFlood4377-7-9-0-8-1"
         flood-opacity="1"
         flood-color="rgb(0,0,0)"
         result="flood" />
      <feComposite
         id="feComposite4379-3-8-8-2-77"
         in2="SourceGraphic"
         in="flood"
         operator="in"
         result="composite1" />
      <feMorphology
         id="feMorphology4393-1-0-49-8-9"
         operator="dilate"
         radius="4"
         result="result3" />
      <feComposite
         id="feComposite4385-9-5-7-0-8"
         in2="result3"
         in="SourceGraphic"
         operator="over"
         result="composite2" />
    </filter>
  </defs>
  <sodipodi:namedview
     pagecolor="#ffffff"
     bordercolor="#666666"
     borderopacity="1"
     objecttolerance="10"
     gridtolerance="10"
     guidetolerance="10"
     inkscape:pageopacity="0"
     inkscape:pageshadow="2"
     inkscape:window-width="1292"
     inkscape:window-height="745"
     id="namedview4"
     showgrid="false"
     inkscape:zoom="0.44785584"
     inkscape:cx="1653.7857"
     inkscape:cy="362.27395"
     inkscape:window-x="66"
     inkscape:window-y="-8"
     inkscape:window-maximized="1"
     inkscape:current-layer="layer1"
     inkscape:snap-global="false"
     showguides="true" />
  <g
     inkscape:groupmode="layer"
     id="layer2"
     inkscape:label="artwork"
     sodipodi:insensitive="true">
    <image
       sodipodi:absref="C:\Users\Gwen\Documents\Academie_du_Gallo\Traduction_BD\peppercarrot_ep24_The-Unity-Tree_lang-pack\lang\go\../gfx_Pepper-and-Carrot_by-David-Revoy_E24P02.png"
       xlink:href="../gfx_Pepper-and-Carrot_by-David-Revoy_E24P02.png"
       width="2481"
       height="3503"
       id="image10"
       x="0"
       y="0" />
  </g>
  <g
     inkscape:groupmode="layer"
     id="layer3"
     inkscape:label="speechbubbles">
    <path
       style="fill:#ffffff;stroke:none"
       d="m 1004.8,963.21044 c 80.3307,-8.3585 149.8839,2.64527 168.2529,10.79944 18.3689,8.15417 36.6441,23.90227 47.0205,30.01622 34.6383,20.4096 23.5459,129.0627 8.7458,140.3007 -11.6138,8.8186 -19.5777,36.2571 -68.5832,45.4147 -49.0056,9.1577 -139.1657,13.464 -169.29053,4.9601 -30.12487,-8.5039 -94.08991,-2.3232 -111.78105,-56.8555 -17.69115,-54.5324 -2.16574,-140.64367 54.49821,-158.5729 C 965.60668,969.16571 1004.8,963.21044 1004.8,963.21044 z"
       id="path3286"
       inkscape:connector-curvature="0"
       sodipodi:nodetypes="csssssssc" />
    <path
       style="color:#000000;display:inline;overflow:visible;visibility:visible;fill:#ffffff;fill-opacity:1;fill-rule:nonzero;stroke:none;stroke-width:1px;marker:none;enable-background:accumulate"
       d="m 2235.2039,1351.7255 c -166.3352,-2.9996 -213.7021,-13.1279 -212.7392,-167.961 0.9628,-154.833 62.36,-194.30637 151.8783,-197.39467 86.9037,-3.08819 154.5086,16.01507 172.0646,58.90887 20.2832,45.8237 12.8475,98.6049 18.9072,139.7183 9.3188,35.253 -0.5678,105.5352 -18.8001,125.4809 -18.1675,19.875 -77.4171,42.0993 -111.3108,41.2476 z"
       id="path3365"
       inkscape:connector-curvature="0"
       sodipodi:nodetypes="cscccsc" />
    <path
       style="color:#000000;display:inline;overflow:visible;visibility:visible;fill:#ffffff;fill-opacity:1;fill-rule:nonzero;stroke:none;stroke-width:1px;marker:none;enable-background:accumulate"
       d="m 1190.4458,1312.0824 c -70.0617,-6.5837 -91.3329,-16.7984 -111.4751,-72.4567 -20.1421,-55.6582 0.6832,-59.9839 0.6832,-59.9839 0,0 10.9679,110.8571 110.7919,132.4406 z"
       id="path5002"
       inkscape:connector-curvature="0" />
    <path
       style="color:#000000;display:inline;overflow:visible;visibility:visible;fill:#ffffff;fill-opacity:1;fill-rule:nonzero;stroke:none;stroke-width:1px;marker:none;enable-background:accumulate"
       d="m 2050.7762,1376.6106 c 37.4574,14.4492 67.4988,-7.5666 86.7222,-51.9063 19.2234,-44.3397 35.3495,-35.8085 35.3495,-35.8085 l 5.0926,33.3889 c 0,0 -35.4044,96.209 -127.1643,54.3259 z"
       id="path3072"
       inkscape:connector-curvature="0"
       sodipodi:nodetypes="csccc" />
    <path
       style="color:#000000;fill:#ffffff;fill-opacity:1;fill-rule:nonzero;stroke:none;stroke-width:1.00945306px;marker:none;visibility:visible;display:inline;overflow:visible;enable-background:accumulate"
       d="M 66.665652,2359.5834 C 55.857051,2230.2853 -58.953382,2147.4272 337.50809,2137.0377 c 106.96507,-2.8031 230.46602,-19.1857 247.52155,170.0757 17.05537,189.2612 -155.43964,205.6778 -190.33685,214.4694 -34.89719,8.7919 -199.99541,10.8258 -254.99784,-37.9632 -30.89264,-27.4029 -68.353924,-84.1561 -73.029298,-124.0362 z"
       id="path4546"
       inkscape:connector-curvature="0"
       sodipodi:nodetypes="cssssc" />
    <path
       style="color:#000000;fill:#ffffff;fill-opacity:1;fill-rule:nonzero;stroke:none;stroke-width:1px;marker:none;visibility:visible;display:inline;overflow:visible;enable-background:accumulate"
       d="m 943.56626,2693.187 c -75.77691,4.8404 -190.7877,-7.378 -224.93969,-69.2847 -34.15182,-61.9065 -45.79797,-145.5469 -10.18796,-191.2479 35.60985,-45.7012 102.97447,-92.5162 169.20866,-93.9128 66.23409,-1.3969 158.60933,25.5238 190.72033,83.6298 32.111,58.1057 40.3032,194.7184 -36.7342,237.9458 -77.03747,43.2275 -88.06714,32.8698 -88.06714,32.8698 z"
       id="path3970"
       inkscape:connector-curvature="0" />
    <path
       style="color:#000000;fill:#ffffff;fill-opacity:1;fill-rule:nonzero;stroke:none;stroke-width:0.99999994px;marker:none;visibility:visible;display:inline;overflow:visible;enable-background:accumulate"
       d="m 977.29734,3014.0344 c -57.78546,3.446 -145.48955,-5.2523 -171.53293,-49.3238 -26.04323,-44.0712 -34.92427,-103.615 -7.76904,-136.1496 27.1551,-32.5346 78.52552,-65.8622 129.0339,-66.8565 50.50831,-0.9944 120.95123,18.1703 145.43813,59.5361 24.4871,41.3654 30.734,138.6202 -28.0125,169.3938 -58.74666,30.7738 -67.15756,23.4 -67.15756,23.4 z"
       id="path3970-4"
       inkscape:connector-curvature="0" />
    <path
       style="fill:#ffffff;fill-rule:evenodd;stroke:none;stroke-width:1px;stroke-linecap:butt;stroke-linejoin:miter;stroke-opacity:1"
       d="m 346.57119,2616.5493 c -63.2798,-44.5839 -68.79168,-98.8369 -22.99541,-144.2951 18.90772,-28.5006 -29.49137,-44.6932 -49.46806,0.8803 2.52314,18.0735 -60.406,94.8559 72.46347,143.4148 z"
       id="path4278"
       inkscape:connector-curvature="0"
       sodipodi:nodetypes="cccc" />
    <path
       style="color:#000000;display:inline;overflow:visible;visibility:visible;fill:#ffffff;fill-opacity:1;fill-rule:nonzero;stroke:none;stroke-width:1px;marker:none;enable-background:accumulate"
       d="m 759.98513,2733.1259 c 40.56205,-7.5931 54.44696,-12.612 63.67875,-60.0495 9.2317,-47.4376 26.81589,-42.5763 26.81589,-42.5763 l 12.15811,31.5107 c 0,0 -26.74612,99.3801 -102.65275,71.1151 z"
       id="path3072-5"
       inkscape:connector-curvature="0" />
    <path
       style="color:#000000;display:inline;overflow:visible;visibility:visible;fill:#ffffff;fill-opacity:1;fill-rule:nonzero;stroke:none;stroke-width:1px;marker:none;enable-background:accumulate"
       d="m 739.08809,2819.3997 c 21.8597,19.4259 25.84476,19.8547 38.08065,11.9234 12.23579,-7.9313 27.1542,-23.1621 53.13132,-17.7581 84.05943,-18.1201 113.76084,72.1324 -3.48563,23.5751 -17.33625,-6.3711 -39.16416,13.5701 -53.85665,11.2775 -14.69258,-2.2926 -25.60297,-17.6945 -33.86969,-29.0179 z"
       id="path4538"
       inkscape:connector-curvature="0"
       sodipodi:nodetypes="cccccc" />
    <path
       style="fill:#ffffff;fill-rule:evenodd;stroke:none"
       d="m 1346.9033,3086.4082 c 0.5556,11.1896 -0.1107,25.2467 -9.6987,32.1077 -11.6837,5.518 -23.6521,-3.339 -33.0205,-10.0347 -3.0713,-2.9276 0.542,3.5951 0.294,5.2405 2.2704,9.9042 3.539,23.224 -4.8523,30.2642 -10.3516,6.8187 -23.4102,0.968 -33.1892,-3.3778 4.0457,11.2404 8.9723,25.3622 2.0846,36.4776 -4.5307,5.1924 -12.2196,5.0624 -17.9533,3.9727 4.5088,8.3185 5.0703,21.9123 -4.2642,26.662 -4.2274,2.6691 -10.7015,2.132 -14.3216,2.2761 7.9126,8.7845 15.1692,22.8076 8.8508,34.6715 -3.4653,5.9936 -9.2977,9.8845 -15.2361,12.6138 9.264,1.5637 20.9759,7.368 21.0472,18.9076 0.3049,6.6281 -4.8688,13.5379 -7.5334,17.4154 10.7924,-3.9067 23.9847,-8.6081 34.547,-1.8017 4.7905,4.6337 5.9812,12.0937 5.1486,18.6586 11.0754,-7.2057 22.6341,-3.3152 35.9654,1.994 8.1397,4.5602 12.4133,14.0726 14.4485,23.2262 14.4468,-11.0094 31.8233,-23.7904 50.5224,-18.7295 13.245,4.0731 21.4311,16.9687 29.7713,27.6798 4.0552,-11.6654 11.5887,-25.1967 24.415,-26.3957 12.7331,0.9539 18.7303,15.1054 24.7537,25.0706 1.1697,5.0607 4.2589,8.9404 5.4462,6.6904 5.3519,-12.181 12.6205,-26.2421 25.7789,-29.7864 13.7486,-0.7617 23.0717,12.5651 30.5205,22.9491 3.1173,-12.7713 9.4884,-27.9534 22.9265,-30.8451 13.3678,-0.3948 21.7941,13.0775 27.9907,23.8403 2.83,4.2744 5.1392,8.9078 7.9102,13.2236 2.1857,-11.1915 7.1603,-33.545 19.1703,-33.8095 11.2264,0.044 20.0332,8.7265 28.2483,15.7425 0.095,-12.5648 12.2393,-24.2685 24.0485,-20.0416 15.1132,3.4042 29.1403,2.0833 41.9351,10.4071 -3.7397,-9.4449 -6.8915,-23.4968 2.1171,-30.7612 5.0683,-3.3978 11.458,-2.9125 17.0388,-1.4968 -5.2849,-10.0726 -4.645,-25.3756 5.7044,-31.4613 5.6312,-4.04 12.4671,-5.2957 18.8498,-7.3225 -11.4858,-8.6661 -29.3797,-19.7964 -26.0827,-35.92 1.1246,-7.2281 13.1046,-17.1456 15.9045,-22.0658 -30.3178,10.7729 -28.8074,-5.0688 -10.0071,-22.4121 2.2913,-4.3744 1.283,-4.3022 -2.5384,-1.3542 -10.3867,6.3265 -21.6148,14.1402 -34.0047,13.3901 -9.0968,-4.2443 -6.4629,-26.3235 -0.3493,-33.261 -13.9909,5.7947 -29.5294,12.8653 -44.7293,8.2608 -9.8818,-6.7954 -8.6946,-21.9125 -3.9862,-31.7961 1.7171,-4.0442 -0.588,-1.3676 -2.7273,0.526 -8.154,7.0162 -17.6333,15.1145 -28.5727,14.8685 -10.2006,-3.4866 -12.2456,-17.6878 -8.7541,-27.1536 0.03,-2.3676 2.5916,-9.0913 -0.7856,-4.329 -6.5557,6.953 -17.6847,24.8195 -27.6172,22.4966 -4.8318,-2.0406 -5.4942,-16.7681 -6.9782,-21.8569 -4.7403,8.1148 -15.4225,25.8892 -25.3752,22.477 -9.1874,-4.411 -10.4732,-16.6173 -10.7564,-26.0649 -3.3019,8.7098 -9.7093,15.3841 -19.9179,15.8125 -10.6545,-0.9919 -15.2034,-37.4314 -17.5992,-46.9591 -0.7404,-2.9566 -3.7593,-9.4709 -2.3523,4.705 -2.9454,8.2185 -9.2921,42.1054 -18.656,39.5685 -11.4165,-4.1777 -12.8155,-12.5306 -16.1985,-23.2067 -2.8204,9.4734 -9.7417,20.9437 -20.3483,19.8054 -13.0608,-2.5703 -18.1634,-18.2297 -23.8393,-28.6655 -0.964,12.1566 -4.026,27.2848 -15.3951,32.9602 -11.5412,2.9769 -20.7688,-7.9905 -26.3247,-17.3379 -4.1676,-5.8155 -7.8874,-11.9754 -11.5541,-18.1562 l 0.062,1.0974 z m 173.5248,256.752 c 0,0.017 0.012,-0.053 0,0 z"
       id="path1504"
       inkscape:connector-curvature="0"
       sodipodi:nodetypes="cccccccccccccccccccccccccccccccccccccccccccccccccccccccccccccccccc" />
    <path
       style="fill:#ffffff;stroke:none;stroke-width:0.99999994"
       d="m 1452.7195,2949.0485 c 13.6365,51.0487 1.8285,73.4399 -12.8291,87.351 -14.6575,13.9112 -29.2574,24.6287 -30.4169,39.0049 -1.1585,14.3763 4.3679,32.4449 9.991,45.1906 5.6233,12.7459 -8.7567,28.7391 -16.1641,41.0823 -7.4074,12.3434 -32.4176,87.9891 -32.4176,87.9891 0,0 45.6605,-29.3056 57.0155,-43.5686 11.3552,-14.2629 -1.5936,-24.3112 1.6003,-31.5097 3.1938,-7.1984 16.2252,-28.4819 13.3417,-43.3703 -2.8832,-14.8884 -6.8861,-37.3598 -11.1969,-47.9831 -4.3108,-10.6233 8.1814,-20.8918 17.4263,-34.2439 9.2448,-13.3519 26.0549,-36.6775 19.2727,-60.0623 -6.7821,-23.3848 -15.6229,-39.88 -15.6229,-39.88 z"
       id="path3023"
       inkscape:connector-curvature="0"
       sodipodi:nodetypes="csssscssssssc" />
    <path
       style="color:#000000;fill:#ffffff;fill-opacity:1;fill-rule:nonzero;stroke:none;stroke-width:1px;marker:none;visibility:visible;display:inline;overflow:visible;enable-background:accumulate"
       d="m 1820.8034,2311.1086 c -1.6947,-36.2022 -1.0546,-71.52 70.1196,-95.1622 71.1743,-23.6422 195.604,-11.9722 222.0209,-10.3434 43.1189,2.6584 156.7216,9.4522 182.1409,36.0498 25.4194,26.5975 29.2353,58.2238 26.662,86.8909 -2.3706,26.4092 -13.5832,64.2507 -44.0865,73.1165 -30.5033,8.8659 -248.7722,22.0466 -284.3593,16.1361 -35.5871,-5.9105 -90.4905,-14.1869 -120.9935,-31.9186 -30.9241,-17.9763 -49.8096,-38.5669 -51.5041,-74.7691 z"
       id="path3373"
       inkscape:connector-curvature="0"
       sodipodi:nodetypes="zsssssssz" />
    <path
       style="color:#000000;display:inline;overflow:visible;visibility:visible;fill:#ffffff;fill-opacity:1;fill-rule:nonzero;stroke:none;stroke-width:1px;marker:none;enable-background:accumulate"
       d="m 2031.8102,2507.7263 c 30.9235,-44.7181 56.4448,-90.7801 41.0641,-127.8508 -21.7419,-52.4025 -15.1545,-27.3052 -15.1545,-27.3052 l 48.1596,27.1477 c 4.0617,-2.2231 16.5042,46.8286 -74.0692,128.0083 z"
       id="path3072-1"
       inkscape:connector-curvature="0"
       sodipodi:nodetypes="csccc" />
    <path
       style="fill:#ffffff;stroke:none;display:inline"
       d="m 1750.875,3261.697 c 4.0589,-84.5952 43.5137,-125.1369 100.0471,-145.7776 56.5334,-20.6409 389.7825,-14.9071 457.3087,8.0272 67.5256,22.9343 73.0193,81.939 75.4427,146.924 0.9179,75.2476 -78.4532,106.9055 -117.7126,116.0792 -39.2592,9.1737 -354.1958,16.4894 -438.4036,-17.2734 -76.6823,-30.8304 -76.6823,-107.9794 -76.6823,-107.9794 z"
       id="path3008"
       inkscape:connector-curvature="0"
       sodipodi:nodetypes="ccccccc" />
    <path
       style="color:#000000;display:inline;overflow:visible;visibility:visible;fill:#ffffff;fill-opacity:1;fill-rule:nonzero;stroke:none;stroke-width:1px;marker:none;enable-background:accumulate"
       d="m 2046.452,3138.2749 c 31.2021,-26.3616 74.0861,-59.4473 33.587,-95.3422 1.3128,2.6276 75.7675,26.7026 -7.7455,112.4393 -83.5133,85.7365 -101.538,90.3039 -101.538,90.3039 z"
       id="path4064"
       inkscape:connector-curvature="0"
       sodipodi:nodetypes="ccscc"
       inkscape:transform-center-x="86.439437"
       inkscape:transform-center-y="119.77252" />
    <g
       id="g5381"
       transform="matrix(-1.943999,-0.03507888,0.02110171,-1.1694129,2814.7591,4709.8659)"
       style="display:inline;fill:#ffffff;stroke-width:0.82700133">
      <path
         inkscape:connector-curvature="0"
         id="path5263"
         d="m 1231.4261,3164.2107 c -4.7051,-6.6655 -8.3522,-20.2367 -8.3522,-21.805 0,-1.5684 0.3921,-7.4497 0.3921,-7.4497 l -3.1367,-1.1763 2.7446,-5.0971 -3.1367,0.3921 c 0,0 8.4753,-16.4011 10.0436,-19.1457 1.5684,-2.7446 4.313,-9.018 4.313,-9.018 0,0 11.2013,-0.9423 14.338,-2.1186 3.1367,-1.1762 12.5468,-11.3705 12.5468,-11.3705 0,0 11.3706,5.4892 15.6836,6.2734 4.3129,0.7842 24.3095,1.9604 27.8383,0 3.5288,-1.9605 7.0576,-4.7051 7.0576,-4.7051 0,0 9.018,-0.7841 11.3705,-1.9604 2.3526,-1.1763 6.6655,-3.9209 6.6655,-3.9209 0,0 7.4497,0.7842 10.5864,0.3921 3.1367,-0.3921 17.644,0 19.2124,0 1.5683,0 12.5468,6.6655 12.5468,6.6655 l 7.0576,6.6655 c 0,0 5.8813,-0.3921 8.626,-1.1763 2.7446,-0.7841 5.0971,3.1367 5.0971,3.1367 0,0 10.3649,28.9788 11.9333,33.6838 1.5683,4.7051 2.3525,14.1152 2.3525,14.1152 0,0 -4.313,7.4497 -6.6655,10.5864 -2.3525,3.1367 -9.018,10.5864 -12.5468,13.331 -3.5288,2.7446 -7.8418,7.0576 -12.1548,4.313 -4.313,-2.7446 -8.6259,-2.3525 -10.1943,-0.3921 -1.5684,1.9604 -12.9389,15.6836 -16.8598,14.1152 -3.9209,-1.5684 -17.2519,-3.9209 -21.1728,-7.4497 -3.9209,-3.5288 -10.1943,4.7051 -12.9389,2.3525 -2.7446,-2.3525 -6.6655,-6.6655 -9.4102,-6.6655 -2.7446,0 -40.639,11.3296 -44.5599,9.7612 -3.9209,-1.5684 -13.5936,-9.7859 -15.9461,-11.3542 -2.3526,-1.5684 -8.2339,-10.9785 -8.2339,-10.9785 z"
         style="color:#000000;display:inline;overflow:visible;visibility:visible;fill:#ffffff;fill-opacity:1;fill-rule:nonzero;stroke:none;stroke-width:0.82700133px;marker:none;enable-background:accumulate"
         sodipodi:nodetypes="cscccccccccccccssccccccsssssscssccc" />
    </g>
    <path
       style="color:#000000;display:inline;overflow:visible;visibility:visible;fill:#ffffff;fill-opacity:1;fill-rule:nonzero;stroke:none;stroke-width:1px;marker:none;enable-background:accumulate"
       d="m 214.82896,1030.4867 c 6.80442,0.878 -13.01369,58.3529 -13.01369,58.3529 0,0 37.57996,20.9895 40.57677,25.605 -3.12032,14.3994 -21.44854,49.3771 -21.44854,49.3771 l 47.969,66.5041 -32.27308,-66.6621 30.22524,-55.2358 -42.64068,-25.4823 18.48922,-41.6529 z"
       id="path4448-7"
       inkscape:connector-curvature="0"
       sodipodi:nodetypes="cccccccccc" />
    <path
       style="color:#000000;fill:#ffffff;fill-opacity:1;fill-rule:nonzero;stroke:none;stroke-width:1px;marker:none;visibility:visible;display:inline;overflow:visible;enable-background:accumulate"
       d="m 1208.1361,1298.0626 c -16.6357,-4.3497 -66.1566,-23.5952 -7.3254,-21.7957 -71.2387,-31.0871 -39.0946,-54.4085 -12.8268,-78.1713 -21.8342,-7.6161 -57.1105,-10.087 -44.838,-30.7594 -23.4147,1.8603 -37.7866,-5.9885 -44.0901,-22.5008 -17.8305,20.688 -32.811,23.9239 -40.6689,-16.4498 -7.1661,30.0931 -23.7395,35.7966 -69.34183,-2.0937 -3.35666,11.042 13.91413,36.2847 -111.41417,17.8946 37.26543,21.0469 85.58623,67.9714 -4.82419,89.4193 32.3184,9.4681 52.92832,22.2946 2.55898,42.6713 32.63689,6.4356 30.27816,33.8197 21.5695,43.5221 41.33766,-18.4198 64.51813,-16.6097 62.96674,11.0108 76.30967,-42.7928 59.02487,-5.6659 74.77747,2.5741 30.119,-35.0262 56.0406,-17.4691 83.7057,-9.6528 8.8193,-41.4937 52.5546,-25.6821 89.751,-25.6687 z"
       id="path3549-3-78"
       inkscape:connector-curvature="0"
       sodipodi:nodetypes="ccccccccccccccc" />
  </g>
  <g
     inkscape:groupmode="layer"
     id="layer1"
     inkscape:label="txt"
     style="display:inline">
    <text
       xml:space="preserve"
       style="font-style:normal;font-variant:normal;font-weight:normal;font-stretch:normal;line-height:0%;letter-spacing:0px;word-spacing:0px;fill:#000000;fill-opacity:1;stroke:#000000;stroke-width:1.03244162;stroke-miterlimit:4;stroke-opacity:1;stroke-dasharray:none;filter:url(#filter4375-4-1-1-1-9);font-family:Lavi;-inkscape-font-specification:Lavi"
       x="787.65729"
       y="1584.5073"
       id="text4580"
       transform="matrix(0.99628009,-0.49104872,-0.18392799,1.3011878,1393.6124,-1187.4855)"
       sodipodi:linespacing="0%"><tspan
         sodipodi:role="line"
         id="tspan4582"
         x="787.65729"
         y="1584.5073"
         style="font-size:70px;line-height:1.25;fill:#ffffff;stroke-width:1.03244162"><tspan
           style="font-size:80.40014648px;stroke-width:1.03244162"
           id="tspan4617">Vlao !</tspan></tspan></text>
    <text
       xml:space="preserve"
       style="font-style:normal;font-variant:normal;font-weight:normal;font-stretch:normal;text-align:center;line-height:0%;letter-spacing:0px;word-spacing:0px;text-anchor:middle;fill:#000000;fill-opacity:1;stroke:none;font-family:Lavi;-inkscape-font-specification:Lavi"
       x="1059.2572"
       y="1025.162"
       id="text4246-7-6-2-04"
       sodipodi:linespacing="0%"><tspan
         sodipodi:role="line"
         style="font-size:45px;line-height:1.25;stroke:none"
         x="1067.1674"
         y="1025.162"
         id="tspan943">L’ivern san </tspan><tspan
         sodipodi:role="line"
         style="font-size:45px;line-height:1.25;stroke:none"
         x="1067.1674"
         y="1081.412"
         id="tspan3503">l’Arbr a </tspan><tspan
         sodipodi:role="line"
         style="font-size:45px;line-height:1.25;stroke:none"
         x="1059.2572"
         y="1137.662"
         id="tspan3505">s’entr assenter ?</tspan></text>
    <text
       xml:space="preserve"
       style="font-style:normal;font-variant:normal;font-weight:normal;font-stretch:normal;text-align:center;line-height:0%;letter-spacing:0px;word-spacing:0px;text-anchor:middle;fill:#000000;fill-opacity:1;stroke:none;font-family:Lavi;-inkscape-font-specification:Lavi"
       x="2196.6575"
       y="1073.6553"
       id="text4246-7-6-2-04-3"
       sodipodi:linespacing="0%"><tspan
         sodipodi:role="line"
         style="font-size:45px;line-height:1.25;stroke:none"
         x="2204.5676"
         y="1073.6553"
         id="tspan934">E pourqhi pas </tspan><tspan
         sodipodi:role="line"
         style="font-size:45px;line-height:1.25;stroke:none"
         x="2204.5676"
         y="1129.9053"
         id="tspan3523">me servir de la </tspan><tspan
         sodipodi:role="line"
         style="font-size:45px;line-height:1.25;stroke:none"
         x="2204.5676"
         y="1186.1553"
         id="tspan3525">fiziqe pour le </tspan><tspan
         sodipodi:role="line"
         style="font-size:45px;line-height:1.25;stroke:none"
         x="2204.5676"
         y="1242.4053"
         id="tspan3527">faere tout </tspan><tspan
         sodipodi:role="line"
         style="font-size:45px;line-height:1.25;stroke:none"
         x="2196.6575"
         y="1298.6553"
         id="tspan3529">par mai ?</tspan></text>
    <text
       xml:space="preserve"
       style="font-style:normal;font-variant:normal;font-weight:normal;font-stretch:normal;text-align:center;line-height:0%;letter-spacing:0px;word-spacing:0px;text-anchor:middle;fill:#000000;fill-opacity:1;stroke:none;font-family:Lavi;-inkscape-font-specification:Lavi"
       x="316.27588"
       y="2249.8623"
       id="text4246-7-6-2-04-3-5"
       sodipodi:linespacing="0%"><tspan
         sodipodi:role="line"
         style="font-size:45px;line-height:1.25;stroke:none"
         x="324.18604"
         y="2249.8623"
         id="tspan993">Hè ! Je pouraes memme </tspan><tspan
         sodipodi:role="line"
         style="font-size:45px;line-height:1.25;stroke:none"
         x="324.18604"
         y="2306.1123"
         id="tspan3547">entr neuzer lez fiziqes </tspan><tspan
         sodipodi:role="line"
         style="font-size:45px;line-height:1.25;stroke:none"
         x="324.18604"
         y="2362.3623"
         id="tspan3551">d’Ippiah e de </tspan><tspan
         sodipodi:role="line"
         style="font-size:45px;line-height:1.25;stroke:none"
         x="324.18604"
         y="2418.6123"
         id="tspan3555">Chaoche-a-Oeys, </tspan><tspan
         sodipodi:role="line"
         style="font-size:45px;line-height:1.25;stroke:none"
         x="316.27588"
         y="2474.8623"
         id="tspan3553">du jamaez veù !</tspan></text>
    <text
       xml:space="preserve"
       style="font-style:normal;font-variant:normal;font-weight:normal;font-stretch:normal;text-align:center;line-height:0%;letter-spacing:0px;word-spacing:0px;text-anchor:middle;fill:#000000;fill-opacity:1;stroke:none;font-family:Lavi;-inkscape-font-specification:Lavi"
       x="883.47266"
       y="2428.2488"
       id="text4246-7-6-2-04-3-5-0"
       sodipodi:linespacing="0%"><tspan
         sodipodi:role="line"
         style="font-size:45px;line-height:1.25;stroke:none"
         x="891.38281"
         y="2428.2488"
         id="tspan3581">Un grand arbr </tspan><tspan
         sodipodi:role="line"
         style="font-size:45px;line-height:1.25;stroke:none"
         x="891.38281"
         y="2484.4988"
         id="tspan3571">vert, gerdi d’étailes </tspan><tspan
         sodipodi:role="line"
         style="font-size:45px;line-height:1.25;stroke:none"
         x="891.38281"
         y="2540.7488"
         id="tspan3573">e de graements </tspan><tspan
         sodipodi:role="line"
         style="font-size:45px;line-height:1.25;stroke:none"
         x="891.38281"
         y="2596.9988"
         id="tspan3575">solaeres tout </tspan><tspan
         sodipodi:role="line"
         style="font-size:45px;line-height:1.25;stroke:none"
         x="883.47266"
         y="2653.2488"
         id="tspan3595">menu !</tspan></text>
    <text
       xml:space="preserve"
       style="font-style:normal;font-variant:normal;font-weight:normal;font-stretch:normal;text-align:center;line-height:0%;letter-spacing:0px;word-spacing:0px;text-anchor:middle;fill:#000000;fill-opacity:1;stroke:none;font-family:Lavi;-inkscape-font-specification:Lavi"
       x="940.15674"
       y="2840.4424"
       id="text4246-7-6-2-04-3-5-0-7"
       sodipodi:linespacing="0%"><tspan
         sodipodi:role="line"
         style="font-size:45px;line-height:1.25;stroke:none"
         x="948.06689"
         y="2840.4424"
         id="tspan1050">Dame yan, </tspan><tspan
         sodipodi:role="line"
         style="font-size:45px;line-height:1.25;stroke:none"
         x="948.06689"
         y="2896.6924"
         id="tspan3604">y araet pus </tspan><tspan
         sodipodi:role="line"
         style="font-size:45px;line-height:1.25;stroke:none"
         x="940.15674"
         y="2952.9424"
         id="tspan3606">ren a redire !</tspan></text>
    <flowRoot
       xml:space="preserve"
       id="flowRoot1245"
       style="font-style:normal;font-variant:normal;font-weight:normal;font-stretch:normal;font-size:0.66666669px;line-height:318.00000668%;font-family:Neuropolitical;-inkscape-font-specification:Neuropolitical;text-align:center;letter-spacing:0px;word-spacing:0px;writing-mode:lr-tb;text-anchor:middle;fill:#000000;fill-opacity:1;stroke:none;stroke-width:1px;stroke-linecap:butt;stroke-linejoin:miter;stroke-opacity:1"><flowRegion
         id="flowRegion1247"><rect
           id="rect1249"
           width="13.224999"
           height="3.3062499"
           x="790.19373"
           y="2848.3625" /></flowRegion><flowPara
         id="flowPara1251" /></flowRoot>    <text
       xml:space="preserve"
       style="font-style:normal;font-variant:normal;font-weight:normal;font-stretch:normal;text-align:center;line-height:0%;letter-spacing:0px;word-spacing:0px;text-anchor:middle;fill:#000000;fill-opacity:1;stroke:none;font-family:Lavi;-inkscape-font-specification:Lavi"
       x="1352.1193"
       y="3170.8167"
       id="text4246"
       sodipodi:linespacing="0%"><tspan
         sodipodi:role="line"
         style="font-size:45px;line-height:1.25"
         x="1352.1193"
         y="3170.8167"
         id="tspan4252">E</tspan></text>
    <text
       xml:space="preserve"
       style="font-style:normal;font-variant:normal;font-weight:normal;font-stretch:normal;text-align:center;line-height:0%;letter-spacing:0px;word-spacing:0px;text-anchor:middle;fill:#000000;fill-opacity:1;stroke:none;font-family:Lavi;-inkscape-font-specification:Lavi"
       x="2315.259"
       y="3226.6848"
       id="text4246-6"
       transform="matrix(1,0,-0.26535297,1,0,0)"
       sodipodi:linespacing="0%"><tspan
         sodipodi:role="line"
         style="font-size:74.66666412px;line-height:1.25"
         x="2315.259"
         y="3226.6848"
         id="tspan4252-1">concrayouz</tspan></text>
    <text
       xml:space="preserve"
       style="font-style:normal;font-variant:normal;font-weight:normal;font-stretch:normal;text-align:center;line-height:0%;letter-spacing:0px;word-spacing:0px;text-anchor:middle;fill:#000000;fill-opacity:1;stroke:none;font-family:Lavi;-inkscape-font-specification:Lavi"
       x="2067.7651"
       y="2273.6401"
       id="text4246-2"
       sodipodi:linespacing="0%"><tspan
         sodipodi:role="line"
         style="font-size:45px;line-height:1.25"
         x="2075.6753"
         y="2273.6401"
         id="tspan1063">Maez pas qhession de </tspan><tspan
         sodipodi:role="line"
         style="font-size:45px;line-height:1.25"
         x="2075.6753"
         y="2329.8901"
         id="tspan3634">mener de la fiziqe </tspan><tspan
         sodipodi:role="line"
         style="font-size:45px;line-height:1.25"
         x="2067.7651"
         y="2386.1401"
         id="tspan3636">de memme ilae…</tspan></text>
    <text
       xml:space="preserve"
       style="font-style:normal;font-variant:normal;font-weight:normal;font-stretch:normal;text-align:center;line-height:0%;letter-spacing:0px;word-spacing:0px;text-anchor:middle;fill:#000000;fill-opacity:1;stroke:none;font-family:Lavi;-inkscape-font-specification:Lavi"
       x="2064.7913"
       y="3177.5769"
       id="text4246-2-3"
       sodipodi:linespacing="0%"><tspan
         sodipodi:role="line"
         style="font-size:45px;line-height:1.25"
         x="2072.7014"
         y="3177.5769"
         id="tspan1082">Mez marraenes vairaent </tspan><tspan
         sodipodi:role="line"
         style="font-size:45px;line-height:1.25"
         x="2072.7014"
         y="3233.8269"
         id="tspan3649">taloure qe je sei pas a </tspan><tspan
         sodipodi:role="line"
         style="font-size:45px;line-height:1.25"
         x="2072.7014"
         y="3290.0769"
         id="tspan3653">étudier mez </tspan><tspan
         sodipodi:role="line"
         style="font-size:45px;line-height:1.25"
         x="2064.7913"
         y="3346.3269"
         id="tspan3655">« Faeynances de Hacheriy »</tspan></text>
    <text
       xml:space="preserve"
       style="font-style:normal;font-variant:normal;font-weight:normal;font-stretch:normal;font-size:9.86460209px;line-height:0%;font-family:Lavi;-inkscape-font-specification:Lavi;text-align:center;letter-spacing:0px;word-spacing:0px;text-anchor:middle;opacity:0.553;fill:#ffffff;fill-opacity:1;stroke:#ffffff;stroke-width:0.41015577;stroke-miterlimit:4;stroke-dasharray:none;stroke-opacity:1"
       x="1723.8367"
       y="993.6333"
       id="text4246-8"
       transform="matrix(1.0148684,-0.23351779,-0.23771225,1.0400462,0,0)"><tspan
         sodipodi:role="line"
         style="font-size:25.28764343px;line-height:1.25;fill:#ffffff;stroke:#ffffff;stroke-width:0.41015577;stroke-miterlimit:4;stroke-dasharray:none;stroke-opacity:1"
         x="1723.8367"
         y="993.6333"
         id="tspan4150-8">tap</tspan></text>
    <text
       xml:space="preserve"
       style="font-style:normal;font-variant:normal;font-weight:normal;font-stretch:normal;font-size:9.86460209px;line-height:0%;font-family:Lavi;-inkscape-font-specification:Lavi;text-align:center;letter-spacing:0px;word-spacing:0px;text-anchor:middle;opacity:0.553;fill:#ffffff;fill-opacity:1;stroke:#ffffff;stroke-width:0.41015577;stroke-miterlimit:4;stroke-dasharray:none;stroke-opacity:1"
       x="659.43341"
       y="516.69019"
       id="text4246-8-3"
       transform="matrix(1.0294788,0.15704104,-0.60436617,0.87917276,0,0)"><tspan
         sodipodi:role="line"
         style="font-size:25.28764343px;line-height:1.25;fill:#ffffff;stroke:#ffffff;stroke-width:0.41015577;stroke-miterlimit:4;stroke-dasharray:none;stroke-opacity:1"
         x="659.43341"
         y="516.69019"
         id="tspan4150-8-6">Ffff</tspan></text>
    <text
       xml:space="preserve"
       style="font-size:13.87211895px;font-style:normal;font-variant:normal;font-weight:normal;font-stretch:normal;text-align:center;line-height:0%;letter-spacing:0px;word-spacing:0px;text-anchor:middle;fill:#000000;fill-opacity:1;stroke:#000000;stroke-width:1.60000002;stroke-miterlimit:4;stroke-opacity:1;stroke-dasharray:none;font-family:Lavi;-inkscape-font-specification:Lavi"
       x="1266.6932"
       y="1097.2266"
       id="text4246-7-6-2-04-7"
       transform="matrix(1,0,-0.18496207,1,0,0)"
       sodipodi:linespacing="0%"><tspan
         sodipodi:role="line"
         style="font-size:52.02044678px;line-height:1.25;stroke:#000000;stroke-width:1.60000002;stroke-miterlimit:4;stroke-opacity:1;stroke-dasharray:none"
         x="1266.6932"
         y="1097.2266"
         id="tspan1006-5" /><tspan
         sodipodi:role="line"
         style="font-size:52.02044678px;line-height:1.25;stroke:#000000;stroke-width:1.60000002;stroke-miterlimit:4;stroke-opacity:1;stroke-dasharray:none"
         x="1266.6932"
         y="1162.2521"
         id="tspan1008-6" /><tspan
         sodipodi:role="line"
         style="font-size:52.02044678px;line-height:1.25;stroke:#000000;stroke-width:1.60000002;stroke-miterlimit:4;stroke-opacity:1;stroke-dasharray:none"
         x="1275.8374"
         y="1227.2777"
         id="tspan1010-2">Nouna  </tspan><tspan
         sodipodi:role="line"
         style="font-size:52.02044678px;line-height:1.25;stroke:#000000;stroke-width:1.60000002;stroke-miterlimit:4;stroke-opacity:1;stroke-dasharray:none"
         x="1275.8374"
         y="1292.3032"
         id="tspan3507">tourjous ! </tspan></text>
    <text
       xml:space="preserve"
       style="font-style:normal;font-variant:normal;font-weight:normal;font-stretch:normal;line-height:0%;font-family:Lavi;-inkscape-font-specification:Lavi;text-align:center;letter-spacing:0px;word-spacing:0px;text-anchor:middle;display:inline;fill:#000000;fill-opacity:1;stroke:#000000;stroke-width:1.10000002;stroke-miterlimit:4;stroke-dasharray:none;stroke-opacity:1"
       x="811.54419"
       y="1010.7184"
       id="text4246-7-6-2"
       transform="skewX(-26.235822)"><tspan
         sodipodi:role="line"
         style="font-size:45px;line-height:1.25;stroke:#000000;stroke-width:1.10000002;stroke-miterlimit:4;stroke-dasharray:none;stroke-opacity:1"
         x="811.54419"
         y="1010.7184"
         id="tspan1069-6">Grrrrr… !!!</tspan></text>
    <text
       sodipodi:linespacing="0%"
       xml:space="preserve"
       style="font-style:normal;font-variant:normal;font-weight:normal;font-stretch:normal;text-align:center;line-height:0%;letter-spacing:0px;word-spacing:0px;text-anchor:middle;fill:#000000;fill-opacity:1;stroke:none;display:inline;font-family:Lavi;-inkscape-font-specification:Lavi"
       x="1449.1381"
       y="3282.7412"
       id="text4246-1"
       inkscape:transform-center-x="142.90313"
       inkscape:transform-center-y="71.451564"><tspan
         sodipodi:role="line"
         style="font-size:45px;line-height:1.25"
         x="1449.1381"
         y="3282.7412"
         id="tspan4252-7">en sur qe tout !</tspan></text>
  </g>
</svg>
