<?xml version="1.0" encoding="UTF-8" standalone="no"?>
<svg
   xmlns:dc="http://purl.org/dc/elements/1.1/"
   xmlns:cc="http://creativecommons.org/ns#"
   xmlns:rdf="http://www.w3.org/1999/02/22-rdf-syntax-ns#"
   xmlns:svg="http://www.w3.org/2000/svg"
   xmlns="http://www.w3.org/2000/svg"
   xmlns:xlink="http://www.w3.org/1999/xlink"
   xmlns:sodipodi="http://sodipodi.sourceforge.net/DTD/sodipodi-0.dtd"
   xmlns:inkscape="http://www.inkscape.org/namespaces/inkscape"
   id="svg2"
   version="1.1"
   inkscape:version="1.0.2 (e86c8708, 2021-01-15)"
   width="2481"
   height="3503"
   sodipodi:docname="E35P07.svg">
  <metadata
     id="metadata8">
    <rdf:RDF>
      <cc:Work
         rdf:about="">
        <dc:format>image/svg+xml</dc:format>
        <dc:type
           rdf:resource="http://purl.org/dc/dcmitype/StillImage" />
        <dc:title />
      </cc:Work>
    </rdf:RDF>
  </metadata>
  <defs
     id="defs6">
    <filter
       style="color-interpolation-filters:sRGB"
       id="filter4375-4-1-1-1-9-5-8-8-5-5-3-8"
       inkscape:label="soundFX1"
       x="-0.044353127"
       y="-0.0023842071"
       width="1.0467294"
       height="1.0447156">
      <feFlood
         id="feFlood4377-7-9-0-8-1-7-3-1-2-7-6-7"
         flood-opacity="1"
         flood-color="rgb(255,255,255)"
         result="flood" />
      <feComposite
         id="feComposite4379-3-8-8-2-77-4-1-0-6-4-7-9"
         in2="SourceGraphic"
         in="flood"
         operator="in"
         result="composite1"
         baseFrequency="0.053999999999999999 0.053999999999999999" />
      <feMorphology
         id="feMorphology4393-1-0-49-8-9-3-0-1-9-9-5-2"
         operator="dilate"
         radius="2.9756367599225957"
         result="result3" />
      <feComposite
         id="feComposite4385-9-5-7-0-8-8-7-5-4-9-3-0"
         in2="result3"
         in="SourceGraphic"
         operator="over"
         result="fbSourceGraphic" />
      <feColorMatrix
         result="fbSourceGraphicAlpha"
         in="fbSourceGraphic"
         values="0 0 0 -1 0 0 0 0 -1 0 0 0 0 -1 0 0 0 0 1 0"
         id="feColorMatrix4544-9-4-4-5-2" />
      <feTurbulence
         id="feTurbulence4546-3-6-5-6-3"
         type="fractalNoise"
         numOctaves="5"
         seed="174"
         baseFrequency="0.053999999999999999 0.054054054054054057"
         result="turbulence" />
      <feDisplacementMap
         id="feDisplacementMap4548-8-0-9-2-7"
         in2="turbulence"
         in="fbSourceGraphic"
         scale="6.6"
         yChannelSelector="G"
         xChannelSelector="R"
         result="fbSourceGraphic" />
      <feColorMatrix
         result="fbSourceGraphicAlpha"
         in="fbSourceGraphic"
         values="0 0 0 -1 0 0 0 0 -1 0 0 0 0 -1 0 0 0 0 1 0"
         id="feColorMatrix4670-7-7-3-9-5" />
      <feFlood
         id="feFlood4672-4-4-5-1-9"
         flood-opacity="1"
         flood-color="rgb(255,255,255)"
         result="flood"
         in="fbSourceGraphic" />
      <feComposite
         id="feComposite4674-8-3-7-2-22"
         in2="fbSourceGraphic"
         in="flood"
         operator="in"
         result="composite1" />
      <feGaussianBlur
         id="feGaussianBlur4676-3-7-08-7-8"
         in="composite1"
         stdDeviation="0"
         result="blur" />
      <feOffset
         id="feOffset4678-6-9-1-0-9"
         dx="-6.3258232761971414"
         dy="6"
         result="offset" />
      <feComposite
         id="feComposite4680-4-0-9-9-7"
         in2="offset"
         in="fbSourceGraphic"
         operator="over"
         result="composite2" />
    </filter>
  </defs>
  <sodipodi:namedview
     pagecolor="#ffffff"
     bordercolor="#666666"
     borderopacity="1"
     objecttolerance="10"
     gridtolerance="10"
     guidetolerance="10"
     inkscape:pageopacity="0"
     inkscape:pageshadow="2"
     inkscape:window-width="1429"
     inkscape:window-height="943"
     id="namedview4"
     showgrid="false"
     inkscape:zoom="0.60128955"
     inkscape:cx="1256.0478"
     inkscape:cy="738.82695"
     inkscape:window-x="0"
     inkscape:window-y="25"
     inkscape:window-maximized="0"
     inkscape:current-layer="layer1"
     inkscape:document-rotation="0"
     inkscape:snap-global="false"
     inkscape:pagecheckerboard="0" />
  <g
     inkscape:groupmode="layer"
     id="layer2"
     inkscape:label="artwork"
     sodipodi:insensitive="true">
    <image
       sodipodi:absref="/Users/gand/Downloads/webcomics-master-new-ep35_The-Reflection/new-ep35_The-Reflection/lang/gfx_Pepper-and-Carrot_by-David-Revoy_E35P07.png"
       xlink:href="../gfx_Pepper-and-Carrot_by-David-Revoy_E35P07.png"
       y="0"
       x="0"
       id="image10"
       height="3503"
       width="2481" />
  </g>
  <g
     inkscape:groupmode="layer"
     id="layer3"
     inkscape:label="speechbubbles">
    <path
       style="fill:#ffffff;stroke:none;stroke-width:1.04404"
       d="M 1995.7988 260.05078 C 1964.8346 260.68883 1933.4501 271.39102 1910.6133 292.73828 C 1888.6705 313.52792 1875.0946 341.75982 1867.9607 370.82996 C 1863.1314 390.04456 1860.5327 410.65588 1866.2429 429.98279 C 1873.1158 452.45457 1890.1535 470.66452 1910.1292 482.41553 C 1939.7119 500.17313 1974.8788 506.73328 2009.0641 505.6364 C 2044.8756 504.7705 2080.9843 501.72957 2115.5211 491.72609 C 2133.2854 485.94833 2150.5115 475.62925 2160.4501 459.36364 C 2169.7522 444.241 2172.0749 425.91436 2170.8756 408.47888 C 2169.8345 379.11925 2161.0415 350.15566 2145.8673 325.01991 C 2134.923 306.49222 2121.3087 288.66745 2102.579 277.46552 C 2086.4303 267.59598 2067.3769 264.4517 2048.8552 262.48287 C 2031.2503 260.46136 2013.5062 260.00006 1995.7988 260.05078 z "
       id="path3280-8"
       inkscape:connector-curvature="0"
       sodipodi:nodetypes="csssc" />
    <path
       style="fill:#ffffff;fill-rule:evenodd;stroke:none;stroke-width:0.934796px;stroke-linecap:butt;stroke-linejoin:miter;stroke-opacity:1"
       d="m 1937.2471,432.07438 c -6.2176,11.12141 -85.6078,33.31577 -108.1931,83.17757 30.1276,-36.25015 118.0705,-48.01797 132.9745,-62.07815 51.3058,-16.19189 -3.5494,-23.72277 -24.7814,-21.09942 z"
       id="path4186"
       inkscape:connector-curvature="0"
       sodipodi:nodetypes="cccc" />
    <path
       style="fill:#ffffff;fill-rule:evenodd;stroke:none;stroke-width:1px;stroke-linecap:butt;stroke-linejoin:miter;stroke-opacity:1"
       d="m 1557.7613,1692.8906 134.1326,-31.6108 -24.0947,-23.8017 91.2177,-24.1969 -16.3502,-24.7111 -106.501,38.013 26.5589,28.0558 z"
       id="path4667"
       inkscape:connector-curvature="0" />
    <path
       style="color:#000000;display:inline;overflow:visible;visibility:visible;fill:#ffffff;fill-opacity:1;fill-rule:nonzero;stroke:none;stroke-width:1.12843px;marker:none;enable-background:accumulate"
       d="m 391.5769,3167.8318 c -7.23811,18.6619 -52.05781,10.3174 -67.0863,6.0688 30.29393,21.9362 29.23779,35.0172 -11.89282,35.9167 66.66118,33.4978 16.76424,34.0668 -4.37526,28.9926 34.17899,17.7527 36.20827,33.9683 1.44476,42.1393 62.25111,2.2759 47.18102,15.2452 23.61283,33.8563 27.56221,-11.85 70.07971,-19.7446 71.58827,13.2682 39.93547,-27.7008 60.54023,-26.571 74.98161,6.3976 12.06307,-27.7524 53.13847,-32.0237 68.84482,-1.3015 13.53004,-40.6183 61.80672,-33.5147 90.54409,-12.8552 -16.13182,-14.4659 -5.1314,-37.249 49.86772,-31.0622 -4.42692,-12.9748 2.53485,-29.0046 30.3088,-26.096 -31.99215,-8.6461 -37.88812,-16.8174 21.51402,-23.7957 -45.20156,-2.0802 -87.35236,-4.9518 -34.32109,-32.8773 -16.63734,-1.1704 -58.67096,30.7099 -40.26671,-40.548 -48.72724,19.8167 -97.37037,20.7746 -94.85121,-23.6066 -18.11546,23.5432 -49.53633,34.5732 -63.20604,4.1646 -11.28433,27.7421 -45.55915,15.049 -63.36432,-4.5901 -11.76476,18.6771 -19.50089,52.7905 -53.34317,25.9285 z"
       id="path3549-3-7-8"
       inkscape:connector-curvature="0"
       sodipodi:nodetypes="ccccccccccccccccccc" />
    <path
       style="color:#000000;display:inline;overflow:visible;visibility:visible;fill:#ffffff;fill-opacity:1;fill-rule:nonzero;stroke:none;stroke-width:1.14795px;marker:none;enable-background:accumulate"
       d="m 380.8847,2971.7241 c 50.81381,46.6958 -51.16424,30.4543 -70.7248,24.0162 51.12499,16.4345 39.66243,43.8191 -13.33188,52.4096 91.49571,44.9742 19.73672,59.9513 1.67241,60.609 60.71298,18.9496 47.41881,33.4731 36.60978,56.9499 118.71243,-26.8552 35.9076,46.2035 36.0184,77.4707 5.91595,-14.0641 96.79151,-146.4956 35.71213,-9.2072 46.15776,-45.484 101.7536,-74.8643 106.1681,4.7328 18.59772,-40.0433 37.13963,-56.9669 35.7121,-9.2073 46.07936,-62.1175 112.91324,-45.7552 154.56734,-28.1985 -54.08313,-47.1673 -21.12344,-43.654 38.96183,-30.5302 -69.90792,-32.3441 -63.97209,-47.1121 17.19843,-43.2174 -35.86322,-11.2255 -42.47273,-22.8046 24.11729,-35.2653 -51.17442,-2.0316 -107.37942,-19.2028 -38.47402,-46.1693 -25.95165,2.3658 -122.97246,-3.2773 -42.26966,-69.3398 -63.33899,24.8605 -128.54203,34.9112 -109.19786,-18.0328 -53.99339,32.1536 -59.65537,51.6485 -70.85403,8.5439 -19.09699,37.4088 -43.90075,14.2383 -71.0315,-4.1082 19.74219,29.2486 -24.3557,46.494 -70.85406,8.5439 z"
       id="path3549-3-7"
       inkscape:connector-curvature="0"
       sodipodi:nodetypes="ccccccccccccccccccc" />
    <path
       style="fill:#ffffff;fill-rule:evenodd;stroke:none;stroke-width:1.61403px;stroke-linecap:butt;stroke-linejoin:miter;stroke-opacity:1"
       d="m 559.65143,2966.4499 c 7.81388,-49.8207 8.23157,-62.9667 6.02019,-75.0728 -2.2114,-12.106 -16.03862,-8.1385 -26.02653,-3.643 -6.53887,2.9161 -28.34548,24.9309 -13.34891,-11.2886 14.99673,-36.2194 33.04009,-86.6247 37.65555,-102.5126 -15.5946,27.8024 -42.45502,71.0937 -50.25242,84.9947 -7.79723,13.9012 -19.54665,39.459 -22.39666,47.151 -3.46707,9.3577 -1.1372,19.0591 14.63013,17.8664 24.66487,-3.6362 41.86312,-37.8298 13.23772,21.5203 -28.62567,59.3501 4.95095,150.5651 4.95095,150.5651 z"
       id="path1089"
       inkscape:connector-curvature="0"
       sodipodi:nodetypes="csccccscccc" />
    <path
       style="color:#000000;display:inline;overflow:visible;visibility:visible;fill:#ffffff;fill-opacity:1;fill-rule:nonzero;stroke:none;stroke-width:1.25018px;marker:none;enable-background:accumulate"
       d="m 1739.9382,1479.4618 c -3.087,39.3562 -61.5763,13.8841 -89.3512,3.8653 33.1046,22.1753 58.2343,51.777 -14.7184,49.9172 81.9226,39.3017 27.1553,37.3789 13.9507,47.3439 64.3245,13.5445 45.838,30.8892 4.55,40.3253 73.9345,0.5764 56.0361,14.4096 28.0445,34.3158 32.7354,-13.0326 83.2325,-22.4042 85.0243,11.6703 47.4307,-29.767 71.9027,-29.1872 89.0544,4.4729 14.3271,-29.0252 63.1117,-34.6113 81.7659,-3.3088 16.0695,-42.3636 73.4068,-36.3993 107.5377,-15.8681 -19.1594,-14.49 -6.0944,-38.3493 59.2273,-33.5242 -5.2579,-13.2829 3.0105,-30.0478 35.9972,-27.834 -37.9966,-8.0229 -44.9991,-16.2995 25.5518,-25.2057 -53.6851,-0.8606 -103.7471,-2.626 -40.7626,-32.9988 -19.7598,-0.7349 -66.6426,24.609 -44.784,-49.5587 -57.8727,21.8696 -118.6853,33.0497 -115.6934,-12.8888 -21.5154,24.8479 -58.8335,37.1432 -75.0687,6.1069 -13.4023,28.9924 -54.1101,16.8521 -75.2569,-2.9362 -13.9727,19.6377 -34.8747,32.9013 -75.0686,6.1057 z"
       id="path3549-3-7-8-6"
       inkscape:connector-curvature="0"
       sodipodi:nodetypes="ccccccccccccccccccc" />
  </g>
  <g
     inkscape:groupmode="layer"
     id="layer1"
     inkscape:label="txt">
    <text
       xml:space="preserve"
       style="font-style:normal;font-variant:normal;font-weight:normal;font-stretch:normal;font-size:45px;line-height:1.25;font-family:Lavi;-inkscape-font-specification:Lavi;text-align:center;letter-spacing:0px;word-spacing:0px;text-anchor:middle;fill:#000000;fill-opacity:1;stroke:none"
       x="2020.3785"
       y="336.14099"
       id="text4246-3-2-2"><tspan
         style="font-size:45px"
         sodipodi:role="line"
         x="2020.3785"
         y="336.14099"
         id="tspan873">Ottimo! </tspan><tspan
         style="font-size:45px"
         sodipodi:role="line"
         x="2020.3785"
         y="392.39099"
         id="tspan879">Ci stanno </tspan><tspan
         style="font-size:45px"
         sodipodi:role="line"
         x="2020.3785"
         y="448.64099"
         id="tspan886">seguendo!</tspan></text>
    <text
       xml:space="preserve"
       style="font-style:normal;font-variant:normal;font-weight:normal;font-stretch:normal;font-size:45px;line-height:1.25;font-family:Lavi;-inkscape-font-specification:Lavi;text-align:center;letter-spacing:0px;word-spacing:0px;text-anchor:middle;fill:#000000;fill-opacity:1;stroke:none"
       x="1895.5864"
       y="1543.5004"
       id="text4246-3-2-2-3"><tspan
         style="font-size:45px"
         sodipodi:role="line"
         x="1895.5864"
         y="1543.5004"
         id="tspan887">Presto ci </tspan><tspan
         style="font-size:45px"
         sodipodi:role="line"
         x="1895.5864"
         y="1599.7504"
         id="tspan922">libereremo di loro.</tspan></text>
    <text
       xml:space="preserve"
       style="font-style:normal;font-variant:normal;font-weight:normal;font-stretch:normal;font-size:50.2786px;line-height:1.25;font-family:Lavi;-inkscape-font-specification:Lavi;text-align:center;letter-spacing:0px;word-spacing:0px;text-anchor:middle;fill:#000000;fill-opacity:1;stroke:none;stroke-width:1.1173"
       x="531.13611"
       y="3075.8477"
       id="text4246-3-2-2-3-3"><tspan
         style="font-style:normal;font-variant:normal;font-weight:bold;font-stretch:normal;font-size:50.2786px;font-family:Lavi;-inkscape-font-specification:'Lavi Bold';stroke-width:1.1173"
         sodipodi:role="line"
         x="531.13611"
         y="3075.8477"
         id="tspan894">Non vedo l'ora </tspan><tspan
         style="font-style:normal;font-variant:normal;font-weight:bold;font-stretch:normal;font-size:50.2786px;font-family:Lavi;-inkscape-font-specification:'Lavi Bold';stroke-width:1.1173"
         sodipodi:role="line"
         x="531.13611"
         y="3139.2844"
         id="tspan278">di finirla!</tspan></text>
    <text
       xml:space="preserve"
       style="font-style:normal;font-variant:normal;font-weight:normal;font-stretch:normal;font-size:57.3248px;line-height:1.25;font-family:Lavi;-inkscape-font-specification:Lavi;text-align:center;letter-spacing:0px;word-spacing:0px;text-anchor:middle;fill:#000000;fill-opacity:1;stroke:none;stroke-width:1.27388"
       x="517.26379"
       y="3258.7009"
       id="text4246-3-2-2-3-3-3"><tspan
         style="font-style:normal;font-variant:normal;font-weight:bold;font-stretch:normal;font-size:57.3248px;font-family:Lavi;-inkscape-font-specification:'Lavi Bold';stroke-width:1.27388"
         sodipodi:role="line"
         x="517.26379"
         y="3258.7009"
         id="tspan1015">Uhahaha!</tspan></text>
    <text
       xml:space="preserve"
       style="font-style:normal;font-variant:normal;font-weight:normal;font-stretch:normal;font-size:105.817px;line-height:1.25;font-family:Lavi;-inkscape-font-specification:Lavi;letter-spacing:0px;word-spacing:0px;fill:#000000;fill-opacity:1;stroke:#030303;stroke-width:0.716208;stroke-miterlimit:4;stroke-dasharray:none;stroke-opacity:1;filter:url(#filter4375-4-1-1-1-9-5-8-8-5-5-3-8)"
       x="787.65729"
       y="1584.5073"
       id="text4580-6-0-0-0-9-3-36"
       transform="matrix(1.0545214,-0.26714456,-0.41513081,1.2309466,1890.7199,857.1408)"><tspan
         style="font-size:195.17px;fill:#000000;fill-opacity:1;stroke:#030303;stroke-width:0.716208;stroke-miterlimit:4;stroke-dasharray:none;stroke-opacity:1"
         sodipodi:role="line"
         id="tspan876-6-1"
         x="787.65729"
         y="1584.5073">!<tspan
   style="font-size:173.821px;fill:#000000;stroke:#030303;stroke-opacity:1"
   id="tspan1317">!</tspan><tspan
   id="tspan1322"
   style="font-size:152.472px;fill:#000000;stroke:#030303;stroke-opacity:1">!</tspan></tspan></text>
  </g>
</svg>
