<?xml version="1.0" encoding="UTF-8" standalone="no"?>
<!-- Created with Inkscape (http://www.inkscape.org/) -->

<svg
   xmlns:dc="http://purl.org/dc/elements/1.1/"
   xmlns:cc="http://creativecommons.org/ns#"
   xmlns:rdf="http://www.w3.org/1999/02/22-rdf-syntax-ns#"
   xmlns:svg="http://www.w3.org/2000/svg"
   xmlns="http://www.w3.org/2000/svg"
   xmlns:xlink="http://www.w3.org/1999/xlink"
   xmlns:sodipodi="http://sodipodi.sourceforge.net/DTD/sodipodi-0.dtd"
   xmlns:inkscape="http://www.inkscape.org/namespaces/inkscape"
   id="svg2"
   version="1.1"
   inkscape:version="0.92.4 (5da689c313, 2019-01-14)"
   width="2481"
   height="3503"
   sodipodi:docname="E32P05.svg">
  <metadata
     id="metadata8">
    <rdf:RDF>
      <cc:Work
         rdf:about="">
        <dc:format>image/svg+xml</dc:format>
        <dc:type
           rdf:resource="http://purl.org/dc/dcmitype/StillImage" />
        <dc:title />
      </cc:Work>
    </rdf:RDF>
  </metadata>
  <defs
     id="defs6">
    <filter
       style="color-interpolation-filters:sRGB"
       id="filter4375-4-1-1-1-9-6-9-2-1-7-1"
       inkscape:label="deevad outline effect">
      <feFlood
         id="feFlood4377-7-9-0-8-1-0-2-2-06-3-9"
         flood-opacity="1"
         flood-color="rgb(0,0,0)"
         result="flood" />
      <feComposite
         id="feComposite4379-3-8-8-2-77-6-0-8-3-6-4"
         in2="SourceGraphic"
         in="flood"
         operator="in"
         result="composite1" />
      <feMorphology
         id="feMorphology4393-1-0-49-8-9-2-2-9-2-1-7"
         operator="dilate"
         radius="4"
         result="result3" />
      <feComposite
         id="feComposite4385-9-5-7-0-8-6-3-7-0-2-8"
         in2="result3"
         in="SourceGraphic"
         operator="over"
         result="composite2" />
    </filter>
    <filter
       style="color-interpolation-filters:sRGB"
       id="filter4375-4-1-1-1-9-6-9-2-1-7-1-2"
       inkscape:label="deevad outline effect">
      <feFlood
         id="feFlood4377-7-9-0-8-1-0-2-2-06-3-9-7"
         flood-opacity="1"
         flood-color="rgb(0,0,0)"
         result="flood" />
      <feComposite
         id="feComposite4379-3-8-8-2-77-6-0-8-3-6-4-0"
         in2="SourceGraphic"
         in="flood"
         operator="in"
         result="composite1" />
      <feMorphology
         id="feMorphology4393-1-0-49-8-9-2-2-9-2-1-7-9"
         operator="dilate"
         radius="4"
         result="result3" />
      <feComposite
         id="feComposite4385-9-5-7-0-8-6-3-7-0-2-8-3"
         in2="result3"
         in="SourceGraphic"
         operator="over"
         result="composite2" />
    </filter>
    <filter
       style="color-interpolation-filters:sRGB"
       id="filter4375-4-1-1-1-9"
       inkscape:label="deevad outline effect">
      <feFlood
         id="feFlood4377-7-9-0-8-1"
         flood-opacity="1"
         flood-color="rgb(0,0,0)"
         result="flood" />
      <feComposite
         id="feComposite4379-3-8-8-2-77"
         in2="SourceGraphic"
         in="flood"
         operator="in"
         result="composite1" />
      <feMorphology
         id="feMorphology4393-1-0-49-8-9"
         operator="dilate"
         radius="4"
         result="result3" />
      <feComposite
         id="feComposite4385-9-5-7-0-8"
         in2="result3"
         in="SourceGraphic"
         operator="over"
         result="composite2" />
    </filter>
    <filter
       inkscape:collect="always"
       style="color-interpolation-filters:sRGB"
       id="filter1101"
       x="-0.12972304"
       width="1.2594461"
       y="-0.36928496"
       height="1.7385699">
      <feGaussianBlur
         inkscape:collect="always"
         stdDeviation="22.559027"
         id="feGaussianBlur1103" />
    </filter>
  </defs>
  <sodipodi:namedview
     pagecolor="#ffffff"
     bordercolor="#666666"
     borderopacity="1"
     objecttolerance="10"
     gridtolerance="10"
     guidetolerance="10"
     inkscape:pageopacity="0"
     inkscape:pageshadow="2"
     inkscape:window-width="1858"
     inkscape:window-height="1057"
     id="namedview4"
     showgrid="false"
     inkscape:zoom="0.52900001"
     inkscape:cx="1213.2293"
     inkscape:cy="621.1317"
     inkscape:window-x="54"
     inkscape:window-y="-8"
     inkscape:window-maximized="1"
     inkscape:current-layer="layer1"
     inkscape:snap-global="false" />
  <g
     inkscape:groupmode="layer"
     id="layer2"
     inkscape:label="artwork"
     sodipodi:insensitive="true">
    <image
       sodipodi:absref="D:\Documents\Others\webcomics\new-ep32_The-Battlefield\lang\id\../gfx_Pepper-and-Carrot_by-David-Revoy_E32P05.png"
       xlink:href="../gfx_Pepper-and-Carrot_by-David-Revoy_E32P05.png"
       width="2481"
       height="3503"
       id="image10"
       x="0"
       y="0" />
  </g>
  <g
     inkscape:groupmode="layer"
     id="layer3"
     inkscape:label="speechbubbles"
     style="display:inline">
    <path
       style="display:inline;fill:#ffffff;fill-rule:evenodd;stroke:none;stroke-width:1.03901279px;stroke-linecap:butt;stroke-linejoin:miter;stroke-opacity:1"
       d="m 1153.3412,1463.957 c -1.0513,10.9428 -0.3449,22.5718 -6.0216,32.5871 -7.4267,10.9342 -21.5096,16.623 -35.1057,17.0951 -12.8192,0.5421 -25.7258,-1.3381 -37.8083,-5.3189 -3.5325,1.8776 -2.6376,6.844 0.3133,8.8192 6.8989,9.2679 13.8187,19.4396 14.2669,31.0363 0.8057,8.0174 -3.3036,17.061 -11.7055,20.2527 -6.3586,2.5551 -13.4533,2.0176 -20.196,1.6848 1.7943,3.2226 5.4619,4.9871 7.7474,7.8619 4.8092,4.5439 9.5871,10.4496 8.6808,17.1846 -1.3204,9.2375 -9.7343,16.5786 -19.2182,18.8827 -3.5632,1.6961 -7.1264,3.3923 -10.6895,5.0884 17.5924,-0.8155 35.6401,-2.7152 52.8767,1.7226 9.6785,3.3543 12.2472,16.9548 4.3984,23.1699 -5.8781,6.3539 -13.2176,11.3083 -19.9632,16.8125 25.2607,-3.4291 50.4894,-9.3587 76.2071,-7.7721 6.9638,0.3856 14.3858,1.4594 19.7967,5.9033 4.5053,3.3093 8.0737,7.6649 10.4602,12.5017 8.0365,2.6087 16.4113,-0.3538 24.1142,-2.5664 17.7457,-5.4376 34.7956,-12.9953 53.2063,-16.4376 3.8739,0.7788 7.1112,3.5474 8.5162,6.9493 8.6528,2.2412 17.2553,-1.3097 25.6867,-2.7571 6.7367,-1.3461 13.5287,-2.7699 20.4555,-2.8015 3.3461,3.638 7.8231,7.4776 13.3953,6.9019 16.6561,0.835 33.8463,-0.6599 49.9084,4.3807 9.9897,4.1195 17.7765,11.8812 23.0433,20.6256 17.0661,-8.9909 31.7188,-22.0493 50.5595,-28.0098 12.9515,-4.3383 28.8128,-2.6979 39.0814,6.2522 2.8954,2.5261 5.3891,5.411 7.7503,8.3669 7.5277,-5.1811 13.9811,-12.4992 23.5139,-14.5117 13.8772,-3.9962 28.6147,-1.6573 42.503,1.0176 12.2867,2.161 24.4974,4.68 36.6434,7.4375 -6.6021,-5.1788 -12.1324,-12.5211 -12.1385,-20.8125 1.7718,-6.7253 9.3048,-11.6557 16.7414,-10.9355 -2.1276,-4.2752 -3.1243,-10.1594 0.8602,-13.7996 6.3255,-5.6264 15.511,-6.5322 23.8276,-7.2891 2.1958,-0.2719 4.3916,-0.5438 6.5874,-0.8156 -14.7329,-7.597 -18.7638,-28.2054 -7.7698,-40.0703 7.2298,-7.0826 16.2279,-12.34 25.439,-16.9258 -13.2207,-0.6773 -26.6267,2.2892 -39.6986,-0.584 -7.2997,-4.2904 -10.3402,-12.2299 -15.8715,-18.0419 -3.0643,-5.7999 0.086,-13.0044 5.5639,-16.5283 11.8159,-11.0312 23.1197,-22.641 32.3222,-35.6784 5.3412,-7.1868 10.2576,-14.6358 14.9936,-22.1752 -15.6344,19.6818 -37.457,35.769 -63.0091,42.6724 -8.4754,2.4632 -17.1857,5.5553 -26.2308,4.5815 -4.5112,-1.9666 -8.3515,-5.992 -13.7052,-5.7344 -9.5324,3.3561 -19.0649,6.7122 -28.5974,10.0683 -2.8105,-2.0256 -4.9112,-4.8843 -5.8933,-8.0566 -9.1937,0.411 -18.7255,-1.0989 -26.6513,-5.6133 -3.9251,-5.9477 -4.4681,-13.616 -1.6235,-20.0469 -12.8233,8.4929 -23.9163,18.932 -35.8992,28.3672 -12.2265,-2.193 -22.3233,-10.7951 -35.0895,-10.9922 -34.4425,-2.6757 -69.0893,-5.4418 -103.6487,-3.0677 -16.6997,2.452 -33.5274,6.9416 -50.5644,4.6844 -16.681,-1.6019 -33.7925,-4.4384 -50.3852,-0.6881 -8.2988,1.796 -17.7705,2.7429 -25.3579,-1.6373 -12.0974,-6.4628 -19.7713,-17.6313 -28.7639,-27.1508 -2.4712,-2.7756 -5.0102,-5.4987 -7.5908,-8.1873 -0.088,0.6992 -0.1758,1.3984 -0.2636,2.0976 z"
       id="path4508-9"
       inkscape:connector-curvature="0"
       sodipodi:nodetypes="cccccccccccccccccccccccccccccccccccccccccccccccccccc" />
    <path
       style="display:inline;fill:#ffffff;fill-rule:evenodd;stroke:none;stroke-width:1.04624879px;stroke-linecap:butt;stroke-linejoin:miter;stroke-opacity:1"
       d="m 1222.6774,1551.6001 c -0.6664,14.9763 -3.5753,30.4744 -12.7636,43.1992 -16.2927,9.9032 -39.6814,8.0436 -54.1139,-3.9336 -3.8602,1.0549 -3.1258,5.9619 -0.7196,7.9977 4.9974,13.7745 10.1172,27.5385 13.8573,41.6546 -4.914,4.279 -14.0671,2.8847 -17.1978,-2.6171 1.4963,8.6577 9.9605,15.0735 10.1618,24.0527 -3.5494,6.8509 -9.9079,8.5402 -22.0266,10.7721 5.8151,6.4634 12.7285,13.6119 12.2552,22.5472 -0.3975,10.3506 -9.8223,18.5756 -20.0091,21.838 -1.3388,0.4177 -0.753,1.3365 0.4604,1.0804 17.8413,2.5904 36.77,0.1279 53.6992,6.9673 12.067,3.8318 22.4293,14.403 21.9249,26.5313 -0.1995,2.4172 -1.3578,4.6955 -1.3833,7.1289 10.9296,-3.685 21.6985,-8.7143 33.5638,-9.1211 4.715,2.217 5.7282,8.9238 1.7638,12.1739 13.5421,-0.8761 23.0077,-12.6591 36.7891,-12.661 4.4528,-0.2209 8.6529,3.728 7.7752,7.7668 2.0878,2.4778 6.255,-3.4752 9.0112,-3.6732 7.8277,-1.7096 6.6015,-2.3202 14.7737,-2.6628 2.9171,1.0566 6.6155,1.9214 10.0713,6.7575 5.7848,-1.6599 8.429,-3.2964 12.1231,-3.2618 11.972,-1.9429 19.5309,-9.5681 36.323,-4.0373 11.1805,2.6901 16.8445,11.4501 23.1046,16.5363 3.5171,-4.9904 7.693,-8.3773 11.3165,-11.6886 6.523,-9.0484 18.6695,-11.7554 30.2224,-13.0204 9.898,-2.4924 20.1328,1.1364 30.1465,4.914 6.1222,2.837 11.5632,6.8716 18.071,9.009 5.1007,-2.9935 10.6436,-7.6176 17.1965,-5.8788 6.7766,1.2629 12.7106,4.7237 19.2643,6.6014 -3.8557,-5.2749 -9.8805,-9.9378 -10.2965,-16.6953 2.5181,-4.1426 7.7828,-5.7219 12.4836,-6.8906 -0.2164,-5.8386 4.9366,-10.7273 10.6599,-12.6035 1.205,-4.2932 -4.241,-6.3524 -5.9953,-9.6772 -4.317,-6.1856 -2.4835,-16.333 5.6717,-18.9876 4.6964,-1.6863 10.011,-1.1902 14.5987,-3.2024 -0.197,-3.6135 -5.0554,-3.559 -7.874,-4.4551 -8.1821,-2.3525 -17.3709,-5.8666 -20.9036,-13.6003 -1.4125,-4.5717 2.7093,-8.5977 2.8224,-12.9751 -2.0738,-3.1602 -7.1336,-5.5187 -5.905,-9.8157 3.0217,-12.6493 13.7219,-21.8467 21.2563,-32.3092 11.2684,-14.1637 22.5368,-28.3274 33.8051,-42.4911 -18.4447,16.7767 -36.8192,33.8856 -58.3172,47.4531 -5.1672,-0.2747 -8.0908,-6.8783 -4.5859,-10.3574 -7.7353,1.8352 -13.0294,7.7663 -19.945,11.041 -2.7479,-3.2623 -2.3813,-8.188 0.4682,-11.2968 -3.5967,-2.8821 -8.5057,2.6571 -11.917,-0.7012 -4.5131,-4.4836 -2.3471,-10.9601 -1.3356,-16.2618 1.1708,-5.1539 2.8982,-10.1858 4.1064,-15.332 -12.0175,12.8442 -20.4454,28.756 -35.635,38.929 -2.5716,1.8328 -6.431,2.7874 -9.1065,0.5686 -2.5378,-1.538 -4.3321,-4.1363 -4.5534,-6.9312 -9.2177,0.8047 -17.3615,7.2402 -26.9128,5.5059 -10.0686,-4.4956 -22.0125,-2.5912 -31.8279,1.5215 -9.4687,-0.014 -16.5996,-8.2277 -26.2711,-7.1392 -6.0314,-0.9398 -9.8959,-5.8572 -13.2018,-9.9732 -5.9568,-0.6012 -9.092,5.1911 -14.1088,6.9807 -12.259,5.829 -27.6971,2.6338 -38.1402,-4.9761 -2.4269,-2.1426 -5.9814,-4.8476 -9.4402,-2.7953 -3.9286,1.7483 -5.4629,6.6255 -9.9366,7.4051 -7.2798,0.772 -13.5032,-5.2245 -14.4078,-11.485 -7.8897,-15.108 -14.024,-30.9005 -20.8497,-46.4174 -0.022,0.9974 -0.044,1.9948 -0.067,2.9922 z"
       id="path4508-9-6"
       inkscape:connector-curvature="0"
       sodipodi:nodetypes="cccccccccccccccccccccccccccccccccccccccccccccccccccccccccccccccc" />
    <path
       style="color:#000000;display:inline;overflow:visible;visibility:visible;fill:#ffffff;fill-opacity:1;fill-rule:nonzero;stroke:none;stroke-width:0.99999994px;marker:none;enable-background:accumulate"
       d="m 1322.5586,1728.1016 c -11.0094,9.9702 -17.1146,23.8053 -25.197,35.9928 -5.7365,9.1028 -17.9114,24.8135 -26.046,32.2016 7.6812,0.2097 5.7344,0.8326 10.9478,2.0534 3.3706,1.3513 7.7807,2.3941 9.3038,6.0235 -1.4478,7.677 -8.2527,12.4101 -13.2117,17.8317 -21.2393,19.7738 -50.3466,30.4414 -79.2715,30.188 30.5673,5.5836 63.676,0.269 89.5548,-17.4158 15.5847,-11.4657 31.0045,-29.6098 44.4036,-43.4287 -3.8521,-0.6581 -8.7325,-0.5391 -12.6274,-0.7071 -7.2015,-0.9549 -9.1708,-6.0664 -6.2213,-10.4154 3.8653,-10.2383 12.9809,-16.9751 20.7567,-24.1405 4.6114,-3.9349 9.2499,-7.8384 13.8074,-11.8359 -7.5773,-6.8137 -16.4342,-11.9448 -25.0566,-17.289 -0.3809,0.3138 -0.7617,0.6276 -1.1426,0.9414 z"
       id="path5066-6"
       inkscape:connector-curvature="0"
       sodipodi:nodetypes="ccccccccccccccc" />
    <path
       style="color:#000000;display:inline;overflow:visible;visibility:visible;fill:#ffffff;fill-opacity:1;fill-rule:nonzero;stroke:none;stroke-width:1px;marker:none;enable-background:accumulate"
       d="m 1441.916,355.47571 c -40.3573,1.56885 -81.1182,9.04093 -116.8749,26.42932 -14.4117,7.72462 -26.8741,19.97094 -30.2978,35.07399 -1.2873,14.86684 6.4208,29.5407 18.0844,39.81667 11.7862,9.68135 27.6074,13.94957 43.0315,16.32272 54.0434,11.04226 109.5989,15.05977 164.9401,15.05427 33.0806,1.1268 66.5295,1.52522 99.1582,-4.25109 22.2589,-2.77574 44.6384,-7.29498 64.5469,-16.97571 15.8318,-7.2199 29.2772,-19.95299 33.7795,-35.62661 2.9606,-11.99215 0.4612,-24.79439 -5.6218,-35.6868 -5.6156,-9.0593 -15.5482,-15.62515 -26.6152,-18.38008 -19.8261,-6.23528 -40.7899,-8.50314 -61.3589,-11.8868 -60.4514,-8.17039 -121.7367,-9.72031 -182.772,-9.88988 z"
       id="path3365-74"
       inkscape:connector-curvature="0"
       sodipodi:nodetypes="csssssc" />
    <path
       style="display:inline;fill:#ffffff;fill-rule:evenodd;stroke:none;stroke-width:1.1040678px;stroke-linecap:butt;stroke-linejoin:miter;stroke-opacity:1"
       d="m 1460.6158,124.9505 c -35.4634,0.38599 -71.5618,-1.22989 -106.2126,6.98826 -23.1292,5.52943 -44.7127,19.43318 -54.8714,39.54702 -7.1366,15.81305 -1.2369,34.66567 11.5531,46.63739 7.0836,6.76206 14.9488,13.60859 24.9764,16.42522 9.2611,2.54143 18.9938,0.99986 28.4854,1.29424 17.415,-0.14066 34.8269,0.44407 52.1984,1.51249 68.8213,2.41748 137.7161,1.62733 206.5592,0.57368 22.7094,-0.7183 46.1096,-1.89015 67.2301,-10.24833 13.5014,-5.74789 24.9033,-16.63156 28.1161,-30.14875 4.3372,-14.82251 1.1576,-32.22842 -11.3224,-43.13396 -11.6708,-10.48285 -27.0874,-16.54769 -42.358,-21.35899 -20.1734,-5.79725 -41.5499,-6.40673 -62.5309,-6.02763 -27.6481,-0.37607 -55.2928,-0.89413 -82.9325,-1.61992 -19.627,-0.44807 -39.259,-0.48431 -58.8909,-0.44072 z"
       id="path1297"
       inkscape:connector-curvature="0" />
    <path
       style="display:inline;fill:#ffffff;fill-rule:evenodd;stroke:none;stroke-width:1.07321656px;stroke-linecap:butt;stroke-linejoin:miter;stroke-opacity:1"
       d="m 1594.7951,208.38604 c -59.4535,2.36382 -118.9263,4.31977 -178.3505,7.3593 -15.2519,0.93053 -30.5879,1.35654 -45.6544,4.11747 -17.2843,3.01229 -34.4922,7.62554 -50.1846,15.60331 -13.9091,8.42151 -23.2386,22.23959 -31.9609,35.57617 -4.3674,6.6825 -7.3464,14.37755 -7.4755,22.43246 -0.6404,13.87734 3.4044,27.43167 7.7407,40.45484 3.991,11.01406 10.7386,21.14699 20.1341,28.26521 11.1108,8.98912 23.6673,16.62526 37.5161,20.4878 9.5103,2.67817 19.4529,2.98826 29.2649,2.68808 23.9941,-0.0612 47.9875,0.0476 71.981,0.12782 66.6507,-0.009 133.4225,0.0867 199.8777,-5.67886 14.0611,-1.26073 28.0855,-4.26979 41.1133,-9.79302 10.7078,-4.42698 19.7494,-11.97797 27.7566,-20.20679 7.4397,-7.83016 13.1722,-17.65192 14.4524,-28.51841 2.4302,-15.53143 0.9422,-31.30416 1.7055,-46.93465 -0.6883,-12.50531 -7.974,-23.83333 -17.6481,-31.44112 -14.3921,-13.0573 -31.8062,-23.27715 -51.0242,-27.05856 -15.0784,-3.31752 -30.4498,-5.09184 -45.7851,-6.72014 -7.8015,-0.63527 -15.633,-0.87333 -23.459,-0.76091 z"
       id="path1299"
       inkscape:connector-curvature="0" />
    <path
       style="display:inline;fill:#ffffff;fill-rule:evenodd;stroke:none;stroke-width:1px;stroke-linecap:butt;stroke-linejoin:miter;stroke-opacity:1"
       d="m 1516.8322,467.18878 c -6.6131,0.47706 -14.4131,0.53134 -19.0606,6.05273 -9.2681,15.84095 -16.7496,33.90699 -15.1611,52.61768 2.1917,20.11622 13.9704,37.89228 28.3815,51.53834 8.5346,8.09616 15.6793,18.09456 18.3938,29.69937 4.3317,16.40289 0.7816,35.11834 -10.8279,47.78415 -2.1207,2.52133 -4.4197,4.88481 -6.7453,7.21593 17.3235,-9.37091 31.4532,-26.25408 34.2349,-46.13162 1.2634,-15.92483 -6.122,-31.08454 -15.4694,-43.50249 -9.5013,-13.2266 -21.135,-25.79068 -25.2403,-41.97989 -3.1205,-17.66298 3.3092,-35.58183 12.9847,-50.18689 1.9316,-3.08666 4.9581,-6.76026 3.4836,-10.5888 -1.0225,-1.66362 -3.0088,-2.74768 -4.9739,-2.51851 z"
       id="path1303"
       inkscape:connector-curvature="0"
       sodipodi:nodetypes="cccccccc" />
    <path
       style="color:#000000;display:inline;overflow:visible;visibility:visible;fill:#ffffff;fill-opacity:1;fill-rule:nonzero;stroke:none;stroke-width:1px;marker:none;filter:url(#filter1101);enable-background:accumulate"
       d="m 2064.5541,245.38398 c -39.6392,1.7245 -79.6747,9.93788 -114.7951,29.05136 -14.1553,8.49097 -26.3959,21.95224 -29.7587,38.55366 -1.2644,16.34177 6.3065,32.47141 17.7626,43.76686 11.5765,10.64183 27.1161,15.33349 42.2658,17.94208 53.0817,12.13776 107.6486,16.55384 162.005,16.5478 32.4919,1.23859 65.3456,1.67653 97.3937,-4.67284 21.8628,-3.05112 43.8441,-8.01871 63.3983,-18.65986 15.5501,-7.93618 28.7562,-21.93251 33.1784,-39.16111 2.9079,-13.18188 0.453,-27.25422 -5.5218,-39.22726 -5.5156,-9.95807 -15.2715,-17.17531 -26.1416,-20.20356 -19.4733,-6.85388 -40.064,-9.34673 -60.267,-13.06608 -59.3757,-8.98097 -119.5704,-10.68466 -179.5196,-10.87105 z"
       id="path3365-74-3"
       inkscape:connector-curvature="0"
       sodipodi:nodetypes="csssssc" />
  </g>
  <g
     inkscape:groupmode="layer"
     id="layer1"
     inkscape:label="txt"
     style="display:inline">
    <text
       xml:space="preserve"
       style="font-style:normal;font-variant:normal;font-weight:normal;font-stretch:normal;line-height:0%;font-family:Lavi;-inkscape-font-specification:Lavi;text-align:center;letter-spacing:0px;word-spacing:0px;text-anchor:middle;fill:#000000;fill-opacity:1;stroke:none"
       x="1509.0961"
       y="197.70142"
       id="text4246-86"><tspan
         sodipodi:role="line"
         style="font-size:45px;line-height:1.20000005"
         x="1509.0961"
         y="197.70142"
         id="tspan1167">Sungguh, Carrot?</tspan></text>
    <text
       xml:space="preserve"
       style="font-style:normal;font-variant:normal;font-weight:normal;font-stretch:normal;line-height:0%;font-family:Lavi;-inkscape-font-specification:Lavi;text-align:center;letter-spacing:0px;word-spacing:0px;text-anchor:middle;fill:#000000;fill-opacity:1;stroke:none"
       x="1510.4191"
       y="296.72693"
       id="text4246-86-3"><tspan
         sodipodi:role="line"
         style="font-size:45px;line-height:1.20000005"
         x="1510.4191"
         y="296.72693"
         id="tspan861">Semoga makanan</tspan><tspan
         sodipodi:role="line"
         style="font-size:45px;line-height:1.20000005"
         x="1510.4191"
         y="350.72693"
         id="tspan54">itu sebanding ya.</tspan><tspan
         sodipodi:role="line"
         style="font-size:45px;line-height:1.20000005"
         x="1510.4191"
         y="369.15466"
         id="tspan855" /></text>
    <text
       xml:space="preserve"
       style="font-style:normal;font-variant:normal;font-weight:normal;font-stretch:normal;line-height:0%;font-family:Lavi;-inkscape-font-specification:Lavi;text-align:center;letter-spacing:0px;word-spacing:0px;text-anchor:middle;fill:#000000;fill-opacity:1;stroke:none"
       x="1509.7706"
       y="410.60873"
       id="text4246-86-3-7"><tspan
         sodipodi:role="line"
         style="font-size:45px;line-height:1.20000005"
         x="1509.7706"
         y="410.60873"
         id="tspan855-5">Kamu terlihat</tspan><tspan
         sodipodi:role="line"
         style="font-size:45px;line-height:1.20000005"
         x="1509.7706"
         y="464.60873"
         id="tspan56">mengerikan...</tspan></text>
    <text
       xml:space="preserve"
       style="font-style:normal;font-variant:normal;font-weight:normal;font-stretch:normal;line-height:0%;font-family:Lavi;-inkscape-font-specification:Lavi;letter-spacing:0px;word-spacing:0px;display:inline;fill:#ffffff;fill-opacity:1;stroke:#ffffff;stroke-width:1.14998245;stroke-miterlimit:4;stroke-dasharray:none;stroke-opacity:1;filter:url(#filter4375-4-1-1-1-9-6-9-2-1-7-1)"
       x="787.65729"
       y="1584.5073"
       id="text4580-1-7-3-6-9-4"
       transform="matrix(0.8084187,0.00200213,-0.18183537,0.93491494,1593.3651,-1147.577)"><tspan
         sodipodi:role="line"
         x="787.65729"
         y="1584.5073"
         style="font-size:70px;line-height:1.25;letter-spacing:3.44994736px;fill:#ffffff;fill-opacity:1;stroke:#ffffff;stroke-width:1.14998245;stroke-miterlimit:4;stroke-dasharray:none;stroke-opacity:1"
         id="tspan58">...Kamu</tspan><tspan
         sodipodi:role="line"
         x="787.65729"
         y="1672.0073"
         style="font-size:70px;line-height:1.25;letter-spacing:3.44994736px;fill:#ffffff;fill-opacity:1;stroke:#ffffff;stroke-width:1.14998245;stroke-miterlimit:4;stroke-dasharray:none;stroke-opacity:1"
         id="tspan62">  terlihat...</tspan></text>
    <text
       xml:space="preserve"
       style="font-style:normal;font-variant:normal;font-weight:normal;font-stretch:normal;font-size:13.85896969px;line-height:0%;font-family:Lavi;-inkscape-font-specification:Lavi;text-align:center;letter-spacing:0px;word-spacing:0px;text-anchor:middle;display:inline;fill:#000000;fill-opacity:1;stroke:none;stroke-width:3.5999999;stroke-miterlimit:4;stroke-dasharray:none"
       x="1771.8191"
       y="1411.5159"
       id="text4246-2-3-1-3-9-0-5-3-3-6-9-3-7-3-9-4"
       transform="matrix(0.87552816,0,-0.14342897,1.1421677,0,0)"><tspan
         sodipodi:role="line"
         style="font-style:normal;font-variant:normal;font-weight:bold;font-stretch:normal;font-size:64.97789001px;line-height:1.25;font-family:Lavi;-inkscape-font-specification:'Lavi Bold';stroke:none;stroke-width:3.5999999;stroke-miterlimit:4;stroke-dasharray:none;stroke-opacity:1"
         x="1771.8191"
         y="1411.5159"
         id="tspan4579-4">Penampilannya!</tspan></text>
    <text
       xml:space="preserve"
       style="font-style:normal;font-variant:normal;font-weight:normal;font-stretch:normal;font-size:12.51824951px;line-height:0%;font-family:Lavi;-inkscape-font-specification:Lavi;text-align:center;letter-spacing:0px;word-spacing:0px;text-anchor:middle;display:inline;fill:#000000;fill-opacity:1;stroke:none;stroke-width:3.5999999;stroke-miterlimit:4;stroke-dasharray:none"
       x="1618.0042"
       y="1589.5555"
       id="text4246-2-3-1-3-9-0-5-3-3-6-9-3-7-3-9-4-6"
       transform="matrix(0.92759422,0,-0.09976132,1.0780576,0,0)"><tspan
         sodipodi:role="line"
         style="font-style:normal;font-variant:normal;font-weight:bold;font-stretch:normal;font-size:58.69190979px;line-height:1.25;font-family:Lavi;-inkscape-font-specification:'Lavi Bold';stroke:none;stroke-width:3.5999999;stroke-miterlimit:4;stroke-dasharray:none;stroke-opacity:1"
         x="1618.0042"
         y="1589.5555"
         id="tspan4579-4-2">Tentu saja!</tspan></text>
    <text
       xml:space="preserve"
       style="font-style:normal;font-variant:normal;font-weight:normal;font-stretch:normal;line-height:0%;font-family:Lavi;-inkscape-font-specification:Lavi;letter-spacing:0px;word-spacing:0px;fill:#000000;fill-opacity:1;stroke:#000000;stroke-width:1.19005191;stroke-miterlimit:4;stroke-dasharray:none;stroke-opacity:1;filter:url(#filter4375-4-1-1-1-9)"
       x="787.65729"
       y="1584.5073"
       id="text4580"
       transform="matrix(0.81821305,-0.33688634,-0.15105419,1.1716012,481.86174,1568.9719)"><tspan
         sodipodi:role="line"
         id="tspan4582"
         x="787.65729"
         y="1584.5073"
         style="font-size:70px;line-height:1.25;fill:#ffffff;stroke-width:1.19005191"><tspan
           style="font-size:80.40014648px;stroke-width:1.19005191"
           id="tspan4617">Krek!</tspan></tspan></text>
  </g>
</svg>
