<?xml version="1.0" encoding="UTF-8" standalone="no"?>
<!-- Created with Inkscape (http://www.inkscape.org/) -->

<svg
   xmlns:dc="http://purl.org/dc/elements/1.1/"
   xmlns:cc="http://creativecommons.org/ns#"
   xmlns:rdf="http://www.w3.org/1999/02/22-rdf-syntax-ns#"
   xmlns:svg="http://www.w3.org/2000/svg"
   xmlns="http://www.w3.org/2000/svg"
   xmlns:xlink="http://www.w3.org/1999/xlink"
   xmlns:sodipodi="http://sodipodi.sourceforge.net/DTD/sodipodi-0.dtd"
   xmlns:inkscape="http://www.inkscape.org/namespaces/inkscape"
   id="svg2"
   version="1.1"
   inkscape:version="0.92.4 (5da689c313, 2019-01-14)"
   width="2481"
   height="3503"
   sodipodi:docname="E31P07.svg">
  <metadata
     id="metadata8">
    <rdf:RDF>
      <cc:Work
         rdf:about="">
        <dc:format>image/svg+xml</dc:format>
        <dc:type
           rdf:resource="http://purl.org/dc/dcmitype/StillImage" />
        <dc:title />
      </cc:Work>
    </rdf:RDF>
  </metadata>
  <defs
     id="defs6">
    <filter
       style="color-interpolation-filters:sRGB"
       id="filter4375-4-1-1-1-9-6-9-2-1-7-1"
       inkscape:label="deevad outline effect">
      <feFlood
         id="feFlood4377-7-9-0-8-1-0-2-2-06-3-9"
         flood-opacity="1"
         flood-color="rgb(0,0,0)"
         result="flood" />
      <feComposite
         id="feComposite4379-3-8-8-2-77-6-0-8-3-6-4"
         in2="SourceGraphic"
         in="flood"
         operator="in"
         result="composite1" />
      <feMorphology
         id="feMorphology4393-1-0-49-8-9-2-2-9-2-1-7"
         operator="dilate"
         radius="4"
         result="result3" />
      <feComposite
         id="feComposite4385-9-5-7-0-8-6-3-7-0-2-8"
         in2="result3"
         in="SourceGraphic"
         operator="over"
         result="composite2" />
    </filter>
    <filter
       style="color-interpolation-filters:sRGB"
       id="filter4375-4-1-1-1-9-6-9-2-1-7-1-3"
       inkscape:label="deevad outline effect">
      <feFlood
         id="feFlood4377-7-9-0-8-1-0-2-2-06-3-9-6"
         flood-opacity="1"
         flood-color="rgb(0,0,0)"
         result="flood" />
      <feComposite
         id="feComposite4379-3-8-8-2-77-6-0-8-3-6-4-7"
         in2="SourceGraphic"
         in="flood"
         operator="in"
         result="composite1" />
      <feMorphology
         id="feMorphology4393-1-0-49-8-9-2-2-9-2-1-7-5"
         operator="dilate"
         radius="4"
         result="result3" />
      <feComposite
         id="feComposite4385-9-5-7-0-8-6-3-7-0-2-8-3"
         in2="result3"
         in="SourceGraphic"
         operator="over"
         result="composite2" />
    </filter>
    <filter
       inkscape:collect="always"
       style="color-interpolation-filters:sRGB"
       id="filter4213"
       x="-0.0010298714"
       width="1.0020597"
       y="-0.0014578935"
       height="1.0029159">
      <feGaussianBlur
         inkscape:collect="always"
         stdDeviation="0.24308766"
         id="feGaussianBlur4215" />
    </filter>
    <filter
       inkscape:collect="always"
       style="color-interpolation-filters:sRGB"
       id="filter4213-8"
       x="-0.0010298714"
       width="1.0020597"
       y="-0.0014578935"
       height="1.0029159">
      <feGaussianBlur
         inkscape:collect="always"
         stdDeviation="0.24308766"
         id="feGaussianBlur4215-7" />
    </filter>
    <filter
       inkscape:collect="always"
       style="color-interpolation-filters:sRGB"
       id="filter1266"
       x="-0.013221323"
       width="1.0264426"
       y="-0.024911748"
       height="1.0498235">
      <feGaussianBlur
         inkscape:collect="always"
         stdDeviation="0.78825367"
         id="feGaussianBlur1268" />
    </filter>
    <filter
       inkscape:collect="always"
       style="color-interpolation-filters:sRGB"
       id="filter4213-0"
       x="-0.0010298714"
       width="1.0020597"
       y="-0.0014578935"
       height="1.0029159">
      <feGaussianBlur
         inkscape:collect="always"
         stdDeviation="0.24308766"
         id="feGaussianBlur4215-2" />
    </filter>
    <filter
       inkscape:collect="always"
       style="color-interpolation-filters:sRGB"
       id="filter1266-5"
       x="-0.013221323"
       width="1.0264426"
       y="-0.024911748"
       height="1.0498235">
      <feGaussianBlur
         inkscape:collect="always"
         stdDeviation="0.78825367"
         id="feGaussianBlur1268-9" />
    </filter>
    <filter
       inkscape:collect="always"
       style="color-interpolation-filters:sRGB"
       id="filter4213-8-8"
       x="-0.0010298714"
       width="1.0020597"
       y="-0.0014578935"
       height="1.0029159">
      <feGaussianBlur
         inkscape:collect="always"
         stdDeviation="0.24308766"
         id="feGaussianBlur4215-7-9" />
    </filter>
    <filter
       inkscape:collect="always"
       style="color-interpolation-filters:sRGB"
       id="filter1266-5-1"
       x="-0.013221323"
       width="1.0264426"
       y="-0.024911748"
       height="1.0498235">
      <feGaussianBlur
         inkscape:collect="always"
         stdDeviation="0.78825367"
         id="feGaussianBlur1268-9-2" />
    </filter>
    <filter
       inkscape:collect="always"
       style="color-interpolation-filters:sRGB"
       id="filter4213-1"
       x="-0.0010298714"
       width="1.0020597"
       y="-0.0014578935"
       height="1.0029159">
      <feGaussianBlur
         inkscape:collect="always"
         stdDeviation="0.24308766"
         id="feGaussianBlur4215-9" />
    </filter>
    <filter
       inkscape:collect="always"
       style="color-interpolation-filters:sRGB"
       id="filter1395"
       x="-0.01195875"
       width="1.0239175"
       y="-0.014728761"
       height="1.0294575">
      <feGaussianBlur
         inkscape:collect="always"
         stdDeviation="0.26634151"
         id="feGaussianBlur1397" />
    </filter>
    <filter
       inkscape:collect="always"
       style="color-interpolation-filters:sRGB"
       id="filter1639"
       x="-0.022949615"
       width="1.0458992"
       y="-0.048711938"
       height="1.0974239">
      <feGaussianBlur
         inkscape:collect="always"
         stdDeviation="0.45636794"
         id="feGaussianBlur1641" />
    </filter>
  </defs>
  <sodipodi:namedview
     pagecolor="#ffffff"
     bordercolor="#666666"
     borderopacity="1"
     objecttolerance="10"
     gridtolerance="10"
     guidetolerance="10"
     inkscape:pageopacity="0"
     inkscape:pageshadow="2"
     inkscape:window-width="1600"
     inkscape:window-height="847"
     id="namedview4"
     showgrid="false"
     inkscape:zoom="0.52601297"
     inkscape:cx="1237.8159"
     inkscape:cy="2149.9723"
     inkscape:window-x="-8"
     inkscape:window-y="-8"
     inkscape:window-maximized="1"
     inkscape:current-layer="layer3"
     inkscape:snap-global="false" />
  <g
     inkscape:groupmode="layer"
     id="layer2"
     inkscape:label="artwork"
     sodipodi:insensitive="true">
    <image
       sodipodi:absref="D:\Pepper&amp;Carrot\code\ep31_The-Fight\lang\ro\../gfx_Pepper-and-Carrot_by-David-Revoy_E31P07.png"
       xlink:href="../gfx_Pepper-and-Carrot_by-David-Revoy_E31P07.png"
       y="0"
       x="0"
       id="image10"
       height="3503"
       width="2481" />
  </g>
  <g
     inkscape:groupmode="layer"
     id="layer3"
     inkscape:label="speechbubbles"
     style="opacity:1">
    <path
       style="fill:#ffffff;stroke:none;stroke-width:1"
       d="m 1106.0698,2364.2966 c -11.6691,-1.8294 -24.0895,-4.612 -32.8712,-13.0801 -5.3332,-4.801 -7.3799,-11.8865 -9.0134,-18.6167 -1.7512,-7.2534 -4.0169,-15.0959 -10.2535,-19.8117 -8.1983,-7.1963 -20.6303,-6.3017 -28.5569,-13.9283 -7.9089,-11.2207 -5.5612,-26.5213 -13.792,-37.5876 -6.0341,-8.2415 -13.21645,-15.534 -20.08555,-23.0643 -3.25505,3.9734 -0.85984,9.2711 -1.37949,13.849 -0.8446,4.1744 -0.45106,8.5017 -0.35229,12.7431 0.56185,11.6716 3.48347,23.4796 10.14381,33.2232 3.53272,5.8733 6.60632,12.8834 13.20942,15.8976 6.8374,2.8369 14.9959,5.2953 20.9776,7.1591 5.9817,1.8638 11.038,1.7891 13.084,6.9271 2.3464,5.0542 4.4303,10.2451 6.6776,15.3527 2.545,5.7563 6.3126,11.1817 11.8226,14.4395 11.7632,7.9059 26.7924,8.5572 40.3893,6.4974 z"
       id="path3023-4"
       inkscape:connector-curvature="0"
       sodipodi:nodetypes="ccccccccccczcccc" />
    <path
       style="display:inline;fill:#ffffff;fill-rule:evenodd;stroke:none;stroke-width:1px;stroke-linecap:butt;stroke-linejoin:miter;stroke-opacity:1"
       d="m 631.07063,1022.9303 c -73.3336,55.9324 -104.4071,93.2206 -116.8365,150.3959 -12.4294,57.1754 -21.13,118.0795 47.2318,190.1701 -79.5483,-68.3618 -74.5765,-141.6953 -72.0907,-162.8253 2.4859,-21.1301 16.1583,-95.7066 60.9042,-147.9101 44.7459,-52.2036 93.2206,-87.00582 93.2206,-87.00582 l 6.2147,34.80222 z"
       id="path1094"
       inkscape:connector-curvature="0" />
    <path
       style="color:#000000;display:inline;overflow:visible;visibility:visible;opacity:1;fill:#ffffff;fill-opacity:1;fill-rule:nonzero;stroke:none;stroke-width:1.1850816px;marker:none;enable-background:accumulate"
       d="m 807.8715,2226.3441 c 1.42718,-20.6601 34.34576,-56.9158 180.58574,-55.0806 104.00516,1.305 130.97976,16.0154 158.84866,44.0411 26.9997,31.3549 3.6334,47.5185 -25.3516,62.0046 -36.1224,18.053 -72.5491,13.0011 -132.30073,13.8153 -69.0304,0.034 -111.2776,9.9041 -154.98878,-11.0211 -25.32454,-11.5746 -26.58333,-36.1773 -26.79329,-53.7593 z"
       id="path3365-7"
       inkscape:connector-curvature="0"
       sodipodi:nodetypes="cscsccc" />
    <path
       style="fill:#ffffff;stroke:none;stroke-width:0.93137568"
       d="m 1088.5868,2101.3556 c -1.3926,41.3643 -45.5271,77.9533 -143.66819,80.8896 -143.4187,4.291 -165.99195,-37.1767 -164.65076,-99.6657 1.11548,-51.9723 79.95135,-69.7317 157.86857,-69.1843 135.74298,0.9538 149.23498,49.1316 150.45038,87.9604 z"
       id="path3280-8-0-3"
       inkscape:connector-curvature="0"
       sodipodi:nodetypes="csssc" />
    <path
       style="color:#000000;display:inline;overflow:visible;visibility:visible;opacity:1;fill:#ffffff;fill-opacity:1;fill-rule:nonzero;stroke:none;stroke-width:0.58296984px;marker:none;enable-background:accumulate"
       d="m 835.66706,1938.0588 c 11.29455,-13.7475 135.68273,-23.5391 167.86914,7.5545 22.4307,21.6697 8.8184,58.3821 -10.40768,69.2002 -19.22591,10.8171 -99.61845,16.3496 -126,10.8412 -23.72371,-4.9544 -48.62526,-15.617 -49.93815,-43.9972 -0.53581,-11.5833 7.18206,-29.8502 18.47669,-43.5987 z"
       id="path4040-3"
       inkscape:connector-curvature="0"
       sodipodi:nodetypes="zssssz" />
    <path
       style="color:#000000;display:inline;overflow:visible;visibility:visible;fill:#ffffff;fill-opacity:1;fill-rule:nonzero;stroke:none;stroke-width:1px;marker:none;enable-background:accumulate"
       d="m 513.39226,1560.6825 c -20.56334,-38.6246 30.41574,-79.0088 76.08739,-66.2175 -11.0856,-9.0468 -62.14969,-43.6193 -114.25657,32.0263 -28.17045,40.8962 25.40397,34.0641 25.40397,34.0641 z"
       id="path4035-4"
       inkscape:connector-curvature="0"
       sodipodi:nodetypes="ccscc" />
    <path
       style="color:#000000;display:inline;overflow:visible;visibility:visible;fill:#ffffff;fill-opacity:1;fill-rule:nonzero;stroke:none;stroke-width:1px;marker:none;enable-background:accumulate"
       d="m 1740.924,1775.3534 c -41.7501,-3.5977 -88.1678,-42.8204 -86.1303,-69.3756 2.5752,-3.8294 -6.743,-13.959 -6.743,-13.959 0,0 11.5715,-1.9717 8.445,-14.2491 -3.1266,-12.2775 7.4012,-18.3398 7.4012,-18.3398 0,0 25.5919,16.6709 34.0315,24.716 -7.3672,10.1082 -10.0408,16.3402 -13.7565,18.4792 -17.0299,6.8863 32.2595,66.9357 56.7521,72.7283 z"
       id="path4456-8"
       inkscape:connector-curvature="0"
       sodipodi:nodetypes="cccccccc" />
    <path
       style="color:#000000;display:inline;overflow:visible;visibility:visible;fill:#ffffff;fill-opacity:1;fill-rule:nonzero;stroke:none;stroke-width:0.68671912px;marker:none;enable-background:accumulate"
       d="m 515.10373,864.0754 c 18.75144,-14.60917 47.72566,-21.01499 75.66695,-22.66917 35.77088,-2.78036 135.19208,-8.09241 189.22909,1.65448 36.45365,7.91833 71.65629,26.82093 80.28912,50.52477 11.49876,27.24895 16.98323,70.14749 -5.91796,94.52248 -41.49375,37.12164 -128.20721,36.08804 -193.41716,34.57124 -25.20745,-0.7399 -50.43234,-1.4418 -75.57547,-2.8664 -19.34614,-1.2316 -38.76045,-5.2625 -53.762,-13.7888 -36.45387,-18.06954 -55.76424,-50.73366 -45.80997,-80.46362 2.27573,-21.53755 7.30267,-44.59074 29.2974,-61.48498 z"
       id="path4040-57"
       inkscape:connector-curvature="0"
       sodipodi:nodetypes="cccccccccc" />
    <path
       style="color:#000000;display:inline;overflow:visible;visibility:visible;fill:#ffffff;fill-opacity:1;fill-rule:nonzero;stroke:none;stroke-width:1.08769882px;marker:none;enable-background:accumulate"
       d="m 249.85787,1585.8022 c 7.51918,-51.707 23.84092,-105.8337 178.91295,-97.7557 155.07215,8.0782 176.36768,49.6838 177.3801,103.2196 1.32631,70.1283 -25.21809,86.3313 -47.84366,95.1169 -22.62543,8.7856 -75.70685,18.5984 -113.92272,21.4222 -20.54783,1.519 -145.28166,-5.9138 -168.92112,-32.6041 -23.55522,-26.5946 -27.37065,-52.2451 -25.60555,-89.3989 z"
       id="path3365-90"
       inkscape:connector-curvature="0"
       sodipodi:nodetypes="csssssc" />
    <path
       style="color:#000000;display:inline;overflow:visible;visibility:visible;fill:#ffffff;fill-opacity:1;fill-rule:nonzero;stroke:none;stroke-width:1.00498474px;marker:none;enable-background:accumulate"
       d="m 1572.0663,1711.8938 c -59.1574,-0.8708 -84.1412,-11.1404 -98.7313,-26.4768 -14.5899,-15.3371 -2.4717,-40.0978 23.1612,-48.8653 25.6329,-8.7676 60.3134,-9.6559 100.4568,-8.4958 72.537,2.0981 122.7787,8.7076 128.4582,32.4905 5.6395,23.6135 1.1128,36.1416 -52.2076,47.3869 -50.1947,6.4716 -101.1373,3.9605 -101.1373,3.9605 z"
       id="path3970-36-4"
       inkscape:connector-curvature="0"
       sodipodi:nodetypes="cccsscc" />
    <path
       style="fill:#ffffff;fill-rule:evenodd;stroke:none;stroke-width:1px;stroke-linecap:butt;stroke-linejoin:miter;stroke-opacity:1"
       d="m 2215.285,1175.982 c -0.8172,-29.9933 24.7571,-40.6219 36.1986,-42.3867 11.4416,-1.7637 54.5166,-5.2494 72.4962,8.8648 17.9796,14.1143 24.1191,23.9247 14.7106,46.7543 -14.9701,19.4933 -34.3247,22.0532 -50.6698,22.9351 -16.345,0.8819 -51.487,-4.4104 -62.9285,-16.7609 -11.4416,-12.3495 -9.8071,-19.4066 -9.8071,-19.4066 z"
       id="path1365"
       inkscape:connector-curvature="0"
       sodipodi:nodetypes="ccscscc" />
    <path
       style="fill:#ffffff;fill-rule:evenodd;stroke:none;stroke-width:1px;stroke-linecap:butt;stroke-linejoin:miter;stroke-opacity:1"
       d="m 2248.1828,1172.5234 c 0,0 -7.5732,20.9817 -15.7293,27.1738 -8.1561,6.192 -28.7528,17.5708 -43.9083,15.729 27.8126,9.0205 51.8926,-0.7427 58.6764,-5.0743 6.7848,-4.3317 21.7457,-26.0926 21.7457,-26.0926 z"
       id="path1367"
       inkscape:connector-curvature="0"
       sodipodi:nodetypes="cccccc" />
  </g>
  <g
     inkscape:groupmode="layer"
     id="layer1"
     inkscape:label="txt">
    <text
       xml:space="preserve"
       style="font-style:normal;font-variant:normal;font-weight:normal;font-stretch:normal;line-height:0%;font-family:Lavi;-inkscape-font-specification:Lavi;letter-spacing:0px;word-spacing:0px;display:inline;fill:#ffffff;fill-opacity:1;stroke:#000000;stroke-width:7.85655832;stroke-miterlimit:4;stroke-dasharray:none;stroke-opacity:1;paint-order:stroke markers fill;filter:url(#filter4375-4-1-1-1-9-6-9-2-1-7-1)"
       x="787.65729"
       y="1584.5073"
       id="text4580-1-7-3-6-9-4"
       transform="matrix(0.46131079,-0.15363757,-0.08516477,0.59026719,536.76709,-149.68307)"><tspan
         sodipodi:role="line"
         id="tspan4582-8-5-6-1-3-5"
         x="787.65729"
         y="1584.5073"
         style="font-size:70px;line-height:1.25;fill:#ffffff;fill-opacity:1;stroke:#000000;stroke-width:7.85655832;stroke-miterlimit:4;stroke-dasharray:none;stroke-opacity:1;paint-order:stroke markers fill">Tok!</tspan></text>
    <text
       xml:space="preserve"
       style="font-style:normal;font-variant:normal;font-weight:normal;font-stretch:normal;line-height:0%;font-family:Lavi;-inkscape-font-specification:Lavi;letter-spacing:0px;word-spacing:0px;display:inline;fill:#ffffff;fill-opacity:1;stroke:#000000;stroke-width:7.85655832;stroke-miterlimit:4;stroke-dasharray:none;stroke-opacity:1;paint-order:stroke markers fill;filter:url(#filter4375-4-1-1-1-9-6-9-2-1-7-1-3)"
       x="787.65729"
       y="1584.5073"
       id="text4580-1-7-3-6-9-4-5"
       transform="matrix(0.45087839,-0.18199128,-0.04834106,0.59441697,1007.0439,-136.51326)"><tspan
         sodipodi:role="line"
         x="787.65729"
         y="1584.5073"
         style="font-size:70px;line-height:1.25;fill:#ffffff;fill-opacity:1;stroke:#000000;stroke-width:7.85655832;stroke-miterlimit:4;stroke-dasharray:none;stroke-opacity:1;paint-order:stroke markers fill"
         id="tspan907">Tok!</tspan></text>
    <text
       xml:space="preserve"
       style="font-style:normal;font-variant:normal;font-weight:normal;font-stretch:normal;font-size:10.4081316px;line-height:0%;font-family:Lavi;-inkscape-font-specification:'Lavi, Normal';text-align:center;letter-spacing:0px;word-spacing:0px;writing-mode:lr-tb;text-anchor:middle;display:inline;fill:#000000;fill-opacity:1;stroke:none;stroke-width:0.99999994"
       x="678.42249"
       y="892.53705"
       id="text4246-2-3-1-3-9-9-36"><tspan
         sodipodi:role="line"
         x="678.42249"
         y="892.53705"
         style="font-size:40px;line-height:1.25;stroke-width:0.99999994"
         id="tspan130">De trei ani tot</tspan><tspan
         sodipodi:role="line"
         x="678.42249"
         y="942.53705"
         style="font-size:40px;line-height:1.25;stroke-width:0.99999994"
         id="tspan107">spui &quot;doar un ultim</tspan><tspan
         sodipodi:role="line"
         x="678.42249"
         y="992.53705"
         style="font-size:40px;line-height:1.25;stroke-width:0.99999994"
         id="tspan132">test&quot;...</tspan></text>
    <text
       xml:space="preserve"
       style="font-style:normal;font-variant:normal;font-weight:normal;font-stretch:normal;line-height:0%;font-family:Lavi;-inkscape-font-specification:Lavi;text-align:center;letter-spacing:0px;word-spacing:0px;text-anchor:middle;fill:#000000;fill-opacity:1;stroke:none"
       x="425.85593"
       y="1547.2662"
       id="text4246-10"><tspan
         sodipodi:role="line"
         style="font-size:40px;line-height:1.25"
         x="432.10593"
         y="1547.2662"
         id="tspan143">...nu o să ne </tspan><tspan
         sodipodi:role="line"
         style="font-size:40px;line-height:1.25"
         x="432.10593"
         y="1597.2662"
         id="tspan126">petrecem aici </tspan><tspan
         sodipodi:role="line"
         style="font-size:40px;line-height:1.25"
         x="425.85593"
         y="1647.2662"
         id="tspan128">întreaga noapte!</tspan></text>
    <text
       xml:space="preserve"
       style="font-style:normal;font-variant:normal;font-weight:normal;font-stretch:normal;line-height:0%;font-family:Lavi;-inkscape-font-specification:Lavi;text-align:center;letter-spacing:0px;word-spacing:0px;text-anchor:middle;fill:#000000;fill-opacity:1;stroke:none"
       x="1597.429"
       y="1682.1624"
       id="text4246-10-2"><tspan
         sodipodi:role="line"
         style="font-style:normal;font-variant:normal;font-weight:bold;font-stretch:normal;font-size:46.66666794px;line-height:1.25;font-family:Lavi;-inkscape-font-specification:'Lavi Bold'"
         x="1597.429"
         y="1682.1624"
         id="tspan933-1">Deci...?</tspan></text>
    <text
       xml:space="preserve"
       style="font-style:normal;font-variant:normal;font-weight:normal;font-stretch:normal;line-height:0%;font-family:Lavi;-inkscape-font-specification:Lavi;text-align:center;letter-spacing:0px;word-spacing:0px;text-anchor:middle;fill:#000000;fill-opacity:1;stroke:none"
       x="2281.0439"
       y="1178.2853"
       id="text4246-3-7-7-6-7-2-9-6-1-4-3-1"><tspan
         sodipodi:role="line"
         style="font-size:45px;line-height:1.20000005"
         x="2281.0439"
         y="1178.2853"
         id="tspan1249-3">...</tspan></text>
    <text
       xml:space="preserve"
       style="font-style:normal;font-variant:normal;font-weight:normal;font-stretch:normal;font-size:15.03510189px;line-height:0%;font-family:Lavi;-inkscape-font-specification:Lavi;text-align:center;letter-spacing:0px;word-spacing:0px;text-anchor:middle;fill:#000000;fill-opacity:1;stroke:none;stroke-width:1"
       x="1199.2615"
       y="1824.2767"
       id="text4246-10-27"
       transform="matrix(0.91367473,0,-0.09878305,1.0944814,0,0)"
       inkscape:transform-center-x="3.7807182"
       inkscape:transform-center-y="17.013232"><tspan
         sodipodi:role="line"
         style="font-style:normal;font-variant:normal;font-weight:bold;font-stretch:normal;font-size:50.11700439px;line-height:1.25;font-family:Lavi;-inkscape-font-specification:'Lavi Bold';stroke-width:1"
         x="1199.2615"
         y="1824.2767"
         id="tspan933-9">OK...</tspan></text>
    <text
       xml:space="preserve"
       style="font-style:normal;font-variant:normal;font-weight:normal;font-stretch:normal;line-height:0%;font-family:Lavi;-inkscape-font-specification:Lavi;text-align:center;letter-spacing:0px;word-spacing:0px;text-anchor:middle;fill:#000000;fill-opacity:1;stroke:none"
       x="931.60315"
       y="2082.2637"
       id="text4246-10-3"><tspan
         sodipodi:role="line"
         style="font-size:40px;line-height:1.25"
         x="931.60315"
         y="2082.2637"
         id="tspan152">...poate primi</tspan><tspan
         sodipodi:role="line"
         style="font-size:40px;line-height:1.25"
         x="931.60315"
         y="2132.2637"
         id="tspan140">diploma...</tspan></text>
    <text
       xml:space="preserve"
       style="font-style:normal;font-variant:normal;font-weight:normal;font-stretch:normal;font-size:10.14146709px;line-height:0%;font-family:Lavi;-inkscape-font-specification:Lavi;text-align:center;letter-spacing:0px;word-spacing:0px;text-anchor:middle;fill:#000000;fill-opacity:1;stroke:none;stroke-width:1"
       x="970.13898"
       y="2221.1042"
       id="text4246-10-3-6"><tspan
         sodipodi:role="line"
         style="font-size:33.80488968px;line-height:1.25;stroke-width:1"
         x="970.13898"
         y="2221.1042"
         id="tspan1069">...dar cu gradul</tspan><tspan
         sodipodi:role="line"
         style="font-size:33.80488968px;line-height:1.25;stroke-width:1"
         x="970.13898"
         y="2263.3604"
         id="tspan156">de &quot;suficient&quot;.</tspan></text>
    <text
       xml:space="preserve"
       style="font-style:normal;font-variant:normal;font-weight:normal;font-stretch:normal;line-height:0%;font-family:Lavi;-inkscape-font-specification:Lavi;text-align:center;letter-spacing:0px;word-spacing:0px;text-anchor:middle;display:inline;opacity:0.6;fill:#000000;fill-opacity:1;stroke:none;stroke-width:1.27569795;filter:url(#filter4213)"
       x="-447.29675"
       y="2872.5061"
       id="text4246-85"
       transform="matrix(0.61655851,0.01619223,-0.10823975,0.68344058,2145.7387,697.18629)"><tspan
         sodipodi:role="line"
         style="font-style:normal;font-variant:normal;font-weight:normal;font-stretch:normal;font-size:68.81560516px;line-height:1.26999998;font-family:Fondamento;-inkscape-font-specification:Fondamento;stroke:#000000;stroke-width:1.4631319;stroke-opacity:1"
         x="-447.29675"
         y="2872.5061"
         id="tspan4172">Diplomă</tspan></text>
    <text
       xml:space="preserve"
       style="font-style:normal;font-variant:normal;font-weight:normal;font-stretch:normal;line-height:0%;font-family:Lavi;-inkscape-font-specification:Lavi;text-align:center;letter-spacing:0px;word-spacing:0px;text-anchor:middle;display:inline;opacity:0.6;fill:#000000;fill-opacity:1;stroke:none;stroke-width:1.93946147;filter:url(#filter4213-1)"
       x="-447.29675"
       y="2872.5061"
       id="text4246-85-4"
       transform="matrix(0.40373651,0.01069834,-0.07087785,0.45155476,1930.3205,1402.5494)"><tspan
         sodipodi:role="line"
         style="font-style:normal;font-variant:normal;font-weight:normal;font-stretch:normal;font-size:68.81560516px;line-height:1.26999998;font-family:Fondamento;-inkscape-font-specification:Fondamento;stroke:#000000;stroke-width:2.22442007;stroke-opacity:1"
         x="-447.29675"
         y="2876.0037"
         id="tspan4172-78" /></text>
    <text
       xml:space="preserve"
       style="font-style:normal;font-variant:normal;font-weight:normal;font-stretch:normal;line-height:0%;font-family:Lavi;-inkscape-font-specification:Lavi;text-align:center;letter-spacing:0px;word-spacing:0px;text-anchor:middle;display:inline;opacity:0.6;fill:#000000;fill-opacity:1;stroke:none;stroke-width:1.53380978;filter:url(#filter4213-0)"
       x="-447.29675"
       y="2872.5061"
       id="text4246-85-3"
       transform="matrix(0.50868854,0.04111458,-0.08930267,0.56819347,2027.5133,1108.2178)"><tspan
         sodipodi:role="line"
         style="font-style:normal;font-variant:normal;font-weight:normal;font-stretch:normal;font-size:68.81560516px;line-height:1.26999998;font-family:Fondamento;-inkscape-font-specification:Fondamento;stroke:#000000;stroke-width:1.75916731;stroke-opacity:1"
         x="-447.29675"
         y="2872.5061"
         id="tspan4172-7">Chaosah</tspan></text>
    <text
       xml:space="preserve"
       style="font-style:normal;font-variant:normal;font-weight:normal;font-stretch:normal;line-height:0%;font-family:Lavi;-inkscape-font-specification:Lavi;text-align:center;letter-spacing:0px;word-spacing:0px;text-anchor:middle;display:inline;opacity:0.69899998;fill:#202020;fill-opacity:1;stroke:#000000;stroke-width:0.72288066;stroke-miterlimit:4;stroke-dasharray:none;stroke-opacity:1;filter:url(#filter1266-5)"
       x="903.31201"
       y="2924.6372"
       id="text4246-8-3-7-2"
       transform="matrix(0.52010547,-0.08051244,-0.02237175,0.62243785,1164.5527,1043.6516)"><tspan
         sodipodi:role="line"
         style="font-size:38.3127861px;line-height:1.25;fill:#202020;fill-opacity:1;stroke:#000000;stroke-width:0.72288066;stroke-miterlimit:4;stroke-dasharray:none;stroke-opacity:1"
         x="903.31201"
         y="2924.6372"
         id="tspan4150-8-6-5-2">Cumin</tspan></text>
    <path
       style="opacity:0.69899998;fill:none;fill-rule:evenodd;stroke:#202020;stroke-width:2.29999995;stroke-linecap:butt;stroke-linejoin:miter;stroke-miterlimit:4;stroke-dasharray:none;stroke-opacity:1;filter:url(#filter1639)"
       d="m 1547.1934,2802.853 c 3.8646,-3.5133 9.3102,-3.689 12.2965,-3.5133 2.9863,0.1757 7.0265,-4.7429 9.8371,-5.6212 2.8106,-0.8783 12.8234,0.1756 13.8774,-0.8783 1.054,-1.054 11.2425,-2.108 11.5938,-3.8646 0.3513,-1.7567 -0.086,-5.8644 -0.086,-5.8644"
       id="path1409"
       inkscape:connector-curvature="0"
       transform="rotate(7.8868356,1569.0759,2784.5832)"
       sodipodi:nodetypes="cssccc" />
    <text
       xml:space="preserve"
       style="font-style:normal;font-variant:normal;font-weight:normal;font-stretch:normal;line-height:0%;font-family:Lavi;-inkscape-font-specification:Lavi;text-align:center;letter-spacing:0px;word-spacing:0px;text-anchor:middle;display:inline;opacity:0.69899998;fill:#202020;fill-opacity:1;stroke:#000000;stroke-width:0.74788481;stroke-miterlimit:4;stroke-dasharray:none;stroke-opacity:1;filter:url(#filter1266)"
       x="903.31201"
       y="2924.6372"
       id="text4246-8-3-7"
       transform="matrix(0.41826414,-0.24552176,0.14450977,0.63425309,687.71852,1181.2551)"><tspan
         sodipodi:role="line"
         style="font-style:normal;font-variant:normal;font-weight:normal;font-stretch:normal;font-size:51.00867081px;line-height:1.25;font-family:Cursivah;-inkscape-font-specification:Cursivah;fill:#202020;fill-opacity:1;stroke:#000000;stroke-width:0.74788481;stroke-miterlimit:4;stroke-dasharray:none;stroke-opacity:1"
         x="903.31201"
         y="2924.6372"
         id="tspan4150-8-6-5">Cayenne</tspan></text>
    <path
       style="opacity:0.69899998;vector-effect:none;fill:none;fill-opacity:1;fill-rule:evenodd;stroke:#202020;stroke-width:0.70999998;stroke-linecap:butt;stroke-linejoin:miter;stroke-miterlimit:4;stroke-dasharray:none;stroke-dashoffset:0;stroke-opacity:1;filter:url(#filter1395)"
       d="m 1518.1939,2790.4659 c 0.8783,-6.4995 5.6852,-7.2186 2.699,3.8482 -2.9863,11.0668 -52.5234,35.3083 -52.5234,35.3083"
       id="path910"
       inkscape:connector-curvature="0"
       sodipodi:nodetypes="ccc" />
    <text
       xml:space="preserve"
       style="font-style:normal;font-variant:normal;font-weight:normal;font-stretch:normal;line-height:0%;font-family:Lavi;-inkscape-font-specification:Lavi;text-align:center;letter-spacing:-0.03348966px;word-spacing:0px;text-anchor:middle;display:inline;opacity:0.69899998;fill:#202020;fill-opacity:1;stroke:#000000;stroke-width:0.68679875;stroke-miterlimit:4;stroke-dasharray:none;stroke-opacity:1;filter:url(#filter1266-5-1)"
       x="903.31201"
       y="2924.6372"
       id="text4246-8-3-7-2-9"
       transform="matrix(0.6182392,-0.01052647,-0.270757,0.58148539,1772.6628,1144.8642)"><tspan
         sodipodi:role="line"
         style="font-style:normal;font-variant:normal;font-weight:normal;font-stretch:normal;font-size:38.3127861px;line-height:1.25;font-family:Fondamento;-inkscape-font-specification:Fondamento;letter-spacing:-0.03348966px;fill:#202020;fill-opacity:1;stroke:#000000;stroke-width:0.68679875;stroke-miterlimit:4;stroke-dasharray:none;stroke-opacity:1"
         x="903.29529"
         y="2924.6372"
         id="tspan4150-8-6-5-2-3"><tspan
   style="font-size:53.58345795px;letter-spacing:-6.69793224px"
   id="tspan1399">T</tspan><tspan
   style="letter-spacing:-0.66979319px"
   id="tspan1407">h</tspan>yme</tspan></text>
    <text
       xml:space="preserve"
       style="font-style:normal;font-variant:normal;font-weight:normal;font-stretch:normal;line-height:0%;font-family:Lavi;-inkscape-font-specification:Lavi;text-align:center;letter-spacing:0px;word-spacing:0px;text-anchor:middle;display:inline;opacity:0.6;fill:#000000;fill-opacity:1;stroke:none;stroke-width:1.61567485;filter:url(#filter4213-8-8)"
       x="-447.29675"
       y="2872.5061"
       id="text4246-85-9-7"
       transform="matrix(0.47831841,0.01305834,-0.01239099,0.55116529,1776.7967,1303.9127)"><tspan
         sodipodi:role="line"
         style="font-style:normal;font-variant:normal;font-weight:normal;font-stretch:normal;font-size:49.19388962px;line-height:1.26999998;font-family:Fondamento;-inkscape-font-specification:Fondamento;stroke:#000000;stroke-width:1.8530606;stroke-opacity:1"
         x="-447.29675"
         y="2872.5061"
         id="tspan1120-6">~ pentru Pepper ~</tspan></text>
    <text
       xml:space="preserve"
       style="font-style:normal;font-variant:normal;font-weight:normal;font-stretch:normal;line-height:0%;font-family:Lavi;-inkscape-font-specification:Lavi;text-align:center;letter-spacing:0px;word-spacing:0px;text-anchor:middle;display:inline;opacity:0.6;fill:#000000;fill-opacity:1;stroke:none;stroke-width:1.52892983;filter:url(#filter4213-8)"
       x="-447.29675"
       y="2872.5061"
       id="text4246-85-9"
       transform="matrix(0.55026081,0.01267562,-0.01425468,0.53501165,1808.7467,1385.9743)"><tspan
         sodipodi:role="line"
         style="font-style:normal;font-variant:normal;font-weight:normal;font-stretch:normal;font-size:49.19388962px;line-height:1.26999998;font-family:Fondamento;-inkscape-font-specification:Fondamento;stroke:#000000;stroke-width:1.75357032;stroke-opacity:1"
         x="-447.29675"
         y="2872.5061"
         id="tspan1120">Vrăjitoare</tspan><tspan
         sodipodi:role="line"
         style="font-style:normal;font-variant:normal;font-weight:normal;font-stretch:normal;font-size:49.19388962px;line-height:1.26999998;font-family:Fondamento;-inkscape-font-specification:Fondamento;stroke:#000000;stroke-width:1.75357032;stroke-opacity:1"
         x="-447.29675"
         y="2934.9824"
         id="tspan148">Oficială</tspan></text>
    <text
       xml:space="preserve"
       style="font-style:normal;font-variant:normal;font-weight:normal;font-stretch:normal;font-size:10.76311207px;line-height:0%;font-family:Lavi;-inkscape-font-specification:Lavi;text-align:center;letter-spacing:0px;word-spacing:0px;text-anchor:middle;display:inline;opacity:1;fill:#241c1c;fill-opacity:1;stroke:#000000;stroke-width:0;stroke-miterlimit:4;stroke-dasharray:none;stroke-opacity:1"
       x="2426.4905"
       y="2903.1548"
       id="text4213-7"
       transform="matrix(0.85852879,0,-0.29243083,1.1647833,0,0)"><tspan
         sodipodi:role="line"
         id="tspan3562-5"
         x="2426.4905"
         y="2903.1548"
         style="font-style:normal;font-variant:normal;font-weight:bold;font-stretch:normal;font-size:64.74081421px;line-height:1.25;font-family:Lavi;-inkscape-font-specification:'Lavi Bold';fill:#000000;fill-opacity:1;stroke:none;stroke-width:0;stroke-miterlimit:4;stroke-dasharray:none">- SFÂRȘIT -</tspan></text>
    <flowRoot
       xml:space="preserve"
       id="flowRoot109"
       style="fill:black;fill-opacity:1;stroke:none;font-family:sans-serif;font-style:normal;font-weight:normal;font-size:40px;line-height:1.25;letter-spacing:0px;word-spacing:0px"><flowRegion
         id="flowRegion111"><rect
           id="rect113"
           width="47.527344"
           height="64.637192"
           x="363.10892"
           y="1533.4668" /></flowRegion><flowPara
         id="flowPara115"></flowPara></flowRoot>  </g>
</svg>
