<?xml version="1.0" encoding="UTF-8" standalone="no"?>
<!-- Created with Inkscape (http://www.inkscape.org/) -->

<svg
   xmlns:dc="http://purl.org/dc/elements/1.1/"
   xmlns:cc="http://creativecommons.org/ns#"
   xmlns:rdf="http://www.w3.org/1999/02/22-rdf-syntax-ns#"
   xmlns:svg="http://www.w3.org/2000/svg"
   xmlns="http://www.w3.org/2000/svg"
   xmlns:xlink="http://www.w3.org/1999/xlink"
   xmlns:sodipodi="http://sodipodi.sourceforge.net/DTD/sodipodi-0.dtd"
   xmlns:inkscape="http://www.inkscape.org/namespaces/inkscape"
   id="svg2"
   version="1.1"
   inkscape:version="0.92.4 (5da689c313, 2019-01-14)"
   width="2481"
   height="3503"
   sodipodi:docname="E28P07.svg">
  <metadata
     id="metadata8">
    <rdf:RDF>
      <cc:Work
         rdf:about="">
        <dc:format>image/svg+xml</dc:format>
        <dc:type
           rdf:resource="http://purl.org/dc/dcmitype/StillImage" />
        <dc:title />
      </cc:Work>
    </rdf:RDF>
  </metadata>
  <defs
     id="defs6" />
  <sodipodi:namedview
     pagecolor="#ffffff"
     bordercolor="#666666"
     borderopacity="1"
     objecttolerance="10"
     gridtolerance="10"
     guidetolerance="10"
     inkscape:pageopacity="0"
     inkscape:pageshadow="2"
     inkscape:window-width="1850"
     inkscape:window-height="1016"
     id="namedview4"
     showgrid="false"
     inkscape:zoom="0.51498715"
     inkscape:cx="1293.0839"
     inkscape:cy="915.13213"
     inkscape:window-x="70"
     inkscape:window-y="27"
     inkscape:window-maximized="1"
     inkscape:current-layer="layer1" />
  <g
     inkscape:groupmode="layer"
     id="layer2"
     inkscape:label="artwork"
     sodipodi:insensitive="true">
    <image
       sodipodi:absref="/home/emmiline/Documents/git/webcomics/ep28_The-Festivities/lang/da/../gfx_Pepper-and-Carrot_by-David-Revoy_E28P07.png"
       xlink:href="../gfx_Pepper-and-Carrot_by-David-Revoy_E28P07.png"
       width="2481"
       height="3503"
       id="image10"
       x="0"
       y="0" />
  </g>
  <g
     inkscape:groupmode="layer"
     id="layer3"
     inkscape:label="speechbubbles">
    <path
       style="fill:#ffffff;fill-rule:evenodd;stroke:none;stroke-width:0.82620549px;stroke-linecap:butt;stroke-linejoin:miter;stroke-opacity:1"
       d="m 139.4599,155.98722 c 58.20387,-26.24917 160.13208,-26.17239 216.01266,-25.51504 55.88058,0.65734 192.35159,0.0182 224.826,16.11164 32.4744,16.09342 53.81219,17.46667 52.90585,53.36779 -0.90633,35.90114 -14.50788,53.69704 -52.76262,71.20293 -38.25473,17.5059 -189.60263,21.33675 -232.36316,21.95597 -42.76053,0.61924 -149.5344,-2.88128 -182.03715,-17.85278 -32.50273,-14.97151 -61.40681,-42.24538 -59.19681,-64.66424 2.21002,-22.41888 14.2813,-44.72175 32.61523,-54.60627 z"
       id="path1035"
       inkscape:connector-curvature="0" />
    <path
       style="fill:#ffffff;fill-rule:evenodd;stroke:none;stroke-width:1px;stroke-linecap:butt;stroke-linejoin:miter;stroke-opacity:1"
       d="m 196.4271,253.96422 c -32.89449,39.47339 -40.41323,56.39055 -51.69134,74.24756 -11.27811,17.85701 -8.45859,59.21009 6.57889,70.4882 15.03749,11.27811 23.49607,17.857 15.97733,33.83433 -7.51874,15.97732 -7.37083,33.58627 -0.79194,42.9847 6.5789,9.39842 29.92706,24.68396 29.92706,24.68396 0,0 -21.13136,-17.00501 -23.34412,-22.26143 -3.75295,-8.91514 -2.08603,-20.48379 2.61318,-28.94238 4.69922,-8.45858 19.28439,-35.64147 -2.76513,-53.11871 -14.61974,-11.58813 -21.61638,-35.71402 -1.87968,-65.78898 19.73669,-30.07496 90.22489,-81.76631 90.22489,-81.76631 z"
       id="path1037"
       inkscape:connector-curvature="0"
       sodipodi:nodetypes="csssccscsscc" />
    <path
       style="fill:#ffffff;fill-rule:evenodd;stroke:none;stroke-width:1px;stroke-linecap:butt;stroke-linejoin:miter;stroke-opacity:1"
       d="m 130.35844,964.16004 c 21.57561,-58.77799 57.24044,-64.43345 111.48553,-68.49367 54.24509,-4.06022 250.01301,-11.09272 297.68294,4.54269 47.66992,15.63538 60.9673,35.48167 74.75356,74.88863 12.01477,34.34331 15.49807,106.82091 3.99153,131.38631 -11.50653,24.5657 -31.32227,56.117 -80.63599,58.6079 -49.31371,2.4909 -291.42364,3.8921 -321.01187,3.4063 -29.58823,-0.4858 -87.21106,-16.391 -98.71767,-61.1381 -11.50654,-44.7468 -9.12363,-84.4221 12.45197,-143.20006 z"
       id="path1039"
       inkscape:connector-curvature="0"
       sodipodi:nodetypes="zsssccssz" />
    <path
       style="fill:#ffffff;fill-rule:evenodd;stroke:none;stroke-width:1px;stroke-linecap:butt;stroke-linejoin:miter;stroke-opacity:1"
       d="m 197.23517,923.5374 c -17.7664,-36.95411 -18.47706,-61.82707 -3.55328,-69.64429 14.92378,-7.81721 21.31968,-12.7918 12.79181,-21.31968 -8.52787,-8.52787 -16.34509,-27.71558 -9.94919,-39.08608 6.39591,-11.37049 16.34509,-17.05574 26.29428,-18.47705 -15.63444,9.23852 -19.89837,17.05574 -19.18772,25.58361 0.71066,8.52787 2.84263,19.18771 12.79181,25.58362 9.94919,6.3959 23.45165,22.74099 2.13197,39.08608 -21.31968,16.34509 43.35002,66.09101 43.35002,66.09101 z"
       id="path1041"
       inkscape:connector-curvature="0" />
    <path
       style="fill:#ffffff;fill-rule:evenodd;stroke:none;stroke-width:1px;stroke-linecap:butt;stroke-linejoin:miter;stroke-opacity:1"
       d="m 1810.2187,188.73057 c 10.8239,-30.89516 34.8771,-41.58964 50.5116,-43.96619 15.6345,-2.37655 55.3222,1.18827 78.1726,2.37655 22.8505,1.18827 92.6046,1.18827 98.6178,0 6.0134,-1.18828 105.8338,7.12965 120.2657,4.7531 14.4319,-2.37655 50.6395,-4.4733 67.4767,-2.09675 16.8372,2.37655 44.4984,20.20068 46.9036,29.70689 2.4053,9.5062 8.2907,25.86225 3.48,41.30983 -4.8105,15.44758 -33.6743,32.08343 -62.5381,40.40137 -28.8638,8.31792 -111.847,1.18827 -123.8736,-1.18829 -12.0266,-2.37654 -55.3222,-10.69447 -79.3753,-5.94136 -24.0532,4.75309 -92.6045,11.88274 -129.8869,7.12965 -37.2823,-4.75311 -68.5514,-19.01241 -69.7541,-33.27171 -1.2026,-14.25931 -3.608,-10.69448 0,-39.21309 z"
       id="path1043"
       inkscape:connector-curvature="0"
       sodipodi:nodetypes="csscssccsccscc" />
    <path
       style="fill:#ffffff;fill-rule:evenodd;stroke:none;stroke-width:1px;stroke-linecap:butt;stroke-linejoin:miter;stroke-opacity:1"
       d="m 1944.3016,233.0595 c -22.8961,17.75617 -71.9593,58.40848 -78.0338,64.01569 -6.0744,5.60722 -9.8126,23.83066 4.2055,19.15798 14.018,-4.67267 32.2414,-13.0835 37.8487,-14.01803 5.6072,-0.93454 9.8126,-1.86907 13.5507,-1.4018 -18.2234,4.20541 -68.2211,21.49432 -96.7244,92.51903 35.5123,-65.4175 80.37,-77.0992 89.2481,-80.37007 8.8781,-3.27088 23.8307,-7.47629 24.298,-14.95257 0.4672,-7.47629 -9.8127,-14.95257 -27.5688,-10.27989 22.4288,-13.08351 59.343,-45.32499 73.8283,-45.32499 14.4853,0 -40.6523,-9.34535 -40.6523,-9.34535 z"
       id="path1045"
       inkscape:connector-curvature="0" />
    <path
       style="fill:#ffffff;fill-rule:evenodd;stroke:none;stroke-width:0.96715337px;stroke-linecap:butt;stroke-linejoin:miter;stroke-opacity:1"
       d="m 231.47502,1362.7906 c 31.90083,-28.0194 42.86675,-26.1515 55.82648,-28.9534 12.9597,-2.8018 111.65292,-6.5378 130.59405,-4.6699 18.94113,1.8681 103.67773,9.3398 130.59407,35.4912 26.91632,26.1515 52.83576,48.5669 49.84507,87.794 -2.99073,39.2271 -10.96593,110.2096 -28.91015,133.5589 -17.94424,23.3495 -56.82337,39.2272 -100.68702,47.633 -43.86366,8.4058 -170.47013,-3.7359 -189.41125,-5.6039 -18.94112,-1.8679 -64.79858,-19.6136 -79.75209,-42.963 -14.95353,-23.3495 -36.88536,-75.6523 -29.90704,-110.2095 6.9783,-34.5571 23.92562,-81.2562 61.80788,-112.0774 z"
       id="path1047"
       inkscape:connector-curvature="0" />
    <path
       style="fill:#ffffff;fill-rule:evenodd;stroke:none;stroke-width:1.03437603px;stroke-linecap:butt;stroke-linejoin:miter;stroke-opacity:1"
       d="m 264.16958,1608.4597 c 48.05411,-22.9051 77.70451,-25.7681 105.31006,-27.6769 27.60555,-1.9088 89.97364,0.9543 119.62405,13.3612 29.65041,12.4069 50.09896,36.2663 57.25595,48.6732 7.157,12.4068 13.29157,52.4905 2.04486,70.6237 -11.2467,18.133 -49.07654,44.8555 -71.56994,53.4449 -22.49341,8.5894 -121.66891,11.4525 -162.56601,0 -40.89712,-11.4525 -70.54752,-29.5856 -80.77181,-55.3537 -10.22428,-25.7681 -10.22428,-82.0762 30.67284,-103.0724 z"
       id="path1049"
       inkscape:connector-curvature="0" />
    <path
       style="fill:#ffffff;fill-rule:evenodd;stroke:none;stroke-width:1px;stroke-linecap:butt;stroke-linejoin:miter;stroke-opacity:1"
       d="m 571.51827,1489.8102 c 22.69719,-37.8287 85.61623,-110.0078 124.52571,-129.4625 38.90949,-19.4548 94.88053,-25.0946 113.25446,-22.933 15.70987,1.7353 35.90084,19.0754 55.12176,42.152 -15.13146,-30.263 -47.25978,-48.6478 -52.66387,-49.7286 -18.40862,-4.2887 -108.87383,-25.5751 -222.35983,69.5369 -113.48599,95.1121 -51.38362,121.779 -51.38362,121.779 z"
       id="path1051"
       inkscape:connector-curvature="0"
       sodipodi:nodetypes="cccccscc" />
    <path
       style="fill:#ffffff;fill-rule:evenodd;stroke:none;stroke-width:0.83453286px;stroke-linecap:butt;stroke-linejoin:miter;stroke-opacity:1"
       d="m 215.82751,2222.383 c -1.17618,-31.4542 22.34761,-42.3423 42.34284,-45.9716 19.99522,-3.6294 89.39041,-3.6294 101.15231,-1.2098 11.76189,2.4195 81.15709,0 95.27135,1.2098 14.11428,1.2097 59.98568,9.6782 68.21903,31.4543 8.23332,21.776 19.99521,27.8249 8.23332,48.3912 -11.7619,20.5663 -25.87618,38.713 -74.09996,43.5521 -48.22377,4.8392 -151.72846,1.2098 -195.24749,-10.888 -43.51901,-12.0978 -45.8714,-36.2934 -45.8714,-66.538 z"
       id="path1053"
       inkscape:connector-curvature="0" />
    <path
       style="fill:#ffffff;fill-rule:evenodd;stroke:none;stroke-width:1px;stroke-linecap:butt;stroke-linejoin:miter;stroke-opacity:1"
       d="m 348.19942,2246.5661 c -29.42116,45.7663 -39.16091,33.6645 -43.24718,61.4512 -4.08627,27.7866 9.73975,53.7817 22.81582,64.406 13.07607,10.6243 34.32468,25.3349 15.52783,41.68 -18.79685,16.3451 -40.04547,26.1521 -35.95919,72.7356 4.08627,46.5835 21.24861,49.0353 27.78665,53.1215 -25.33489,-10.1025 -30.23842,-73.5529 -15.52784,-93.167 14.71058,-19.6141 16.91712,-15.0754 32.69018,-26.1521 13.88076,-9.7478 27.00207,-30.3114 -3.85728,-57.4442 -30.85936,-27.1329 -14.46952,-78.6996 28.77766,-101.4055 85.22691,-44.7462 -29.00665,-15.2255 -29.00665,-15.2255 z"
       id="path1055"
       inkscape:connector-curvature="0"
       sodipodi:nodetypes="csssscsszsc" />
    <path
       style="fill:#ffffff;fill-rule:evenodd;stroke:none;stroke-width:1.00661671px;stroke-linecap:butt;stroke-linejoin:miter;stroke-opacity:1"
       d="m 809.95201,2233.5425 c 26.22641,-51.8725 54.98096,-57.7001 94.22275,-65.9004 85.04005,-9.5251 157.25374,3.1037 238.84314,0.297 42.2425,-1.5256 99.9327,19.8337 118.8366,47.2955 18.9043,27.4619 48.1126,109.8475 41.417,135.7837 -6.6956,25.9363 -19.0268,94.5911 -47.3739,112.8989 -28.3471,18.3079 -49.2897,35.0903 -97.1734,39.6673 -47.8838,4.5769 -229.54816,7.6283 -251.48072,6.1026 -21.93261,-1.5257 -85.05329,-24.4106 -103.04353,-71.7061 -17.99023,-47.2954 -20.19318,-158.6686 5.75206,-204.4385 z"
       id="path1057"
       inkscape:connector-curvature="0"
       sodipodi:nodetypes="cccscssssc" />
    <path
       style="fill:#ffffff;fill-rule:evenodd;stroke:none;stroke-width:1px;stroke-linecap:butt;stroke-linejoin:miter;stroke-opacity:1"
       d="m 1078.5698,2470.4285 c 7.4155,31.516 12.9772,52.5267 19.7748,59.9423 6.7976,7.4155 22.8646,14.2131 33.3699,15.449 10.5054,1.236 21.0107,6.1796 6.1796,23.4826 -14.831,17.3029 -1.8538,54.9986 45.1112,57.4704 -46.965,-11.7413 -43.8752,-47.583 -27.8082,-54.3806 16.067,-6.7976 20.3927,-39.5496 -16.685,-50.6729 -32.752,-8.6514 -11.1233,-129.7719 -11.1233,-129.7719 z"
       id="path1059"
       inkscape:connector-curvature="0" />
  </g>
  <g
     inkscape:groupmode="layer"
     id="layer1"
     inkscape:label="txt"
     style="opacity:1">
    <text
       xml:space="preserve"
       style="font-style:normal;font-variant:normal;font-weight:normal;font-stretch:normal;line-height:0%;font-family:Lavi;-inkscape-font-specification:Lavi;text-align:center;letter-spacing:0px;word-spacing:0px;text-anchor:middle;fill:#000000;fill-opacity:1;stroke:none"
       x="375.40958"
       y="179.38466"
       id="text4246"><tspan
         sodipodi:role="line"
         style="font-size:45px;line-height:1.20000005"
         x="375.40958"
         y="179.38466"
         id="tspan866">Det føles mærkeligt</tspan><tspan
         sodipodi:role="line"
         style="font-size:45px;line-height:1.20000005"
         x="375.40958"
         y="233.38466"
         id="tspan60">at gemme sig for at spise.</tspan></text>
    <text
       xml:space="preserve"
       style="font-style:normal;font-variant:normal;font-weight:normal;font-stretch:normal;line-height:0%;font-family:Lavi;-inkscape-font-specification:Lavi;text-align:center;letter-spacing:0px;word-spacing:0px;text-anchor:middle;fill:#000000;fill-opacity:1;stroke:none"
       x="372.4762"
       y="967.95374"
       id="text4246-3"><tspan
         sodipodi:role="line"
         style="font-size:45px;line-height:1.20000005"
         x="372.4762"
         y="967.95374"
         id="tspan868">Men vores læremester</tspan><tspan
         sodipodi:role="line"
         style="font-size:45px;line-height:1.20000005"
         x="372.4762"
         y="1021.9537"
         id="tspan886">siger, at vi skal fremstå</tspan><tspan
         sodipodi:role="line"
         style="font-size:45px;line-height:1.20000005"
         x="372.4762"
         y="1075.9537"
         id="tspan61">åndelige og uden</tspan><tspan
         sodipodi:role="line"
         style="font-size:45px;line-height:1.20000005"
         x="372.4762"
         y="1129.9537"
         id="tspan63">materielle behov</tspan></text>
    <text
       xml:space="preserve"
       style="font-style:normal;font-variant:normal;font-weight:normal;font-stretch:normal;line-height:0%;font-family:Lavi;-inkscape-font-specification:Lavi;text-align:center;letter-spacing:0px;word-spacing:0px;text-anchor:middle;fill:#000000;fill-opacity:1;stroke:none"
       x="2047.1042"
       y="217.40169"
       id="text4246-3-3"><tspan
         sodipodi:role="line"
         style="font-size:45px;line-height:1.20000005"
         x="2047.1042"
         y="217.40169"
         id="tspan868-9">Nå! Der var I!</tspan></text>
    <text
       xml:space="preserve"
       style="font-style:normal;font-variant:normal;font-weight:normal;font-stretch:normal;line-height:0%;font-family:Lavi;-inkscape-font-specification:Lavi;text-align:center;letter-spacing:0px;word-spacing:0px;text-anchor:middle;fill:#000000;fill-opacity:1;stroke:none"
       x="391.99753"
       y="1426.5085"
       id="text4246-3-3-1"><tspan
         sodipodi:role="line"
         style="font-size:45px;line-height:1.20000005"
         x="391.99753"
         y="1426.5085"
         id="tspan905">Endelig et sted</tspan><tspan
         sodipodi:role="line"
         style="font-size:45px;line-height:1.20000005"
         x="391.99753"
         y="1480.5085"
         id="tspan75">at gemme sig</tspan><tspan
         sodipodi:role="line"
         style="font-size:45px;line-height:1.20000005"
         x="399.02878"
         y="1534.5085"
         id="tspan77">for fotograferne! </tspan></text>
    <text
       xml:space="preserve"
       style="font-style:normal;font-variant:normal;font-weight:normal;font-stretch:normal;line-height:0%;font-family:Lavi;-inkscape-font-specification:Lavi;text-align:center;letter-spacing:0px;word-spacing:0px;text-anchor:middle;fill:#000000;fill-opacity:1;stroke:none"
       x="390.59467"
       y="1662.9772"
       id="text4246-3-3-1-7"><tspan
         sodipodi:role="line"
         style="font-size:45px;line-height:1.20000005"
         x="390.59467"
         y="1662.9772"
         id="tspan913">De driver mig</tspan><tspan
         sodipodi:role="line"
         style="font-size:45px;line-height:1.20000005"
         x="390.59467"
         y="1716.9772"
         id="tspan81">til vanvid!</tspan></text>
    <text
       xml:space="preserve"
       style="font-style:normal;font-variant:normal;font-weight:normal;font-stretch:normal;line-height:0%;font-family:Lavi;-inkscape-font-specification:Lavi;text-align:center;letter-spacing:0px;word-spacing:0px;text-anchor:middle;fill:#000000;fill-opacity:1;stroke:none"
       x="370.32666"
       y="2251.155"
       id="text4246-3-3-1-7-0"><tspan
         sodipodi:role="line"
         style="font-size:45px;line-height:1.20000005"
         x="370.32666"
         y="2251.155"
         id="tspan966-2">Fotografer?</tspan></text>
    <text
       xml:space="preserve"
       style="font-style:normal;font-variant:normal;font-weight:normal;font-stretch:normal;line-height:0%;font-family:Lavi;-inkscape-font-specification:Lavi;text-align:center;letter-spacing:0px;word-spacing:0px;text-anchor:middle;fill:#000000;fill-opacity:1;stroke:none"
       x="1043.3441"
       y="2243.0564"
       id="text4246-3-3-1-7-0-6"><tspan
         sodipodi:role="line"
         style="font-size:45px;line-height:1.20000005"
         x="1043.3441"
         y="2243.0564"
         id="tspan935">Prøv i stedet at</tspan><tspan
         sodipodi:role="line"
         style="font-size:45px;line-height:1.20000005"
         x="1043.3441"
         y="2297.0564"
         id="tspan99">undgå de kedelige</tspan><tspan
         sodipodi:role="line"
         style="font-size:45px;line-height:1.20000005"
         x="1043.3441"
         y="2351.0564"
         id="tspan103">samtaler med politikere,</tspan><tspan
         sodipodi:role="line"
         style="font-size:45px;line-height:1.20000005"
         x="1043.3441"
         y="2405.0564"
         id="tspan105">når I har den her</tspan><tspan
         sodipodi:role="line"
         style="font-size:45px;line-height:1.20000005"
         x="1043.3441"
         y="2459.0564"
         id="tspan107">på hovedet.</tspan></text>
    <text
       xml:space="preserve"
       style="font-style:normal;font-variant:normal;font-weight:normal;font-stretch:normal;font-size:13.67166328px;line-height:0%;font-family:Lavi;-inkscape-font-specification:Lavi;text-align:center;letter-spacing:0px;word-spacing:0px;text-anchor:middle;fill:#ffffff;fill-opacity:0.43137255;stroke:#ffffff;stroke-width:0.41015574;stroke-miterlimit:4;stroke-dasharray:none;stroke-opacity:1"
       x="1673.4884"
       y="2527.4509"
       id="text4246-8"
       transform="matrix(0.89761483,-0.24846861,0.02683826,1.1066345,0,0)"><tspan
         sodipodi:role="line"
         style="font-size:35.04694366px;line-height:1.25;fill:#ffffff;fill-opacity:0.43137255;stroke:#ffffff;stroke-width:0.41015574;stroke-miterlimit:4;stroke-dasharray:none;stroke-opacity:1"
         x="1678.9645"
         y="2527.4509"
         id="tspan1033">kradse' </tspan><tspan
         sodipodi:role="line"
         style="font-size:35.04694366px;line-height:1.25;fill:#ffffff;fill-opacity:0.43137255;stroke:#ffffff;stroke-width:0.41015574;stroke-miterlimit:4;stroke-dasharray:none;stroke-opacity:1"
         x="1673.4884"
         y="2571.2595"
         id="tspan939">kradse'</tspan></text>
  </g>
</svg>
