<?xml version="1.0" encoding="UTF-8" standalone="no"?>
<!-- Created with Inkscape (http://www.inkscape.org/) -->

<svg
   xmlns:dc="http://purl.org/dc/elements/1.1/"
   xmlns:cc="http://creativecommons.org/ns#"
   xmlns:rdf="http://www.w3.org/1999/02/22-rdf-syntax-ns#"
   xmlns:svg="http://www.w3.org/2000/svg"
   xmlns="http://www.w3.org/2000/svg"
   xmlns:xlink="http://www.w3.org/1999/xlink"
   xmlns:sodipodi="http://sodipodi.sourceforge.net/DTD/sodipodi-0.dtd"
   xmlns:inkscape="http://www.inkscape.org/namespaces/inkscape"
   id="svg2"
   version="1.1"
   inkscape:version="0.92.4 (5da689c313, 2019-01-14)"
   width="2481"
   height="3503"
   sodipodi:docname="E32P04.svg">
  <metadata
     id="metadata8">
    <rdf:RDF>
      <cc:Work
         rdf:about="">
        <dc:format>image/svg+xml</dc:format>
        <dc:type
           rdf:resource="http://purl.org/dc/dcmitype/StillImage" />
        <dc:title />
      </cc:Work>
    </rdf:RDF>
  </metadata>
  <defs
     id="defs6">
    <filter
       style="color-interpolation-filters:sRGB"
       id="filter4375-4-1-1-1-9-5-8-4"
       inkscape:label="Drop Shadow">
      <feFlood
         id="feFlood4377-7-9-0-8-1-7-3-3"
         flood-opacity="1"
         flood-color="rgb(108,125,133)"
         result="flood" />
      <feComposite
         id="feComposite4379-3-8-8-2-77-4-1-07"
         in2="SourceGraphic"
         in="flood"
         operator="in"
         result="composite1" />
      <feMorphology
         id="feMorphology4393-1-0-49-8-9-3-0-8"
         operator="dilate"
         radius="6.2000000000000002"
         result="result3" />
      <feComposite
         id="feComposite4385-9-5-7-0-8-8-7-6"
         in2="result3"
         in="SourceGraphic"
         operator="over"
         result="fbSourceGraphic" />
      <feColorMatrix
         result="fbSourceGraphicAlpha"
         in="fbSourceGraphic"
         values="0 0 0 -1 0 0 0 0 -1 0 0 0 0 -1 0 0 0 0 1 0"
         id="feColorMatrix4544-8" />
      <feTurbulence
         id="feTurbulence4546-8"
         type="fractalNoise"
         numOctaves="3"
         seed="37"
         baseFrequency="0.129 0.0050000000000000001"
         result="turbulence" />
      <feDisplacementMap
         id="feDisplacementMap4548-4"
         in2="turbulence"
         in="fbSourceGraphic"
         scale="6.6"
         yChannelSelector="G"
         xChannelSelector="R"
         result="fbSourceGraphic" />
      <feColorMatrix
         result="fbSourceGraphicAlpha"
         in="fbSourceGraphic"
         values="0 0 0 -1 0 0 0 0 -1 0 0 0 0 -1 0 0 0 0 1 0"
         id="feColorMatrix4670-3" />
      <feFlood
         id="feFlood4672-1"
         flood-opacity="1"
         flood-color="rgb(17,52,65)"
         result="flood"
         in="fbSourceGraphic" />
      <feComposite
         id="feComposite4674-4"
         in2="fbSourceGraphic"
         in="flood"
         operator="in"
         result="composite1" />
      <feGaussianBlur
         id="feGaussianBlur4676-92"
         in="composite1"
         stdDeviation="0"
         result="blur" />
      <feOffset
         id="feOffset4678-0"
         dx="6"
         dy="6"
         result="offset" />
      <feComposite
         id="feComposite4680-68"
         in2="offset"
         in="fbSourceGraphic"
         operator="over"
         result="composite2" />
    </filter>
    <filter
       style="color-interpolation-filters:sRGB"
       id="filter4375-4-1-1-1-9-5-8-4-3"
       inkscape:label="Drop Shadow">
      <feFlood
         id="feFlood4377-7-9-0-8-1-7-3-3-6"
         flood-opacity="1"
         flood-color="rgb(108,125,133)"
         result="flood" />
      <feComposite
         id="feComposite4379-3-8-8-2-77-4-1-07-7"
         in2="SourceGraphic"
         in="flood"
         operator="in"
         result="composite1" />
      <feMorphology
         id="feMorphology4393-1-0-49-8-9-3-0-8-5"
         operator="dilate"
         radius="6.2000000000000002"
         result="result3" />
      <feComposite
         id="feComposite4385-9-5-7-0-8-8-7-6-3"
         in2="result3"
         in="SourceGraphic"
         operator="over"
         result="fbSourceGraphic" />
      <feColorMatrix
         result="fbSourceGraphicAlpha"
         in="fbSourceGraphic"
         values="0 0 0 -1 0 0 0 0 -1 0 0 0 0 -1 0 0 0 0 1 0"
         id="feColorMatrix4544-8-5" />
      <feTurbulence
         id="feTurbulence4546-8-6"
         type="fractalNoise"
         numOctaves="3"
         seed="37"
         baseFrequency="0.129 0.0050000000000000001"
         result="turbulence" />
      <feDisplacementMap
         id="feDisplacementMap4548-4-2"
         in2="turbulence"
         in="fbSourceGraphic"
         scale="6.6"
         yChannelSelector="G"
         xChannelSelector="R"
         result="fbSourceGraphic" />
      <feColorMatrix
         result="fbSourceGraphicAlpha"
         in="fbSourceGraphic"
         values="0 0 0 -1 0 0 0 0 -1 0 0 0 0 -1 0 0 0 0 1 0"
         id="feColorMatrix4670-3-9" />
      <feFlood
         id="feFlood4672-1-1"
         flood-opacity="1"
         flood-color="rgb(17,52,65)"
         result="flood"
         in="fbSourceGraphic" />
      <feComposite
         id="feComposite4674-4-2"
         in2="fbSourceGraphic"
         in="flood"
         operator="in"
         result="composite1" />
      <feGaussianBlur
         id="feGaussianBlur4676-92-7"
         in="composite1"
         stdDeviation="0"
         result="blur" />
      <feOffset
         id="feOffset4678-0-0"
         dx="6"
         dy="6"
         result="offset" />
      <feComposite
         id="feComposite4680-68-9"
         in2="offset"
         in="fbSourceGraphic"
         operator="over"
         result="composite2" />
    </filter>
  </defs>
  <sodipodi:namedview
     pagecolor="#ffffff"
     bordercolor="#666666"
     borderopacity="1"
     objecttolerance="10"
     gridtolerance="10"
     guidetolerance="10"
     inkscape:pageopacity="0"
     inkscape:pageshadow="2"
     inkscape:window-width="1920"
     inkscape:window-height="1019"
     id="namedview4"
     showgrid="false"
     inkscape:zoom="0.40000001"
     inkscape:cx="1751.924"
     inkscape:cy="2967.4556"
     inkscape:window-x="2560"
     inkscape:window-y="34"
     inkscape:window-maximized="1"
     inkscape:current-layer="layer3"
     inkscape:snap-global="false" />
  <g
     inkscape:groupmode="layer"
     id="layer2"
     inkscape:label="artwork"
     sodipodi:insensitive="true">
    <image
       sodipodi:absref="/home/deevad/peppercarrot/webcomics/new-ep32_The-Battlefield/lang/fr/../gfx_Pepper-and-Carrot_by-David-Revoy_E32P04.png"
       xlink:href="../gfx_Pepper-and-Carrot_by-David-Revoy_E32P04.png"
       width="2481"
       height="3503"
       id="image10"
       x="0"
       y="0" />
  </g>
  <g
     inkscape:groupmode="layer"
     id="layer3"
     inkscape:label="speechbubbles"
     style="display:inline">
    <path
       style="display:inline;fill:#ffffff;fill-rule:evenodd;stroke:none;stroke-width:1px;stroke-linecap:butt;stroke-linejoin:miter;stroke-opacity:1"
       d="m 746.55255,1001.2284 c -1.65685,9.9596 -3.3137,19.9192 -4.97054,29.8789 -9.32332,8.0485 -22.60151,8.9685 -32.86449,2.7969 2.54706,10.774 5.0941,21.5481 7.64115,32.3222 -2.25566,2.3963 -5.64,3.2792 -8.551,2.1563 1.59955,6.1146 3.19911,12.2291 4.79867,18.3437 -3.97572,3.9098 -9.35484,5.8756 -14.54429,5.166 2.86726,10.876 5.99382,21.7483 7.27214,33.0684 -2.32522,8.8182 -5.9877,17.0399 -9.47771,25.291 11.678,2.5798 23.47945,4.6738 34.86618,8.7363 8.37093,7.7913 13.53808,20.1419 13.27722,32.625 9.65799,-5.0175 19.316,-10.0351 28.97399,-15.0527 4.64341,1.0402 7.17295,8.1481 4.5712,12.7051 10.99307,-6.3253 21.92701,-12.787 32.87122,-19.2246 3.54299,2.1699 6.25904,6.098 7.25698,10.6035 6.42748,-1.4847 12.76281,-3.4424 19.10033,-5.3652 1.19905,2.271 1.76439,4.8978 2.0893,7.5097 9.1478,0.9457 18.62302,0.9276 27.24357,5.0703 3.46408,2.9934 5.84262,7.2703 8.10618,11.4551 8.89059,-11.2732 17.76415,-23.2941 29.7819,-30.19 6.93766,-3.8577 14.40115,-7.888 22.29484,-7.0031 4.40986,1.3632 8.81925,2.7506 13.30176,3.7615 6.67164,-4.2749 14.66032,-6.9352 22.22924,-4.6172 0.81464,1.3929 2.64419,-0.7749 1.49542,-1.7646 -1.45983,-5.6282 -3.80157,-10.9116 -4.99165,-16.6397 3.31413,-7.5915 7.18711,-15.2491 7.77594,-23.918 -1.82149,-6.4451 -5.13958,-12.127 -7.31012,-18.402 -0.46659,-1.0714 -1.36169,-2.4403 -0.31464,-3.4386 1.94677,-3.1945 4.72573,-5.6678 7.84044,-7.1496 -4.60856,-6.6253 -12.68456,-8.9827 -16.28651,-16.6973 -3.30092,-6.2451 -5.27094,-14.08 -3.25528,-21.2734 6.62342,-11.6944 15.16446,-21.6898 22.22924,-33.002 -9.72153,6.5431 -19.39728,13.1768 -29.08183,19.793 -2.55827,-1.4359 -4.44448,-4.2916 -5.08847,-7.4863 -3.46259,0.6991 -6.86485,1.7351 -10.27131,2.7265 -0.48021,-3.0406 -0.10332,-6.1505 -0.45494,-9.2051 -1.89499,-0.4083 -3.84281,-0.4031 -5.722,-0.9218 -0.52918,-8.7815 0.68799,-17.5194 1.64449,-26.20323 -7.48838,8.05213 -14.97675,16.10423 -22.46513,24.15633 -3.47106,-1.1135 -6.5311,-3.8491 -8.32858,-7.4687 -12.58573,1.1103 -25.41159,0.5653 -37.70865,4.3574 -6.99728,-0.5667 -12.40996,-6.3136 -18.50724,-9.6465 -2.07529,-1.457 -4.60537,-3.6981 -7.09921,-2.1161 -7.97511,3.4798 -14.50113,11.0234 -23.18395,12.3387 -5.0599,0.9271 -10.26982,0.6148 -15.24523,-0.7734 -5.54235,2.458 -9.25759,8.6276 -15.06154,10.4727 -7.59871,-0.9361 -13.69874,-7.76 -16.86611,-15.4805 -2.73113,-5.5209 -5.45301,-11.0481 -8.24603,-16.52733 -0.25499,1.4108 -0.50997,2.8216 -0.76495,4.23243 z"
       id="path4508-2"
       inkscape:connector-curvature="0"
       sodipodi:nodetypes="cccccccccccccccccccccccccccc" />
    <path
       style="display:inline;opacity:1;fill:#ffffff;fill-rule:evenodd;stroke:none;stroke-width:1px;stroke-linecap:butt;stroke-linejoin:miter;stroke-opacity:1"
       d="m 1232.4018,1041.2127 c -50.2716,5.6942 -99.4961,17.7102 -149.0566,27.4906 -16.2443,3.0274 -32.4856,6.4771 -49.0334,7.3138 -27.8674,1.7997 -55.81752,0.5765 -83.70319,1.8779 -31.70373,1.116 -63.45592,2.4021 -94.96073,6.3059 -12.00129,1.5369 -23.8923,4.0749 -35.32968,8.0574 -14.69956,4.8219 -28.95873,11.1539 -44.13898,14.3919 -8.25968,1.6756 -16.87794,1.7222 -25.07509,-0.3374 -10.7596,-2.4958 -20.93572,-6.8981 -31.28412,-10.666 -13.71759,-5.23 -27.87124,-9.9766 -42.63207,-10.8825 -17.52114,-1.6165 -35.20254,-2.0954 -52.74398,-0.5311 -14.1515,1.5758 -28.28924,6.1786 -39.51262,15.1684 -12.84906,9.8693 -22.82322,24.1414 -25.65265,40.2688 -1.27746,9.6884 1.31912,19.7672 6.8849,27.7728 0.67219,-10.5849 -2.17144,-21.4525 1.0625,-31.8106 4.3372,-15.0701 16.29647,-27.1362 30.36748,-33.5682 11.89389,-5.571 25.40408,-6.3815 38.3065,-5.114 19.64653,0.787 39.52891,0.029 58.88579,4.0577 18.62559,4.5312 35.23728,14.582 53.3582,20.5503 10.41976,3.2102 21.70042,4.3166 32.36695,1.64 19.04553,-4.0346 36.58663,-12.9001 55.30192,-18.0596 12.43504,-3.5706 25.3649,-5.5175 38.31511,-5.3097 37.76726,-1.0812 75.53995,-2.1833 113.32462,-2.3508 32.59244,0.08 65.21724,1.5823 97.78584,-0.2844 34.3956,-1.6839 68.688,-6.4713 103.1848,-5.2917 8.1876,0.3248 16.7783,0.3919 24.2138,4.3017 5.7439,2.8127 10.051,8.1503 11.8047,14.2786 1.4492,4.1969 1.4605,8.6884 2.352,12.9932 0.6018,2.1839 3.7128,2.0534 5.1858,0.8257 1.3359,-0.8313 1.5858,-2.4429 1.5437,-3.865 4.0897,-23.3572 8.874,-46.6096 11.8375,-70.1495 -0.345,-4.8848 -5.0077,-8.1954 -9.5346,-8.8976 -1.1287,-0.2017 -2.2808,-0.247 -3.4244,-0.1766 z"
       id="path4316-3"
       inkscape:connector-curvature="0"
       sodipodi:nodetypes="ccsccscccccccccccccccccccccccc" />
    <path
       style="display:inline;fill:#ffffff;stroke:none;stroke-width:1.05279291"
       d="m 1219.473,953.8926 c -48.9319,0.67144 -98.453,7.57476 -144.1132,27.15108 -26.365,11.91643 -50.7158,31.07492 -65.5734,57.62092 -13.22214,26.2412 -15.49174,57.6927 -9.5399,86.5115 9.403,39.7639 41.1066,71.9645 78.3821,81.1331 31.6514,9.5167 64.6231,11.6715 97.0971,16.0959 69.6934,7.2945 139.685,0.7627 209.4444,-1.583 27.3003,-1.1245 54.6984,-2.3098 81.7138,-6.9134 32.9451,-6.8088 64.7579,-23.3831 87.68,-49.936 12.7495,-15.0676 21.4791,-34.4143 22.6727,-54.8418 2.4767,-25.1051 -0.8181,-51.619 -13.0488,-73.5645 -12.4421,-21.3052 -32.4337,-36.33656 -53.7854,-46.05683 -32.3199,-15.66862 -67.3739,-23.67813 -102.4077,-28.62566 -51.7686,-6.59575 -103.9968,-5.00913 -156.0062,-6.77676 -10.8375,-0.18825 -21.6767,-0.23542 -32.5155,-0.21455 z"
       id="path3280-8-2-3"
       inkscape:connector-curvature="0"
       sodipodi:nodetypes="csssc" />
    <path
       style="display:inline;fill:#ffffff;fill-rule:evenodd;stroke:none;stroke-width:1px;stroke-linecap:butt;stroke-linejoin:miter;stroke-opacity:1"
       d="m 1891.3766,2207.5293 c 4.401,9.7034 -4.7621,22.199 -15.1321,20.761 -9.2497,0.1495 -17.2014,-5.5472 -24.1917,-11.085 -2.1741,-1.4556 -4.3959,-2.837 -6.6654,-4.133 -2.8354,7.4007 -3.13,16.2749 -9.0338,22.1015 -8.2119,8.4241 -20.9041,11.5245 -32.1252,8.7735 -2.7312,1.4957 -1.6607,5.8433 0.8205,7.0273 2.1563,3.9092 -1.448,8.6017 -5.3625,9.2457 -9.0434,4.1681 -19.4023,2.7482 -28.6278,6.266 9.3133,4.5102 19.4418,6.863 28.8993,11.0078 1.2246,6.32 -3.4821,12.2449 -8.9169,14.6602 2.1993,2.8626 5.3588,4.732 7.8758,7.2771 0.6885,0.7656 2.3845,1.493 2.1456,2.5756 -5.205,9.3853 -15.3068,15.3269 -25.6968,16.4578 10.3934,5.4628 23.2318,4.6995 32.7002,12.2129 4.5301,4.3891 4.3046,11.3683 3.5408,17.1955 -0.4128,4.1564 -0.9123,8.3069 -1.1313,12.4803 2.9779,-0.7709 4.491,-3.9702 7.3464,-5.0288 7.2333,-4.8687 16.3319,-8.3394 25.014,-5.9523 4.7388,1.8296 8.3502,5.6907 12.4334,8.5073 12.38,0.9628 25.3018,-0.068 37.0199,4.8859 4.8252,3.3619 8.4087,8.3792 10.5021,13.9063 10.4957,-3.7874 20.5331,-10.2761 32.0215,-10.0543 10.1987,1.1633 20.9974,3.5294 30.8797,-0.5424 11.4867,-4.2294 23.7289,-8.6601 36.1103,-6.3872 10.3264,1.795 20.3617,4.933 30.5914,7.1831 8.4305,-3.499 14.8896,-11.5049 24.3239,-12.4785 9.6014,-1.1197 19.419,1.4068 27.707,6.3652 -4.4291,-9.9039 0.7391,-23.4105 11.2227,-26.5868 5.1023,-1.9874 10.5158,-2.9228 15.708,-4.6163 -3.8859,-4.3204 -10.11,-6.2968 -12.6565,-11.8613 -0.4454,-6.3288 5.5702,-11.0727 4.8227,-17.4434 -2.2057,-4.0033 -7.6007,-5.5539 -8.5622,-10.3691 1.5921,-8.844 8.766,-15.1112 15.8131,-19.7566 1.3928,-0.9285 2.965,-1.5881 4.2095,-2.7376 -3.2745,-2.9536 -7.9453,-2.7414 -11.8935,-4.1065 -5.2209,-1.1528 -11.1645,-2.292 -14.6225,-6.8512 -2.3451,-4.6891 -1.938,-10.5032 0.5321,-15.054 -4.6454,-3.3547 -10.4845,-1.0714 -15.689,-1.5069 -8.9724,0.2878 -18.7567,0.5666 -26.5682,-4.6559 -6.2337,-5.9255 -7.8228,-14.9001 -9.6822,-22.977 0.09,-1.1529 -1.3252,-2.4391 -2.1636,-1.1919 -9.9097,6.3366 -19.9497,13.7338 -31.9219,15.0544 -11.3099,0.173 -21.7193,-7.4183 -26.8982,-17.3829 -2.392,-2.2142 -5.6703,0.052 -7.3631,2.0777 -8.5809,6.6815 -17.7039,13.9851 -28.8249,15.1545 -12.3862,0.356 -23.6572,-5.7717 -34.4446,-11.2076 -4.7599,-2.5401 -9.5022,-5.1144 -14.2576,-7.6632 0.064,0.151 0.1278,0.3021 0.1916,0.4531 z"
       id="path4582"
       inkscape:connector-curvature="0"
       sodipodi:nodetypes="ccccccccccccccccccccccccccccccccccccccccccccccc" />
    <path
       style="display:inline;fill:#ffffff;fill-rule:evenodd;stroke:none;stroke-width:1px;stroke-linecap:butt;stroke-linejoin:miter;stroke-opacity:1"
       d="m 1982.1328,2325.6113 c -12.8691,7.4955 -25.7383,14.9909 -38.6074,22.4864 0.7954,19.5281 2.2328,39.6275 -3.7131,58.5597 -1.442,4.7665 -2.884,9.5331 -4.326,14.2996 -1.6554,-3.8605 -5.4614,-7.4211 -9.9258,-6.9336 -6.7867,4.7357 -9.0295,13.3509 -9.9231,21.1392 -2.0838,11.9256 -2.8847,24.0205 -3.8503,36.0737 3.8713,-15.6614 7.4521,-31.5035 13.7676,-46.4082 3.8906,4.0568 6.8647,9.3231 12.1582,11.7598 6.004,-2.9668 8.1205,-9.8641 10.0033,-15.7846 11.8101,-31.5596 23.2778,-63.2456 34.8385,-94.8971 0,-0.1943 -0.2322,-0.3937 -0.4219,-0.2949 z"
       id="path891"
       inkscape:connector-curvature="0"
       inkscape:transform-center-x="1.787008"
       inkscape:transform-center-y="33.226638"
       sodipodi:nodetypes="ccccccccc" />
  </g>
  <g
     inkscape:groupmode="layer"
     id="layer1"
     inkscape:label="txt"
     style="display:inline">
    <path
       style="fill:#ffffff;fill-opacity:1;fill-rule:evenodd;stroke:none;stroke-width:1px;stroke-linecap:butt;stroke-linejoin:miter;stroke-opacity:1"
       d="m 173.076,2249.8576 c -3.28054,-4.412 -6.54497,-8.8363 -9.89844,-13.1934 1.8724,4.9701 3.74479,9.9401 5.61719,14.9102 -2.85287,-2.3366 -5.70573,-4.6732 -8.5586,-7.0098 0.9873,14.5749 -5.63616,28.266 -13.04492,40.375 -3.39388,10.4616 -6.78776,20.9232 -10.18164,31.3848 -3.04714,1.4837 -6.54754,2.0287 -9.89844,1.5039 2.47526,3.4505 4.95053,6.901 7.42579,10.3515 -2.50019,1.7264 -5.61815,2.5405 -8.64258,2.2285 2.22591,3.75 4.45182,7.5 6.67773,11.25 -6.64258,-0.6464 -13.28515,-1.2929 -19.92773,-1.9394 8.58413,8.2032 18.47439,16.3063 22.04883,28.1074 3.55432,24.9963 8.72921,49.7219 13.97851,74.4063 -5.82052,13.6373 -13.23322,26.5046 -20.38086,39.4707 10.41602,-6.849 20.83203,-13.6979 31.24805,-20.5469 -0.46062,4.0289 -1.87399,7.9431 -4.0918,11.3379 4.39714,-1.4688 8.79427,-2.9375 13.19141,-4.4063 -0.82341,9.5473 -4.30109,18.7343 -9.33399,26.8418 7.69039,-5.534 12.87978,-13.7196 20.1875,-19.6816 32.596,18.3268 68.51751,31.5785 105.91205,35.1479 32.71885,4.0253 66.53886,3.6244 98.32955,-5.8467 17.1345,-6.6006 32.20149,-17.7281 45.05528,-30.7055 8.37714,0.3926 14.74263,6.7009 22.49945,9.0886 1.83905,0.8039 4.38347,2.4596 5.91316,2.4657 -6.17464,-7.2388 -12.34929,-14.4776 -18.52394,-21.7164 3.90629,-3.4577 7.84461,-6.9256 12.2832,-9.6953 3.2194,1.8216 6.43881,3.6432 9.65821,5.4648 -8.04322,-15.757 -6.7017,-34.7203 -0.61524,-50.8926 1.9362,-8.4231 3.8724,-16.8463 5.8086,-25.2695 5.2137,-3.0724 10.65897,-5.722 16.08203,-8.3984 -5.26758,-0.944 -10.53516,-1.8881 -15.80274,-2.8321 3.95357,-4.3484 9.52988,-7.0772 15.32617,-7.8711 -4.42252,-1.4505 -8.84505,-2.901 -13.26757,-4.3515 -0.54347,-26.92 -10.55432,-52.4138 -21.1977,-76.7546 -3.34334,-7.642 -8.42416,-15.6345 -6.52909,-24.3372 3.72608,-10.546 14.59424,-16.1747 19.61155,-25.9434 -12.48852,4.3733 -24.30274,10.3837 -36.36914,15.7617 -1.47496,-3.7625 -1.27,-8.1342 0.52539,-11.7519 -19.72701,2.4352 -39.00249,-3.8087 -57.93991,-8.3768 -53.49187,-9.6011 -109.07226,-7.0798 -161.52642,7.0934 -7.40274,1.6914 -16.30005,2.2611 -22.28313,-3.3051 -2.83622,-2.4318 -5.04299,-5.5636 -6.49858,-8.9974 -1.45158,3.2489 -0.58288,6.8724 0.1289,10.1894 -6.9391,-8.276 -11.43568,-18.211 -17.67773,-26.9726 4.89388,14.472 9.78776,28.944 14.68164,43.416 z"
       id="path4212-3"
       inkscape:connector-curvature="0"
       sodipodi:nodetypes="ccccccccccccccccccccccscccccccccccccccccccccccccccc" />
    <path
       style="display:inline;fill:#ffffff;fill-rule:evenodd;stroke:none;stroke-width:1px;stroke-linecap:butt;stroke-linejoin:miter;stroke-opacity:1"
       d="m 310.70312,2463.291 c -8.21398,3.1565 -12.9353,11.3236 -16.15302,19.0514 -5.6045,14.1172 -7.86723,29.361 -8.43367,44.4712 -0.18011,11.5779 2.49004,23.9731 10.804,32.5225 8.55381,9.0353 21.00841,13.3258 33.20607,14.111 26.62301,3.0258 53.74718,6.7941 78.25045,18.258 2.11816,1.0078 4.24122,2.0052 6.36914,2.9922 -25.92997,-17.4348 -55.94738,-27.1336 -85.46519,-36.5491 -9.15309,-1.9188 -16.58306,-10.2666 -16.96924,-19.6885 -0.54779,-8.5768 2.64096,-16.755 4.47368,-25.0023 3.19319,-12.494 6.66713,-25.528 4.31784,-38.4807 -1.16255,-5.1466 -4.54264,-11.2602 -10.40006,-11.6857 z"
       id="path4186-80"
       inkscape:connector-curvature="0"
       sodipodi:nodetypes="cscssc" />
    <text
       xml:space="preserve"
       style="font-style:normal;font-variant:normal;font-weight:normal;font-stretch:normal;line-height:0%;font-family:Lavi;-inkscape-font-specification:Lavi;text-align:center;letter-spacing:0px;word-spacing:0px;text-anchor:middle;display:inline;fill:#000000;fill-opacity:1;stroke:none"
       x="829.83612"
       y="1086.9447"
       id="text4246-7-6-1-7-6-6"><tspan
         sodipodi:role="line"
         style="font-size:45px;line-height:1.25"
         x="837.74628"
         y="1086.9447"
         id="tspan846">J'y crois </tspan><tspan
         sodipodi:role="line"
         style="font-size:45px;line-height:1.25"
         x="829.83612"
         y="1143.1947"
         id="tspan877">pas !</tspan></text>
    <text
       xml:space="preserve"
       style="font-style:normal;font-variant:normal;font-weight:normal;font-stretch:normal;line-height:0%;font-family:Lavi;-inkscape-font-specification:Lavi;text-align:center;letter-spacing:0px;word-spacing:0px;text-anchor:middle;display:inline;fill:#000000;fill-opacity:1;stroke:none"
       x="1289.5938"
       y="1019.46"
       id="text4246-7-6-1-7-6-6-6"><tspan
         sodipodi:role="line"
         style="font-size:45px;line-height:1.25"
         x="1297.5039"
         y="1019.46"
         id="tspan873">Toutes ces années </tspan><tspan
         sodipodi:role="line"
         style="font-size:45px;line-height:1.25"
         x="1297.5039"
         y="1075.71"
         id="tspan890">d'études et personne ne </tspan><tspan
         sodipodi:role="line"
         style="font-size:45px;line-height:1.25"
         x="1297.5039"
         y="1131.96"
         id="tspan894">me prend au sérieux sous </tspan><tspan
         sodipodi:role="line"
         style="font-size:45px;line-height:1.25"
         x="1289.5938"
         y="1188.21"
         id="tspan905">prétexte que...</tspan></text>
    <text
       xml:space="preserve"
       style="font-style:normal;font-variant:normal;font-weight:normal;font-stretch:normal;font-size:13.49506664px;line-height:0%;font-family:Lavi;-inkscape-font-specification:Lavi;text-align:center;letter-spacing:0px;word-spacing:0px;text-anchor:middle;fill:#000000;fill-opacity:1;stroke:none;stroke-width:0.99999994"
       x="303.43878"
       y="2307.4636"
       id="text4246-1-3-1"
       transform="scale(0.99789912,1.0021053)"><tspan
         sodipodi:role="line"
         style="font-style:normal;font-variant:normal;font-weight:normal;font-stretch:normal;font-size:45px;line-height:1.25;font-family:Lavi;-inkscape-font-specification:Lavi;stroke-width:0.99999994"
         x="311.34894"
         y="2307.4636"
         id="tspan902">...je n'ai </tspan><tspan
         sodipodi:role="line"
         style="font-style:normal;font-variant:normal;font-weight:normal;font-stretch:normal;font-size:45px;line-height:1.25;font-family:Lavi;-inkscape-font-specification:Lavi;stroke-width:0.99999994"
         x="311.34894"
         y="2363.7136"
         id="tspan912">pas assez </tspan><tspan
         sodipodi:role="line"
         style="font-style:normal;font-variant:normal;font-weight:normal;font-stretch:normal;font-size:45px;line-height:1.25;font-family:Lavi;-inkscape-font-specification:Lavi;stroke-width:0.99999994"
         x="303.43878"
         y="2419.9636"
         id="tspan918">d'expérience !</tspan></text>
    <text
       xml:space="preserve"
       style="font-style:normal;font-variant:normal;font-weight:normal;font-stretch:normal;line-height:0%;font-family:Lavi;-inkscape-font-specification:Lavi;letter-spacing:0px;word-spacing:0px;opacity:0.85700001;fill:#ffffff;fill-opacity:1;stroke:#98b9ca;stroke-width:0.95450699;stroke-miterlimit:4;stroke-dasharray:none;stroke-opacity:1;filter:url(#filter4375-4-1-1-1-9-5-8-4)"
       x="787.65729"
       y="1584.5073"
       id="text4580-6-0-9"
       transform="matrix(0.45385441,-0.55441241,0.42180805,1.1015917,506.31624,1607.76)"><tspan
         sodipodi:role="line"
         id="tspan4582-1-1-26"
         x="787.65729"
         y="1584.5073"
         style="font-size:70px;line-height:1.25;fill:#ffffff;fill-opacity:1;stroke:#98b9ca;stroke-width:0.95450699;stroke-opacity:1"><tspan
           style="font-size:93.14950562px;fill:#ffffff;fill-opacity:1;stroke:#98b9ca;stroke-width:0.95450699;stroke-opacity:1"
           id="tspan4315-8-64">POUF<tspan
   style="font-size:72.14802551px;stroke-width:0.95450699"
   id="tspan1131"> </tspan><tspan
   style="font-size:82.64876556px;stroke-width:0.95450699"
   id="tspan1133">!</tspan></tspan><tspan
           style="font-size:114.73223114px;fill:#ffffff;fill-opacity:1;stroke:#98b9ca;stroke-width:0.95450699;stroke-opacity:1"
           id="tspan4313-2-9">!</tspan></tspan></text>
    <text
       xml:space="preserve"
       style="font-style:normal;font-variant:normal;font-weight:normal;font-stretch:normal;font-size:15.67466736px;line-height:0%;font-family:Lavi;-inkscape-font-specification:Lavi;text-align:center;letter-spacing:0px;word-spacing:0px;text-anchor:middle;display:inline;fill:#000000;fill-opacity:1;stroke:#000000;stroke-width:1.79999995;stroke-miterlimit:4;stroke-dasharray:none;stroke-opacity:1"
       x="2779.0186"
       y="2023.4807"
       id="text4246-3-7-9-5-1-6-2"
       transform="matrix(0.87277154,0,-0.23842397,1.1457752,0,0)"><tspan
         sodipodi:role="line"
         style="font-size:58.77999878px;line-height:1.25;stroke:#000000;stroke-width:1.79999995;stroke-miterlimit:4;stroke-dasharray:none;stroke-opacity:1"
         x="2779.0186"
         y="2023.4807"
         id="tspan1222">CARROT !</tspan></text>
    <text
       xml:space="preserve"
       style="font-style:normal;font-variant:normal;font-weight:normal;font-stretch:normal;line-height:0%;font-family:Lavi;-inkscape-font-specification:Lavi;letter-spacing:0px;word-spacing:0px;display:inline;opacity:0.85700001;fill:#ffffff;fill-opacity:1;stroke:#98b9ca;stroke-width:1.4887538;stroke-miterlimit:4;stroke-dasharray:none;stroke-opacity:1;filter:url(#filter4375-4-1-1-1-9-5-8-4-3)"
       x="787.65729"
       y="1584.5073"
       id="text4580-6-0-9-3"
       transform="matrix(0.33769447,-0.30629363,0.31385009,0.60859124,1407.0816,1753.5904)"><tspan
         sodipodi:role="line"
         id="tspan4582-1-1-26-6"
         x="787.65729"
         y="1584.5073"
         style="font-size:70px;line-height:1.25;fill:#ffffff;fill-opacity:1;stroke:#98b9ca;stroke-width:1.4887538;stroke-opacity:1"><tspan
           style="font-size:93.14950562px;fill:#ffffff;fill-opacity:1;stroke:#98b9ca;stroke-width:1.4887538;stroke-opacity:1"
           id="tspan4315-8-64-0">PAF<tspan
   style="font-size:72.14802551px;stroke-width:1.4887538"
   id="tspan1131-6"> </tspan><tspan
   style="font-size:82.64876556px;stroke-width:1.4887538"
   id="tspan1133-2">!</tspan></tspan><tspan
           style="font-size:114.73223114px;fill:#ffffff;fill-opacity:1;stroke:#98b9ca;stroke-width:1.4887538;stroke-opacity:1"
           id="tspan4313-2-9-6">!</tspan></tspan></text>
  </g>
</svg>
