<?xml version="1.0" encoding="UTF-8" standalone="no"?>
<!-- Created with Inkscape (http://www.inkscape.org/) -->

<svg
   xmlns:dc="http://purl.org/dc/elements/1.1/"
   xmlns:cc="http://creativecommons.org/ns#"
   xmlns:rdf="http://www.w3.org/1999/02/22-rdf-syntax-ns#"
   xmlns:svg="http://www.w3.org/2000/svg"
   xmlns="http://www.w3.org/2000/svg"
   xmlns:xlink="http://www.w3.org/1999/xlink"
   xmlns:sodipodi="http://sodipodi.sourceforge.net/DTD/sodipodi-0.dtd"
   xmlns:inkscape="http://www.inkscape.org/namespaces/inkscape"
   id="svg2"
   version="1.1"
   inkscape:version="0.92.3 (2405546, 2018-03-11)"
   width="2481"
   height="3503"
   sodipodi:docname="E09P05.svg">
  <sodipodi:namedview
     pagecolor="#ffffff"
     bordercolor="#666666"
     inkscape:pageopacity="0"
     inkscape:pageshadow="2"
     inkscape:window-width="1813"
     inkscape:window-height="955"
     id="namedview70"
     showgrid="false"
     inkscape:zoom="0.4"
     inkscape:cx="1985.8572"
     inkscape:cy="1673.7935"
     inkscape:current-layer="layer1"
     inkscape:window-x="0"
     inkscape:window-y="0"
     inkscape:window-maximized="0" />
  <metadata
     id="metadata8">
    <rdf:RDF>
      <cc:Work
         rdf:about="">
        <dc:format>image/svg+xml</dc:format>
        <dc:type
           rdf:resource="http://purl.org/dc/dcmitype/StillImage" />
        <dc:title />
      </cc:Work>
    </rdf:RDF>
  </metadata>
  <defs
     id="defs6">
    <filter
       style="color-interpolation-filters:sRGB"
       id="filter4375-4-1-1-1"
       inkscape:label="deevad outline effect">
      <feFlood
         id="feFlood4377-7-9-0-8"
         flood-opacity="1"
         flood-color="rgb(0,0,0)"
         result="flood" />
      <feComposite
         id="feComposite4379-3-8-8-2"
         in2="SourceGraphic"
         in="flood"
         operator="in"
         result="composite1" />
      <feMorphology
         id="feMorphology4393-1-0-49-8"
         operator="dilate"
         radius="4"
         result="result3" />
      <feComposite
         id="feComposite4385-9-5-7-0"
         in2="result3"
         in="SourceGraphic"
         operator="over"
         result="composite2" />
    </filter>
    <filter
       style="color-interpolation-filters:sRGB"
       id="filter4375-4-1-1-1-3"
       inkscape:label="deevad outline effect">
      <feFlood
         id="feFlood4377-7-9-0-8-3"
         flood-opacity="1"
         flood-color="rgb(0,0,0)"
         result="flood" />
      <feComposite
         id="feComposite4379-3-8-8-2-7"
         in2="SourceGraphic"
         in="flood"
         operator="in"
         result="composite1" />
      <feMorphology
         id="feMorphology4393-1-0-49-8-2"
         operator="dilate"
         radius="4"
         result="result3" />
      <feComposite
         id="feComposite4385-9-5-7-0-5"
         in2="result3"
         in="SourceGraphic"
         operator="over"
         result="composite2" />
    </filter>
    <filter
       style="color-interpolation-filters:sRGB"
       id="filter4375-4-1-1-1-8"
       inkscape:label="deevad outline effect">
      <feFlood
         id="feFlood4377-7-9-0-8-1"
         flood-opacity="1"
         flood-color="rgb(0,0,0)"
         result="flood" />
      <feComposite
         id="feComposite4379-3-8-8-2-1"
         in2="SourceGraphic"
         in="flood"
         operator="in"
         result="composite1" />
      <feMorphology
         id="feMorphology4393-1-0-49-8-4"
         operator="dilate"
         radius="4"
         result="result3" />
      <feComposite
         id="feComposite4385-9-5-7-0-6"
         in2="result3"
         in="SourceGraphic"
         operator="over"
         result="composite2" />
    </filter>
    <filter
       style="color-interpolation-filters:sRGB"
       id="filter4375-4-1-1-1-9"
       inkscape:label="deevad outline effect">
      <feFlood
         id="feFlood4377-7-9-0-8-5"
         flood-opacity="1"
         flood-color="rgb(0,0,0)"
         result="flood" />
      <feComposite
         id="feComposite4379-3-8-8-2-74"
         in2="SourceGraphic"
         in="flood"
         operator="in"
         result="composite1" />
      <feMorphology
         id="feMorphology4393-1-0-49-8-3"
         operator="dilate"
         radius="4"
         result="result3" />
      <feComposite
         id="feComposite4385-9-5-7-0-8"
         in2="result3"
         in="SourceGraphic"
         operator="over"
         result="composite2" />
    </filter>
  </defs>
  <sodipodi:namedview
     pagecolor="#ffffff"
     bordercolor="#666666"
     borderopacity="1"
     objecttolerance="10"
     gridtolerance="10"
     guidetolerance="10"
     inkscape:pageopacity="0"
     inkscape:pageshadow="2"
     inkscape:window-width="1920"
     inkscape:window-height="1025"
     id="namedview4"
     showgrid="false"
     inkscape:zoom="0.6956522"
     inkscape:cx="956.75173"
     inkscape:cy="786.33455"
     inkscape:window-x="0"
     inkscape:window-y="26"
     inkscape:window-maximized="1"
     inkscape:current-layer="layer1" />
  <g
     inkscape:groupmode="layer"
     id="layer2"
     inkscape:label="artwork"
     sodipodi:insensitive="true">
    <image
       xlink:href="../gfx_Pepper-and-Carrot_by-David-Revoy_E09P05.png"
       y="0"
       x="0"
       id="image10"
       height="3503"
       width="2481" />
  </g>
  <g
     inkscape:groupmode="layer"
     id="layer3"
     inkscape:label="speechbubbles" />
  <g
     inkscape:groupmode="layer"
     id="layer1"
     inkscape:label="txt">
    <path
       style="color:#000000;display:inline;overflow:visible;visibility:visible;fill:#ffffff;fill-opacity:1;fill-rule:nonzero;stroke:none;stroke-width:1.01515651px;marker:none;enable-background:accumulate"
       d="m 1307.9028,2668.4656 c 46.2925,17.9366 93.5013,35.6747 11.1792,81.4808 78.1705,-11.8136 30.3454,13.5287 11.179,30.4195 122.6746,-3.8326 -21.6428,71.4844 -55.9036,104.1917 31.1081,-13.0351 143.3619,-84.2802 133.1413,-49.871 9.8904,-2.3383 21.528,-9.0348 26.4234,1.0864 12.6018,-6.9891 16.1857,-9.7183 21.6613,-5.2801 12.3854,-12.719 27.6113,-17.9369 22.2519,-3.5746 21.34,-18.889 19.1677,-4.5355 22.1452,0.1634 20.0962,-22.4959 27.6016,-16.1498 35.57,-10.8641 11.3782,-13.5068 24.6936,-10.4476 39.6351,6.5184 15.2877,-22.9716 31.7153,-21.574 48.7817,-6.5184 5.0124,-5.659 28.9357,-16.0711 36.4735,4.9231 8.4598,-8.7424 30.3949,-27.9269 52.33,-0.8075 17.6072,-20.747 59.7468,-22.5977 83.9648,3.4892 6.8779,-14.6166 32.1222,-28.4869 64.0258,-15.2096 2.9823,-13.5579 20.0887,-19.0629 49.7979,-17.3827 -30.4721,-16.3621 -32.0397,-25.677 38.6189,-17.3826 -49.2494,-13.3991 -94.6351,-26.7981 -18.2932,-40.1972 -17.8802,-5.3195 -76.3227,7.1942 -12.1954,-56.4934 -45.5367,14.0563 -86.8753,17.7084 -99.5959,-39.1108 -24.5662,14.9425 -51.7663,22.3447 -73.1723,-11.9506 -19.4971,16.0691 -46.7769,12.2112 -60.9771,4.3456 -3.8421,17.5989 -32.8557,44.5895 -72.1562,-4.3456 8.6228,27.8138 2.0962,72.1151 -43.7002,-1.0864 -0.9082,12.7338 17.9505,81.9829 -109.7587,-1.0865 15.9307,55.7329 -26.4718,23.3035 -59.9609,4.3456 16.6069,34.9432 -8.3857,37.6454 -63.0095,17.3826 42.1384,33.179 -1.1896,24.0185 -28.456,22.8148 z"
       id="path3549"
       inkscape:connector-curvature="0"
       sodipodi:nodetypes="ccccccccccccccccccccccccccccc" />
    <flowRoot
       xml:space="preserve"
       id="flowRoot3063-8"
       style="color:#000000;font-style:normal;font-variant:normal;font-weight:normal;font-stretch:normal;line-height:0.01%;font-family:Arial;-inkscape-font-specification:Arial;letter-spacing:0px;word-spacing:0px;display:inline;overflow:visible;visibility:visible;fill:#ffd42a;fill-opacity:1;fill-rule:nonzero;stroke:#ffd319;stroke-width:4.3819828;stroke-opacity:1;marker:none;enable-background:accumulate"
       transform="matrix(0.94497198,-0.30283318,0.33037145,1.0309034,866.21843,878.47873)"><flowRegion
         id="flowRegion3065-8"
         style="stroke:#ffd319;stroke-width:4.3819828;stroke-opacity:1"><rect
           id="rect3067-6"
           width="248.66193"
           height="90.046997"
           x="92.642677"
           y="425.30325"
           style="color:#000000;font-size:72px;display:inline;overflow:visible;visibility:visible;fill:#ffd42a;fill-opacity:1;fill-rule:nonzero;stroke:#ffd319;stroke-width:4.3819828;stroke-opacity:1;marker:none;enable-background:accumulate" /></flowRegion><flowPara
         style="color:#000000;font-style:normal;font-variant:normal;font-weight:normal;font-stretch:normal;font-size:64px;line-height:1.25;font-family:Lavi;-inkscape-font-specification:Lavi;text-align:center;text-anchor:middle;display:inline;overflow:visible;visibility:visible;fill:#ffd42a;fill-opacity:1;fill-rule:nonzero;stroke:#ffd319;stroke-width:3.45422935;stroke-miterlimit:4;stroke-dasharray:none;stroke-opacity:1;marker:none;enable-background:accumulate"
         id="flowPara3188">Af uf</flowPara></flowRoot>    <flowRoot
       xml:space="preserve"
       id="flowRoot3063-8-0"
       style="color:#000000;font-style:normal;font-variant:normal;font-weight:normal;font-stretch:normal;line-height:0.01%;font-family:Arial;-inkscape-font-specification:Arial;letter-spacing:0px;word-spacing:0px;display:inline;overflow:visible;visibility:visible;fill:#ffd42a;fill-opacity:1;fill-rule:nonzero;stroke:#ffd319;stroke-width:4.3819828;stroke-opacity:1;marker:none;enable-background:accumulate"
       transform="matrix(0.7449843,-0.21593102,0.2604538,0.73507145,1009.8852,1048.4176)"><flowRegion
         id="flowRegion3065-8-3"
         style="stroke:#ffd319;stroke-width:4.3819828;stroke-opacity:1"><rect
           id="rect3067-6-9"
           width="248.66193"
           height="90.046997"
           x="92.642677"
           y="425.30325"
           style="color:#000000;font-size:72px;display:inline;overflow:visible;visibility:visible;fill:#ffd42a;fill-opacity:1;fill-rule:nonzero;stroke:#ffd319;stroke-width:4.3819828;stroke-opacity:1;marker:none;enable-background:accumulate" /></flowRegion><flowPara
         style="color:#000000;font-style:normal;font-variant:normal;font-weight:normal;font-stretch:normal;font-size:64px;line-height:1.25;font-family:Lavi;-inkscape-font-specification:Lavi;text-align:center;text-anchor:middle;display:inline;overflow:visible;visibility:visible;fill:#ffd42a;fill-opacity:1;fill-rule:nonzero;stroke:#ffd319;stroke-width:3.45422935;stroke-miterlimit:4;stroke-dasharray:none;stroke-opacity:1;marker:none;enable-background:accumulate"
         id="flowPara3188-4">Oit</flowPara></flowRoot>    <flowRoot
       xml:space="preserve"
       id="flowRoot3063-8-03"
       style="color:#000000;font-style:normal;font-variant:normal;font-weight:normal;font-stretch:normal;line-height:0.01%;font-family:Arial;-inkscape-font-specification:Arial;letter-spacing:0px;word-spacing:0px;display:inline;overflow:visible;visibility:visible;fill:#ffbf21;fill-opacity:1;fill-rule:nonzero;stroke:#ffb20f;stroke-width:4.3819828;stroke-opacity:1;marker:none;enable-background:accumulate;"
       transform="matrix(0.69985809,-0.7034761,0.76744698,0.76349997,-271.97938,321.19889)"><flowRegion
         id="flowRegion3065-8-1"
         style="stroke-width:4.3819828;fill:#ffbf21;fill-opacity:1;stroke:#ffb20f;stroke-opacity:1;"><rect
           id="rect3067-6-8"
           width="534.69867"
           height="133.38045"
           x="92.642677"
           y="425.30325"
           style="color:#000000;font-size:72px;display:inline;overflow:visible;visibility:visible;fill:#ffbf21;fill-opacity:1;fill-rule:nonzero;stroke:#ffb20f;stroke-width:4.3819828;stroke-opacity:1;marker:none;enable-background:accumulate;" /></flowRegion><flowPara
         style="color:#000000;font-style:normal;font-variant:normal;font-weight:normal;font-stretch:normal;font-size:64px;line-height:1.25;font-family:Lavi;-inkscape-font-specification:Lavi;text-align:center;text-anchor:middle;display:inline;overflow:visible;visibility:visible;fill:#ffbf21;fill-opacity:1;fill-rule:nonzero;stroke:#ffb20f;stroke-width:3.45422935;stroke-miterlimit:4;stroke-dasharray:none;stroke-opacity:1;marker:none;enable-background:accumulate;"
         id="flowPara3188-8">Mi-amh-eub !</flowPara></flowRoot>    <flowRoot
       xml:space="preserve"
       id="flowRoot3063-8-03-1"
       style="color:#000000;font-style:normal;font-variant:normal;font-weight:normal;font-stretch:normal;line-height:0.01%;font-family:Arial;-inkscape-font-specification:Arial;letter-spacing:0px;word-spacing:0px;display:inline;overflow:visible;visibility:visible;fill:#ffccaa;fill-opacity:1;fill-rule:nonzero;stroke:#ffc49b;stroke-width:4.3819828;stroke-opacity:1;marker:none;enable-background:accumulate"
       transform="matrix(0.90934859,-0.39719657,0.43331581,0.99204057,323.39674,1108.6169)"><flowRegion
         id="flowRegion3065-8-1-9"
         style="stroke:#ffc49b;stroke-width:4.3819828;stroke-opacity:1"><rect
           id="rect3067-6-8-6"
           width="352.97433"
           height="120.68928"
           x="92.642677"
           y="425.30325"
           style="color:#000000;font-size:72px;display:inline;overflow:visible;visibility:visible;fill:#ffccaa;fill-opacity:1;fill-rule:nonzero;stroke:#ffc49b;stroke-width:4.3819828;stroke-opacity:1;marker:none;enable-background:accumulate" /></flowRegion><flowPara
         style="color:#000000;font-style:normal;font-variant:normal;font-weight:normal;font-stretch:normal;font-size:64px;line-height:1.25;font-family:Lavi;-inkscape-font-specification:Lavi;text-align:center;text-anchor:middle;display:inline;overflow:visible;visibility:visible;fill:#ffccaa;fill-opacity:1;fill-rule:nonzero;stroke:#ffc49b;stroke-width:3.45422935;stroke-miterlimit:4;stroke-dasharray:none;stroke-opacity:1;marker:none;enable-background:accumulate"
         id="flowPara3188-8-3">Mi-aoibh</flowPara></flowRoot>    <flowRoot
       xml:space="preserve"
       id="flowRoot3063-8-03-1-0"
       style="color:#000000;font-style:normal;font-variant:normal;font-weight:normal;font-stretch:normal;line-height:0.01%;font-family:Arial;-inkscape-font-specification:Arial;letter-spacing:0px;word-spacing:0px;display:inline;overflow:visible;visibility:visible;fill:#ffccaa;fill-opacity:1;fill-rule:nonzero;stroke:#ffc49b;stroke-width:4.3819828;stroke-opacity:1;marker:none;enable-background:accumulate"
       transform="matrix(0.77642497,-0.31599775,0.33354997,0.75284562,462.6793,1234.6959)"><flowRegion
         id="flowRegion3065-8-1-9-3"
         style="stroke:#ffc49b;stroke-width:4.3819828;stroke-opacity:1"><rect
           id="rect3067-6-8-6-1"
           width="352.97433"
           height="120.68928"
           x="92.642677"
           y="425.30325"
           style="color:#000000;font-size:72px;display:inline;overflow:visible;visibility:visible;fill:#ffccaa;fill-opacity:1;fill-rule:nonzero;stroke:#ffc49b;stroke-width:4.3819828;stroke-opacity:1;marker:none;enable-background:accumulate" /></flowRegion><flowPara
         style="color:#000000;font-style:normal;font-variant:normal;font-weight:normal;font-stretch:normal;font-size:64px;line-height:1.25;font-family:Lavi;-inkscape-font-specification:Lavi;text-align:center;text-anchor:middle;display:inline;overflow:visible;visibility:visible;fill:#ffccaa;fill-opacity:1;fill-rule:nonzero;stroke:#ffc49b;stroke-width:3.45422935;stroke-miterlimit:4;stroke-dasharray:none;stroke-opacity:1;marker:none;enable-background:accumulate"
         id="flowPara3188-8-3-5">Mi-eub</flowPara></flowRoot>    <flowRoot
       xml:space="preserve"
       id="flowRoot3063-8-9"
       style="color:#000000;font-style:normal;font-variant:normal;font-weight:normal;font-stretch:normal;line-height:0.01%;font-family:Arial;-inkscape-font-specification:Arial;letter-spacing:0px;word-spacing:0px;display:inline;overflow:visible;visibility:visible;fill:#6c6753;fill-opacity:1;fill-rule:nonzero;stroke:#645f4c;stroke-width:4.3819828;stroke-opacity:1;marker:none;enable-background:accumulate"
       transform="matrix(0.94497198,-0.30283318,0.33037145,1.0309034,1001.1473,1741.5055)"><flowRegion
         id="flowRegion3065-8-34"
         style="stroke:#645f4c;stroke-width:4.3819828;stroke-opacity:1"><rect
           id="rect3067-6-0"
           width="248.66193"
           height="90.046997"
           x="92.642677"
           y="425.30325"
           style="color:#000000;font-size:72px;display:inline;overflow:visible;visibility:visible;fill:#6c6753;fill-opacity:1;fill-rule:nonzero;stroke:#645f4c;stroke-width:4.3819828;stroke-opacity:1;marker:none;enable-background:accumulate" /></flowRegion><flowPara
         style="color:#000000;font-style:normal;font-variant:normal;font-weight:normal;font-stretch:normal;font-size:64px;line-height:1.25;font-family:Lavi;-inkscape-font-specification:Lavi;text-align:center;text-anchor:middle;display:inline;overflow:visible;visibility:visible;fill:#6c6753;fill-opacity:1;fill-rule:nonzero;stroke:#645f4c;stroke-width:3.45422935;stroke-miterlimit:4;stroke-dasharray:none;stroke-opacity:1;marker:none;enable-background:accumulate"
         id="flowPara3188-0">Gug</flowPara></flowRoot>    <flowRoot
       xml:space="preserve"
       id="flowRoot3063-8-9-1"
       style="color:#000000;font-style:normal;font-variant:normal;font-weight:normal;font-stretch:normal;line-height:0.01%;font-family:Arial;-inkscape-font-specification:Arial;letter-spacing:0px;word-spacing:0px;display:inline;overflow:visible;visibility:visible;fill:#6c6753;fill-opacity:1;fill-rule:nonzero;stroke:#645f4c;stroke-width:4.3819828;stroke-opacity:1;marker:none;enable-background:accumulate"
       transform="matrix(0.78901976,-0.0275263,0.03366822,0.76773924,1211.2058,1869.8971)"><flowRegion
         id="flowRegion3065-8-34-7"
         style="stroke:#645f4c;stroke-width:4.3819828;stroke-opacity:1"><rect
           id="rect3067-6-0-3"
           width="248.66193"
           height="90.046997"
           x="92.642677"
           y="425.30325"
           style="color:#000000;font-size:72px;display:inline;overflow:visible;visibility:visible;fill:#6c6753;fill-opacity:1;fill-rule:nonzero;stroke:#645f4c;stroke-width:4.3819828;stroke-opacity:1;marker:none;enable-background:accumulate" /></flowRegion><flowPara
         style="color:#000000;font-style:normal;font-variant:normal;font-weight:normal;font-stretch:normal;font-size:64px;line-height:1.25;font-family:Lavi;-inkscape-font-specification:Lavi;text-align:center;text-anchor:middle;display:inline;overflow:visible;visibility:visible;fill:#6c6753;fill-opacity:1;fill-rule:nonzero;stroke:#645f4c;stroke-width:3.45422935;stroke-miterlimit:4;stroke-dasharray:none;stroke-opacity:1;marker:none;enable-background:accumulate"
         id="flowPara3188-0-2">Ub</flowPara></flowRoot>    <flowRoot
       xml:space="preserve"
       id="flowRoot2987-4-9-3"
       style="font-style:normal;font-variant:normal;font-weight:normal;font-stretch:normal;line-height:0.01%;font-family:Lavi;-inkscape-font-specification:Lavi;text-align:center;letter-spacing:0px;word-spacing:0px;text-anchor:middle;fill:#000000;fill-opacity:1;stroke:none"
       transform="translate(1089.106,2417.6741)"><flowRegion
         id="flowRegion2989-5-4-5"><rect
           id="rect2991-7-9-6"
           width="807.40167"
           height="138.23993"
           x="120.55251"
           y="265.53046"
           style="font-style:normal;font-variant:normal;font-weight:normal;font-stretch:normal;font-family:Lavi;-inkscape-font-specification:Lavi;text-align:center;text-anchor:middle" /></flowRegion><flowPara
         style="font-size:48px;line-height:1.25;text-align:center;text-anchor:middle"
         id="flowPara3487">Dhan deuchainn-lann!</flowPara><flowPara
         style="font-size:48px;line-height:1.25;text-align:center;text-anchor:middle"
         id="flowPara917">Mus bàsaich iad!</flowPara></flowRoot>    <path
       style="color:#000000;display:inline;overflow:visible;visibility:visible;fill:#ffffff;fill-opacity:1;fill-rule:nonzero;stroke:none;stroke-width:1.14351559px;marker:none;enable-background:accumulate"
       d="m 928.71967,2834.428 c 4.03839,-13.3772 32.56693,-73.5474 177.56883,8.9536 -109.46044,-82.6533 -86.833,-85.0629 -48.1816,-83.6973 -16.8606,-9.5001 -22.1255,-32.5879 11.5072,-42.0036 -16.6522,-9.0506 -15.5058,-21.0688 1.5221,-35.7352 -37.0469,6.9611 -50.2873,2.6415 -4.0393,-29.8675 -42.425,18.4531 -82.92809,34.8784 -62.8717,-12.5903 -16.0111,6.4483 -28.34689,44.0329 -81.63688,-24.7881 -3.85167,31.6623 -19.53226,55.3766 -101.86624,30.6845 7.76651,21.1442 4.13635,39.508 -52.38916,31.8099 11.79546,19.1054 -24.26829,37.7439 -41.85432,40.8551 48.53529,5.098 60.4037,16.6832 24.53401,35.85 100.70979,3.0926 43.2118,22.1131 42.41409,35.0249 62.68019,-11.8166 56.31268,12.3044 63.3257,30.1967 57.84943,-25.9153 49.26714,-1.2043 71.96727,15.3073 z"
       id="path3549-3"
       inkscape:connector-curvature="0"
       sodipodi:nodetypes="ccccccccccccccc" />
    <flowRoot
       xml:space="preserve"
       id="flowRoot2987-4-9-3-0"
       style="font-style:normal;font-variant:normal;font-weight:normal;font-stretch:normal;line-height:0.01%;font-family:Lavi;-inkscape-font-specification:Lavi;text-align:center;letter-spacing:0px;word-spacing:0px;text-anchor:middle;fill:#000000;fill-opacity:1;stroke:none"
       transform="matrix(1.2398641,0,0,1.2398641,397.83314,2331.9303)"><flowRegion
         id="flowRegion2989-5-4-5-1"><rect
           id="rect2991-7-9-6-4"
           width="602.40173"
           height="310.73996"
           x="120.55251"
           y="265.53046"
           style="font-style:normal;font-variant:normal;font-weight:normal;font-stretch:normal;font-family:Lavi;-inkscape-font-specification:Lavi;text-align:center;text-anchor:middle" /></flowRegion><flowPara
         style="font-size:43.0154686px;line-height:1.25;text-align:center;letter-spacing:1.5px;text-anchor:middle;stroke:#000000;stroke-width:1.10000002;stroke-miterlimit:4;stroke-dasharray:none;stroke-opacity:1"
         id="flowPara3030-8-7">Greas</flowPara><flowPara
         style="font-size:43.0154686px;line-height:1.25;text-align:center;letter-spacing:1.5px;text-anchor:middle;stroke:#000000;stroke-width:1.10000002;stroke-miterlimit:4;stroke-dasharray:none;stroke-opacity:1"
         id="flowPara919">oirbh!</flowPara></flowRoot>    <flowRoot
       xml:space="preserve"
       id="flowRoot3063-8-4"
       style="color:#000000;font-style:normal;font-variant:normal;font-weight:normal;font-stretch:normal;line-height:0.01%;font-family:Arial;-inkscape-font-specification:Arial;letter-spacing:0px;word-spacing:0px;display:inline;overflow:visible;visibility:visible;fill:#ffd42a;fill-opacity:1;fill-rule:nonzero;stroke:#ffd319;stroke-width:4.3819828;stroke-opacity:1;marker:none;enable-background:accumulate;"
       transform="matrix(0.7887004,-0.76050837,0.82966552,0.86042118,-238.14966,365.78067)"><flowRegion
         id="flowRegion3065-8-5"
         style="stroke-width:4.3819828;stroke:#ffd319;stroke-opacity:1;"><rect
           id="rect3067-6-3"
           width="248.66193"
           height="90.046997"
           x="92.642677"
           y="425.30325"
           style="color:#000000;font-size:72px;display:inline;overflow:visible;visibility:visible;fill:#ffd42a;fill-opacity:1;fill-rule:nonzero;stroke:#ffd319;stroke-width:4.3819828;stroke-opacity:1;marker:none;enable-background:accumulate;" /></flowRegion><flowPara
         style="color:#000000;font-style:normal;font-variant:normal;font-weight:normal;font-stretch:normal;font-size:64px;line-height:1.25;font-family:Lavi;-inkscape-font-specification:Lavi;text-align:center;text-anchor:middle;display:inline;overflow:visible;visibility:visible;fill:#ffd42a;fill-opacity:1;fill-rule:nonzero;stroke:#ffd319;stroke-width:3.45422935;stroke-miterlimit:4;stroke-dasharray:none;stroke-opacity:1;marker:none;enable-background:accumulate;"
         id="flowPara3188-9">Af af</flowPara></flowRoot>    <flowRoot
       xml:space="preserve"
       id="flowRoot3063-8-0-2"
       style="color:#000000;font-style:normal;font-variant:normal;font-weight:normal;font-stretch:normal;line-height:0.01%;font-family:Arial;-inkscape-font-specification:Arial;letter-spacing:0px;word-spacing:0px;display:inline;overflow:visible;visibility:visible;fill:#ffd42a;fill-opacity:1;fill-rule:nonzero;stroke:#ffd319;stroke-width:4.3819828;stroke-opacity:1;marker:none;enable-background:accumulate;"
       transform="matrix(0.59099277,-0.50234983,0.53889606,0.56369962,47.883887,360.62512)"><flowRegion
         id="flowRegion3065-8-3-4"
         style="stroke-width:4.3819828;stroke:#ffd319;stroke-opacity:1;"><rect
           id="rect3067-6-9-9"
           width="248.66193"
           height="90.046997"
           x="92.642677"
           y="425.30325"
           style="color:#000000;font-size:72px;display:inline;overflow:visible;visibility:visible;fill:#ffd42a;fill-opacity:1;fill-rule:nonzero;stroke:#ffd319;stroke-width:4.3819828;stroke-opacity:1;marker:none;enable-background:accumulate;" /></flowRegion><flowPara
         style="color:#000000;font-style:normal;font-variant:normal;font-weight:normal;font-stretch:normal;font-size:64px;line-height:1.25;font-family:Lavi;-inkscape-font-specification:Lavi;text-align:center;text-anchor:middle;display:inline;overflow:visible;visibility:visible;fill:#ffd42a;fill-opacity:1;fill-rule:nonzero;stroke:#ffd319;stroke-width:3.45422935;stroke-miterlimit:4;stroke-dasharray:none;stroke-opacity:1;marker:none;enable-background:accumulate;"
         id="flowPara3188-4-0">Uf</flowPara></flowRoot>    <flowRoot
       xml:space="preserve"
       id="flowRoot3063-8-03-4"
       style="color:#000000;font-style:normal;font-variant:normal;font-weight:normal;font-stretch:normal;line-height:0.01%;font-family:Arial;-inkscape-font-specification:Arial;letter-spacing:0px;word-spacing:0px;display:inline;overflow:visible;visibility:visible;fill:#ffc022;fill-opacity:1;fill-rule:nonzero;stroke:#ffb811;stroke-width:4.3819828;stroke-opacity:1;marker:none;enable-background:accumulate"
       transform="matrix(0.98240648,-0.13984811,0.15256526,1.071742,1583.9812,1224.0391)"><flowRegion
         id="flowRegion3065-8-1-0"
         style="stroke:#ffb811;stroke-width:4.3819828;stroke-opacity:1"><rect
           id="rect3067-6-8-8"
           width="352.97433"
           height="120.68928"
           x="92.642677"
           y="425.30325"
           style="color:#000000;font-size:72px;display:inline;overflow:visible;visibility:visible;fill:#ffc022;fill-opacity:1;fill-rule:nonzero;stroke:#ffb811;stroke-width:4.3819828;stroke-opacity:1;marker:none;enable-background:accumulate" /></flowRegion><flowPara
         style="color:#000000;font-style:normal;font-variant:normal;font-weight:normal;font-stretch:normal;font-size:64px;line-height:1.25;font-family:Lavi;-inkscape-font-specification:Lavi;text-align:center;text-anchor:middle;display:inline;overflow:visible;visibility:visible;fill:#ffc022;fill-opacity:1;fill-rule:nonzero;stroke:#ffb811;stroke-width:3.45422935;stroke-miterlimit:4;stroke-dasharray:none;stroke-opacity:1;marker:none;enable-background:accumulate"
         id="flowPara3188-8-31">Miamh-aobh</flowPara></flowRoot>    <flowRoot
       xml:space="preserve"
       id="flowRoot3063-8-03-1-0-2"
       style="color:#000000;font-style:normal;font-variant:normal;font-weight:normal;font-stretch:normal;line-height:0.01%;font-family:Arial;-inkscape-font-specification:Arial;letter-spacing:0px;word-spacing:0px;display:inline;overflow:visible;visibility:visible;fill:#ffccaa;fill-opacity:1;fill-rule:nonzero;stroke:#ffc399;stroke-width:4.3819828;stroke-opacity:1;marker:none;enable-background:accumulate;"
       transform="matrix(1.0286168,-0.76308527,0.78008336,0.98704604,-252.8807,428.79751)"><flowRegion
         id="flowRegion3065-8-1-9-3-6"
         style="stroke-width:4.3819828;stroke:#ffc399;stroke-opacity:1;"><rect
           id="rect3067-6-8-6-1-9"
           width="352.97433"
           height="120.68928"
           x="92.642677"
           y="425.30325"
           style="color:#000000;font-size:72px;display:inline;overflow:visible;visibility:visible;fill:#ffccaa;fill-opacity:1;fill-rule:nonzero;stroke:#ffc399;stroke-width:4.3819828;stroke-opacity:1;marker:none;enable-background:accumulate;" /></flowRegion><flowPara
         style="color:#000000;font-style:normal;font-variant:normal;font-weight:normal;font-stretch:normal;font-size:64px;line-height:1.25;font-family:Lavi;-inkscape-font-specification:Lavi;text-align:center;text-anchor:middle;display:inline;overflow:visible;visibility:visible;fill:#ffccaa;fill-opacity:1;fill-rule:nonzero;stroke:#ffc399;stroke-width:3.45422935;stroke-miterlimit:4;stroke-dasharray:none;stroke-opacity:1;marker:none;enable-background:accumulate;"
         id="flowPara3188-8-3-5-4">Miamh</flowPara></flowRoot>    <flowRoot
       xml:space="preserve"
       id="flowRoot3063-8-03-1-05"
       style="color:#000000;font-style:normal;font-variant:normal;font-weight:normal;font-stretch:normal;line-height:0.01%;font-family:Arial;-inkscape-font-specification:Arial;letter-spacing:0px;word-spacing:0px;display:inline;overflow:visible;visibility:visible;fill:#ffccaa;fill-opacity:1;fill-rule:nonzero;stroke:#ffccaa;stroke-width:4.3819828;stroke-opacity:1;marker:none;enable-background:accumulate"
       transform="matrix(0.77195084,-0.62351574,0.6802154,0.8421485,-34.960884,383.55763)"><flowRegion
         id="flowRegion3065-8-1-9-9"
         style="stroke-width:4.3819828"><rect
           id="rect3067-6-8-6-15"
           width="352.97433"
           height="120.68928"
           x="92.642677"
           y="425.30325"
           style="color:#000000;font-size:72px;display:inline;overflow:visible;visibility:visible;fill:#ffccaa;fill-opacity:1;fill-rule:nonzero;stroke:#ffccaa;stroke-width:4.3819828;stroke-opacity:1;marker:none;enable-background:accumulate" /></flowRegion><flowPara
         style="color:#000000;font-style:normal;font-variant:normal;font-weight:normal;font-stretch:normal;font-size:64px;line-height:1.25;font-family:Lavi;-inkscape-font-specification:Lavi;text-align:center;text-anchor:middle;display:inline;overflow:visible;visibility:visible;fill:#ffccaa;fill-opacity:1;fill-rule:nonzero;stroke:#ffccaa;stroke-width:3.45422935;stroke-miterlimit:4;stroke-dasharray:none;stroke-opacity:1;marker:none;enable-background:accumulate"
         id="flowPara3188-8-3-0"> </flowPara></flowRoot>    <flowRoot
       xml:space="preserve"
       id="flowRoot3063-8-9-4"
       style="color:#000000;font-style:normal;font-variant:normal;font-weight:normal;font-stretch:normal;line-height:0.01%;font-family:Arial;-inkscape-font-specification:Arial;letter-spacing:0px;word-spacing:0px;display:inline;overflow:visible;visibility:visible;fill:#51463f;fill-opacity:1;fill-rule:nonzero;stroke:#483e37;stroke-width:4.3819828;stroke-opacity:1;marker:none;enable-background:accumulate;"
       transform="matrix(0.94974412,-0.62604982,0.68297993,1.0361095,-86.856923,433.45781)"><flowRegion
         id="flowRegion3065-8-34-1"
         style="stroke-width:4.3819828;fill:#51463f;fill-opacity:1;"><rect
           id="rect3067-6-0-6"
           width="248.66193"
           height="90.046997"
           x="92.642677"
           y="425.30325"
           style="color:#000000;font-size:72px;display:inline;overflow:visible;visibility:visible;fill:#51463f;fill-opacity:1;fill-rule:nonzero;stroke:#483e37;stroke-width:4.3819828;stroke-opacity:1;marker:none;enable-background:accumulate;" /></flowRegion><flowPara
         style="color:#000000;font-style:normal;font-variant:normal;font-weight:normal;font-stretch:normal;font-size:64px;line-height:1.25;font-family:Lavi;-inkscape-font-specification:Lavi;text-align:center;text-anchor:middle;display:inline;overflow:visible;visibility:visible;fill:#51463f;fill-opacity:1;fill-rule:nonzero;stroke:#483e37;stroke-width:3.45422935;stroke-miterlimit:4;stroke-dasharray:none;stroke-opacity:1;marker:none;enable-background:accumulate;"
         id="flowPara3188-0-3">Gog</flowPara></flowRoot>    <flowRoot
       xml:space="preserve"
       id="flowRoot3063-8-9-4-4"
       style="color:#000000;font-style:normal;font-variant:normal;font-weight:normal;font-stretch:normal;line-height:0.01%;font-family:Arial;-inkscape-font-specification:Arial;letter-spacing:0px;word-spacing:0px;display:inline;overflow:visible;visibility:visible;fill:#51463f;fill-opacity:1;fill-rule:nonzero;stroke:#483e37;stroke-width:4.3819828;stroke-opacity:1;marker:none;enable-background:accumulate;"
       transform="matrix(0.68487433,-0.4571937,0.49486606,0.76023252,159.33923,467.03243)"
       inkscape:transform-center-x="-43.097021"
       inkscape:transform-center-y="50.987355"><flowRegion
         id="flowRegion3065-8-34-1-4"
         style="stroke-width:4.3819828;fill:#51463f;fill-opacity:1;"><rect
           id="rect3067-6-0-6-9"
           width="353.99356"
           height="72.084663"
           x="92.642677"
           y="425.30325"
           style="color:#000000;font-size:72px;display:inline;overflow:visible;visibility:visible;fill:#51463f;fill-opacity:1;fill-rule:nonzero;stroke:#483e37;stroke-width:4.3819828;stroke-opacity:1;marker:none;enable-background:accumulate;" /></flowRegion><flowPara
         style="color:#000000;font-style:normal;font-variant:normal;font-weight:normal;font-stretch:normal;font-size:64px;line-height:1.25;font-family:Lavi;-inkscape-font-specification:Lavi;text-align:center;text-anchor:middle;display:inline;overflow:visible;visibility:visible;fill:#51463f;fill-opacity:1;fill-rule:nonzero;stroke:#483e37;stroke-width:3.45422935;stroke-miterlimit:4;stroke-dasharray:none;stroke-opacity:1;marker:none;enable-background:accumulate;"
         id="flowPara3188-0-3-3">Gug</flowPara></flowRoot>    <flowRoot
       xml:space="preserve"
       id="flowRoot3063-8-03-1-05-8"
       style="color:#000000;font-style:normal;font-variant:normal;font-weight:normal;font-stretch:normal;line-height:0.01%;font-family:Arial;-inkscape-font-specification:Arial;letter-spacing:0px;word-spacing:0px;display:inline;overflow:visible;visibility:visible;fill:#ffccaa;fill-opacity:1;fill-rule:nonzero;stroke:#ffc399;stroke-width:4.3819828;stroke-opacity:1;marker:none;enable-background:accumulate"
       transform="matrix(0.56474589,-0.45615334,0.49763383,0.61610128,190.45975,393.1421)"><flowRegion
         id="flowRegion3065-8-1-9-9-6"
         style="stroke:#ffc399;stroke-width:4.3819828;stroke-opacity:1"><rect
           id="rect3067-6-8-6-15-7"
           width="303.63235"
           height="142.88107"
           x="176.77422"
           y="422.26297"
           style="color:#000000;font-size:72px;display:inline;overflow:visible;visibility:visible;fill:#ffccaa;fill-opacity:1;fill-rule:nonzero;stroke:#ffc399;stroke-width:4.3819828;stroke-opacity:1;marker:none;enable-background:accumulate" /></flowRegion><flowPara
         style="color:#000000;font-style:normal;font-variant:normal;font-weight:normal;font-stretch:normal;font-size:64px;line-height:1.25;font-family:Lavi;-inkscape-font-specification:Lavi;text-align:center;text-anchor:middle;display:inline;overflow:visible;visibility:visible;fill:#ffccaa;fill-opacity:1;fill-rule:nonzero;stroke:#ffc399;stroke-width:3.45422935;stroke-miterlimit:4;stroke-dasharray:none;stroke-opacity:1;marker:none;enable-background:accumulate"
         id="flowPara3188-8-3-0-9">Mi-aoibh !</flowPara></flowRoot>    <flowRoot
       xml:space="preserve"
       id="flowRoot3063-8-9-4-4-9"
       style="color:#000000;font-style:normal;font-variant:normal;font-weight:normal;font-stretch:normal;line-height:0.01%;font-family:Arial;-inkscape-font-specification:Arial;letter-spacing:0px;word-spacing:0px;display:inline;overflow:visible;visibility:visible;fill:#51463f;fill-opacity:1;fill-rule:nonzero;stroke:#483e37;stroke-width:4.3819828;stroke-opacity:1;marker:none;enable-background:accumulate;"
       transform="matrix(0.56307455,-0.37588521,0.40685782,0.62503084,312.70837,459.29213)"
       inkscape:transform-center-x="-35.428547"
       inkscape:transform-center-y="41.91695"><flowRegion
         id="flowRegion3065-8-34-1-4-1"
         style="stroke-width:4.3819828;fill:#51463f;fill-opacity:1;"><rect
           id="rect3067-6-0-6-9-0"
           width="468.10974"
           height="72.527359"
           x="92.642677"
           y="425.30325"
           style="color:#000000;font-size:72px;display:inline;overflow:visible;visibility:visible;fill:#51463f;fill-opacity:1;fill-rule:nonzero;stroke:#483e37;stroke-width:4.3819828;stroke-opacity:1;marker:none;enable-background:accumulate;" /></flowRegion><flowPara
         style="color:#000000;font-style:normal;font-variant:normal;font-weight:normal;font-stretch:normal;font-size:64px;line-height:1.25;font-family:Lavi;-inkscape-font-specification:Lavi;text-align:center;text-anchor:middle;display:inline;overflow:visible;visibility:visible;fill:#51463f;fill-opacity:1;fill-rule:nonzero;stroke:#483e37;stroke-width:3.45422935;stroke-miterlimit:4;stroke-dasharray:none;stroke-opacity:1;marker:none;enable-background:accumulate;"
         id="flowPara3188-0-3-3-1">Ub !</flowPara></flowRoot>    <flowRoot
       xml:space="preserve"
       id="flowRoot3063-8-0-2-7"
       style="color:#000000;font-style:normal;font-variant:normal;font-weight:normal;font-stretch:normal;line-height:0.01%;font-family:Arial;-inkscape-font-specification:Arial;letter-spacing:0px;word-spacing:0px;display:inline;overflow:visible;visibility:visible;fill:#ffd42a;fill-opacity:1;fill-rule:nonzero;stroke:#ffd319;stroke-width:4.3819828;stroke-opacity:1;marker:none;enable-background:accumulate;"
       transform="matrix(0.5016147,-0.42637756,0.45739677,0.4784492,184.64382,312.3775)"><flowRegion
         id="flowRegion3065-8-3-4-2"
         style="stroke-width:4.3819828;stroke:#ffd319;stroke-opacity:1;"><rect
           id="rect3067-6-9-9-9"
           width="248.66193"
           height="90.046997"
           x="92.642677"
           y="425.30325"
           style="color:#000000;font-size:72px;display:inline;overflow:visible;visibility:visible;fill:#ffd42a;fill-opacity:1;fill-rule:nonzero;stroke:#ffd319;stroke-width:4.3819828;stroke-opacity:1;marker:none;enable-background:accumulate;" /></flowRegion><flowPara
         style="color:#000000;font-style:normal;font-variant:normal;font-weight:normal;font-stretch:normal;font-size:64px;line-height:1.25;font-family:Lavi;-inkscape-font-specification:Lavi;text-align:center;text-anchor:middle;display:inline;overflow:visible;visibility:visible;fill:#ffd42a;fill-opacity:1;fill-rule:nonzero;stroke:#ffd319;stroke-width:3.45422935;stroke-miterlimit:4;stroke-dasharray:none;stroke-opacity:1;marker:none;enable-background:accumulate;"
         id="flowPara3188-4-0-3">Aobh !</flowPara></flowRoot>  </g>
</svg>
