<?xml version="1.0" encoding="UTF-8" standalone="no"?>
<svg
   xmlns:dc="http://purl.org/dc/elements/1.1/"
   xmlns:cc="http://creativecommons.org/ns#"
   xmlns:rdf="http://www.w3.org/1999/02/22-rdf-syntax-ns#"
   xmlns:svg="http://www.w3.org/2000/svg"
   xmlns="http://www.w3.org/2000/svg"
   xmlns:xlink="http://www.w3.org/1999/xlink"
   xmlns:sodipodi="http://sodipodi.sourceforge.net/DTD/sodipodi-0.dtd"
   xmlns:inkscape="http://www.inkscape.org/namespaces/inkscape"
   sodipodi:docname="E21P02.svg"
   height="3503"
   width="2481"
   inkscape:version="1.0 (4035a4fb49, 2020-05-01)"
   version="1.1"
   id="svg2">
  <sodipodi:namedview
     inkscape:window-maximized="0"
     inkscape:window-y="0"
     inkscape:window-x="0"
     inkscape:document-rotation="0"
     inkscape:current-layer="layer3"
     inkscape:cy="3011.2117"
     inkscape:cx="1221.7041"
     inkscape:zoom="0.43533708"
     showgrid="false"
     id="namedview70"
     inkscape:window-height="955"
     inkscape:window-width="1207"
     inkscape:pageshadow="2"
     inkscape:pageopacity="0"
     bordercolor="#666666"
     pagecolor="#ffffff" />
  <metadata
     id="metadata8">
    <rdf:RDF>
      <cc:Work
         rdf:about="">
        <dc:format>image/svg+xml</dc:format>
        <dc:type
           rdf:resource="http://purl.org/dc/dcmitype/StillImage" />
        <dc:title />
      </cc:Work>
    </rdf:RDF>
  </metadata>
  <defs
     id="defs6">
    <rect
       id="rect127"
       height="72.337361"
       width="195.57083"
       y="2209.7898"
       x="1345.8003" />
    <filter
       inkscape:label="deevad outline effect"
       id="filter4375-4-1-1-1-9"
       style="color-interpolation-filters:sRGB">
      <feFlood
         result="flood"
         flood-color="rgb(0,0,0)"
         flood-opacity="1"
         id="feFlood4377-7-9-0-8-1" />
      <feComposite
         result="composite1"
         operator="in"
         in="flood"
         in2="SourceGraphic"
         id="feComposite4379-3-8-8-2-77" />
      <feMorphology
         result="result3"
         radius="4"
         operator="dilate"
         id="feMorphology4393-1-0-49-8-9" />
      <feComposite
         result="composite2"
         operator="over"
         in="SourceGraphic"
         in2="result3"
         id="feComposite4385-9-5-7-0-8" />
    </filter>
    <filter
       height="1.0091056"
       y="-0.0045528179"
       width="1.0031157"
       x="-0.0015578248"
       id="filter4210"
       style="color-interpolation-filters:sRGB"
       inkscape:collect="always">
      <feGaussianBlur
         id="feGaussianBlur4212"
         stdDeviation="0.2079876"
         inkscape:collect="always" />
    </filter>
    <filter
       height="1.0094149"
       y="-0.0047074384"
       width="1.0030808"
       x="-0.0015404148"
       id="filter4218"
       style="color-interpolation-filters:sRGB"
       inkscape:collect="always">
      <feGaussianBlur
         id="feGaussianBlur4220"
         stdDeviation="0.19873465"
         inkscape:collect="always" />
    </filter>
    <filter
       height="1.0079666"
       y="-0.0039833132"
       width="1.0033011"
       x="-0.0016505915"
       id="filter4202"
       style="color-interpolation-filters:sRGB"
       inkscape:collect="always">
      <feGaussianBlur
         id="feGaussianBlur4204"
         stdDeviation="0.11736083"
         inkscape:collect="always" />
    </filter>
    <filter
       height="1.0079666"
       y="-0.0039833132"
       width="1.0033011"
       x="-0.0016505915"
       id="filter4202-2"
       style="color-interpolation-filters:sRGB"
       inkscape:collect="always">
      <feGaussianBlur
         id="feGaussianBlur4204-9"
         stdDeviation="0.11736083"
         inkscape:collect="always" />
    </filter>
    <filter
       height="1.0256062"
       y="-0.012803033"
       width="1.0077991"
       x="-0.003899595"
       id="filter4325"
       style="color-interpolation-filters:sRGB"
       inkscape:collect="always">
      <feGaussianBlur
         id="feGaussianBlur4327"
         stdDeviation="0.3730953"
         inkscape:collect="always" />
    </filter>
    <filter
       height="1.0463234"
       y="-0.023161722"
       width="1.0124972"
       x="-0.0062486199"
       id="filter4369"
       style="color-interpolation-filters:sRGB"
       inkscape:collect="always">
      <feGaussianBlur
         id="feGaussianBlur4371"
         stdDeviation="0.69985892"
         inkscape:collect="always" />
    </filter>
    <filter
       height="1.0463234"
       y="-0.023161722"
       width="1.0124972"
       x="-0.0062486199"
       id="filter4369-7"
       style="color-interpolation-filters:sRGB"
       inkscape:collect="always">
      <feGaussianBlur
         id="feGaussianBlur4371-9"
         stdDeviation="0.69985892"
         inkscape:collect="always" />
    </filter>
  </defs>
  <sodipodi:namedview
     inkscape:current-layer="layer1"
     inkscape:window-maximized="1"
     inkscape:window-y="26"
     inkscape:window-x="0"
     inkscape:cy="2693.0536"
     inkscape:cx="1252.2428"
     inkscape:zoom="1.1172693"
     showgrid="false"
     id="namedview4"
     inkscape:window-height="1025"
     inkscape:window-width="1920"
     inkscape:pageshadow="2"
     inkscape:pageopacity="0"
     guidetolerance="10"
     gridtolerance="10"
     objecttolerance="10"
     borderopacity="1"
     bordercolor="#666666"
     pagecolor="#ffffff" />
  <g
     sodipodi:insensitive="true"
     inkscape:label="artwork"
     id="layer2"
     inkscape:groupmode="layer">
    <image
       sodipodi:absref="C:\Users\stero\Documents\Kernewek\Pepper and Carrot\webcomics\ep21_The-Magic-Contest\lang\gfx_Pepper-and-Carrot_by-David-Revoy_E21P02.png"
       xlink:href="../gfx_Pepper-and-Carrot_by-David-Revoy_E21P02.png"
       y="0"
       x="0"
       id="image10"
       height="3503"
       width="2481" />
  </g>
  <g
     style="display:inline"
     inkscape:label="speechbubbles"
     id="layer3"
     inkscape:groupmode="layer">
    <path
       sodipodi:nodetypes="cssssc"
       inkscape:connector-curvature="0"
       id="path4546-6"
       d="m 217.18372,543.69362 c 10.32332,-63.12437 58.53281,-99.72837 276.4845,-88.84287 116.74668,5.83082 287.85878,-0.53297 274.09439,91.93367 -13.76452,92.46653 -222.80658,84.32774 -262.37949,86.66686 -39.57291,2.33921 -226.46647,0.1956 -260.67036,-31.08317 -21.41083,-19.57965 -29.24958,-39.13118 -27.52904,-58.67449 z"
       style="color:#000000;display:inline;overflow:visible;visibility:visible;fill:#ffffff;fill-opacity:1;fill-rule:nonzero;stroke:none;stroke-width:1.05764px;marker:none;enable-background:accumulate" />
    <path
       sodipodi:nodetypes="csssssc"
       inkscape:connector-curvature="0"
       id="path4010"
       d="m 301.31445,892.28079 c 5.27034,-47.85411 40.37159,-88.80257 80.70484,-97.78225 40.33318,-8.97977 375.51882,-5.25972 401.24493,5.66107 25.72603,10.92097 64.88636,18.52409 56.45547,100.54202 -8.43108,82.01801 -56.06782,100.94787 -104.19198,104.31737 -48.12408,3.3693 -359.57846,12.6012 -392.78521,-20.0264 -18.57699,-18.25297 -41.4434,-39.17228 -41.42805,-92.71181 z"
       style="color:#000000;display:inline;overflow:visible;visibility:visible;fill:#ffffff;fill-opacity:1;fill-rule:nonzero;stroke:none;stroke-width:1.02395px;marker:none;enable-background:accumulate" />
    <path
       sodipodi:nodetypes="cccccccccccccccccccc"
       inkscape:connector-curvature="0"
       id="path4496"
       d="m 708.28728,324.66682 c -17.80302,-2.67292 -29.44884,-2.78409 -47.16698,2.02614 -5.00825,1.47381 -10.08814,3.34728 -14.32577,6.39934 -3.69997,4.15642 -3.59037,10.33514 -1.29957,15.14622 2.82169,7.17956 8.76937,13.55058 8.49474,21.65616 -0.3429,5.89548 -5.65216,9.33006 -9.84801,12.60191 -10.85858,8.12974 -22.88187,14.83631 -32.3875,24.65688 -11.42122,10.36094 -22.68704,22.09158 -27.50316,37.10006 -1.80609,5.97046 -2.86049,12.46873 -0.93358,18.54832 4.23596,15.82051 17.61171,29.44221 33.99141,32.24046 10.61786,0.79327 21.63745,-7.82582 21.71957,-18.81268 0.13014,-5.79897 -3.67523,-10.74961 -8.17826,-13.98082 -7.16767,-7.4865 -9.54283,-18.69535 -7.02055,-28.6264 1.9475,-8.22998 6.45887,-15.76324 12.48174,-21.66268 6.07198,-10.1853 17.74223,-14.32617 27.37733,-20.2179 4.36179,-2.75728 8.81469,-5.98576 11.38712,-10.53486 2.12502,-7.35941 -2.27973,-14.38799 -6.69225,-19.90395 -4.40425,-5.80612 -10.16904,-12.0434 -9.41757,-19.89494 -0.21215,-5.51878 6.17387,-6.74567 9.97179,-9.0346 10.38423,-5.22283 20.05102,-6.98163 39.3495,-7.70666 z"
       style="color:#000000;display:inline;overflow:visible;visibility:visible;fill:#ffffff;fill-opacity:1;fill-rule:nonzero;stroke:none;stroke-width:1px;marker:none;enable-background:accumulate" />
    <path
       sodipodi:nodetypes="csccc"
       inkscape:connector-curvature="0"
       id="path3541"
       d="m 1119.5437,840.64097 c -113.8785,125.0678 -279.41233,101.54529 -356.99074,52.03846 -77.57834,-49.50677 -21.03459,-49.26335 -21.03459,-49.26335 l 31.24176,8.1154 c -28.183,-7.45936 130.87131,147.10952 346.78357,-10.89051 z"
       style="color:#000000;display:inline;overflow:visible;visibility:visible;fill:#ffffff;fill-opacity:1;fill-rule:nonzero;stroke:none;stroke-width:1px;marker:none;enable-background:accumulate" />
    <path
       sodipodi:nodetypes="cssssc"
       inkscape:connector-curvature="0"
       id="path4546-6-6"
       d="m 906.30594,1992.5314 c 11.40846,-61.0668 107.09736,-103.6508 347.95886,-86.3359 129.0183,9.2748 275.7048,16.8461 260.4936,106.3406 -15.2114,89.4946 -245.8155,91.7653 -289.5479,92.8182 -43.7327,1.0531 -259.06004,-4.1601 -296.85913,-35.6332 -23.66155,-19.7014 -23.94685,-58.2378 -22.04543,-77.1897 z"
       style="color:#000000;display:inline;overflow:visible;visibility:visible;fill:#ffffff;fill-opacity:1;fill-rule:nonzero;stroke:none;stroke-width:1.25287px;marker:none;enable-background:accumulate" />
    <path
       sodipodi:nodetypes="cccscccc"
       inkscape:connector-curvature="0"
       id="path4456"
       d="m 1208.9581,1837.3548 c -51.8093,6.6291 -63.1327,26.4049 -72.7535,39.757 3.2832,4.0843 7.7777,12.4211 7.7777,12.4211 0,0 -21.2954,24.4542 -26.3512,36.4684 -5.0561,12.014 13.5408,18.2582 13.5408,18.2582 0,0 28.706,-45.6159 40.7672,-52.8813 -9.4456,-10.8353 -10.9712,-13.8404 -15.9223,-16.3387 2.967,-9.4271 34.7001,-34.7514 52.9413,-37.6847 z"
       style="color:#000000;display:inline;overflow:visible;visibility:visible;fill:#ffffff;fill-opacity:1;fill-rule:nonzero;stroke:none;stroke-width:1px;marker:none;enable-background:accumulate" />
    <path
       sodipodi:nodetypes="cccccccccccccccccccccccc"
       inkscape:connector-curvature="0"
       id="path4289"
       d="m 1030.0199,2049.2351 c 34.7844,16.8002 35.5459,27.0815 0.8317,30.5655 34.8678,8.5327 27.4795,13.8009 10.2353,18.3075 45.3604,43.2361 33.2602,69.9222 19.8084,96.2189 47.6869,-11.3182 49.9709,12.2633 62.1979,28.2018 10.287,-31.1032 15.7541,-10.9152 19.8764,23.5848 10.4516,-40.2374 17.9456,-43.2964 22.7429,-12.4523 10.0517,-25.3858 23.2796,-34.94 40.1582,-26.2963 31.5408,-23.2 43.7565,9.7363 62.2181,24.5285 7.5925,-26.6079 22.0888,-27.1137 38.7862,-19.2975 8.0494,-11.1561 14.2583,-27.5003 35.0271,-2.8062 5.1627,-21.9903 15.5618,-6.1385 24.3518,-1.916 -10.5991,-12.7374 8.1736,-15.8995 60.7307,-8.0474 -20.2666,-6.9579 -18.5393,-15.5653 9.1472,-26.1197 -30.4534,-12.2257 -29.9228,-25.8511 -13.1153,-40.2116 -34.6386,-22.6439 0.7659,-43.0935 18.6934,-64.0906 -35.6949,9.4605 -64.062,8.6448 -69.8917,-23.7739 -54.394,24.1373 -46.104,10.4938 -40.6719,-1.4274 -34.0249,29.6732 -31.5685,3.0771 -39.9757,-6.7632 -92.4877,35.6354 -88.4005,-2.4711 -106.9061,-23.3263 -8.4743,43.5947 -27.4148,26.4391 -46.3985,9.0323 -0.09,36.9635 -11.5448,26.0441 -22.7631,16.1257 -1.816,15.9211 -13.2737,20.4016 -37.7314,9.4568 17.345,13.3257 6.406,15.4187 -47.3516,0.5066 z"
       style="fill:#ffffff;fill-rule:evenodd;stroke:none;stroke-width:1.16025" />
    <path
       sodipodi:nodetypes="cssssc"
       inkscape:connector-curvature="0"
       id="path4546-6-6-7"
       d="m 1266.5642,2219.8779 c 5.6691,-38.7518 53.2196,-65.7747 172.9104,-54.7871 64.1128,5.8856 137.0054,10.6903 129.4465,67.4816 -7.5589,56.7914 -122.1525,58.2324 -143.8844,58.9005 -21.7319,0.6683 -128.7342,-2.6398 -147.5176,-22.612 -11.7581,-12.5021 -11.8999,-36.9565 -10.9549,-48.983 z"
       style="color:#000000;fill:#ffffff;fill-opacity:1;fill-rule:nonzero;stroke:none;stroke-width:1px;marker:none;visibility:visible;display:inline;overflow:visible;enable-background:accumulate" />
    <path
       sodipodi:nodetypes="cssssc"
       inkscape:connector-curvature="0"
       id="path3659-8"
       d="m 1935.6939,2123.6849 c -2.2769,-23.3922 12.8251,-35.0287 26.5755,-40.541 17.4266,-6.9861 143.1405,-14.7723 158.3105,4.8085 13.9712,18.0333 23.8975,51.1875 -17.8203,67.5649 -41.718,16.3773 -111.3422,7.4067 -123.194,4.429 -11.8516,-2.9777 -41.5014,-10.951 -43.8717,-36.2614 z"
       style="display:inline;fill:#ffffff;fill-opacity:1;stroke:none" />
    <path
       inkscape:connector-curvature="0"
       id="path4035"
       d="m 1982.1675,2095.4596 c 0.3856,-31.752 -21.3304,-64.1917 -32.5323,-69.3608 -11.2018,-5.1692 49.8903,6.7173 65.5334,65.5673 15.6432,58.8498 -25.2443,31.1505 -25.2443,31.1505 z"
       style="color:#000000;display:inline;overflow:visible;visibility:visible;fill:#ffffff;fill-opacity:1;fill-rule:nonzero;stroke:none;stroke-width:1px;marker:none;enable-background:accumulate" />
  </g>
  <g
     style="display:inline"
     inkscape:label="txt"
     id="layer1"
     inkscape:groupmode="layer">
    <text
       id="text4246-2"
       y="518.64081"
       x="485.63678"
       style="font-style:normal;font-variant:normal;font-weight:normal;font-stretch:normal;line-height:0%;font-family:Lavi;-inkscape-font-specification:Lavi;text-align:center;letter-spacing:0px;word-spacing:0px;text-anchor:middle;fill:#000000;fill-opacity:1;stroke:none"
       xml:space="preserve"><tspan
         id="tspan4035"
         y="518.64081"
         x="485.63678"
         style="font-size:45px;line-height:1.25"
         sodipodi:role="line">Os ta sur hwath </tspan><tspan
         id="tspan86"
         y="574.89081"
         x="485.63678"
         style="font-size:45px;line-height:1.25"
         sodipodi:role="line">na vynnydh dos genen?</tspan></text>
    <text
       id="text4246-2-3"
       y="856.25879"
       x="580.04688"
       style="font-style:normal;font-variant:normal;font-weight:normal;font-stretch:normal;line-height:0%;font-family:Lavi;-inkscape-font-specification:Lavi;text-align:center;letter-spacing:0px;word-spacing:0px;text-anchor:middle;fill:#000000;fill-opacity:1;stroke:none"
       xml:space="preserve"><tspan
         id="tspan4042"
         y="856.25879"
         x="580.04688"
         style="font-size:45px;line-height:1.25"
         sodipodi:role="line">Ov, yn tevri. Ni a wra </tspan><tspan
         id="tspan93"
         y="912.50879"
         x="580.04688"
         style="font-size:45px;line-height:1.25"
         sodipodi:role="line">pystri yn Choasah, </tspan><tspan
         id="tspan95"
         y="968.75879"
         x="580.04688"
         style="font-size:45px;line-height:1.25"
         sodipodi:role="line">na gwariow mus!</tspan></text>
    <text
       transform="matrix(0.81617603,-0.24118584,0.17851212,0.94169981,224.67399,68.479077)"
       id="text4246-5"
       y="1085.962"
       x="1174.0292"
       style="font-style:normal;font-variant:normal;font-weight:normal;font-stretch:normal;line-height:0%;font-family:Lavi;-inkscape-font-specification:Lavi;text-align:center;letter-spacing:0px;word-spacing:0px;text-anchor:middle;display:inline;opacity:0.6;fill:#000000;fill-opacity:1;stroke:none;filter:url(#filter4210)"
       xml:space="preserve"><tspan
         id="tspan4217"
         y="1085.962"
         x="1174.0292"
         style="font-style:normal;font-variant:normal;font-weight:normal;font-stretch:normal;font-size:45.0081px;line-height:1.25;font-family:Fondamento;-inkscape-font-specification:Fondamento;stroke:#000000;stroke-width:3.39353;stroke-miterlimit:4;stroke-dasharray:none;stroke-opacity:1"
         sodipodi:role="line">An KOMONEK</tspan><tspan
         id="tspan4207"
         y="1142.2222"
         x="1174.0292"
         style="font-style:normal;font-variant:normal;font-weight:normal;font-stretch:normal;font-size:45.0081px;line-height:1.25;font-family:Fondamento;-inkscape-font-specification:Fondamento;stroke:#000000;stroke-width:3.39353;stroke-miterlimit:4;stroke-dasharray:none;stroke-opacity:1"
         sodipodi:role="line"> </tspan><tspan
         id="tspan4209"
         y="1198.4823"
         x="1179.5233"
         style="font-style:normal;font-variant:normal;font-weight:normal;font-stretch:normal;font-size:45.0081px;line-height:1.25;font-family:Fondamento;-inkscape-font-specification:Fondamento;stroke:#000000;stroke-width:3.39353;stroke-miterlimit:4;stroke-dasharray:none;stroke-opacity:1"
         sodipodi:role="line"> </tspan></text>
    <text
       transform="matrix(0.90128293,-0.29766095,0.18223745,1.0493431,2.2077183e-5,6.5627487e-5)"
       id="text4246-5-1"
       y="1174.9954"
       x="1294.5164"
       style="font-style:normal;font-variant:normal;font-weight:normal;font-stretch:normal;line-height:0%;font-family:Lavi;-inkscape-font-specification:Lavi;text-align:center;letter-spacing:0px;word-spacing:0px;text-anchor:middle;display:inline;opacity:0.6;fill:#000000;fill-opacity:1;stroke:#000000;stroke-width:0.709554;stroke-miterlimit:4;stroke-dasharray:none;stroke-opacity:1;filter:url(#filter4218)"
       xml:space="preserve"><tspan
         id="tspan4209-0"
         y="1174.9954"
         x="1294.5164"
         style="font-style:normal;font-variant:normal;font-weight:normal;font-stretch:normal;font-size:15.4428px;line-height:1.25;font-family:Fondamento;-inkscape-font-specification:Fondamento;stroke:#000000;stroke-width:0.709554;stroke-miterlimit:4;stroke-dasharray:none;stroke-opacity:1"
         sodipodi:role="line">SOLEMPNITA-YGERI </tspan><tspan
         id="tspan4222"
         y="1194.2988"
         x="1294.5164"
         style="font-style:normal;font-variant:normal;font-weight:normal;font-stretch:normal;font-size:15.4428px;line-height:1.25;font-family:Fondamento;-inkscape-font-specification:Fondamento;stroke:#000000;stroke-width:0.709554;stroke-miterlimit:4;stroke-dasharray:none;stroke-opacity:1"
         sodipodi:role="line">PLEN AN GWARI NOWYDH - HEDHYW</tspan></text>
    <text
       transform="matrix(0.90128293,-0.29766095,0.18223745,1.0493431,-9.0738366,-34.818915)"
       id="text4246-5-1-3"
       y="1300.7131"
       x="1131.04"
       style="font-style:normal;font-variant:normal;font-weight:normal;font-stretch:normal;line-height:0%;font-family:Lavi;-inkscape-font-specification:Lavi;text-align:start;letter-spacing:0px;word-spacing:0px;text-anchor:start;display:inline;opacity:0.6;fill:#000000;fill-opacity:1;stroke:#000000;stroke-width:0.495374;stroke-miterlimit:4;stroke-dasharray:none;stroke-opacity:1;filter:url(#filter4202)"
       xml:space="preserve"><tspan
         id="tspan4196"
         y="1300.7131"
         x="1131.04"
         style="font-style:normal;font-variant:normal;font-weight:normal;font-stretch:normal;font-size:10.7814px;line-height:1.25;font-family:Fondamento;-inkscape-font-specification:Fondamento;text-align:start;text-anchor:start;stroke:#000000;stroke-width:0.495374;stroke-miterlimit:4;stroke-dasharray:none;stroke-opacity:1"
         sodipodi:role="line">ANNEDHYSI PREDERUS A-DRO</tspan><tspan
         id="tspan4048"
         y="1314.1899"
         x="1131.04"
         style="font-style:normal;font-variant:normal;font-weight:normal;font-stretch:normal;font-size:10.7814px;line-height:1.25;font-family:Fondamento;-inkscape-font-specification:Fondamento;text-align:start;text-anchor:start;stroke:#000000;stroke-width:0.495374;stroke-miterlimit:4;stroke-dasharray:none;stroke-opacity:1"
         sodipodi:role="line">DH'AGA THOLLOW</tspan></text>
    <text
       transform="matrix(0.81172816,-0.30643117,0.16412967,0.92516231,127.86236,215.40246)"
       id="text4246-5-1-3-1"
       y="1300.7131"
       x="1131.04"
       style="font-style:normal;font-variant:normal;font-weight:normal;font-stretch:normal;line-height:0%;font-family:Fondamento;-inkscape-font-specification:'Fondamento, Normal';text-align:start;letter-spacing:0px;word-spacing:0px;writing-mode:lr-tb;text-anchor:start;display:inline;opacity:0.6;fill:#000000;fill-opacity:1;stroke:#000000;stroke-width:0.495374;stroke-miterlimit:4;stroke-dasharray:none;stroke-opacity:1;filter:url(#filter4202-2)"
       xml:space="preserve"><tspan
         style="font-size:10.7813px;line-height:1.25"
         y="1300.7131"
         x="1131.04"
         id="tspan3411"
         sodipodi:role="line">PUB TOKYN GWERTHYS: SEWEN</tspan><tspan
         style="font-size:10.7813px;line-height:1.25"
         id="tspan4060"
         y="1314.1898"
         x="1131.04"
         sodipodi:role="line">MEWGHYES! </tspan></text>
    <text
       transform="matrix(0.7407423,0.32265096,0.201955,1.3268708,-205.87775,-1377.971)"
       id="text4246-5-1-3-6"
       y="1300.7131"
       x="1131.04"
       style="font-style:normal;font-variant:normal;font-weight:normal;font-stretch:normal;line-height:0%;font-family:Lavi;-inkscape-font-specification:Lavi;text-align:start;letter-spacing:0px;word-spacing:0px;text-anchor:start;display:inline;opacity:0.6;fill:#000000;fill-opacity:1;stroke:#000000;stroke-width:0.495374;stroke-miterlimit:4;stroke-dasharray:none;stroke-opacity:1;filter:url(#filter4325)"
       xml:space="preserve"><tspan
         id="tspan4196-6"
         y="1300.7131"
         x="1131.04"
         style="font-style:normal;font-variant:normal;font-weight:normal;font-stretch:normal;font-size:10.7814px;line-height:1.25;font-family:Fondamento;-inkscape-font-specification:Fondamento;text-align:start;text-anchor:start;stroke:#000000;stroke-width:0.495374;stroke-miterlimit:4;stroke-dasharray:none;stroke-opacity:1"
         sodipodi:role="line">TYNDEROW POLITEK YN POW AH </tspan></text>
    <text
       transform="matrix(0.7407423,0.2965061,0.201955,1.3197427,-161.60175,-1088.8437)"
       id="text4246-5-1-3-6-1"
       y="1300.7131"
       x="1131.04"
       style="font-style:normal;font-variant:normal;font-weight:normal;font-stretch:normal;line-height:0%;font-family:Lavi;-inkscape-font-specification:Lavi;text-align:start;letter-spacing:0px;word-spacing:0px;text-anchor:start;display:inline;opacity:0.6;fill:#000000;fill-opacity:1;stroke:#000000;stroke-width:0.495374;stroke-miterlimit:4;stroke-dasharray:none;stroke-opacity:1;filter:url(#filter4369)"
       xml:space="preserve"><tspan
         id="tspan4196-6-8"
         y="1300.7131"
         x="1131.04"
         style="font-style:normal;font-variant:normal;font-weight:normal;font-stretch:normal;font-size:10.7814px;line-height:1.25;font-family:Fondamento;-inkscape-font-specification:Fondamento;text-align:start;text-anchor:start;stroke:#000000;stroke-width:0.495374;stroke-miterlimit:4;stroke-dasharray:none;stroke-opacity:1"
         sodipodi:role="line">SESYS YW 80% A DIREDHOW GANS AH A-LEMMYN </tspan></text>
    <text
       transform="matrix(0.45709154,0.19808295,0.12462083,0.91251868,299.48835,-366.52798)"
       id="text4246-5-1-3-6-1-2"
       y="1300.7131"
       x="1131.04"
       style="font-style:normal;font-variant:normal;font-weight:normal;font-stretch:normal;line-height:0%;font-family:Lavi;-inkscape-font-specification:Lavi;text-align:start;letter-spacing:0px;word-spacing:0px;text-anchor:start;display:inline;opacity:0.6;fill:#000000;fill-opacity:1;stroke:#000000;stroke-width:0.495374;stroke-miterlimit:4;stroke-dasharray:none;stroke-opacity:1;filter:url(#filter4369-7)"
       xml:space="preserve"><tspan
         id="tspan4196-6-8-0"
         y="1300.7131"
         x="1131.04"
         style="font-style:normal;font-variant:normal;font-weight:normal;font-stretch:normal;font-size:10.7814px;line-height:1.25;font-family:Fondamento;-inkscape-font-specification:Fondamento;text-align:start;text-anchor:start;stroke:#000000;stroke-width:0.495374;stroke-miterlimit:4;stroke-dasharray:none;stroke-opacity:1"
         sodipodi:role="line">YMA GOLOK DA DHIS! </tspan></text>
    <text
       id="text4246-2-3-1"
       y="1985.7657"
       x="1201.7324"
       style="font-style:normal;font-variant:normal;font-weight:normal;font-stretch:normal;line-height:0%;font-family:Lavi;-inkscape-font-specification:Lavi;text-align:center;letter-spacing:0px;word-spacing:0px;text-anchor:middle;fill:#000000;fill-opacity:1;stroke:none"
       xml:space="preserve"><tspan
         id="tspan4064"
         y="1985.7657"
         x="1201.7324"
         style="font-size:45px;line-height:1.25"
         sodipodi:role="line">Meur ras ow ri kummyas </tspan><tspan
         id="tspan111"
         y="2042.0157"
         x="1201.7324"
         style="font-size:45px;line-height:1.25"
         sodipodi:role="line">dhymm dhe vos kevrennek!</tspan></text>
    <text
       id="text4246-2-3-1-0"
       y="2103.3083"
       x="1241.5112"
       style="font-style:normal;font-variant:normal;font-weight:normal;font-stretch:normal;line-height:0%;font-family:Lavi;-inkscape-font-specification:Lavi;text-align:center;letter-spacing:0px;word-spacing:0px;text-anchor:middle;fill:#000000;fill-opacity:1;stroke:none"
       xml:space="preserve"><tspan
         id="tspan4452"
         y="2103.3083"
         x="1241.5112"
         style="font-size:45px;line-height:1.25;stroke:#000000;stroke-width:1.2;stroke-miterlimit:4;stroke-dasharray:none;stroke-opacity:1"
         sodipodi:role="line">My a sewen! </tspan><tspan
         id="tspan123"
         y="2159.5583"
         x="1241.5112"
         style="font-size:45px;line-height:1.25;stroke:#000000;stroke-width:1.2;stroke-miterlimit:4;stroke-dasharray:none;stroke-opacity:1"
         sodipodi:role="line">My a'n ambos!</tspan></text>
    <text
       id="text4246-2-3-1-5"
       y="2221.4883"
       x="1411.5112"
       style="font-style:normal;font-variant:normal;font-weight:normal;font-stretch:normal;line-height:0%;font-family:Lavi;-inkscape-font-specification:'Lavi, Normal';text-align:center;letter-spacing:0px;word-spacing:0px;writing-mode:lr-tb;text-anchor:middle;fill:#000000;fill-opacity:1;stroke:none"
       xml:space="preserve"><tspan
         style="font-size:45px;line-height:1.25"
         id="tspan4066"
         y="2221.4883"
         x="1411.5112"
         sodipodi:role="line">Dha weles </tspan><tspan
         id="tspan133"
         style="font-size:45px;line-height:1.25"
         y="2277.7383"
         x="1411.5112"
         sodipodi:role="line">haneth!</tspan></text>
    <text
       id="text4246-2-3-6"
       y="2122.2102"
       x="2038.8628"
       style="font-style:normal;font-variant:normal;font-weight:normal;font-stretch:normal;line-height:0%;font-family:Lavi;-inkscape-font-specification:Lavi;text-align:center;letter-spacing:0px;word-spacing:0px;text-anchor:middle;fill:#000000;fill-opacity:1;stroke:none"
       xml:space="preserve"><tspan
         id="tspan4187-2"
         y="2122.2102"
         x="2038.8628"
         style="font-size:45px;line-height:1.25"
         sodipodi:role="line">...</tspan></text>
    <text
       transform="matrix(0.66983444,-0.42899526,0.00573176,0.82056131,1653.7153,459.03315)"
       id="text4580"
       y="1584.5073"
       x="787.65729"
       style="font-style:normal;font-variant:normal;font-weight:normal;font-stretch:normal;line-height:0%;font-family:Lavi;-inkscape-font-specification:Lavi;letter-spacing:0px;word-spacing:0px;fill:#000000;fill-opacity:1;stroke:#000000;stroke-width:0.992362;stroke-miterlimit:4;stroke-dasharray:none;stroke-opacity:1;filter:url(#filter4375-4-1-1-1-9)"
       xml:space="preserve"><tspan
         style="font-size:70px;line-height:1.25;fill:#ffffff"
         y="1584.5073"
         x="787.65729"
         id="tspan4582"
         sodipodi:role="line"><tspan
           id="tspan4617"
           style="font-size:80.4001px">blamm!</tspan></tspan></text>
    <flowRoot
       style="font-style:normal;font-variant:normal;font-weight:normal;font-stretch:normal;line-height:0.01%;font-family:sans-serif;-inkscape-font-specification:Clean;letter-spacing:0px;word-spacing:0px;fill:#000000;fill-opacity:1;stroke:none;stroke-width:1px;stroke-linecap:butt;stroke-linejoin:miter;stroke-opacity:1"
       id="flowRoot4050"
       xml:space="preserve"><flowRegion
         style="font-family:sans-serif"
         id="flowRegion4052"><rect
           style="font-family:sans-serif"
           y="1077.4476"
           x="1378.2268"
           height="22.165623"
           width="1.5832587"
           id="rect4054" /></flowRegion><flowPara
         style="font-size:6px;line-height:1.25;font-family:sans-serif"
         id="flowPara4056"> </flowPara></flowRoot>
    <text
       id="text117"
       y="2097.5618"
       x="1247.064"
       style="font-style:normal;font-weight:normal;font-size:40px;line-height:1.25;font-family:sans-serif;letter-spacing:0px;word-spacing:0px;fill:#000000;fill-opacity:1;stroke:none"
       xml:space="preserve"><tspan
         id="tspan119"
         y="2097.5618"
         x="1247.064"
         sodipodi:role="line" /></text>
    <text
       style="fill:black;fill-opacity:1;stroke:none;font-family:sans-serif;font-style:normal;font-weight:normal;font-size:40px;line-height:1.25;letter-spacing:0px;word-spacing:0px;white-space:pre;shape-inside:url(#rect127);"
       id="text125"
       xml:space="preserve" />
  </g>
</svg>
