<?xml version="1.0" encoding="UTF-8" standalone="no"?>
<!-- Created with Inkscape (http://www.inkscape.org/) -->

<svg
   xmlns:dc="http://purl.org/dc/elements/1.1/"
   xmlns:cc="http://creativecommons.org/ns#"
   xmlns:rdf="http://www.w3.org/1999/02/22-rdf-syntax-ns#"
   xmlns:svg="http://www.w3.org/2000/svg"
   xmlns="http://www.w3.org/2000/svg"
   xmlns:xlink="http://www.w3.org/1999/xlink"
   xmlns:sodipodi="http://sodipodi.sourceforge.net/DTD/sodipodi-0.dtd"
   xmlns:inkscape="http://www.inkscape.org/namespaces/inkscape"
   id="svg2"
   version="1.1"
   inkscape:version="0.92.3 (2405546, 2018-03-11)"
   width="2481"
   height="3503"
   sodipodi:docname="E11P02.svg">
  <sodipodi:namedview
     pagecolor="#ffffff"
     bordercolor="#666666"
     inkscape:pageopacity="0"
     inkscape:pageshadow="2"
     inkscape:window-width="1920"
     inkscape:window-height="1017"
     id="namedview70"
     showgrid="false"
     inkscape:zoom="0.3702096"
     inkscape:cx="932.92576"
     inkscape:cy="2315.8202"
     inkscape:current-layer="layer1"
     inkscape:window-x="1672"
     inkscape:window-y="-8"
     inkscape:window-maximized="1" />
  <metadata
     id="metadata8">
    <rdf:RDF>
      <cc:Work
         rdf:about="">
        <dc:format>image/svg+xml</dc:format>
        <dc:type
           rdf:resource="http://purl.org/dc/dcmitype/StillImage" />
        <dc:title />
      </cc:Work>
    </rdf:RDF>
  </metadata>
  <defs
     id="defs6">
    <filter
       style="color-interpolation-filters:sRGB"
       id="filter4375-4-1-1-1"
       inkscape:label="deevad outline effect">
      <feFlood
         id="feFlood4377-7-9-0-8"
         flood-opacity="1"
         flood-color="rgb(55,104,53)"
         result="flood" />
      <feComposite
         id="feComposite4379-3-8-8-2"
         in2="SourceGraphic"
         in="flood"
         operator="in"
         result="composite1" />
      <feMorphology
         id="feMorphology4393-1-0-49-8"
         operator="dilate"
         radius="4"
         result="result3" />
      <feComposite
         id="feComposite4385-9-5-7-0"
         in2="result3"
         in="SourceGraphic"
         operator="over"
         result="composite2" />
    </filter>
  </defs>
  <sodipodi:namedview
     pagecolor="#ffffff"
     bordercolor="#666666"
     borderopacity="1"
     objecttolerance="10"
     gridtolerance="10"
     guidetolerance="10"
     inkscape:pageopacity="0"
     inkscape:pageshadow="2"
     inkscape:window-width="1920"
     inkscape:window-height="1025"
     id="namedview4"
     showgrid="false"
     inkscape:zoom="0.40000002"
     inkscape:cx="868.936"
     inkscape:cy="1108.9305"
     inkscape:window-x="0"
     inkscape:window-y="26"
     inkscape:window-maximized="1"
     inkscape:current-layer="layer1" />
  <g
     inkscape:groupmode="layer"
     id="layer2"
     inkscape:label="artwork"
     sodipodi:insensitive="true">
    <image
       sodipodi:absref="C:\Users\ato\OneDrive - Høgskulen i Volda\Vevsida\Teikneseriesida\Pepar &amp; Gulrot\ep11_The-Witches-of-Chaosah_lang-pack\lang\nn\../gfx_Pepper-and-Carrot_by-David-Revoy_E11P02.png"
       xlink:href="../gfx_Pepper-and-Carrot_by-David-Revoy_E11P02.png"
       width="2481"
       height="3503"
       id="image10"
       x="0"
       y="0" />
  </g>
  <g
     inkscape:groupmode="layer"
     id="layer3"
     inkscape:label="speechbubbles">
    <path
       style="fill:#ffffff;fill-opacity:1;stroke:none;stroke-width:1.03516078"
       d="m 117.24338,239.95798 c -8.10047,-97.53786 36.95659,-98.95842 84.7147,-112.26118 49.83158,-13.88031 414.75232,-38.876004 480.54656,27.20485 36.12418,36.28155 34.52418,174.92474 -62.31141,215.59755 -63.64819,26.73346 -310.20171,47.08716 -409.07802,3.11032 -32.08059,-14.26836 -81.53076,-56.90094 -93.87183,-133.65154 z"
       id="path3659"
       inkscape:connector-curvature="0"
       sodipodi:nodetypes="cssssc" />
    <path
       style="fill:#ffffff;fill-opacity:1;stroke:none;stroke-width:0.94359809"
       d="m 869.99386,445.87663 c 8.01429,63.74179 -27.4784,88.79025 -75.46071,97.45204 -50.0655,9.03785 -428.80644,29.39651 -494.80447,-13.82695 -36.23607,-23.73174 -83.26668,-125.69211 14.04053,-152.20716 63.95818,-17.42783 357.69572,-21.20689 486.51615,-3.18785 34.98611,4.89376 57.40932,21.60892 69.7085,71.76992 z"
       id="path3659-3"
       inkscape:connector-curvature="0"
       sodipodi:nodetypes="cssssc" />
    <path
       style="color:#000000;display:inline;overflow:visible;visibility:visible;fill:#ffffff;fill-opacity:1;fill-rule:nonzero;stroke:none;stroke-width:1px;marker:none;enable-background:accumulate"
       d="m 725.76198,550.62095 c 15.2137,41.75381 60.90819,86.34357 149.80787,69.67515 -89.85178,-4.43964 -113.17241,-40.85544 -119.9781,-76.16592 -6.8056,-35.31052 -14.65449,-50.62321 -14.65449,-50.62321 z"
       id="path4440"
       inkscape:connector-curvature="0"
       sodipodi:nodetypes="ccscc" />
    <path
       style="fill:#ffffff;fill-opacity:1;stroke:none;stroke-width:0.9619391"
       d="m 1550.7318,825.53954 c 32.2698,8.46688 44.8191,16.87445 39.2172,22.46594 13.2073,2.29414 20.0149,72.48734 8.0446,85.72502 -0.7848,1.37882 -1.3381,2.08205 -3.942,6.21643 6.3253,-1.18017 17.2035,-1.89281 19.7388,0.73554 2.5351,2.62869 -21.0615,41.95602 -17.7416,43.20603 3.32,1.24987 78.1586,-26.82 88.9933,-21.06648 10.8351,5.7534 8.4102,17.74786 8.8065,22.06471 4.0281,-1.29805 34.1127,-5.06039 37.6907,-3.88885 3.9412,2.21152 15.3224,17.2818 16.1768,21.15682 2.67,-2.57138 24.2038,-8.47373 26.0529,-8.93996 2.2122,2.02927 5.7439,14.00046 6.2349,18.08316 3.3965,-3.8191 21.7853,-14.89896 24.2663,-14.29984 2.4808,0.59933 14.7767,31.85004 16.5748,36.03794 1.98,-3.7139 29.3796,-38.15437 31.8243,-38.90803 2.4446,-0.75363 21.2883,38.77643 22.5928,46.00413 2.7571,-6.7044 18.8519,-32.4089 21.3329,-31.8096 2.4809,0.5992 19.13,17.1789 21.905,20.3003 0.4146,-6.4442 23.5065,-42.70934 26.79,-42.81221 3.284,-0.10283 31.6842,17.28601 34.2376,20.59091 -0.7154,-7.30055 4.455,-17.74115 7.7388,-17.84401 3.2838,-0.10284 38.2854,8.81016 42.1754,10.18758 -2.1027,-2.7817 -6.1086,-13.34838 -3.6459,-13.42553 2.463,-0.0771 35.6883,7.51462 43.0508,12.19109 -2.6253,-9.46405 77.2872,9.08857 89.8619,11.40167 -7.5819,-8.7085 -38.4259,-54.30908 -34.4299,-58.49614 3.9962,-4.18719 15.0865,-2.20263 19.6664,-1.97008 -5.6774,-6.55542 -9.3198,-10.53981 -6.9295,-13.32268 2.3906,-2.78279 17.8977,-17.13234 32.385,-17.93901 -10.0274,-7.87699 -9.4102,-13.92211 -9.4102,-13.92211 0,0 42.7864,-16.08548 52.0515,-19.90919 -7.2864,-3.26919 -25.1528,-18.84441 -21.9958,-23.68226 3.157,-4.83784 4.008,-6.6457 11.2217,-10.50635 -5.2695,-1.6928 -16.6179,-6.92636 -15.8872,-10.33417 0.7305,-3.40785 2.3134,-19.32771 10.8778,-23.3582 -7.234,1.37614 -17.2759,-0.81279 -17.3482,-3.51852 -0.073,-2.70562 14.9572,-52.46512 27.2996,-65.01204 -25.1052,13.64915 -42.8543,-14.59287 -69.9452,-13.74423 -27.0912,0.84867 -16.452,-0.72788 -20.5566,-0.59928 -4.1047,0.12857 -34.474,1.28377 -38.5787,1.41234 -4.1046,0.12857 -5.7573,-0.22727 -9.0411,-0.1244 -3.2837,0.10283 -22.1506,1.24421 -26.2551,1.37279 -4.1047,0.12858 -42.7138,0.40055 -48.4604,0.58057 -5.7466,0.18001 -27.9019,1.24093 -32.8277,1.39525 -4.9256,0.1543 -9.0422,-0.16514 -13.147,-0.0365 -4.1046,0.12857 -30.3646,1.31809 -34.4692,1.44665 -4.1047,0.1286 -10.7083,-1.03136 -13.9921,-0.92848 -3.2835,0.10283 -14.7397,1.86933 -14.7397,1.86933 0,0 -10.6753,0.21214 -15.6011,0.36643 -4.9255,0.15432 -38.5647,1.92146 -42.6693,2.05005 -4.1048,0.1286 -40.4879,1.69907 -38.0251,1.62192 2.4629,-0.0771 -35.8572,0.77411 -41.6036,0.95412 -5.7465,0.18005 -16.4023,1.17749 -18.0441,1.22893 -1.6419,0.0515 -13.1422,0.0945 -18.0679,0.24882 -4.9255,0.15433 -16.4159,0.61617 -16.4159,0.61617 l 1.645,0.0707 c 0,0 -34.4912,0.63213 -38.5959,0.76071 -4.1045,0.12857 2.4815,0.6152 4.9441,0.53807 -14.7767,0.46288 -58.3027,1.215 -61.5863,1.31786 -3.2839,0.10283 5.7599,0.32909 10.6857,0.17479 -6.5674,0.20573 -12.3164,0.30437 -12.3164,0.30437 l 18.8948,-0.10271 -5.7456,0.22077 c 0,0 -15.2561,33.53214 -15.1655,36.91424 0.09,3.38199 -31.8175,8.44355 -31.8175,8.44355 0,0 13.2978,5.67615 10.1046,9.16112 -3.1934,3.48499 -11.3485,5.7714 -11.3485,5.7714 l -1.4064,8.84499 z"
       id="path5888"
       inkscape:connector-curvature="0"
       sodipodi:nodetypes="ccccccccccccccccccscscsccscccccccccscscsscccccccssccccccsccccccsccccc" />
    <path
       style="color:#000000;display:inline;overflow:visible;visibility:visible;fill:#ffffff;fill-opacity:1;fill-rule:nonzero;stroke:none;stroke-width:0.95912814px;marker:none;enable-background:accumulate"
       d="m 1997.3461,1280.7971 c 9.5395,-12.3606 72.048,-47.8623 75.5601,0.7246 44.9571,-59.1692 73.0714,-42.0203 110.837,0.037 4.7023,-41.0197 33.5873,-41.1115 74.1394,-13.7223 -11.3481,-29.8532 13.7405,-28.4203 47.6385,-31.7865 -41.4217,-15.4948 -47.4039,-27.2591 35.1706,-29.7017 -61.0169,-8.1574 -117.7251,-17.0355 -38.672,-48.6168 -22.359,-3.5505 -81.8516,23.5465 -39.2774,-70.8469 -44.3979,26.6867 -96.278,11.7789 -136.2895,-59.3916 -10.7221,55.1545 -41.8031,113.6193 -82.418,56.5989 -26.1656,66.6788 -72.5128,9.7032 -86.7328,-18.4058 6.2915,40.1017 15.7307,65.4703 -40.4777,61.834 84.0724,62.2584 -3.5271,49.6096 -20.9564,60.9486 70.1319,26.1802 41.749,40.6004 24.6968,61.1039 57.4405,-18.6985 78.3247,2.7269 76.7814,31.2248 z"
       id="path3549-3"
       inkscape:connector-curvature="0"
       sodipodi:nodetypes="cccccccccccccccc" />
    <path
       style="color:#000000;display:inline;overflow:visible;visibility:visible;fill:#ffffff;fill-opacity:1;fill-rule:nonzero;stroke:none;stroke-width:1px;marker:none;enable-background:accumulate"
       d="m 2203.9792,1127.7454 c 31.2445,-19.0795 65.3939,-45.1286 72.8188,-52.0388 -12.6929,-4.9848 -23.0556,-11.472 -31.2287,-16.3975 15.0721,-11.6274 88.769,-61.68328 111.5806,-65.98197 -56.9232,8.44887 -115.9924,42.49157 -138.9231,63.43247 9.6363,8.2294 16.5681,12.0437 21.5327,16.4887 -10.8446,11.026 -54.7604,38.6986 -54.7604,38.6986 z"
       id="path5066"
       inkscape:connector-curvature="0" />
    <flowRoot
       transform="matrix(0.90617713,0,-0.22078013,1.6225798,1696.8105,705.53838)"
       style="font-style:normal;font-variant:normal;font-weight:normal;font-stretch:normal;line-height:0.01%;font-family:Lavi;-inkscape-font-specification:Lavi;text-align:center;letter-spacing:0px;word-spacing:0px;text-anchor:middle;fill:#000000;fill-opacity:1;stroke:#000000;stroke-width:2.30830574;stroke-miterlimit:4;stroke-dasharray:none;stroke-opacity:1"
       id="flowRoot4212-3-7-8-6"
       xml:space="preserve"><flowRegion
         id="flowRegion4214-6-7-8-3"><rect
           style="font-style:normal;font-variant:normal;font-weight:normal;font-stretch:normal;font-family:Lavi;-inkscape-font-specification:Lavi;text-align:center;text-anchor:middle;stroke:#000000;stroke-width:2.30830574;stroke-miterlimit:4;stroke-dasharray:none;stroke-opacity:1"
           y="265.53046"
           x="120.55251"
           height="355.03918"
           width="798.1947"
           id="rect4216-4-0-26-5" /></flowRegion><flowPara
         style="font-size:48px;line-height:1.25;text-align:center;letter-spacing:5.20896292px;text-anchor:middle;stroke:#000000;stroke-width:2.30830574;stroke-miterlimit:4;stroke-dasharray:none;stroke-opacity:1"
         id="flowPara4358-7-1">STILLE!</flowPara></flowRoot>    <path
       style="color:#000000;display:inline;overflow:visible;visibility:visible;fill:#ffffff;fill-opacity:1;fill-rule:nonzero;stroke:none;stroke-width:1px;marker:none;enable-background:accumulate"
       d="m 1656.6816,864.45168 c -13.9641,31.64222 -47.0315,92.97319 -58.4788,103.42969 -21.9016,-16.83532 -67.233,-35.37975 -70.1513,-31.16101 -2.9182,4.21879 -13.389,87.83874 -20.8852,89.90244 -7.4962,2.0635 -34.1354,0.2416 -43.4933,-4.6298 28.7475,11.2032 51.3462,17.6477 61.1996,11.5672 6.8904,-3.7469 14.3961,-69.18877 14.6661,-73.72212 22.6435,8.32968 67.3012,30.28541 76.7272,30.0624 9.2475,-7.76375 44.7564,-37.65222 72.5931,-88.86226 27.8366,-51.21011 -32.1774,-36.58654 -32.1774,-36.58654 z"
       id="path5901"
       inkscape:connector-curvature="0"
       sodipodi:nodetypes="ccccccccsc" />
    <path
       style="color:#000000;display:inline;overflow:visible;visibility:visible;fill:#ffffff;fill-opacity:1;fill-rule:nonzero;stroke:none;stroke-width:1.07138896px;marker:none;enable-background:accumulate"
       d="m 186.99702,1755.9796 c 9.39242,6.6734 24.08888,5.3385 16.12149,-12.3117 14.14778,9.3822 18.31431,11.2702 12.12087,-5.065 10.80476,8.5617 22.55488,9.5578 20.91175,-9.7985 30.91483,21.7201 123.2868,6.1203 162.59977,8.6269 39.31297,2.5064 144.74332,0.5014 155.46505,0 10.72173,-0.5012 92.92145,0 100.06942,0 7.14774,0 35.73898,5.5143 44.67371,8.522 13.40206,-4.0104 29.96069,-15.0623 29.96069,-15.0623 0,0 0.41738,29.6001 3.09784,31.104 2.68049,1.5039 15.48609,-1.7743 23.35431,-3.0134 -5.20507,5.0033 -23.35431,20.5589 -20.67382,21.0601 2.68028,0.5014 21.63401,1.7708 28.89685,2.5273 -5.81012,3.1694 -21.74909,17.0234 -20.8558,17.5248 12.35757,16.3259 19.5915,13.3233 29.95393,9.6093 -4.95758,8.6764 -17.35003,13.8542 -19.75823,18.4302 1.73325,4.5211 3.85545,6.586 13.40202,16.543 -10.81401,-6.6526 -13.16986,-2.0536 -15.90025,2.1689 1.25389,10.5321 3.49355,21.3851 2.01424,39.2103 -1.74654,21.0449 -3.43717,42.4667 -11.47853,53.4952 4.46749,5.013 9.5915,14.0998 17.14158,17.7919 -6.99485,1.3805 -15.37476,13.6944 -14.48108,16.2006 0.89351,2.5068 7.06424,11.9218 16.7193,16.7386 -9.17383,0.4739 -15.92169,1.9786 -21.28246,4.485 -0.89386,4.0105 5.45667,14.1933 7.10841,22.1818 -4.78111,-3.1512 -28.92689,-12.8195 -32.92328,-13.3272 -1.48621,2.1354 -2.61966,10.9503 -1.43845,21.9531 -142.47433,-55.8928 -448.4807,-14.7766 -466.24995,-13.0258 -8.04125,0 -22.19449,0.9369 -37.08187,11.9605 9.49592,-15.1891 13.00285,-26.817 13.00285,-26.817 0,0 -21.29074,-2.4151 -34.63319,1.9537 9.29341,-8.2724 14.75167,-16.9621 13.85816,-18.466 -0.89349,-1.5039 -16.50426,-2.0715 -28.3684,1.4363 4.59513,-5.232 21.21244,-17.1994 20.31895,-19.7058 -9.24103,0.5502 -34.25709,-38.9956 -19.96157,-156.2996 -0.6407,-10.3301 -7.18196,-16.4057 -18.85229,-22.0028 19.89426,-5.8871 47.75235,-9.1655 33.14798,-28.6284 z"
       id="path3915"
       inkscape:connector-curvature="0"
       sodipodi:nodetypes="ccccsssccsccccccccscccccccccccccccccc" />
    <path
       style="color:#000000;display:inline;overflow:visible;visibility:visible;fill:#ffffff;fill-opacity:1;fill-rule:nonzero;stroke:none;stroke-width:1px;marker:none;enable-background:accumulate"
       d="m 1105.0928,1799.5625 c -91.2283,-62.9886 -159.18424,-107.2113 -244.09747,-102.7556 -84.91309,4.4557 -100.49843,21.9951 -109.53087,27.7757 5.18785,12.9068 23.75593,31.6134 30.75182,34.7014 -22.33894,2.4552 -76.54188,62.7404 -110.47938,56.3411 -64.61909,-12.1847 -273.97666,-3.5558 -101.72794,36.5684 172.24873,40.1242 192.34114,-78.0027 263.45059,-85.6848 -16.89501,-9.5809 -49.34755,-27.5154 -45.74516,-34.2065 3.60245,-6.6909 69.55744,-22.806 102.86379,-16.4917 33.30653,6.3141 121.98932,17.5367 214.51462,83.752 z"
       id="path3923"
       inkscape:connector-curvature="0"
       sodipodi:nodetypes="csccszccsc" />
    <path
       style="fill:#ffffff;fill-rule:evenodd;stroke:none;stroke-width:1px;stroke-linecap:butt;stroke-linejoin:miter;stroke-opacity:1"
       d="m 206.04914,1667.4613 c 1.89036,73.724 51.0397,194.707 109.64083,189.0359 58.60114,-5.6711 34.02647,-28.3554 34.02647,-28.3554 0,0 -83.1758,26.465 -117.20227,-160.6805 -34.02646,-187.1456 -26.46503,0 -26.46503,0 z"
       id="path4413"
       inkscape:connector-curvature="0" />
    <path
       style="fill:#ffffff;stroke:none"
       d="m 1375.5352,3211.3901 c -2.4876,45.6378 38.0321,56.4926 79.2493,63.5302 41.217,7.0375 169.9799,1.8141 161.9069,-54.1964 -8.0731,-56.0106 -70.0989,-64.673 -121.5638,-62.9624 -51.4653,1.7105 -111.0706,10.4766 -119.5924,53.6286 z"
       id="path3938"
       inkscape:connector-curvature="0"
       sodipodi:nodetypes="csssc" />
    <path
       style="color:#000000;display:inline;overflow:visible;visibility:visible;fill:#ffffff;fill-opacity:1;fill-rule:nonzero;stroke:none;stroke-width:1px;marker:none;enable-background:accumulate"
       d="m 1540.2936,3223.4008 c 69.6255,-26.0651 66.8892,-87.8398 67.0296,-99.678 -16.9624,16.0862 -19.0601,54.2993 -76.9475,76.9629 -25.1607,9.8509 9.9179,22.7151 9.9179,22.7151 z"
       id="path3940"
       inkscape:connector-curvature="0"
       sodipodi:nodetypes="ccsc" />
    <flowRoot
       xml:space="preserve"
       id="flowRoot3056-6"
       style="font-style:normal;font-variant:normal;font-weight:normal;font-stretch:normal;line-height:0.01%;font-family:Arial;-inkscape-font-specification:Arial;letter-spacing:0px;word-spacing:0px;fill:#000000;fill-opacity:1;stroke:none"
       transform="matrix(0.92403899,-0.0431397,-0.21669727,0.91096764,408.69829,2651.2462)"><flowRegion
         id="flowRegion3058-8"><rect
           id="rect3060-0"
           width="343.2529"
           height="151.69978"
           x="1244.4525"
           y="652.80212" /></flowRegion><flowPara
         id="flowPara3062-10"
         style="font-style:normal;font-variant:normal;font-weight:normal;font-stretch:normal;font-size:48px;line-height:1.25;font-family:Lavi;-inkscape-font-specification:Lavi">Ta-daaa!</flowPara></flowRoot>    <path
       style="fill:#ffffff;stroke:none;stroke-width:1.00546992"
       d="m 78.499623,2827.301 c -42.289515,-224.2106 49.732987,-154.2881 332.956257,-161.005 221.46591,-5.2523 339.57493,45.581 343.6687,149.539 3.96524,100.6943 -94.09244,182.2794 -302.02535,184.5726 C 245.1663,3002.7007 80.119663,2974.7875 78.499623,2827.301 Z"
       id="path3270"
       inkscape:connector-curvature="0"
       sodipodi:nodetypes="csssc" />
    <path
       style="fill:#ffffff;stroke:none"
       d="m 740.22487,3021.0768 c -63.31546,24.471 -150.43401,11.8981 -179.52399,-58.4059 -17.62562,-42.5973 -22.73968,-69.8786 -22.73968,-69.8786 l -34.70784,34.4178 16.75558,49.0193 c 0,0 76.59683,114.726 220.21593,44.8474 z"
       id="path3063"
       inkscape:connector-curvature="0"
       sodipodi:nodetypes="cscccc" />
    <path
       style="color:#000000;display:inline;overflow:visible;visibility:visible;fill:#ffffff;fill-opacity:1;fill-rule:nonzero;stroke:none;stroke-width:0.97615498px;marker:none;enable-background:accumulate"
       d="m 627.59245,1663.9979 c -9.58817,-5.282 -24.52386,-4.122 -16.32211,9.9532 -14.43884,-7.42 -18.68609,-8.9049 -12.29558,4.129 -11.03498,-6.7843 -22.98812,-7.5083 -21.20713,7.9719 -31.55776,-17.1892 -125.39221,-4.1289 -165.37972,-5.8898 -39.98748,-1.7606 -147.17707,0.5016 -158.07601,0.9697 -10.89895,0.468 -94.48202,0.5795 -101.75004,0.6241 -7.26779,0.044 -36.37061,-4.19 -45.47253,-6.5411 -13.604291,3.2929 -30.378068,12.2407 -30.378068,12.2407 0,0 -0.592987,-23.6855 -3.327038,-24.8723 -2.734072,-1.1869 -15.736066,1.5164 -23.729372,2.5572 5.263986,-4.0365 23.629426,-16.5984 20.901079,-16.9827 -2.728165,-0.3846 -22.007441,-1.2822 -29.396567,-1.8423 5.889648,-2.5726 22.017381,-13.759 21.10623,-14.1548 -12.658106,-12.9881 -19.99641,-10.54 -30.511691,-7.5032 4.991413,-6.9744 17.562481,-11.1953 19.985045,-14.8723 -6.057787,-3.2922 -15.57498,-10.4923 -13.72132,-13.1554 1.853551,-2.6627 14.328389,3.0005 23.815915,2.7417 -2.817371,-2.3433 -20.406467,-10.0542 -7.481137,-34.513 7.997835,-15.1346 0.801722,-35.4362 8.915308,-44.3121 -4.571064,-3.9839 -9.832903,-11.2239 -17.5308,-14.1314 7.104454,-1.1485 15.554958,-11.0552 14.631993,-13.0553 -0.922792,-2.0005 -7.250791,-9.4966 -17.095437,-13.2911 9.325202,-0.4364 16.177822,-1.6827 21.614346,-3.722 0.886025,-3.2151 -5.629161,-11.3245 -7.354152,-17.7071 4.879361,2.492 29.485721,10.0787 33.552134,10.46 1.499001,-1.7182 2.60127,-8.7794 1.337549,-17.5774 145.185503,43.8408 456.096903,9.0281 474.154613,7.5161 8.1763,-0.05 22.5619,-0.8882 37.63651,-9.8029 -9.56887,12.2146 -13.06847,21.5419 -13.06847,21.5419 0,0 21.66206,1.8 35.20371,-1.7795 -9.40237,6.6782 -14.90279,13.6664 -13.98571,14.8643 0.91705,1.198 16.79324,1.5549 28.83665,-1.3264 -4.6425,4.2157 -21.47072,13.8965 -20.54794,15.8968 9.39308,-0.498 35.05453,30.9933 21.18712,124.9576 0.71031,8.2629 7.39603,13.0842 19.29425,17.4906 -20.19485,4.8353 -48.50213,7.6327 -33.54163,23.1173 z"
       id="path3915-2"
       inkscape:connector-curvature="0"
       sodipodi:nodetypes="ccccsssccsccccccccscccccccccccccccccc" />
  </g>
  <g
     inkscape:groupmode="layer"
     id="layer1"
     inkscape:label="txt">
    <flowRoot
       xml:space="preserve"
       id="flowRoot2987-4-9-3"
       style="font-style:normal;font-variant:normal;font-weight:normal;font-stretch:normal;line-height:0.01%;font-family:Lavi;-inkscape-font-specification:Lavi;text-align:center;letter-spacing:0px;word-spacing:0px;text-anchor:middle;fill:#000000;fill-opacity:1;stroke:none"
       transform="translate(6.0410923,-119.08018)"><flowRegion
         id="flowRegion2989-5-4-5"><rect
           id="rect2991-7-9-6"
           width="562.65326"
           height="269.05396"
           x="120.55251"
           y="265.53046"
           style="font-style:normal;font-variant:normal;font-weight:normal;font-stretch:normal;font-family:Lavi;-inkscape-font-specification:Lavi;text-align:center;text-anchor:middle" /></flowRegion><flowPara
         style="font-size:45px;line-height:1.25;text-align:center;text-anchor:middle"
         id="flowPara70">Det er tydeleg at du</flowPara><flowPara
         style="font-size:45px;line-height:1.25;text-align:center;text-anchor:middle"
         id="flowPara74">har talent, men du er òg den einaste som kan ta over etter oss.</flowPara></flowRoot>    <flowRoot
       xml:space="preserve"
       id="flowRoot2987-4-9-3-5"
       style="font-style:normal;font-variant:normal;font-weight:normal;font-stretch:normal;line-height:0.01%;font-family:Lavi;-inkscape-font-specification:Lavi;text-align:center;letter-spacing:0px;word-spacing:0px;text-anchor:middle;fill:#000000;fill-opacity:1;stroke:none"
       transform="translate(189.04249,142.65956)"><flowRegion
         id="flowRegion2989-5-4-5-8"><rect
           id="rect2991-7-9-6-5"
           width="518.47479"
           height="225.79358"
           x="120.55251"
           y="265.53046"
           style="font-style:normal;font-variant:normal;font-weight:normal;font-stretch:normal;font-family:Lavi;-inkscape-font-specification:Lavi;text-align:center;text-anchor:middle" /></flowRegion><flowPara
         style="font-size:45px;line-height:1.25;text-align:center;text-anchor:middle"
         id="flowPara3030-8-1">Me pliktar å gjera deg til</flowPara><flowPara
         style="font-size:45px;line-height:1.25;text-align:center;text-anchor:middle"
         id="flowPara76">ei ekte, fæl kaosah-heks.</flowPara></flowRoot>    <flowRoot
       xml:space="preserve"
       id="flowRoot2987-4-9-3-5-9"
       style="font-style:normal;font-variant:normal;font-weight:normal;font-stretch:normal;line-height:0.01%;font-family:Lavi;-inkscape-font-specification:Lavi;text-align:center;letter-spacing:0px;word-spacing:0px;text-anchor:middle;fill:#000000;fill-opacity:1;stroke:none"
       transform="translate(1417.5719,522.76808)"><flowRegion
         id="flowRegion2989-5-4-5-8-9"><rect
           id="rect2991-7-9-6-5-7"
           width="697.14331"
           height="259.52267"
           x="120.55251"
           y="265.53046"
           style="font-style:normal;font-variant:normal;font-weight:normal;font-stretch:normal;font-family:Lavi;-inkscape-font-specification:Lavi;text-align:center;text-anchor:middle" /></flowRegion><flowPara
         style="font-size:45px;line-height:1.25;text-align:center;text-anchor:middle"
         id="flowPara80">Men ... Eg vil ikkje</flowPara><flowPara
         style="font-size:45px;line-height:1.25;text-align:center;text-anchor:middle"
         id="flowPara77"> vera fæl! Det ... strir</flowPara><flowPara
         style="font-size:45px;line-height:1.25;text-align:center;text-anchor:middle"
         id="flowPara79"> mot alt som eg ...</flowPara></flowRoot>    <flowRoot
       xml:space="preserve"
       id="flowRoot2987-4-9-3-5-9-8"
       style="font-style:normal;font-variant:normal;font-weight:normal;font-stretch:normal;line-height:0.01%;font-family:Lavi;-inkscape-font-specification:Lavi;text-align:center;letter-spacing:0px;word-spacing:0px;text-anchor:middle;fill:#000000;fill-opacity:1;stroke:none"
       transform="translate(-37.157499,1268.1126)"><flowRegion
         id="flowRegion2989-5-4-5-8-9-5"><rect
           id="rect2991-7-9-6-5-7-5"
           width="568.84778"
           height="193.91568"
           x="120.55251"
           y="265.53046"
           style="font-style:normal;font-variant:normal;font-weight:normal;font-stretch:normal;font-family:Lavi;-inkscape-font-specification:Lavi;text-align:center;text-anchor:middle" /></flowRegion><flowPara
         style="font-size:45px;line-height:1.25;text-align:center;text-anchor:middle"
         id="flowPara3348">... eller så tilbakekallar</flowPara><flowPara
         style="font-size:45px;line-height:1.25;text-align:center;text-anchor:middle"
         id="flowPara84">me alle kreftene dine!</flowPara></flowRoot>    <flowRoot
       xml:space="preserve"
       id="flowRoot2987-4-9-3-5-9-8-3"
       style="font-style:normal;font-variant:normal;font-weight:normal;font-stretch:normal;line-height:0.01%;font-family:Lavi;-inkscape-font-specification:Lavi;text-align:center;letter-spacing:0px;word-spacing:0px;text-anchor:middle;fill:#000000;fill-opacity:1;stroke:none"
       transform="translate(84.552501,1501.8893)"><flowRegion
         id="flowRegion2989-5-4-5-8-9-5-4"><rect
           id="rect2991-7-9-6-5-7-5-4"
           width="525.72278"
           height="228.41568"
           x="114.80251"
           y="256.90546"
           style="font-style:normal;font-variant:normal;font-weight:normal;font-stretch:normal;font-family:Lavi;-inkscape-font-specification:Lavi;text-align:center;text-anchor:middle"
           ry="0" /></flowRegion><flowPara
         style="font-size:45px;line-height:1.25;text-align:center;text-anchor:middle"
         id="flowPara3030-8-1-8-7-8">Og så vert du igjen</flowPara><flowPara
         style="font-size:45px;line-height:1.25;text-align:center;text-anchor:middle"
         id="flowPara86">berre den vesle, dumme, foreldrelause jenta</flowPara><flowPara
         style="font-size:45px;line-height:1.25;text-align:center;text-anchor:middle"
         id="flowPara88">frå Ekornstubben.</flowPara></flowRoot>    <flowRoot
       xml:space="preserve"
       id="flowRoot2987-4-9-3-5-9-8-3-5"
       style="font-style:normal;font-variant:normal;font-weight:normal;font-stretch:normal;line-height:0.01%;font-family:Lavi;-inkscape-font-specification:Lavi;text-align:center;letter-spacing:0px;word-spacing:0px;text-anchor:middle;fill:#000000;fill-opacity:1;stroke:none"
       transform="translate(-4.1764282,2470.1039)"><flowRegion
         id="flowRegion2989-5-4-5-8-9-5-4-2"><rect
           id="rect2991-7-9-6-5-7-5-4-9"
           width="596.31714"
           height="278.33615"
           x="120.55251"
           y="265.53046"
           style="font-style:normal;font-variant:normal;font-weight:normal;font-stretch:normal;font-family:Lavi;-inkscape-font-specification:Lavi;text-align:center;text-anchor:middle" /></flowRegion><flowPara
         style="font-size:45px;line-height:1.25;text-align:center;text-anchor:middle"
         id="flowPara3030-8-1-8-7-8-3">Heretter vil Karve følgja deg,</flowPara><flowPara
         style="font-size:45px;line-height:1.25;text-align:center;text-anchor:middle"
         id="flowPara94">for å læra deg opp og</flowPara><flowPara
         style="font-size:45px;line-height:1.25;text-align:center;text-anchor:middle"
         id="flowPara96">halda oss orienterte om framdrifta di.</flowPara></flowRoot>    <flowRoot
       xml:space="preserve"
       id="flowRoot2987-7-9-9-7-0-3-4-1"
       style="font-style:normal;font-variant:normal;font-weight:normal;font-stretch:normal;line-height:0.01%;font-family:Lavi;-inkscape-font-specification:Lavi;letter-spacing:0px;word-spacing:0px;fill:#000000;fill-opacity:1;stroke:#000000;stroke-width:0.99236238;stroke-miterlimit:4;stroke-dasharray:none;stroke-opacity:1;filter:url(#filter4375-4-1-1-1)"
       transform="matrix(1.1967542,-0.56289093,0.22908574,2.2717035,1801.2719,2593.0489)"><flowRegion
         id="flowRegion2989-4-5-8-7-41-7-62-2"
         style="stroke-width:5.40286207"><rect
           id="rect2991-45-1-3-3-8-0-4-6"
           width="319.66232"
           height="56.089447"
           x="120.55251"
           y="265.53046"
           style="font-style:normal;font-variant:normal;font-weight:normal;font-stretch:normal;font-family:Lavi;-inkscape-font-specification:Lavi;fill:#000000;fill-opacity:1;stroke:#000000;stroke-width:0.99236238;stroke-miterlimit:4;stroke-dasharray:none;stroke-opacity:1" /></flowRegion><flowPara
         id="flowPara2995-4-1-5-0-7-2-6-4"
         style="font-weight:normal;font-size:48px;line-height:1.25;-inkscape-font-specification:Lavi;letter-spacing:7.06853437px;fill:#ffffff;fill-opacity:1;stroke:#ffffff;stroke-width:0.99236238;stroke-linejoin:miter;stroke-miterlimit:4;stroke-dasharray:none;stroke-opacity:1">Poff!</flowPara></flowRoot>  </g>
</svg>
