<?xml version="1.0" encoding="UTF-8" standalone="no"?>
<!-- Created with Inkscape (http://www.inkscape.org/) -->

<svg
   xmlns:dc="http://purl.org/dc/elements/1.1/"
   xmlns:cc="http://creativecommons.org/ns#"
   xmlns:rdf="http://www.w3.org/1999/02/22-rdf-syntax-ns#"
   xmlns:svg="http://www.w3.org/2000/svg"
   xmlns="http://www.w3.org/2000/svg"
   xmlns:xlink="http://www.w3.org/1999/xlink"
   xmlns:sodipodi="http://sodipodi.sourceforge.net/DTD/sodipodi-0.dtd"
   xmlns:inkscape="http://www.inkscape.org/namespaces/inkscape"
   id="svg2"
   version="1.1"
   inkscape:version="0.92.1 r15371"
   width="2481"
   height="3503"
   sodipodi:docname="E29P08.svg"
   inkscape:export-filename="/home/dash/Downloads/pepper carrot EPS/ep29_Destroyer-of-Worlds_lang-pack/lang/ph/E29P08.svg.png"
   inkscape:export-xdpi="90"
   inkscape:export-ydpi="90">
  <metadata
     id="metadata8">
    <rdf:RDF>
      <cc:Work
         rdf:about="">
        <dc:format>image/svg+xml</dc:format>
        <dc:type
           rdf:resource="http://purl.org/dc/dcmitype/StillImage" />
        <dc:title />
      </cc:Work>
    </rdf:RDF>
  </metadata>
  <defs
     id="defs6">
    <filter
       style="color-interpolation-filters:sRGB"
       id="filter3018-3-2-2-7-8"
       inkscape:label="Lapping"
       inkscape:menu="Distort"
       inkscape:menu-tooltip="Something like a water noise"
       height="1.3"
       y="-0.15000001"
       width="1.3"
       x="-0.15000001">
      <feTurbulence
         id="feTurbulence3020-6-9-0-4-8"
         numOctaves="5"
         seed="0"
         type="fractalNoise"
         baseFrequency="0.1"
         result="result1" />
      <feGaussianBlur
         id="feGaussianBlur3022-7-1-2-4-4"
         stdDeviation="2"
         result="result2" />
      <feDisplacementMap
         id="feDisplacementMap3024-5-2-3-3-3"
         in2="result2"
         scale="55.299999999999997"
         yChannelSelector="B"
         xChannelSelector="R"
         in="SourceGraphic" />
    </filter>
    <filter
       style="color-interpolation-filters:sRGB"
       id="filter4375-4-1-1-1-9-5-8"
       inkscape:label="Drop Shadow">
      <feFlood
         id="feFlood4377-7-9-0-8-1-7-3"
         flood-opacity="1"
         flood-color="rgb(108,125,133)"
         result="flood" />
      <feComposite
         id="feComposite4379-3-8-8-2-77-4-1"
         in2="SourceGraphic"
         in="flood"
         operator="in"
         result="composite1" />
      <feMorphology
         id="feMorphology4393-1-0-49-8-9-3-0"
         operator="dilate"
         radius="6.2000000000000002"
         result="result3" />
      <feComposite
         id="feComposite4385-9-5-7-0-8-8-7"
         in2="result3"
         in="SourceGraphic"
         operator="over"
         result="fbSourceGraphic" />
      <feColorMatrix
         result="fbSourceGraphicAlpha"
         in="fbSourceGraphic"
         values="0 0 0 -1 0 0 0 0 -1 0 0 0 0 -1 0 0 0 0 1 0"
         id="feColorMatrix4544" />
      <feTurbulence
         id="feTurbulence4546"
         type="fractalNoise"
         numOctaves="3"
         seed="37"
         baseFrequency="0.129 0.0050000000000000001"
         result="turbulence" />
      <feDisplacementMap
         id="feDisplacementMap4548"
         in2="turbulence"
         in="fbSourceGraphic"
         scale="6.6"
         yChannelSelector="G"
         xChannelSelector="R"
         result="fbSourceGraphic" />
      <feColorMatrix
         result="fbSourceGraphicAlpha"
         in="fbSourceGraphic"
         values="0 0 0 -1 0 0 0 0 -1 0 0 0 0 -1 0 0 0 0 1 0"
         id="feColorMatrix4670" />
      <feFlood
         id="feFlood4672"
         flood-opacity="1"
         flood-color="rgb(17,52,65)"
         result="flood"
         in="fbSourceGraphic" />
      <feComposite
         id="feComposite4674"
         in2="fbSourceGraphic"
         in="flood"
         operator="in"
         result="composite1" />
      <feGaussianBlur
         id="feGaussianBlur4676"
         in="composite1"
         stdDeviation="0"
         result="blur" />
      <feOffset
         id="feOffset4678"
         dx="6"
         dy="6"
         result="offset" />
      <feComposite
         id="feComposite4680"
         in2="offset"
         in="fbSourceGraphic"
         operator="over"
         result="composite2" />
    </filter>
  </defs>
  <sodipodi:namedview
     pagecolor="#ffffff"
     bordercolor="#666666"
     borderopacity="1"
     objecttolerance="10"
     gridtolerance="10"
     guidetolerance="10"
     inkscape:pageopacity="0"
     inkscape:pageshadow="2"
     inkscape:window-width="1920"
     inkscape:window-height="997"
     id="namedview4"
     showgrid="false"
     inkscape:zoom="0.25"
     inkscape:cx="1221.5761"
     inkscape:cy="1255.376"
     inkscape:window-x="0"
     inkscape:window-y="0"
     inkscape:window-maximized="1"
     inkscape:current-layer="layer1"
     inkscape:snap-global="false" />
  <g
     inkscape:groupmode="layer"
     id="layer2"
     inkscape:label="artwork"
     sodipodi:insensitive="true">
    <image
       sodipodi:absref="/home/dash/Downloads/pepper carrot EPS/ep29_Destroyer-of-Worlds_lang-pack/lang/ph/../gfx_Pepper-and-Carrot_by-David-Revoy_E29P08.png"
       xlink:href="../gfx_Pepper-and-Carrot_by-David-Revoy_E29P08.png"
       width="2481"
       height="3503"
       id="image10"
       x="0"
       y="0" />
  </g>
  <g
     inkscape:groupmode="layer"
     id="layer3"
     inkscape:label="speechbubbles">
    <path
       style="color:#000000;display:inline;overflow:visible;visibility:visible;fill:#0f0f0f;fill-opacity:1;fill-rule:nonzero;stroke:none;stroke-width:1px;marker:none;enable-background:accumulate"
       d="m 1741.9308,2432.7908 c -4.8178,19.668 -0.7688,33.3874 2.4416,37.3592 3.2104,3.9717 10.8983,14.3119 13.7655,19.7718 2.3453,4.527 7.2978,10.3012 2.8751,12.116 -4.4228,1.8149 -34.8116,2.5003 -39.1041,15.4478 -4.2926,12.9476 1.2261,18.1 11.372,24.4541 10.1458,6.3542 23.2871,14.8228 21.1091,24.7749 -2.1781,9.9521 -13.1171,14.2585 -19.1504,14.6671 -6.0333,0.4087 -42.6524,-2.0129 -51.9597,1.3807 -9.3072,3.3936 -58.5684,13.2614 -54.7449,26.2831 11.9469,-13.1095 41.9984,-13.9815 50.8227,-15.2923 8.8245,-1.3108 24.7392,-5.003 34.6806,-1.6655 9.9416,3.3375 30.3591,2.6969 38.2813,-1.4051 7.9224,-4.102 22.577,-9.4024 22.9084,-20.299 0.3315,-10.8966 1.9829,-23.0056 -14.1751,-31.2699 -10.1458,-6.3541 -9.9405,-8.4674 -8.9855,-11.4734 0.9551,-3.0061 6.7542,-4.5088 18.3379,-3.2435 11.5838,1.2654 21.8199,-5.163 22.8068,-11.6474 0.9868,-6.4843 -4.6686,-27.4261 -5.0774,-33.4595 -0.4086,-6.0333 -15.9072,-37.41 -15.9072,-37.41 z"
       id="path5058"
       inkscape:connector-curvature="0"
       sodipodi:nodetypes="cscsssssscssssccscccc" />
    <path
       style="color:#000000;display:inline;overflow:visible;visibility:visible;fill:#ffffff;fill-opacity:1;fill-rule:nonzero;stroke:none;stroke-width:0.78654778px;marker:none;enable-background:accumulate"
       d="m 427.44265,1131.5049 c 31.15267,22.4807 45.68812,317.7938 -21.65498,358.423 -42.73342,25.7818 -220.70386,21.7647 -251.67037,-11.1549 -36.44448,-38.7427 -28.90511,-267.4213 -8.59102,-321.8804 19.32668,-51.8123 104.22493,-47.6556 168.53283,-50.2687 26.24657,-1.0666 82.23099,2.3999 113.38354,24.881 z"
       id="path4040-4"
       inkscape:connector-curvature="0"
       sodipodi:nodetypes="zssssz" />
    <path
       style="color:#000000;display:inline;overflow:visible;visibility:visible;fill:#ffffff;fill-opacity:1;fill-rule:nonzero;stroke:none;stroke-width:0.58226079px;marker:none;enable-background:accumulate"
       d="m 227.87959,1536.2155 c -40.60124,-0.6518 -74.36032,-20.085 -33.91931,-49.9611 3.17292,-21.5086 -34.82399,-5.0176 -34.82399,-5.0176 -17.62319,5.3683 -45.4318,67.023 68.7433,54.9787 z"
       id="path3984"
       inkscape:connector-curvature="0"
       sodipodi:nodetypes="cccc" />
    <path
       style="color:#000000;display:inline;overflow:visible;visibility:visible;fill:#ffffff;fill-opacity:1;fill-rule:nonzero;stroke:none;stroke-width:1.06969297px;marker:none;enable-background:accumulate"
       d="m 1513.048,1305.1138 c 30.3801,2.1009 54.4813,6.8374 67.8455,32.8964 13.3642,26.0589 15.9912,73.44 10.7341,133.5519 -2.816,32.1992 -6.9166,77.9511 -19.6112,103.6113 -12.6944,25.6602 -33.9826,31.2285 -78.4845,28.5247 -44.5018,-2.7038 -68.2079,-12.1598 -79.2412,-41.8414 -11.0335,-29.6816 -9.3944,-79.5889 -10.517,-90.4527 3.5347,-28.4059 -1.4785,-83.1782 7.8767,-117.9979 9.3553,-34.8197 33.0788,-49.6866 101.3976,-48.2923 z"
       id="path4546-6-0"
       inkscape:connector-curvature="0"
       sodipodi:nodetypes="cssssscsc" />
    <path
       style="color:#000000;display:inline;overflow:visible;visibility:visible;fill:#ffffff;fill-opacity:1;fill-rule:nonzero;stroke:none;stroke-width:0.42099658px;marker:none;enable-background:accumulate"
       d="m 1469.188,1617.0216 c 37.6859,6.6194 56.968,-11.8085 50.1566,-25.6081 6.6734,-13.1752 20.5429,9.0453 20.5429,9.0453 0,0 5.2849,4.4444 3.513,7.3727 -5.2801,8.7255 -21.8669,27.1362 -74.2125,9.1901 z"
       id="path3072"
       inkscape:connector-curvature="0"
       sodipodi:nodetypes="cccsc" />
    <path
       style="color:#000000;display:inline;overflow:visible;visibility:visible;fill:#ffffff;fill-opacity:1;fill-rule:nonzero;stroke:none;stroke-width:0.89209217px;marker:none;enable-background:accumulate"
       d="m 1808.8641,1153.7666 c 36.9122,2.6907 72.5485,3.0769 94.215,38.6654 21.6666,35.5883 27.6651,98.2856 22.2834,177.0374 -2.8826,42.1839 -6.7678,95.3245 -21.7503,128.9627 -14.9826,33.6383 -41.0621,47.7741 -95.1262,44.3222 -54.0639,-3.452 -77.6849,-22.0802 -91.5715,-60.9381 -13.8869,-38.858 -18.0403,-97.9461 -19.5833,-112.1744 -1.5433,-14.2282 -0.2137,-58.358 6.0302,-102.1412 6.2439,-43.7832 10.6093,-73.7308 28.7236,-86.5726 22.94,-20.1315 49.9123,-28.3855 76.7791,-27.1614 z"
       id="path4546-6-2"
       inkscape:connector-curvature="0"
       sodipodi:nodetypes="cssssssscc" />
    <path
       style="color:#000000;display:inline;overflow:visible;visibility:visible;opacity:1;fill:#0f0f0f;fill-opacity:1;fill-rule:nonzero;stroke:none;stroke-width:1.0516063px;marker:none;filter:url(#filter3018-3-2-2-7-8);enable-background:accumulate"
       d="m 358.47331,252.02591 c 0.0466,-13.96188 7.39186,-41.05615 31.52516,-45.9295 24.82592,-5.01323 22.83162,-7.42647 50.82871,1.2048 18.17701,5.60381 27.31738,23.75479 27.84434,32.90879 0.26348,4.577 1.82858,62.61405 1.08046,81.43083 -0.74813,18.81679 -10.39305,52.60598 -22.33297,55.32455 -18.0305,4.10531 -7.61044,7.48563 -26.2623,6.88865 -18.65186,-0.59699 -37.41469,-2.83341 -48.54882,-7.63934 -7.64142,-3.29834 -16.92567,-32.34767 -16.38912,-47.99723 0.53656,-15.64955 2.79353,-70.6371 2.25454,-76.19155 z"
       id="path3986-3-7-0-1"
       inkscape:connector-curvature="0"
       sodipodi:nodetypes="cssssssssc"
       transform="matrix(-0.02464833,-0.97640344,1.0670645,-0.01858366,1464.8343,2836.9044)" />
    <path
       style="color:#000000;display:inline;overflow:visible;visibility:visible;fill:#ffffff;fill-opacity:1;fill-rule:nonzero;stroke:none;stroke-width:0.68008232px;marker:none;enable-background:accumulate"
       d="m 457.08441,1445.5214 c -43.35229,-27.646 -41.47786,-240.7305 16.7238,-275.9077 36.95815,-22.3376 193.11987,-33.9578 217.6048,9.645 22.67172,40.3738 44.03791,221.4476 -4.5719,273.3114 -67.21085,55.7849 -171.39581,28.9012 -229.7567,-7.0487 z"
       id="path4040-4-8"
       inkscape:connector-curvature="0"
       sodipodi:nodetypes="csscc" />
    <path
       style="color:#000000;display:inline;overflow:visible;visibility:visible;fill:#ffffff;fill-opacity:1;fill-rule:nonzero;stroke:none;stroke-width:0.6409241px;marker:none;enable-background:accumulate"
       d="m 720.86917,1436.6115 c -4.72227,-28.4511 -36.2617,-239.2676 12.65248,-280.2489 68.17645,-57.1195 175.93315,-18.1291 200.61805,9.2916 29.0515,32.2714 23.0416,222.7519 6.8482,268.1142 -15.4061,43.1578 -70.18509,58.7234 -121.43805,61.1392 -58.16684,2.7416 -93.95842,-29.8449 -98.68068,-58.2961 z"
       id="path4040-4-8-7"
       inkscape:connector-curvature="0"
       sodipodi:nodetypes="zssssz" />
    <path
       style="color:#000000;display:inline;overflow:visible;visibility:visible;fill:#ffffff;fill-opacity:1;fill-rule:nonzero;stroke:none;stroke-width:0.8955304px;marker:none;enable-background:accumulate"
       d="m 2272.505,1208.7618 c 43.4807,2.3019 85.4584,2.6323 110.9803,33.0779 25.5221,30.4455 32.5881,84.0824 26.2487,151.4539 -3.3955,36.0879 -7.9721,81.5492 -25.6207,110.3264 -17.6487,28.7773 -48.3689,40.8703 -112.0537,37.9172 -63.6843,-2.9531 -91.5086,-18.8894 -107.8664,-52.132 -16.358,-33.2426 -21.2505,-83.792 -23.0681,-95.9641 -1.8178,-12.1721 -0.2516,-49.9248 7.1034,-87.3809 7.3549,-37.4561 12.4972,-63.076 33.8348,-74.0621 27.0222,-17.2223 58.794,-24.2834 90.4417,-23.2363 z"
       id="path4546-6-2-8"
       inkscape:connector-curvature="0"
       sodipodi:nodetypes="cssssssscc" />
    <path
       style="color:#000000;display:inline;overflow:visible;visibility:visible;fill:#ffffff;fill-opacity:1;fill-rule:nonzero;stroke:none;stroke-width:0.62195301px;marker:none;enable-background:accumulate"
       d="m 1787.8443,1817.55 c 30.1977,1.5987 59.3515,1.8281 77.0767,22.9728 17.7253,21.1447 22.6327,58.3959 18.2299,105.186 -2.3582,25.0633 -5.5367,56.6365 -17.7938,76.6225 -12.2571,19.9861 -33.5925,28.3848 -77.8221,26.3338 -44.2293,-2.0509 -63.5535,-13.1188 -74.9141,-36.206 -11.3608,-23.0873 -14.7587,-58.1943 -16.021,-66.6479 -1.2625,-8.4536 -0.1747,-34.6732 4.9334,-60.6867 5.108,-26.0136 8.6794,-43.8068 23.4985,-51.4367 18.7671,-11.9611 40.8329,-16.865 62.8125,-16.1378 z"
       id="path4546-6-2-8-9"
       inkscape:connector-curvature="0"
       sodipodi:nodetypes="cssssssscc" />
  </g>
  <g
     inkscape:groupmode="layer"
     id="layer1"
     inkscape:label="txt">
    <text
       xml:space="preserve"
       style="font-style:normal;font-variant:normal;font-weight:normal;font-stretch:normal;line-height:0%;font-family:Lavi;-inkscape-font-specification:Lavi;text-align:center;letter-spacing:0px;word-spacing:0px;text-anchor:middle;fill:#000000;fill-opacity:1;stroke:none"
       x="288.99014"
       y="1242.6992"
       id="text4246"><tspan
         sodipodi:role="line"
         style="font-size:45px;line-height:1.20000005"
         x="296.9003"
         y="1242.6992"
         id="tspan881">Talaga ba? </tspan><tspan
         sodipodi:role="line"
         style="font-size:45px;line-height:1.20000005"
         x="296.9003"
         y="1296.6992"
         id="tspan4728">nakagawa siya </tspan><tspan
         sodipodi:role="line"
         style="font-size:45px;line-height:1.20000005"
         x="296.9003"
         y="1350.6992"
         id="tspan4588">ng higanteng </tspan><tspan
         sodipodi:role="line"
         style="font-size:45px;line-height:1.20000005"
         x="288.99014"
         y="1404.6992"
         id="tspan4736">chain-reaction</tspan><tspan
         sodipodi:role="line"
         style="font-size:45px;line-height:1.20000005"
         x="296.9003"
         y="1458.6992"
         id="tspan4776">? </tspan><tspan
         sodipodi:role="line"
         style="font-size:45px;line-height:1.20000005"
         x="288.99014"
         y="1476.1078"
         id="tspan883" /></text>
    <text
       xml:space="preserve"
       style="font-style:normal;font-variant:normal;font-weight:normal;font-stretch:normal;line-height:0%;font-family:Lavi;-inkscape-font-specification:Lavi;text-align:center;letter-spacing:0px;word-spacing:0px;text-anchor:middle;fill:#000000;fill-opacity:1;stroke:none"
       x="1501.2512"
       y="1430.4259"
       id="text4246-3"><tspan
         sodipodi:role="line"
         style="font-size:45px;line-height:1.20000005"
         x="1501.2512"
         y="1430.4259"
         id="tspan887">sigurado,</tspan><tspan
         sodipodi:role="line"
         style="font-size:45px;line-height:1.20000005"
         x="1501.2512"
         y="1484.4259"
         id="tspan4590">walang</tspan><tspan
         sodipodi:role="line"
         style="font-size:45px;line-height:1.20000005"
         x="1501.2512"
         y="1538.4259"
         id="tspan4778"> duda</tspan><tspan
         sodipodi:role="line"
         style="font-size:45px;line-height:1.20000005"
         x="1501.2512"
         y="1555.8345"
         id="tspan890" /></text>
    <text
       xml:space="preserve"
       style="font-style:normal;font-variant:normal;font-weight:normal;font-stretch:normal;font-size:10.40970707px;line-height:1;font-family:Lavi;-inkscape-font-specification:Lavi;text-align:center;letter-spacing:0px;word-spacing:0px;text-anchor:middle;fill:#000000;fill-opacity:1;stroke:none;stroke-width:0.86747557"
       x="2278.6013"
       y="1323.691"
       id="text4246-6"><tspan
         sodipodi:role="line"
         style="font-size:39.03639984px;line-height:1;stroke-width:0.86747557"
         x="2285.4631"
         y="1323.691"
         id="tspan4636">Mukhang </tspan><tspan
         sodipodi:role="line"
         style="font-size:39.03639984px;line-height:1;stroke-width:0.86747557"
         x="2285.4631"
         y="1362.7274"
         id="tspan4638">handa na ang </tspan><tspan
         sodipodi:role="line"
         style="font-size:39.03639984px;line-height:1;stroke-width:0.86747557"
         x="2285.4631"
         y="1401.7638"
         id="tspan4860">ating munting </tspan><tspan
         sodipodi:role="line"
         style="font-size:39.03639984px;line-height:1;stroke-width:0.86747557"
         x="2278.6013"
         y="1440.8003"
         id="tspan4640">Pepper</tspan></text>
    <text
       xml:space="preserve"
       style="color:#000000;font-style:normal;font-variant:normal;font-weight:normal;font-stretch:normal;font-size:13.80589771px;line-height:0.01%;font-family:Arial;-inkscape-font-specification:Arial;letter-spacing:0px;word-spacing:0px;display:inline;overflow:visible;visibility:visible;fill:#000000;fill-opacity:1;fill-rule:nonzero;stroke:#ffffff;stroke-width:12.78199959;stroke-miterlimit:4;stroke-dasharray:none;stroke-opacity:0.85350318;marker:none;paint-order:stroke markers fill;enable-background:accumulate"
       x="1402.5764"
       y="3015.6167"
       id="text1522"
       transform="matrix(0.73325907,-0.42022078,0.28304438,1.2015656,0,0)"><tspan
         sodipodi:role="line"
         x="1402.5764"
         y="3015.6167"
         id="tspan1520"
         style="fill:#000000;fill-opacity:1;stroke:#ffffff;stroke-width:12.78199959;stroke-miterlimit:4;stroke-dasharray:none;stroke-opacity:0.85350318;paint-order:stroke markers fill"><tspan
           x="1402.5764"
           y="3015.6167"
           style="color:#000000;font-style:normal;font-variant:normal;font-weight:normal;font-stretch:normal;font-size:73.6314621px;line-height:1.25;font-family:Lavi;-inkscape-font-specification:Lavi;text-align:center;text-anchor:middle;display:inline;overflow:visible;visibility:visible;fill:#000000;fill-opacity:1;fill-rule:nonzero;stroke:#ffffff;stroke-width:12.78199959;stroke-miterlimit:4;stroke-dasharray:none;stroke-opacity:0.85350318;marker:none;paint-order:stroke markers fill;enable-background:accumulate"
           id="tspan1518">Fwip!</tspan></tspan></text>
    <flowRoot
       xml:space="preserve"
       id="flowRoot2987-4-9-3-6-6-2-8-6-5-4"
       style="font-style:normal;font-variant:normal;font-weight:normal;font-stretch:normal;font-size:48.95590973px;line-height:0.01%;font-family:Lavi;-inkscape-font-specification:Lavi;text-align:center;letter-spacing:0px;word-spacing:0px;text-anchor:middle;opacity:1;fill:#000000;fill-opacity:1;stroke:none;stroke-width:0.72300833"
       transform="matrix(1.5214741,0,0,1.6400559,1119.1272,1928.0913)"><flowRegion
         id="flowRegion2989-5-4-5-0-1-8-4-1-2-9"
         style="font-size:48.95590973px;stroke-width:0.72300833"><rect
           id="rect2991-7-9-6-6-8-9-5-5-5-2"
           width="615.85046"
           height="407.77811"
           x="120.55251"
           y="265.53046"
           style="font-style:normal;font-variant:normal;font-weight:normal;font-stretch:normal;font-size:48.95590973px;font-family:Lavi;-inkscape-font-specification:Lavi;text-align:center;text-anchor:middle;stroke-width:0.72300833" /></flowRegion><flowPara
         style="font-style:normal;font-variant:normal;font-weight:normal;font-stretch:normal;font-size:48.95590973px;line-height:1.25;font-family:'Drukaatie burti';-inkscape-font-specification:'Drukaatie burti';text-align:center;text-anchor:middle;fill:#ffffff;fill-opacity:1;stroke-width:0.72300833"
         id="flowPara883">...</flowPara></flowRoot>    <text
       xml:space="preserve"
       style="font-style:normal;font-variant:normal;font-weight:normal;font-stretch:normal;line-height:0%;font-family:Lavi;-inkscape-font-specification:Lavi;letter-spacing:0px;word-spacing:0px;opacity:0.85700001;fill:#ffffff;fill-opacity:1;stroke:#98b9ca;stroke-width:0.95450699;stroke-miterlimit:4;stroke-dasharray:none;stroke-opacity:1;filter:url(#filter4375-4-1-1-1-9-5-8)"
       x="787.65729"
       y="1584.5073"
       id="text4580-6-0"
       transform="matrix(0.71047992,-0.09260253,-0.44793099,1.0912306,1024.5003,622.48095)"><tspan
         sodipodi:role="line"
         id="tspan4582-1-1"
         x="787.65729"
         y="1584.5073"
         style="font-size:70px;line-height:1.25;fill:#ffffff;fill-opacity:1;stroke:#98b9ca;stroke-width:0.95450699;stroke-opacity:1"><tspan
           style="font-size:93.14950562px;fill:#ffffff;fill-opacity:1;stroke:#98b9ca;stroke-width:0.95450699;stroke-opacity:1"
           id="tspan4315-8">Fshh<tspan
   style="font-size:72.14802551px;stroke-width:0.95450699"
   id="tspan1131">hh</tspan><tspan
   style="font-size:82.64876556px;stroke-width:0.95450699"
   id="tspan1133">!</tspan></tspan><tspan
           style="font-size:114.73223114px;fill:#ffffff;fill-opacity:1;stroke:#98b9ca;stroke-width:0.95450699;stroke-opacity:1"
           id="tspan4313-2">!</tspan></tspan></text>
    <text
       xml:space="preserve"
       style="font-style:normal;font-variant:normal;font-weight:normal;font-stretch:normal;font-size:43.85733414px;line-height:0%;font-family:Lavi;-inkscape-font-specification:'Lavi, Normal';font-variant-ligatures:normal;font-variant-caps:normal;font-variant-numeric:normal;font-feature-settings:normal;text-align:center;letter-spacing:0px;word-spacing:0px;writing-mode:lr-tb;text-anchor:middle;display:inline;fill:#241c1c;fill-opacity:1;stroke:#000000;stroke-width:0.82200003;stroke-miterlimit:4;stroke-dasharray:none;stroke-opacity:1"
       x="2414.4771"
       y="3318.4402"
       id="text4213"
       transform="matrix(0.96049651,0,-0.32716292,1.0411282,0,0)"><tspan
         sodipodi:role="line"
         id="tspan3562"
         x="2414.4771"
         y="3318.4402"
         style="font-style:normal;font-variant:normal;font-weight:normal;font-stretch:normal;font-size:43.85733414px;line-height:1.25;font-family:Lavi;-inkscape-font-specification:'Lavi, Normal';font-variant-ligatures:normal;font-variant-caps:normal;font-variant-numeric:normal;font-feature-settings:normal;text-align:center;writing-mode:lr-tb;text-anchor:middle;stroke-width:0.82200003">- THE CORONATION OF CORIANDER TRILOGY, THE END -</tspan></text>
    <text
       xml:space="preserve"
       style="font-style:normal;font-variant:normal;font-weight:normal;font-stretch:normal;line-height:0%;font-family:Lavi;-inkscape-font-specification:Lavi;text-align:center;letter-spacing:0px;word-spacing:0px;text-anchor:middle;fill:#ffffff;fill-opacity:1;stroke:none"
       x="1799.8876"
       y="645.26099"
       id="text4246-3-3"><tspan
         sodipodi:role="line"
         style="font-size:45px;line-height:1.20000005;fill:#ffffff"
         x="1799.8876"
         y="645.26099"
         id="tspan890-7">...</tspan></text>
    <text
       xml:space="preserve"
       style="font-style:normal;font-variant:normal;font-weight:normal;font-stretch:normal;line-height:0%;font-family:Lavi;-inkscape-font-specification:Lavi;text-align:center;letter-spacing:0px;word-spacing:0px;text-anchor:middle;fill:#ffffff;fill-opacity:1;stroke:none"
       x="2180.2473"
       y="381.82315"
       id="text4246-3-35"><tspan
         sodipodi:role="line"
         style="font-size:45px;line-height:1.20000005;fill:#ffffff"
         x="2180.2473"
         y="381.82315"
         id="tspan890-2">Magaling</tspan></text>
    <text
       xml:space="preserve"
       style="font-style:normal;font-variant:normal;font-weight:normal;font-stretch:normal;font-size:10.58985519px;line-height:0%;font-family:Lavi;-inkscape-font-specification:Lavi;text-align:center;letter-spacing:0px;word-spacing:0px;text-anchor:middle;fill:#000000;fill-opacity:1;stroke:none;stroke-width:0.88248795"
       x="577.81055"
       y="1283.4136"
       id="text4246-9"><tspan
         sodipodi:role="line"
         style="font-size:39.71195602px;line-height:1.20000005;stroke-width:0.88248795"
         x="584.79114"
         y="1283.4136"
         id="tspan4693">ngayong gabi </tspan><tspan
         sodipodi:role="line"
         style="font-size:39.71195602px;line-height:1.20000005;stroke-width:0.88248795"
         x="577.81055"
         y="1331.0679"
         id="tspan4724">ng tri-lunar</tspan><tspan
         sodipodi:role="line"
         style="font-size:39.71195602px;line-height:1.20000005;stroke-width:0.88248795"
         x="577.81055"
         y="1378.7223"
         id="tspan4726"> alignment?</tspan><tspan
         sodipodi:role="line"
         style="font-size:39.71195602px;line-height:1.20000005;stroke-width:0.88248795"
         x="577.81055"
         y="1394.0851"
         id="tspan4722" /></text>
    <text
       xml:space="preserve"
       style="font-style:normal;font-variant:normal;font-weight:normal;font-stretch:normal;line-height:0%;font-family:Lavi;-inkscape-font-specification:Lavi;text-align:center;letter-spacing:0px;word-spacing:0px;text-anchor:middle;fill:#000000;fill-opacity:1;stroke:none"
       x="828.93408"
       y="1237.1182"
       id="text4246-9-2"><tspan
         sodipodi:role="line"
         style="font-size:45px;line-height:1.20000005"
         x="836.84424"
         y="1237.1182"
         id="tspan883-6-6">nang </tspan><tspan
         sodipodi:role="line"
         style="font-size:45px;line-height:1.20000005"
         x="836.84424"
         y="1291.1182"
         id="tspan4732">walang </tspan><tspan
         sodipodi:role="line"
         style="font-size:45px;line-height:1.20000005;stroke:#000000"
         x="828.93408"
         y="1345.1182"
         id="tspan4693-1">kamalay</tspan><tspan
         sodipodi:role="line"
         style="font-size:45px;line-height:1.20000005;stroke:#000000"
         x="828.93408"
         y="1399.1182"
         id="tspan4734">-malay?</tspan></text>
    <text
       xml:space="preserve"
       style="font-style:normal;font-variant:normal;font-weight:normal;font-stretch:normal;line-height:0%;font-family:Lavi;-inkscape-font-specification:Lavi;text-align:center;letter-spacing:0px;word-spacing:0px;text-anchor:middle;fill:#000000;fill-opacity:1;stroke:none;stroke-width:2.9000001;stroke-miterlimit:4;stroke-dasharray:none"
       x="1787.8625"
       y="1890.7267"
       id="text4246-3-9"><tspan
         sodipodi:role="line"
         style="font-size:45px;line-height:1.20000005;stroke-width:2.9000001;stroke-miterlimit:4;stroke-dasharray:none"
         x="1795.7727"
         y="1890.7267"
         id="tspan4818">sa </tspan><tspan
         sodipodi:role="line"
         style="font-weight:bold;font-size:45px;line-height:1.20000005;fill:#000000;stroke:#000000;stroke-width:2.9000001;stroke-miterlimit:4;stroke-dasharray:none"
         x="1787.8625"
         y="1908.1353"
         id="tspan4862" /><tspan
         sodipodi:role="line"
         style="font-weight:bold;font-size:45px;line-height:1.20000005;fill:#000000;stroke:#000000;stroke-width:2.9000001;stroke-miterlimit:4;stroke-dasharray:none"
         x="1787.8625"
         y="1908.1353"
         id="tspan4896" /><tspan
         sodipodi:role="line"
         style="font-weight:bold;font-size:45px;line-height:1.20000005;fill:#ffffff;stroke:none;stroke-width:2.9000001;stroke-miterlimit:4;stroke-dasharray:none"
         x="1787.8625"
         y="1944.7267"
         id="tspan4898">m</tspan><tspan
         sodipodi:role="line"
         style="font-size:45px;line-height:1.20000005;stroke-width:2.9000001;stroke-miterlimit:4;stroke-dasharray:none"
         x="1787.8625"
         y="1998.7267"
         id="tspan4864">!!!</tspan></text>
    <text
       xml:space="preserve"
       style="font-style:normal;font-variant:normal;font-weight:normal;font-stretch:normal;line-height:0%;font-family:Lavi;-inkscape-font-specification:Lavi;text-align:center;letter-spacing:0px;word-spacing:0px;text-anchor:middle;fill:#000000;fill-opacity:1;stroke:none"
       x="1813.4613"
       y="1257.2709"
       id="text4246-3-9-7"><tspan
         sodipodi:role="line"
         style="font-size:45px;line-height:1.20000005"
         x="1821.3715"
         y="1257.2709"
         id="tspan890-3-5">Ladies, </tspan><tspan
         sodipodi:role="line"
         style="font-size:45px;line-height:1.20000005"
         x="1821.3715"
         y="1311.2709"
         id="tspan4820-9">Ito ang </tspan><tspan
         sodipodi:role="line"
         style="font-size:45px;line-height:1.20000005"
         x="1821.3715"
         y="1365.2709"
         id="tspan4822-2">kislap ng </tspan><tspan
         sodipodi:role="line"
         style="font-size:45px;line-height:1.20000005"
         x="1813.4613"
         y="1419.2709"
         id="tspan4818-2">TADHANA</tspan></text>
    <text
       xml:space="preserve"
       style="font-style:normal;font-weight:normal;font-size:43.92974854px;line-height:1.25;font-family:sans-serif;letter-spacing:0px;word-spacing:0px;fill:#000000;fill-opacity:1;stroke:none;stroke-width:3.0750823;stroke-miterlimit:4;stroke-dasharray:none"
       x="2797.5532"
       y="1987.8588"
       id="text4902"
       transform="matrix(0.9996627,-0.02596978,-0.54585363,1.0145179,0,0)"><tspan
         sodipodi:role="line"
         id="tspan4900"
         x="2797.5532"
         y="1987.8588"
         style="font-style:normal;font-variant:normal;font-weight:normal;font-stretch:normal;font-family:Lavi;-inkscape-font-specification:Lavi;stroke:#000000;stroke-width:3.0750823;stroke-miterlimit:4;stroke-dasharray:none">WAKAS</tspan></text>
  </g>
</svg>
