<?xml version="1.0" encoding="UTF-8" standalone="no"?>
<!-- Created with Inkscape (http://www.inkscape.org/) -->

<svg
   xmlns:dc="http://purl.org/dc/elements/1.1/"
   xmlns:cc="http://creativecommons.org/ns#"
   xmlns:rdf="http://www.w3.org/1999/02/22-rdf-syntax-ns#"
   xmlns:svg="http://www.w3.org/2000/svg"
   xmlns="http://www.w3.org/2000/svg"
   xmlns:xlink="http://www.w3.org/1999/xlink"
   xmlns:sodipodi="http://sodipodi.sourceforge.net/DTD/sodipodi-0.dtd"
   xmlns:inkscape="http://www.inkscape.org/namespaces/inkscape"
   id="svg2"
   version="1.1"
   inkscape:version="0.92.4 (5da689c313, 2019-01-14)"
   width="2481"
   height="3503"
   sodipodi:docname="E27P03.svg">
  <metadata
     id="metadata8">
    <rdf:RDF>
      <cc:Work
         rdf:about="">
        <dc:format>image/svg+xml</dc:format>
        <dc:type
           rdf:resource="http://purl.org/dc/dcmitype/StillImage" />
        <dc:title />
      </cc:Work>
    </rdf:RDF>
  </metadata>
  <defs
     id="defs6">
    <filter
       style="color-interpolation-filters:sRGB"
       id="filter4375-4-1-1-1-9"
       inkscape:label="deevad outline effect">
      <feFlood
         id="feFlood4377-7-9-0-8-1"
         flood-opacity="1"
         flood-color="rgb(0,0,0)"
         result="flood" />
      <feComposite
         id="feComposite4379-3-8-8-2-77"
         in2="SourceGraphic"
         in="flood"
         operator="in"
         result="composite1" />
      <feMorphology
         id="feMorphology4393-1-0-49-8-9"
         operator="dilate"
         radius="4"
         result="result3" />
      <feComposite
         id="feComposite4385-9-5-7-0-8"
         in2="result3"
         in="SourceGraphic"
         operator="over"
         result="composite2" />
    </filter>
    <filter
       style="color-interpolation-filters:sRGB"
       id="filter4375-4-1-1-1-9-5"
       inkscape:label="deevad outline effect">
      <feFlood
         id="feFlood4377-7-9-0-8-1-8"
         flood-opacity="1"
         flood-color="rgb(0,0,0)"
         result="flood" />
      <feComposite
         id="feComposite4379-3-8-8-2-77-0"
         in2="SourceGraphic"
         in="flood"
         operator="in"
         result="composite1" />
      <feMorphology
         id="feMorphology4393-1-0-49-8-9-0"
         operator="dilate"
         radius="4"
         result="result3" />
      <feComposite
         id="feComposite4385-9-5-7-0-8-0"
         in2="result3"
         in="SourceGraphic"
         operator="over"
         result="composite2" />
    </filter>
  </defs>
  <sodipodi:namedview
     pagecolor="#ffffff"
     bordercolor="#666666"
     borderopacity="1"
     objecttolerance="10"
     gridtolerance="10"
     guidetolerance="10"
     inkscape:pageopacity="0"
     inkscape:pageshadow="2"
     inkscape:window-width="1920"
     inkscape:window-height="1025"
     id="namedview4"
     showgrid="false"
     inkscape:zoom="0.60491494"
     inkscape:cx="1153.1842"
     inkscape:cy="1145.1044"
     inkscape:window-x="0"
     inkscape:window-y="26"
     inkscape:window-maximized="1"
     inkscape:current-layer="layer1"
     inkscape:snap-global="false" />
  <g
     inkscape:groupmode="layer"
     id="layer2"
     inkscape:label="artwork"
     sodipodi:insensitive="true">
    <image
       sodipodi:absref="/felles/omsetting/pepper-carrot/webcomics/ep27_Coriander-s-Invention/lang/nn/../gfx_Pepper-and-Carrot_by-David-Revoy_E27P03.png"
       xlink:href="../gfx_Pepper-and-Carrot_by-David-Revoy_E27P03.png"
       y="0"
       x="0"
       id="image10"
       height="3503"
       width="2481" />
  </g>
  <g
     inkscape:groupmode="layer"
     id="layer3"
     inkscape:label="speechbubbles">
    <path
       style="fill:#ffffff;fill-rule:evenodd;stroke:none;stroke-width:1.06538737px;stroke-linecap:butt;stroke-linejoin:miter;stroke-opacity:1"
       d="m 1189.5668,1576.2688 c 2.5244,-56.2679 0.946,-94.7289 21.1513,-108.3583 20.2056,-13.6292 173.7214,-14.0341 186.1056,-13.0002 12.3842,1.034 38.6463,7.3747 49.5367,4.1357 10.8903,-3.2389 42.4348,-4.2748 59.015,-0.4973 16.5801,3.7773 88.1942,4.2809 96.7494,15.525 8.5551,11.2443 29.9278,42.1844 29.535,76.7728 -0.3931,34.5882 -10.2127,52.7271 -20.6546,71.7985 -10.4419,19.0712 -47.9625,46.4923 -69.9472,45.7737 -21.9845,-0.7187 -95.3466,2.3971 -107.6901,2.8025 -12.3434,0.4053 -89.0246,7.2454 -115.083,8.1012 -26.0583,0.8557 -65.79,-12.6433 -92.4193,-31.9377 -26.6292,-19.2945 -36.2988,-71.1159 -36.2988,-71.1159 z"
       id="path263"
       inkscape:connector-curvature="0"
       sodipodi:nodetypes="ccccccccssccc" />
    <path
       style="fill:#ffffff;fill-rule:evenodd;stroke:none;stroke-width:1px;stroke-linecap:butt;stroke-linejoin:miter;stroke-opacity:1"
       d="m 1252.6692,1467.8179 c 0,0 -14.7372,-14.1832 -28.1318,-24.3459 -13.1591,-9.9839 -23.1743,-37.0399 -19.4243,-57.7963 -18.1089,29.447 -5.815,53.6299 11.889,81.0614 15.1315,24.8588 35.6671,1.0808 35.6671,1.0808 z"
       id="path265"
       inkscape:connector-curvature="0"
       sodipodi:nodetypes="csccc" />
    <path
       style="fill:#ffffff;fill-rule:evenodd;stroke:none;stroke-width:0.92811328px;stroke-linecap:butt;stroke-linejoin:miter;stroke-opacity:1"
       d="m 1945.1412,1858.982 c 23.0512,-32.1851 73.8499,-49.0215 113.6658,-49.9156 39.8157,-0.894 144.594,8.9403 179.1708,24.1389 34.5769,15.1984 66.553,32.9289 63.4097,76.7361 -3.1434,43.8076 -12.5735,89.4028 -18.8602,105.4955 -6.2867,16.0924 -26.1945,41.1253 -46.1024,55.4297 -19.9079,14.3044 -88.0138,17.8806 -112.1128,17.8806 -24.099,0 -107.9217,-10.7284 -125.734,-24.1389 -17.8123,-13.4103 -54.4847,-35.761 -60.7714,-75.9923 -6.2867,-40.2312 -3.1434,-105.4953 7.3345,-129.634 z"
       id="path267"
       inkscape:connector-curvature="0"
       sodipodi:nodetypes="csccccscsc" />
    <path
       style="fill:#ffffff;fill-rule:evenodd;stroke:none;stroke-width:1px;stroke-linecap:butt;stroke-linejoin:miter;stroke-opacity:1"
       d="m 1825.1743,1897.7489 c 53.571,-19.7367 111.3904,-9.3727 131.1271,16.0031 19.7367,25.3757 16.4282,45.0866 16.4282,45.0866 l -21.6164,9.3985 c 0,14.3171 5.8835,-17.1392 -7.2743,-30.7446 -12.9359,-13.376 -35.6882,-34.1046 -57.3046,-37.8639 -21.6164,-3.7594 -50.0819,-2.8196 -61.36,-1.8797 z"
       id="path269"
       inkscape:connector-curvature="0"
       sodipodi:nodetypes="ccccscc" />
    <path
       style="fill:#ffffff;fill-rule:evenodd;stroke:none;stroke-width:0.99999994px;stroke-linecap:butt;stroke-linejoin:miter;stroke-opacity:1"
       d="m 293.6058,2455.8403 c 24.70335,-15.385 60.49599,-24.5857 85.19935,-30.0157 24.70335,-5.43 58.05288,-0.905 74.11006,-1.81 16.05718,-0.9051 80.31151,1.5836 92.66319,2.4886 12.35168,0.905 54.29937,1.3387 70.35652,2.2437 39.5558,13.1788 45.54207,26.855 59.24485,40.1591 9.88453,9.5969 23.46016,30.2236 30.89519,54.6963 -3.6959,31.4861 -6.7702,37.3313 -38.88457,47.2864 -32.11436,9.955 -61.73276,2.8663 -119.78565,4.6763 -58.05289,1.81 -163.69255,4.506 -176.04421,4.506 -12.35169,0 -73.48689,1.4894 -99.42541,-21.1357 -25.93853,-22.6249 -17.25712,-38.029 -13.55163,-60.654 3.70551,-22.6251 35.22231,-42.441 35.22231,-42.441 z"
       id="path271"
       inkscape:connector-curvature="0"
       sodipodi:nodetypes="cscscsccsscsc" />
    <path
       style="fill:#ffffff;fill-rule:evenodd;stroke:none;stroke-width:1px;stroke-linecap:butt;stroke-linejoin:miter;stroke-opacity:1"
       d="m 549.40558,2537.6802 c 0,0 -6.17962,51.5098 -4.9437,62.6043 1.23593,11.0944 12.35924,61.8117 19.77478,74.491 -19.15682,-28.5284 -31.51605,-65.774 -33.9879,-78.4533 -2.47184,-12.6794 -1.23592,-64.1892 -1.23592,-64.1892 z"
       id="path273"
       inkscape:connector-curvature="0" />
    <path
       style="fill:#ffffff;fill-rule:evenodd;stroke:none;stroke-width:1px;stroke-linecap:butt;stroke-linejoin:miter;stroke-opacity:1"
       d="m 892.80986,2397.2192 c 34.39477,-5.6852 26.45751,7.8173 56.2222,7.1066 29.7647,-0.7106 90.61694,-7.8172 105.16864,-14.2131 7.9372,-3.5533 8.5987,2.132 8.5987,2.132 0,0 24.4732,1.4213 29.1032,2.8426 4.63,1.4213 22.4889,10.6598 29.1032,8.5279 6.6145,-2.132 17.8588,-5.6853 17.8588,-5.6853 0,0 -0.6613,47.614 -1.3228,51.1672 -0.6614,3.5533 -5.2915,30.5582 -5.2915,39.7968 0,9.2385 3.9686,23.4516 3.3071,27.7156 -0.6613,4.2639 8.5988,14.9237 8.5988,14.9237 l -25.1347,0.7107 -17.1973,2.132 -7.2758,-2.132 -31.0877,2.8426 -17.8588,0.7107 1.3229,-4.264 -76.72673,4.264 3.30719,-6.3959 -26.4575,1.4213 -9.92157,6.3959 -3.30719,-5.6853 -22.48888,0.7107 -11.90588,6.3959 6.61437,-13.5025 -9.92156,-7.8172 -1.98431,-104.4664 5.95294,-4.264 z"
       id="path275"
       inkscape:connector-curvature="0" />
    <path
       style="fill:#ffffff;fill-rule:evenodd;stroke:none;stroke-width:1px;stroke-linecap:butt;stroke-linejoin:miter;stroke-opacity:1"
       d="m 1118.5743,2437.016 c 28.1996,-4.9746 46.9993,9.2385 53.8927,7.8172 6.8933,-1.4213 29.453,-10.6598 36.9729,-9.9492 7.5199,0.7107 55.1461,8.5279 69.5592,5.6853 14.4131,-2.8427 46.3728,0 51.3861,-0.7107 5.0131,-0.7106 25.0663,-14.2131 30.7063,-14.2131 5.6399,0 15.0397,6.3959 35.7196,-9.2385 -8.7733,18.477 -13.7865,31.2688 -13.7865,31.2688 0,0 21.933,-7.1065 30.7062,-7.1065 8.7733,0 15.6666,3.5532 20.0531,1.4213 4.3866,-2.132 28.1997,-2.8426 31.9597,-2.8426 3.76,0 13.1597,-3.5533 17.5464,-3.5533 4.3867,0 44.4929,4.2639 50.1328,4.2639 5.6399,0 58.2793,-7.1066 63.9192,-7.1066 5.6399,0 31.333,2.132 41.9863,-2.8426 1.2532,14.2131 -2.5067,48.3246 -2.5067,56.1418 0,7.8173 0.6266,17.7664 0.6266,24.1624 -9.3998,7.1065 -16.2932,21.3196 -16.2932,21.3196 0,0 15.6666,3.5533 20.0531,0.7107 4.3866,-2.8426 1.88,52.5885 2.5067,63.2484 0.6267,10.6598 -7.5199,0.7106 -7.5199,0.7106 0,0 -1.2533,7.8172 -6.2666,9.2386 -5.0132,1.4213 -93.3722,-0.7107 -103.3987,-0.7107 -10.0267,0 -13.16,3.5533 -13.16,3.5533 h -43.2395 l -1.2533,-6.3959 -19.4264,4.2639 -26.3197,4.9746 -15.6665,3.5533 -8.7731,-2.8426 -43.2396,0.7106 -37.5995,1.4213 9.3998,-10.6598 -97.7588,7.8172 -45.1195,1.4213 -41.3595,6.3959 -8.1466,-22.741 -4.3867,-49.0352 c 0,0 -2.5066,-13.5026 4.3867,-15.6345 6.8933,-2.1319 -5.0133,-4.2639 -6.2666,-17.0557 -1.2534,-12.7918 -5.0132,-45.482 -5.0132,-45.482 l 8.1465,-2.8426 -10.0265,-7.1066 z"
       id="path277"
       inkscape:connector-curvature="0" />
    <path
       style="fill:#ffffff;fill-rule:evenodd;stroke:none;stroke-width:0.99999994px;stroke-linecap:butt;stroke-linejoin:miter;stroke-opacity:1"
       d="m 1263.3521,2751.2587 c 32.6788,-36.3054 55.3539,-80.3905 55.3539,-94.0051 8.6697,12.9662 8.0028,10.373 8.0028,10.373 0,0 14.6721,-38.8987 14.0051,-62.8862 -0.6667,-23.9875 26.6766,-24.6358 30.0111,-19.4493 3.3345,5.1864 9.47,23.9875 9.47,23.9875 l -4.1347,13.6145 -4.0015,-3.2415 c 0,0 -15.3389,40.1952 -17.3397,44.7334 -2.0008,4.5382 -10.6705,23.9876 -10.6705,23.9876 l -2.6677,-11.6696 -14.6721,10.373 0.6669,16.2077 -8.003,-7.1314 c 0,0 -0.6667,9.7247 -4.0014,14.9112 -3.3346,5.1864 -24.0089,27.8774 -26.6765,31.1189 -2.6676,3.2415 -25.3427,9.0763 -25.3427,9.0763 z"
       id="path279"
       inkscape:connector-curvature="0" />
    <path
       style="fill:#ffffff;fill-rule:evenodd;stroke:none;stroke-width:0.99999994px;stroke-linecap:butt;stroke-linejoin:miter;stroke-opacity:1"
       d="m 1871.6044,2418.7438 7.1901,7.183 36.5274,-4.2187 7.3049,-8.1676 c 0,0 16.2327,8.1676 21.1025,5.4451 4.8698,-2.7226 24.3491,-4.5376 24.3491,-4.5376 l 7.3048,7.2601 17.856,-2.7225 c 0,0 41.3937,7.2601 51.1333,6.3525 9.7398,-0.9074 26.7841,-9.9825 26.7841,-9.9825 0,0 33.2773,9.9825 38.1471,8.1675 4.8697,-1.815 13.7978,-2.7224 13.7978,-2.7224 l 10.5513,19.9653 c 0,0 21.1026,-19.0579 21.1026,-28.133 13.7979,-0.9076 32.4655,0 35.7121,-1.8151 3.2466,-1.815 4.8699,10.8902 4.8699,10.8902 l 9.7396,6.3526 c 0,0 24.3491,-19.9653 26.7841,-23.5953 2.435,-3.6301 18.6677,-2.7227 18.6677,-2.7227 0,0 22.7259,0.9076 25.9725,0 3.2464,-0.9074 17.0443,0.9076 29.219,1.815 12.1746,0.9077 24.3491,0.9077 33.2772,-2.7224 2.4349,15.4277 0,70.7862 -0.8118,77.1388 -8.928,15.4277 -17.856,44.4683 -25.1607,49.9134 19.4794,-10.8903 19.4794,-14.5203 26.784,-21.7804 -0.8115,22.6879 -7.3046,70.7861 -8.1163,76.2313 12.9862,-11.7977 11.363,-9.0752 9.7397,-4.5376 -1.6234,4.5376 -6.4932,18.1503 -8.1165,29.0404 -1.6232,10.8902 0,24.503 -1.6232,31.7631 -1.6233,7.2602 -3.2465,17.2429 -3.2465,17.2429 0,0 -32.4657,10.8901 -38.1472,12.7052 -5.6814,1.815 -56.0029,1.815 -68.9892,1.815 -12.9863,0 -32.4656,2.7225 -41.3936,1.815 4.8699,-9.9826 8.1165,-17.2428 8.1165,-17.2428 0,0 -40.582,4.5376 -50.3216,6.3527 -9.7398,1.815 -50.3218,-8.1677 -59.2498,-7.2601 -8.928,0.9074 -58.438,2.7224 -71.4242,3.63 -12.9861,0.9074 -45.4517,2.7225 -57.6262,5.4451 -12.1746,2.7225 -48.6985,4.5375 -56.8148,4.5375 -8.1165,0 -23.5376,0.9076 -23.5376,0.9076 0,0 -1.6232,-32.6705 -1.6232,-44.4683 0,-11.7977 -4.0583,-69.8787 -0.8117,-76.2313 3.2465,-6.3527 5.6815,-50.8209 5.6815,-55.3584 0,-4.5376 -7.6579,-39.4472 -7.6579,-39.4472 z"
       id="path283"
       inkscape:connector-curvature="0"
       sodipodi:nodetypes="ccccscccccsccccccccccccccccccccscccccsscssscc" />
    <path
       style="fill:#ffffff;fill-rule:evenodd;stroke:none;stroke-width:0.99999994px;stroke-linecap:butt;stroke-linejoin:miter;stroke-opacity:1"
       d="m 1928.0456,2832.7023 c -13.1433,-30.6118 9.2927,-109.1953 20.1114,-126.6745 0,-10.6243 -4.641,-22.8831 -4.641,-22.8831 0,0 -11.6028,4.9035 -14.6968,10.6243 -3.0941,5.7208 13.1497,-34.3247 22.4319,-40.8627 9.2823,-6.538 -6.9616,-37.5937 -6.9616,-37.5937 0,0 -31.7143,26.1521 -33.2613,37.5937 -1.547,11.4416 -10.0557,70.2839 -6.1881,80.9082 3.8676,10.6243 6.1881,4.9035 9.2821,0.8172 3.0942,-4.0862 11.6029,-12.2588 16.244,-15.5278 -7.7353,19.6141 -20.1115,84.1772 -2.3206,113.5984 z"
       id="path285"
       inkscape:connector-curvature="0"
       sodipodi:nodetypes="ccccccssccc" />
  </g>
  <g
     inkscape:groupmode="layer"
     id="layer1"
     inkscape:label="txt">
    <text
       xml:space="preserve"
       style="font-style:normal;font-variant:normal;font-weight:normal;font-stretch:normal;line-height:0%;font-family:Lavi;-inkscape-font-specification:Lavi;text-align:center;letter-spacing:0px;word-spacing:0px;text-anchor:middle;fill:#000000;fill-opacity:1;stroke:none"
       x="1403.3555"
       y="1522.687"
       id="text4246"><tspan
         sodipodi:role="line"
         style="font-size:45px;line-height:1.20000005"
         x="1403.3555"
         y="1522.687"
         id="tspan794">Det er ein spesiell</tspan><tspan
         sodipodi:role="line"
         style="font-size:45px;line-height:1.20000005"
         x="1403.3555"
         y="1576.687"
         id="tspan871">grunn til at eg</tspan><tspan
         sodipodi:role="line"
         style="font-size:45px;line-height:1.20000005"
         x="1403.3555"
         y="1630.687"
         id="tspan868">ville laga henne.</tspan></text>
    <text
       xml:space="preserve"
       style="font-style:normal;font-variant:normal;font-weight:normal;font-stretch:normal;line-height:0%;font-family:Lavi;-inkscape-font-specification:Lavi;text-align:center;letter-spacing:0px;word-spacing:0px;text-anchor:middle;fill:#000000;fill-opacity:1;stroke:none"
       x="2117.3333"
       y="1880.3798"
       id="text4246-3"><tspan
         sodipodi:role="line"
         style="font-size:45px;line-height:1.20000005"
         x="2117.3333"
         y="1880.3798"
         id="tspan66">Det heng</tspan><tspan
         sodipodi:role="line"
         style="font-size:45px;line-height:1.20000005"
         x="2117.3333"
         y="1934.3798"
         id="tspan886">saman med</tspan><tspan
         sodipodi:role="line"
         style="font-size:45px;line-height:1.20000005"
         x="2117.3333"
         y="1988.3798"
         id="tspan884">uroa mi rundt</tspan><tspan
         sodipodi:role="line"
         style="font-size:45px;line-height:1.20000005"
         x="2117.3333"
         y="2042.3798"
         id="tspan880">kroninga.</tspan></text>
    <text
       xml:space="preserve"
       style="font-style:normal;font-variant:normal;font-weight:normal;font-stretch:normal;line-height:0%;font-family:Lavi;-inkscape-font-specification:Lavi;text-align:center;letter-spacing:0px;word-spacing:0px;text-anchor:middle;fill:#000000;fill-opacity:1;stroke:none"
       x="473.84198"
       y="2485.2185"
       id="text4246-3-3"><tspan
         sodipodi:role="line"
         style="font-size:45px;line-height:1.20000005"
         x="473.84198"
         y="2485.2185"
         id="tspan113">Hels på den</tspan><tspan
         sodipodi:role="line"
         style="font-size:45px;line-height:1.20000005"
         x="473.84198"
         y="2539.2185"
         id="tspan893">nye oppfinninga ...</tspan></text>
    <text
       xml:space="preserve"
       style="font-style:normal;font-variant:normal;font-weight:normal;font-stretch:normal;line-height:0%;font-family:Lavi;-inkscape-font-specification:Lavi;text-align:center;letter-spacing:0px;word-spacing:0px;text-anchor:middle;fill:#000000;fill-opacity:1;stroke:none"
       x="1029.3394"
       y="2460.7529"
       id="text4246-3-3-2"><tspan
         sodipodi:role="line"
         style="font-style:normal;font-variant:normal;font-weight:normal;font-stretch:normal;font-size:32px;line-height:1.39999998;font-family:'Press Start 2P';-inkscape-font-specification:'Press Start 2P'"
         x="1029.3394"
         y="2460.7529"
         id="tspan113-9">Hei,</tspan><tspan
         sodipodi:role="line"
         style="font-style:normal;font-variant:normal;font-weight:normal;font-stretch:normal;font-size:32px;line-height:1.39999998;font-family:'Press Start 2P';-inkscape-font-specification:'Press Start 2P'"
         x="1029.3394"
         y="2505.553"
         id="tspan144">verda.</tspan></text>
    <text
       xml:space="preserve"
       style="font-style:normal;font-variant:normal;font-weight:normal;font-stretch:normal;line-height:0%;font-family:Lavi;-inkscape-font-specification:Lavi;text-align:center;letter-spacing:0px;word-spacing:0px;text-anchor:middle;fill:#000000;fill-opacity:1;stroke:none"
       x="1387.948"
       y="2495.7439"
       id="text4246-3-3-2-2"><tspan
         sodipodi:role="line"
         style="font-style:normal;font-variant:normal;font-weight:normal;font-stretch:normal;font-size:32px;line-height:1.39999998;font-family:'Press Start 2P';-inkscape-font-specification:'Press Start 2P'"
         x="1387.948"
         y="2495.7439"
         id="tspan144-3">Eg er din nye</tspan><tspan
         sodipodi:role="line"
         style="font-style:normal;font-variant:normal;font-weight:normal;font-stretch:normal;font-size:32px;line-height:1.39999998;font-family:'Press Start 2P';-inkscape-font-specification:'Press Start 2P'"
         x="1387.948"
         y="2540.5439"
         id="tspan171">PSYKOLOG-BOT.</tspan><tspan
         sodipodi:role="line"
         style="font-style:normal;font-variant:normal;font-weight:normal;font-stretch:normal;font-size:32px;line-height:1.39999998;font-family:'Press Start 2P';-inkscape-font-specification:'Press Start 2P'"
         x="1387.948"
         y="2585.344"
         id="tspan887">Blipp, blopp!</tspan></text>
    <text
       xml:space="preserve"
       style="font-style:normal;font-variant:normal;font-weight:normal;font-stretch:normal;line-height:0%;font-family:Lavi;-inkscape-font-specification:Lavi;text-align:center;letter-spacing:0px;word-spacing:0px;text-anchor:middle;fill:#000000;fill-opacity:1;stroke:none"
       x="2105.4482"
       y="2490.2014"
       id="text4246-3-3-2-2-7"><tspan
         sodipodi:role="line"
         style="font-style:normal;font-variant:normal;font-weight:normal;font-stretch:normal;font-size:32px;line-height:1.29999995;font-family:'Press Start 2P';-inkscape-font-specification:'Press Start 2P'"
         x="2105.4482"
         y="2490.2014"
         id="tspan208">Legg deg ned</tspan><tspan
         sodipodi:role="line"
         style="font-style:normal;font-variant:normal;font-weight:normal;font-stretch:normal;font-size:32px;line-height:1.29999995;font-family:'Press Start 2P';-inkscape-font-specification:'Press Start 2P'"
         x="2105.4482"
         y="2531.8015"
         id="tspan915">på divanen</tspan><tspan
         sodipodi:role="line"
         style="font-style:normal;font-variant:normal;font-weight:normal;font-stretch:normal;font-size:32px;line-height:1.29999995;font-family:'Press Start 2P';-inkscape-font-specification:'Press Start 2P'"
         x="2105.4482"
         y="2573.4014"
         id="tspan917">for ei gratis</tspan><tspan
         sodipodi:role="line"
         style="font-style:normal;font-variant:normal;font-weight:normal;font-stretch:normal;font-size:32px;line-height:1.29999995;font-family:'Press Start 2P';-inkscape-font-specification:'Press Start 2P'"
         x="2105.4482"
         y="2615.0015"
         id="tspan919">undersøking.</tspan></text>
    <text
       xml:space="preserve"
       style="font-style:normal;font-variant:normal;font-weight:normal;font-stretch:normal;line-height:0%;font-family:Lavi;-inkscape-font-specification:Lavi;letter-spacing:0px;word-spacing:0px;fill:#000000;fill-opacity:1;stroke:#000000;stroke-width:2.15795588;stroke-miterlimit:4;stroke-dasharray:none;stroke-opacity:1;filter:url(#filter4375-4-1-1-1-9)"
       x="787.65729"
       y="1584.5073"
       id="text4580"
       transform="matrix(0.46879428,-0.12606586,-0.08654633,0.61214652,623.13411,2085.4411)"><tspan
         sodipodi:role="line"
         id="tspan4582"
         x="787.65729"
         y="1584.5073"
         style="font-style:normal;font-variant:normal;font-weight:bold;font-stretch:normal;font-size:80.40014648px;line-height:1.25;font-family:Lavi;-inkscape-font-specification:'Lavi Bold';fill:#ffffff;stroke-width:2.15795588">Klikk!</tspan></text>
    <text
       xml:space="preserve"
       style="font-style:normal;font-variant:normal;font-weight:normal;font-stretch:normal;line-height:0%;font-family:Lavi;-inkscape-font-specification:Lavi;letter-spacing:0px;word-spacing:0px;fill:#000000;fill-opacity:1;stroke:#000000;stroke-width:2.15795588;stroke-miterlimit:4;stroke-dasharray:none;stroke-opacity:1;filter:url(#filter4375-4-1-1-1-9-5)"
       x="787.65729"
       y="1584.5073"
       id="text4580-4"
       transform="matrix(0.46879428,-0.12606586,-0.08654633,0.61214652,2015.4955,2071.5503)"><tspan
         sodipodi:role="line"
         id="tspan4582-7"
         x="787.65729"
         y="1584.5073"
         style="font-style:normal;font-variant:normal;font-weight:bold;font-stretch:normal;font-size:80.40014648px;line-height:1.25;font-family:Lavi;-inkscape-font-specification:'Lavi Bold';fill:#ffffff;stroke-width:2.15795588">Klapp!</tspan></text>
  </g>
</svg>
